{
  "talkId": 6201103,
  "KPGKDHAFHFE": "FREE",
  "dialogList": [
    {
      "id": 620110301,
      "nextDialogs": [
        620110302
      ],
      "talkRole": {
        "type": "TALK_ROLE_PLAYER",
        "_id": ""
      },
      "talkContentTextMapHash": 3541398423,
      "talkAssetPath": "",
      "talkAssetPathAlter": "",
      "talkAudioName": "",
      "actionBefore": "",
      "actionWhile": "",
      "actionAfter": "",
      "optionIcon": "",
      "iconPath": ""
    },
    {
      "id": 620110302,
      "nextDialogs": [
        620110303
      ],
      "talkRole": {
        "type": "TALK_ROLE_NPC",
        "_id": "2011"
      },
      "talkContentTextMapHash": 2379660239,
      "talkAssetPath": "",
      "talkAssetPathAlter": "",
      "talkAudioName": "",
      "actionBefore": "",
      "actionWhile": "",
      "actionAfter": "",
      "optionIcon": "",
      "iconPath": ""
    },
    {
      "id": 620110303,
      "nextDialogs": [
        620110304
      ],
      "talkRole": {
        "type": "TALK_ROLE_NPC",
        "_id": "2011"
      },
      "talkContentTextMapHash": 7189303,
      "talkAssetPath": "",
      "talkAssetPathAlter": "",
      "talkAudioName": "",
      "actionBefore": "",
      "actionWhile": "",
      "actionAfter": "",
      "optionIcon": "",
      "iconPath": ""
    },
    {
      "id": 620110304,
      "nextDialogs": [
        620110305
      ],
      "talkRole": {
        "type": "TALK_ROLE_NPC",
        "_id": "2011"
      },
      "talkContentTextMapHash": 1492622135,
      "talkAssetPath": "",
      "talkAssetPathAlter": "",
      "talkAudioName": "",
      "actionBefore": "",
      "actionWhile": "",
      "actionAfter": "",
      "optionIcon": "",
      "iconPath": ""
    },
    {
      "id": 620110305,
      "talkRole": {
        "type": "TALK_ROLE_NPC",
        "_id": "2011"
      },
      "talkContentTextMapHash": 3871224087,
      "talkAssetPath": "",
      "talkAssetPathAlter": "",
      "talkAudioName": "",
      "actionBefore": "",
      "actionWhile": "",
      "actionAfter": "",
      "optionIcon": "",
      "iconPath": ""
    }
  ]
}