{
  "talkId": 6201015,
  "KPGKDHAFHFE": "FREE",
  "dialogList": [
    {
      "id": 620101501,
      "nextDialogs": [
        620101502
      ],
      "talkShowType": "TALK_SHOW_FORCE_SELECT",
      "talkRole": {
        "type": "TALK_ROLE_PLAYER",
        "_id": ""
      },
      "talkContentTextMapHash": 2682451071,
      "talkAssetPath": "",
      "talkAssetPathAlter": "",
      "talkAudioName": "",
      "actionBefore": "",
      "actionWhile": "",
      "actionAfter": "",
      "optionIcon": "",
      "iconPath": ""
    },
    {
      "id": 620101502,
      "talkRole": {
        "type": "TALK_ROLE_NPC",
        "_id": "2010"
      },
      "talkContentTextMapHash": 540850439,
      "talkAssetPath": "",
      "talkAssetPathAlter": "",
      "talkAudioName": "",
      "actionBefore": "",
      "actionWhile": "",
      "actionAfter": "",
      "optionIcon": "",
      "iconPath": ""
    }
  ]
}