{
  "talkId": 6201108,
  "KPGKDHAFHFE": "FREE",
  "dialogList": [
    {
      "id": 620110801,
      "nextDialogs": [
        620110802
      ],
      "talkRole": {
        "type": "TALK_ROLE_PLAYER",
        "_id": ""
      },
      "talkContentTextMapHash": 4017205215,
      "talkAssetPath": "",
      "talkAssetPathAlter": "",
      "talkAudioName": "",
      "actionBefore": "",
      "actionWhile": "",
      "actionAfter": "",
      "optionIcon": "",
      "iconPath": ""
    },
    {
      "id": 620110802,
      "talkRole": {
        "type": "TALK_ROLE_NPC",
        "_id": "2011"
      },
      "talkContentTextMapHash": 3891967223,
      "talkAssetPath": "",
      "talkAssetPathAlter": "",
      "talkAudioName": "",
      "actionBefore": "",
      "actionWhile": "",
      "actionAfter": "",
      "optionIcon": "",
      "iconPath": ""
    }
  ]
}