{
  "talkId": 6201014,
  "KPGKDHAFHFE": "FREE",
  "dialogList": [
    {
      "id": 620101401,
      "nextDialogs": [
        620101402
      ],
      "talkShowType": "TALK_SHOW_FORCE_SELECT",
      "talkRole": {
        "type": "TALK_ROLE_PLAYER",
        "_id": ""
      },
      "talkContentTextMapHash": 2958873631,
      "talkAssetPath": "",
      "talkAssetPathAlter": "",
      "talkAudioName": "",
      "actionBefore": "",
      "actionWhile": "",
      "actionAfter": "",
      "optionIcon": "",
      "iconPath": ""
    },
    {
      "id": 620101402,
      "nextDialogs": [
        620101403
      ],
      "talkRole": {
        "type": "TALK_ROLE_NPC",
        "_id": "2010"
      },
      "talkContentTextMapHash": 2431707895,
      "talkAssetPath": "",
      "talkAssetPathAlter": "",
      "talkAudioName": "",
      "actionBefore": "",
      "actionWhile": "",
      "actionAfter": "",
      "optionIcon": "",
      "iconPath": ""
    },
    {
      "id": 620101403,
      "nextDialogs": [
        620101404
      ],
      "talkRole": {
        "type": "TALK_ROLE_NPC",
        "_id": "2010"
      },
      "talkContentTextMapHash": 2861732559,
      "talkAssetPath": "",
      "talkAssetPathAlter": "",
      "talkAudioName": "",
      "actionBefore": "",
      "actionWhile": "",
      "actionAfter": "",
      "optionIcon": "",
      "iconPath": ""
    },
    {
      "id": 620101404,
      "nextDialogs": [
        620101405
      ],
      "talkRole": {
        "type": "TALK_ROLE_NPC",
        "_id": "2010"
      },
      "talkContentTextMapHash": 147220455,
      "talkAssetPath": "",
      "talkAssetPathAlter": "",
      "talkAudioName": "",
      "actionBefore": "",
      "actionWhile": "",
      "actionAfter": "",
      "optionIcon": "",
      "iconPath": ""
    },
    {
      "id": 620101405,
      "nextDialogs": [
        620101406
      ],
      "talkRole": {
        "type": "TALK_ROLE_NPC",
        "_id": "2010"
      },
      "talkContentTextMapHash": 2566359031,
      "talkAssetPath": "",
      "talkAssetPathAlter": "",
      "talkAudioName": "",
      "actionBefore": "",
      "actionWhile": "",
      "actionAfter": "",
      "optionIcon": "",
      "iconPath": ""
    },
    {
      "id": 620101406,
      "nextDialogs": [
        620101407
      ],
      "talkRole": {
        "type": "TALK_ROLE_NPC",
        "_id": "2010"
      },
      "talkContentTextMapHash": 4261657367,
      "talkAssetPath": "",
      "talkAssetPathAlter": "",
      "talkAudioName": "",
      "actionBefore": "",
      "actionWhile": "",
      "actionAfter": "",
      "optionIcon": "",
      "iconPath": ""
    },
    {
      "id": 620101407,
      "nextDialogs": [
        620101408
      ],
      "talkRole": {
        "type": "TALK_ROLE_NPC",
        "_id": "2010"
      },
      "talkContentTextMapHash": 1991604591,
      "talkAssetPath": "",
      "talkAssetPathAlter": "",
      "talkAudioName": "",
      "actionBefore": "",
      "actionWhile": "",
      "actionAfter": "",
      "optionIcon": "",
      "iconPath": ""
    },
    {
      "id": 620101408,
      "nextDialogs": [
        620101409
      ],
      "talkShowType": "TALK_SHOW_FORCE_SELECT",
      "talkRole": {
        "type": "TALK_ROLE_PLAYER",
        "_id": ""
      },
      "talkContentTextMapHash": 704789175,
      "talkAssetPath": "",
      "talkAssetPathAlter": "",
      "talkAudioName": "",
      "actionBefore": "",
      "actionWhile": "",
      "actionAfter": "",
      "optionIcon": "",
      "iconPath": ""
    },
    {
      "id": 620101409,
      "nextDialogs": [
        620101410
      ],
      "talkRole": {
        "type": "TALK_ROLE_NPC",
        "_id": "2010"
      },
      "talkContentTextMapHash": 353545455,
      "talkAssetPath": "",
      "talkAssetPathAlter": "",
      "talkAudioName": "",
      "actionBefore": "",
      "actionWhile": "",
      "actionAfter": "",
      "optionIcon": "",
      "iconPath": ""
    },
    {
      "id": 620101410,
      "nextDialogs": [
        620101411
      ],
      "talkRole": {
        "type": "TALK_ROLE_NPC",
        "_id": "2010"
      },
      "talkContentTextMapHash": 628743183,
      "talkAssetPath": "",
      "talkAssetPathAlter": "",
      "talkAudioName": "",
      "actionBefore": "",
      "actionWhile": "",
      "actionAfter": "",
      "optionIcon": "",
      "iconPath": ""
    },
    {
      "id": 620101411,
      "nextDialogs": [
        620101412
      ],
      "talkRole": {
        "type": "TALK_ROLE_NPC",
        "_id": "2010"
      },
      "talkContentTextMapHash": 2957496247,
      "talkAssetPath": "",
      "talkAssetPathAlter": "",
      "talkAudioName": "",
      "actionBefore": "",
      "actionWhile": "",
      "actionAfter": "",
      "optionIcon": "",
      "iconPath": ""
    },
    {
      "id": 620101412,
      "nextDialogs": [
        620101413,
        620101424
      ],
      "talkRole": {
        "type": "TALK_ROLE_NPC",
        "_id": "2010"
      },
      "talkContentTextMapHash": 1840338599,
      "talkAssetPath": "",
      "talkAssetPathAlter": "",
      "talkAudioName": "",
      "actionBefore": "",
      "actionWhile": "",
      "actionAfter": "",
      "optionIcon": "",
      "iconPath": ""
    },
    {
      "id": 620101413,
      "nextDialogs": [
        620101414
      ],
      "talkShowType": "TALK_SHOW_FORCE_SELECT",
      "talkRole": {
        "type": "TALK_ROLE_PLAYER",
        "_id": ""
      },
      "talkContentTextMapHash": 758885495,
      "talkAssetPath": "",
      "talkAssetPathAlter": "",
      "talkAudioName": "",
      "actionBefore": "",
      "actionWhile": "",
      "actionAfter": "",
      "optionIcon": "",
      "iconPath": ""
    },
    {
      "id": 620101414,
      "nextDialogs": [
        620101415
      ],
      "talkRole": {
        "type": "TALK_ROLE_NPC",
        "_id": "2010"
      },
      "talkContentTextMapHash": 897168695,
      "talkAssetPath": "",
      "talkAssetPathAlter": "",
      "talkAudioName": "",
      "actionBefore": "",
      "actionWhile": "",
      "actionAfter": "",
      "optionIcon": "",
      "iconPath": ""
    },
    {
      "id": 620101415,
      "nextDialogs": [
        620101416
      ],
      "talkRole": {
        "type": "TALK_ROLE_NPC",
        "_id": "2010"
      },
      "talkContentTextMapHash": 2537086871,
      "talkAssetPath": "",
      "talkAssetPathAlter": "",
      "talkAudioName": "",
      "actionBefore": "",
      "actionWhile": "",
      "actionAfter": "",
      "optionIcon": "",
      "iconPath": ""
    },
    {
      "id": 620101416,
      "nextDialogs": [
        620101417
      ],
      "talkRole": {
        "type": "TALK_ROLE_NPC",
        "_id": "2010"
      },
      "talkContentTextMapHash": 4167929591,
      "talkAssetPath": "",
      "talkAssetPathAlter": "",
      "talkAudioName": "",
      "actionBefore": "",
      "actionWhile": "",
      "actionAfter": "",
      "optionIcon": "",
      "iconPath": ""
    },
    {
      "id": 620101417,
      "nextDialogs": [
        620101418
      ],
      "talkRole": {
        "type": "TALK_ROLE_NPC",
        "_id": "2010"
      },
      "talkContentTextMapHash": 3626654655,
      "talkAssetPath": "",
      "talkAssetPathAlter": "",
      "talkAudioName": "",
      "actionBefore": "",
      "actionWhile": "",
      "actionAfter": "",
      "optionIcon": "",
      "iconPath": ""
    },
    {
      "id": 620101418,
      "nextDialogs": [
        620101419
      ],
      "talkRole": {
        "type": "TALK_ROLE_NPC",
        "_id": "2010"
      },
      "talkContentTextMapHash": 1717198015,
      "talkAssetPath": "",
      "talkAssetPathAlter": "",
      "talkAudioName": "",
      "actionBefore": "",
      "actionWhile": "",
      "actionAfter": "",
      "optionIcon": "",
      "iconPath": ""
    },
    {
      "id": 620101419,
      "nextDialogs": [
        620101420
      ],
      "talkShowType": "TALK_SHOW_FORCE_SELECT",
      "talkRole": {
        "type": "TALK_ROLE_PLAYER",
        "_id": "2010"
      },
      "talkContentTextMapHash": 2351616743,
      "talkAssetPath": "",
      "talkAssetPathAlter": "",
      "talkAudioName": "",
      "actionBefore": "",
      "actionWhile": "",
      "actionAfter": "",
      "optionIcon": "",
      "iconPath": ""
    },
    {
      "id": 620101420,
      "nextDialogs": [
        620101421
      ],
      "talkRole": {
        "type": "TALK_ROLE_NPC",
        "_id": "2010"
      },
      "talkContentTextMapHash": 3019948935,
      "talkAssetPath": "",
      "talkAssetPathAlter": "",
      "talkAudioName": "",
      "actionBefore": "",
      "actionWhile": "",
      "actionAfter": "",
      "optionIcon": "",
      "iconPath": ""
    },
    {
      "id": 620101421,
      "nextDialogs": [
        620101422
      ],
      "talkRole": {
        "type": "TALK_ROLE_NPC",
        "_id": "2010"
      },
      "talkContentTextMapHash": 2674240823,
      "talkAssetPath": "",
      "talkAssetPathAlter": "",
      "talkAudioName": "",
      "actionBefore": "",
      "actionWhile": "",
      "actionAfter": "",
      "optionIcon": "",
      "iconPath": ""
    },
    {
      "id": 620101422,
      "nextDialogs": [
        620101423
      ],
      "talkRole": {
        "type": "TALK_ROLE_NPC",
        "_id": "2010"
      },
      "talkContentTextMapHash": 3474571887,
      "talkAssetPath": "",
      "talkAssetPathAlter": "",
      "talkAudioName": "",
      "actionBefore": "",
      "actionWhile": "",
      "actionAfter": "",
      "optionIcon": "",
      "iconPath": ""
    },
    {
      "id": 620101423,
      "talkRole": {
        "type": "TALK_ROLE_NPC",
        "_id": "2010"
      },
      "talkContentTextMapHash": 291707935,
      "talkAssetPath": "",
      "talkAssetPathAlter": "",
      "talkAudioName": "",
      "actionBefore": "",
      "actionWhile": "",
      "actionAfter": "",
      "optionIcon": "",
      "iconPath": ""
    },
    {
      "id": 620101424,
      "nextDialogs": [
        620101425
      ],
      "talkShowType": "TALK_SHOW_FORCE_SELECT",
      "talkRole": {
        "type": "TALK_ROLE_PLAYER",
        "_id": ""
      },
      "talkContentTextMapHash": 2810843623,
      "talkAssetPath": "",
      "talkAssetPathAlter": "",
      "talkAudioName": "",
      "actionBefore": "",
      "actionWhile": "",
      "actionAfter": "",
      "optionIcon": "",
      "iconPath": ""
    },
    {
      "id": 620101425,
      "talkRole": {
        "type": "TALK_ROLE_NPC",
        "_id": "2010"
      },
      "talkContentTextMapHash": 356710847,
      "talkAssetPath": "",
      "talkAssetPathAlter": "",
      "talkAudioName": "",
      "actionBefore": "",
      "actionWhile": "",
      "actionAfter": "",
      "optionIcon": "",
      "iconPath": ""
    }
  ]
}