{
  "talkId": 6201608,
  "KPGKDHAFHFE": "FREE",
  "dialogList": [
    {
      "id": 620160801,
      "nextDialogs": [
        620160802
      ],
      "talkShowType": "TALK_SHOW_FORCE_SELECT",
      "talkRole": {
        "type": "TALK_ROLE_PLAYER",
        "_id": ""
      },
      "talkContentTextMapHash": 2717135175,
      "talkAssetPath": "",
      "talkAssetPathAlter": "",
      "talkAudioName": "",
      "actionBefore": "",
      "actionWhile": "",
      "actionAfter": "",
      "optionIcon": "",
      "iconPath": ""
    },
    {
      "id": 620160802,
      "nextDialogs": [
        620160803
      ],
      "talkRole": {
        "type": "TALK_ROLE_NPC",
        "_id": "2016"
      },
      "talkContentTextMapHash": 4022904615,
      "talkAssetPath": "",
      "talkAssetPathAlter": "",
      "talkAudioName": "",
      "actionBefore": "",
      "actionWhile": "",
      "actionAfter": "",
      "optionIcon": "",
      "iconPath": ""
    },
    {
      "id": 620160803,
      "talkRole": {
        "type": "TALK_ROLE_NPC",
        "_id": "2016"
      },
      "talkContentTextMapHash": 3319160951,
      "talkAssetPath": "",
      "talkAssetPathAlter": "",
      "talkAudioName": "",
      "actionBefore": "",
      "actionWhile": "",
      "actionAfter": "",
      "optionIcon": "",
      "iconPath": ""
    }
  ]
}