{
  "talkId": 6201607,
  "KPGKDHAFHFE": "FREE",
  "dialogList": [
    {
      "id": 620160701,
      "nextDialogs": [
        620160702
      ],
      "talkShowType": "TALK_SHOW_FORCE_SELECT",
      "talkRole": {
        "type": "TALK_ROLE_PLAYER",
        "_id": ""
      },
      "talkContentTextMapHash": 3519691159,
      "talkAssetPath": "",
      "talkAssetPathAlter": "",
      "talkAudioName": "",
      "actionBefore": "",
      "actionWhile": "",
      "actionAfter": "",
      "optionIcon": "",
      "iconPath": ""
    },
    {
      "id": 620160702,
      "nextDialogs": [
        620160703
      ],
      "talkRole": {
        "type": "TALK_ROLE_NPC",
        "_id": "2016"
      },
      "talkContentTextMapHash": 3964242327,
      "talkAssetPath": "",
      "talkAssetPathAlter": "",
      "talkAudioName": "",
      "actionBefore": "",
      "actionWhile": "",
      "actionAfter": "",
      "optionIcon": "",
      "iconPath": ""
    },
    {
      "id": 620160703,
      "nextDialogs": [
        620160704
      ],
      "talkRole": {
        "type": "TALK_ROLE_NPC",
        "_id": "2016"
      },
      "talkContentTextMapHash": 3675048039,
      "talkAssetPath": "",
      "talkAssetPathAlter": "",
      "talkAudioName": "",
      "actionBefore": "",
      "actionWhile": "",
      "actionAfter": "",
      "optionIcon": "",
      "iconPath": ""
    },
    {
      "id": 620160704,
      "nextDialogs": [
        620160705
      ],
      "talkRole": {
        "type": "TALK_ROLE_NPC",
        "_id": "2016"
      },
      "talkContentTextMapHash": 4006706551,
      "talkAssetPath": "",
      "talkAssetPathAlter": "",
      "talkAudioName": "",
      "actionBefore": "",
      "actionWhile": "",
      "actionAfter": "",
      "optionIcon": "",
      "iconPath": ""
    },
    {
      "id": 620160705,
      "nextDialogs": [
        620160706
      ],
      "talkRole": {
        "type": "TALK_ROLE_NPC",
        "_id": "2016"
      },
      "talkContentTextMapHash": 2715630351,
      "talkAssetPath": "",
      "talkAssetPathAlter": "",
      "talkAudioName": "",
      "actionBefore": "",
      "actionWhile": "",
      "actionAfter": "",
      "optionIcon": "",
      "iconPath": ""
    },
    {
      "id": 620160706,
      "talkRole": {
        "type": "TALK_ROLE_NPC",
        "_id": "2016"
      },
      "talkContentTextMapHash": 1823575703,
      "talkAssetPath": "",
      "talkAssetPathAlter": "",
      "talkAudioName": "",
      "actionBefore": "",
      "actionWhile": "",
      "actionAfter": "",
      "optionIcon": "",
      "iconPath": ""
    }
  ]
}