{
  "talkId": 6202501,
  "KPGKDHAFHFE": "FREE",
  "dialogList": [
    {
      "id": 620250101,
      "talkRole": {
        "type": "TALK_ROLE_NPC",
        "_id": "2025"
      },
      "talkContentTextMapHash": 2163744975,
      "talkAssetPath": "",
      "talkAssetPathAlter": "",
      "talkAudioName": "",
      "actionBefore": "",
      "actionWhile": "TEST/LerpInNpc",
      "actionAfter": "",
      "optionIcon": "",
      "iconPath": ""
    }
  ]
}