{
  "talkId": 6202004,
  "KPGKDHAFHFE": "FREE",
  "dialogList": [
    {
      "id": 620200401,
      "nextDialogs": [
        620200402
      ],
      "talkRole": {
        "type": "TALK_ROLE_PLAYER",
        "_id": ""
      },
      "talkContentTextMapHash": 1781344359,
      "talkAssetPath": "",
      "talkAssetPathAlter": "",
      "talkAudioName": "",
      "actionBefore": "",
      "actionWhile": "",
      "actionAfter": "",
      "optionIcon": "",
      "iconPath": ""
    },
    {
      "id": 620200402,
      "nextDialogs": [
        620200403
      ],
      "talkRole": {
        "type": "TALK_ROLE_NPC",
        "_id": "2020"
      },
      "talkContentTextMapHash": 2289273919,
      "talkAssetPath": "",
      "talkAssetPathAlter": "",
      "talkAudioName": "",
      "actionBefore": "",
      "actionWhile": "",
      "actionAfter": "",
      "optionIcon": "",
      "iconPath": ""
    },
    {
      "id": 620200403,
      "nextDialogs": [
        620200404
      ],
      "talkRole": {
        "type": "TALK_ROLE_NPC",
        "_id": "2020"
      },
      "talkContentTextMapHash": 2290497127,
      "talkAssetPath": "",
      "talkAssetPathAlter": "",
      "talkAudioName": "",
      "actionBefore": "",
      "actionWhile": "",
      "actionAfter": "",
      "optionIcon": "",
      "iconPath": ""
    },
    {
      "id": 620200404,
      "nextDialogs": [
        620200405
      ],
      "talkRole": {
        "type": "TALK_ROLE_NPC",
        "_id": "2020"
      },
      "talkContentTextMapHash": 3406327319,
      "talkAssetPath": "",
      "talkAssetPathAlter": "",
      "talkAudioName": "",
      "actionBefore": "",
      "actionWhile": "",
      "actionAfter": "",
      "optionIcon": "",
      "iconPath": ""
    },
    {
      "id": 620200405,
      "nextDialogs": [
        620200406
      ],
      "talkRole": {
        "type": "TALK_ROLE_NPC",
        "_id": "2020"
      },
      "talkContentTextMapHash": 3047460375,
      "talkAssetPath": "",
      "talkAssetPathAlter": "",
      "talkAudioName": "",
      "actionBefore": "",
      "actionWhile": "",
      "actionAfter": "",
      "optionIcon": "",
      "iconPath": ""
    },
    {
      "id": 620200406,
      "talkRole": {
        "type": "TALK_ROLE_NPC",
        "_id": "2020"
      },
      "talkContentTextMapHash": 1013145335,
      "talkAssetPath": "",
      "talkAssetPathAlter": "",
      "talkAudioName": "",
      "actionBefore": "",
      "actionWhile": "",
      "actionAfter": "",
      "optionIcon": "",
      "iconPath": ""
    }
  ]
}