{
  "talkId": 6202609,
  "KPGKDHAFHFE": "FREE",
  "dialogList": [
    {
      "id": 620260901,
      "nextDialogs": [
        620260902
      ],
      "talkShowType": "TALK_SHOW_FORCE_SELECT",
      "talkRole": {
        "type": "TALK_ROLE_PLAYER",
        "_id": ""
      },
      "talkContentTextMapHash": 3305506890,
      "talkAssetPath": "",
      "talkAssetPathAlter": "",
      "talkAudioName": "",
      "actionBefore": "",
      "actionWhile": "",
      "actionAfter": "",
      "optionIcon": "",
      "iconPath": ""
    },
    {
      "id": 620260902,
      "talkRole": {
        "type": "TALK_ROLE_NPC",
        "_id": "2026"
      },
      "talkContentTextMapHash": 244157090,
      "talkAssetPath": "",
      "talkAssetPathAlter": "",
      "talkAudioName": "",
      "actionBefore": "",
      "actionWhile": "",
      "actionAfter": "",
      "optionIcon": "",
      "iconPath": ""
    }
  ]
}