{
  "talkId": 6202303,
  "KPGKDHAFHFE": "FREE",
  "dialogList": [
    {
      "id": 620230301,
      "nextDialogs": [
        620230302
      ],
      "talkRole": {
        "type": "TALK_ROLE_PLAYER",
        "_id": ""
      },
      "talkContentTextMapHash": 726724607,
      "talkAssetPath": "",
      "talkAssetPathAlter": "",
      "talkAudioName": "",
      "actionBefore": "",
      "actionWhile": "",
      "actionAfter": "",
      "optionIcon": "",
      "iconPath": ""
    },
    {
      "id": 620230302,
      "talkRole": {
        "type": "TALK_ROLE_NPC",
        "_id": "2023"
      },
      "talkContentTextMapHash": 2887974063,
      "talkAssetPath": "",
      "talkAssetPathAlter": "",
      "talkAudioName": "",
      "actionBefore": "",
      "actionWhile": "",
      "actionAfter": "",
      "optionIcon": "",
      "iconPath": ""
    }
  ]
}