{
  "talkId": 6202102,
  "KPGKDHAFHFE": "FREE",
  "dialogList": [
    {
      "id": 620210201,
      "talkRole": {
        "type": "TALK_ROLE_NPC",
        "_id": "2021"
      },
      "talkContentTextMapHash": 3647297631,
      "talkAssetPath": "",
      "talkAssetPathAlter": "",
      "talkAudioName": "",
      "actionBefore": "",
      "actionWhile": "TEST/LerpInNpc",
      "actionAfter": "",
      "optionIcon": "",
      "iconPath": ""
    }
  ]
}