{
  "talkId": 6202605,
  "KPGKDHAFHFE": "FREE",
  "dialogList": [
    {
      "id": 620260501,
      "nextDialogs": [
        620260502
      ],
      "talkRole": {
        "type": "TALK_ROLE_PLAYER",
        "_id": ""
      },
      "talkContentTextMapHash": 1940040399,
      "talkAssetPath": "",
      "talkAssetPathAlter": "",
      "talkAudioName": "",
      "actionBefore": "",
      "actionWhile": "",
      "actionAfter": "",
      "optionIcon": "",
      "iconPath": ""
    },
    {
      "id": 620260502,
      "nextDialogs": [
        620260503
      ],
      "talkRole": {
        "type": "TALK_ROLE_NPC",
        "_id": "2026"
      },
      "talkContentTextMapHash": 2930271631,
      "talkAssetPath": "",
      "talkAssetPathAlter": "",
      "talkAudioName": "",
      "actionBefore": "",
      "actionWhile": "",
      "actionAfter": "",
      "optionIcon": "",
      "iconPath": ""
    },
    {
      "id": 620260503,
      "nextDialogs": [
        620260504
      ],
      "talkRole": {
        "type": "TALK_ROLE_NPC",
        "_id": "2026"
      },
      "talkContentTextMapHash": 3453163775,
      "talkAssetPath": "",
      "talkAssetPathAlter": "",
      "talkAudioName": "",
      "actionBefore": "",
      "actionWhile": "",
      "actionAfter": "",
      "optionIcon": "",
      "iconPath": ""
    },
    {
      "id": 620260504,
      "nextDialogs": [
        620260505
      ],
      "talkShowType": "TALK_SHOW_FORCE_SELECT",
      "talkRole": {
        "type": "TALK_ROLE_PLAYER",
        "_id": ""
      },
      "talkContentTextMapHash": 3025021463,
      "talkAssetPath": "",
      "talkAssetPathAlter": "",
      "talkAudioName": "",
      "actionBefore": "",
      "actionWhile": "",
      "actionAfter": "",
      "optionIcon": "",
      "iconPath": ""
    },
    {
      "id": 620260505,
      "nextDialogs": [
        620260506
      ],
      "talkRole": {
        "type": "TALK_ROLE_NPC",
        "_id": "2026"
      },
      "talkContentTextMapHash": 2167847703,
      "talkAssetPath": "",
      "talkAssetPathAlter": "",
      "talkAudioName": "",
      "actionBefore": "",
      "actionWhile": "",
      "actionAfter": "",
      "optionIcon": "",
      "iconPath": ""
    },
    {
      "id": 620260506,
      "nextDialogs": [
        620260507
      ],
      "talkRole": {
        "type": "TALK_ROLE_NPC",
        "_id": "2026"
      },
      "talkContentTextMapHash": 2373122279,
      "talkAssetPath": "",
      "talkAssetPathAlter": "",
      "talkAudioName": "",
      "actionBefore": "",
      "actionWhile": "",
      "actionAfter": "",
      "optionIcon": "",
      "iconPath": ""
    },
    {
      "id": 620260507,
      "nextDialogs": [
        620260508
      ],
      "talkRole": {
        "type": "TALK_ROLE_NPC",
        "_id": "2026"
      },
      "talkContentTextMapHash": 3942064647,
      "talkAssetPath": "",
      "talkAssetPathAlter": "",
      "talkAudioName": "",
      "actionBefore": "",
      "actionWhile": "",
      "actionAfter": "",
      "optionIcon": "",
      "iconPath": ""
    },
    {
      "id": 620260508,
      "nextDialogs": [
        620260509
      ],
      "talkShowType": "TALK_SHOW_FORCE_SELECT",
      "talkRole": {
        "type": "TALK_ROLE_PLAYER",
        "_id": ""
      },
      "talkContentTextMapHash": 2573742079,
      "talkAssetPath": "",
      "talkAssetPathAlter": "",
      "talkAudioName": "",
      "actionBefore": "",
      "actionWhile": "",
      "actionAfter": "",
      "optionIcon": "",
      "iconPath": ""
    },
    {
      "id": 620260509,
      "nextDialogs": [
        620260510
      ],
      "talkRole": {
        "type": "TALK_ROLE_NPC",
        "_id": "2026"
      },
      "talkContentTextMapHash": 3702733927,
      "talkAssetPath": "",
      "talkAssetPathAlter": "",
      "talkAudioName": "",
      "actionBefore": "",
      "actionWhile": "",
      "actionAfter": "",
      "optionIcon": "",
      "iconPath": ""
    },
    {
      "id": 620260510,
      "nextDialogs": [
        620260511
      ],
      "talkRole": {
        "type": "TALK_ROLE_NPC",
        "_id": "2026"
      },
      "talkContentTextMapHash": 835733039,
      "talkAssetPath": "",
      "talkAssetPathAlter": "",
      "talkAudioName": "",
      "actionBefore": "",
      "actionWhile": "",
      "actionAfter": "",
      "optionIcon": "",
      "iconPath": ""
    },
    {
      "id": 620260511,
      "talkRole": {
        "type": "TALK_ROLE_NPC",
        "_id": "2026"
      },
      "talkContentTextMapHash": 333857039,
      "talkAssetPath": "",
      "talkAssetPathAlter": "",
      "talkAudioName": "",
      "actionBefore": "",
      "actionWhile": "",
      "actionAfter": "",
      "optionIcon": "",
      "iconPath": ""
    }
  ]
}