{
  "talkId": 6202003,
  "KPGKDHAFHFE": "FREE",
  "dialogList": [
    {
      "id": 620200301,
      "nextDialogs": [
        620200302
      ],
      "talkRole": {
        "type": "TALK_ROLE_PLAYER",
        "_id": ""
      },
      "talkContentTextMapHash": 4175480319,
      "talkAssetPath": "",
      "talkAssetPathAlter": "",
      "talkAudioName": "",
      "actionBefore": "",
      "actionWhile": "",
      "actionAfter": "",
      "optionIcon": "",
      "iconPath": ""
    },
    {
      "id": 620200302,
      "nextDialogs": [
        620200303
      ],
      "talkRole": {
        "type": "TALK_ROLE_NPC",
        "_id": "2020"
      },
      "talkContentTextMapHash": 379957919,
      "talkAssetPath": "",
      "talkAssetPathAlter": "",
      "talkAudioName": "",
      "actionBefore": "",
      "actionWhile": "",
      "actionAfter": "",
      "optionIcon": "",
      "iconPath": ""
    },
    {
      "id": 620200303,
      "nextDialogs": [
        620200304
      ],
      "talkRole": {
        "type": "TALK_ROLE_NPC",
        "_id": "2020"
      },
      "talkContentTextMapHash": 4081970415,
      "talkAssetPath": "",
      "talkAssetPathAlter": "",
      "talkAudioName": "",
      "actionBefore": "",
      "actionWhile": "",
      "actionAfter": "",
      "optionIcon": "",
      "iconPath": ""
    },
    {
      "id": 620200304,
      "nextDialogs": [
        620200305
      ],
      "talkRole": {
        "type": "TALK_ROLE_NPC",
        "_id": "2020"
      },
      "talkContentTextMapHash": 1733135095,
      "talkAssetPath": "",
      "talkAssetPathAlter": "",
      "talkAudioName": "",
      "actionBefore": "",
      "actionWhile": "",
      "actionAfter": "",
      "optionIcon": "",
      "iconPath": ""
    },
    {
      "id": 620200305,
      "nextDialogs": [
        620200306
      ],
      "talkRole": {
        "type": "TALK_ROLE_NPC",
        "_id": "2020"
      },
      "talkContentTextMapHash": 556269199,
      "talkAssetPath": "",
      "talkAssetPathAlter": "",
      "talkAudioName": "",
      "actionBefore": "",
      "actionWhile": "",
      "actionAfter": "",
      "optionIcon": "",
      "iconPath": ""
    },
    {
      "id": 620200306,
      "talkRole": {
        "type": "TALK_ROLE_NPC",
        "_id": "2020"
      },
      "talkContentTextMapHash": 3109667055,
      "talkAssetPath": "",
      "talkAssetPathAlter": "",
      "talkAudioName": "",
      "actionBefore": "",
      "actionWhile": "",
      "actionAfter": "",
      "optionIcon": "",
      "iconPath": ""
    }
  ]
}