{
  "talkId": 6203203,
  "KPGKDHAFHFE": "FREE",
  "dialogList": [
    {
      "id": 620320301,
      "nextDialogs": [
        620320302
      ],
      "talkRole": {
        "type": "TALK_ROLE_NPC",
        "_id": "2032"
      },
      "talkContentTextMapHash": 2016080583,
      "talkAssetPath": "",
      "talkAssetPathAlter": "",
      "talkAudioName": "",
      "actionBefore": "",
      "actionWhile": "",
      "actionAfter": "",
      "optionIcon": "",
      "iconPath": ""
    },
    {
      "id": 620320302,
      "nextDialogs": [
        620320303
      ],
      "talkRole": {
        "type": "TALK_ROLE_NPC",
        "_id": "2032"
      },
      "talkContentTextMapHash": 450347175,
      "talkAssetPath": "",
      "talkAssetPathAlter": "",
      "talkAudioName": "",
      "actionBefore": "",
      "actionWhile": "",
      "actionAfter": "",
      "optionIcon": "",
      "iconPath": ""
    },
    {
      "id": 620320303,
      "nextDialogs": [
        620320304
      ],
      "talkRole": {
        "type": "TALK_ROLE_NPC",
        "_id": "2032"
      },
      "talkContentTextMapHash": 902437727,
      "talkAssetPath": "",
      "talkAssetPathAlter": "",
      "talkAudioName": "",
      "actionBefore": "",
      "actionWhile": "",
      "actionAfter": "",
      "optionIcon": "",
      "iconPath": ""
    },
    {
      "id": 620320304,
      "nextDialogs": [
        620320305
      ],
      "talkRole": {
        "type": "TALK_ROLE_NPC",
        "_id": "2032"
      },
      "talkContentTextMapHash": 786406527,
      "talkAssetPath": "",
      "talkAssetPathAlter": "",
      "talkAudioName": "",
      "actionBefore": "",
      "actionWhile": "",
      "actionAfter": "",
      "optionIcon": "",
      "iconPath": ""
    },
    {
      "id": 620320305,
      "nextDialogs": [
        620320306
      ],
      "talkRole": {
        "type": "TALK_ROLE_NPC",
        "_id": "2032"
      },
      "talkContentTextMapHash": 3926132175,
      "talkAssetPath": "",
      "talkAssetPathAlter": "",
      "talkAudioName": "",
      "actionBefore": "",
      "actionWhile": "",
      "actionAfter": "",
      "optionIcon": "",
      "iconPath": ""
    },
    {
      "id": 620320306,
      "talkRole": {
        "type": "TALK_ROLE_NPC",
        "_id": "2032"
      },
      "talkContentTextMapHash": 2236874239,
      "talkAssetPath": "",
      "talkAssetPathAlter": "",
      "talkAudioName": "",
      "actionBefore": "",
      "actionWhile": "",
      "actionAfter": "",
      "optionIcon": "",
      "iconPath": ""
    }
  ]
}