{
  "talkId": 6203405,
  "KPGKDHAFHFE": "FREE",
  "dialogList": [
    {
      "id": 620340501,
      "nextDialogs": [
        620340502
      ],
      "talkRole": {
        "type": "TALK_ROLE_NPC",
        "_id": "2034"
      },
      "talkContentTextMapHash": 519369951,
      "talkAssetPath": "",
      "talkAssetPathAlter": "",
      "talkAudioName": "",
      "actionBefore": "",
      "actionWhile": "",
      "actionAfter": "",
      "optionIcon": "",
      "iconPath": ""
    },
    {
      "id": 620340502,
      "nextDialogs": [
        620340503
      ],
      "talkRole": {
        "type": "TALK_ROLE_NPC",
        "_id": "2035"
      },
      "talkContentTextMapHash": 2452775279,
      "talkAssetPath": "",
      "talkAssetPathAlter": "",
      "talkAudioName": "",
      "actionBefore": "",
      "actionWhile": "",
      "actionAfter": "",
      "optionIcon": "",
      "iconPath": ""
    },
    {
      "id": 620340503,
      "nextDialogs": [
        620340504
      ],
      "talkRole": {
        "type": "TALK_ROLE_NPC",
        "_id": "2034"
      },
      "talkContentTextMapHash": 3009899807,
      "talkAssetPath": "",
      "talkAssetPathAlter": "",
      "talkAudioName": "",
      "actionBefore": "",
      "actionWhile": "",
      "actionAfter": "",
      "optionIcon": "",
      "iconPath": ""
    },
    {
      "id": 620340504,
      "nextDialogs": [
        620340505
      ],
      "talkRole": {
        "type": "TALK_ROLE_NPC",
        "_id": "2035"
      },
      "talkContentTextMapHash": 613274279,
      "talkAssetPath": "",
      "talkAssetPathAlter": "",
      "talkAudioName": "",
      "actionBefore": "",
      "actionWhile": "",
      "actionAfter": "",
      "optionIcon": "",
      "iconPath": ""
    },
    {
      "id": 620340505,
      "nextDialogs": [
        620340506
      ],
      "talkRole": {
        "type": "TALK_ROLE_NPC",
        "_id": "2034"
      },
      "talkContentTextMapHash": 1997984631,
      "talkAssetPath": "",
      "talkAssetPathAlter": "",
      "talkAudioName": "",
      "actionBefore": "",
      "actionWhile": "",
      "actionAfter": "",
      "optionIcon": "",
      "iconPath": ""
    },
    {
      "id": 620340506,
      "nextDialogs": [
        620340507
      ],
      "talkRole": {
        "type": "TALK_ROLE_NPC",
        "_id": "2035"
      },
      "talkContentTextMapHash": 1479642815,
      "talkAssetPath": "",
      "talkAssetPathAlter": "",
      "talkAudioName": "",
      "actionBefore": "",
      "actionWhile": "",
      "actionAfter": "",
      "optionIcon": "",
      "iconPath": ""
    },
    {
      "id": 620340507,
      "nextDialogs": [
        620340508
      ],
      "talkRole": {
        "type": "TALK_ROLE_NPC",
        "_id": "2034"
      },
      "talkContentTextMapHash": 2191068991,
      "talkAssetPath": "",
      "talkAssetPathAlter": "",
      "talkAudioName": "",
      "actionBefore": "",
      "actionWhile": "",
      "actionAfter": "",
      "optionIcon": "",
      "iconPath": ""
    },
    {
      "id": 620340508,
      "talkRole": {
        "type": "TALK_ROLE_NPC",
        "_id": "2035"
      },
      "talkContentTextMapHash": 2945935495,
      "talkAssetPath": "",
      "talkAssetPathAlter": "",
      "talkAudioName": "",
      "actionBefore": "",
      "actionWhile": "",
      "actionAfter": "",
      "optionIcon": "",
      "iconPath": ""
    }
  ]
}