{
  "talkId": 6203801,
  "KPGKDHAFHFE": "FREE",
  "dialogList": [
    {
      "id": 620380101,
      "nextDialogs": [
        620380102
      ],
      "talkRole": {
        "type": "TALK_ROLE_NPC",
        "_id": "2038"
      },
      "talkContentTextMapHash": 439095559,
      "talkAssetPath": "",
      "talkAssetPathAlter": "",
      "talkAudioName": "",
      "actionBefore": "",
      "actionWhile": "TEST/LerpInNpc",
      "actionAfter": "",
      "optionIcon": "",
      "iconPath": ""
    },
    {
      "id": 620380102,
      "talkRole": {
        "type": "TALK_ROLE_NPC",
        "_id": "2038"
      },
      "talkContentTextMapHash": 3026543991,
      "talkAssetPath": "",
      "talkAssetPathAlter": "",
      "talkAudioName": "",
      "actionBefore": "",
      "actionWhile": "",
      "actionAfter": "",
      "optionIcon": "",
      "iconPath": ""
    }
  ]
}