{
  "talkId": 6204513,
  "KPGKDHAFHFE": "FREE",
  "dialogList": [
    {
      "id": 620451301,
      "talkRole": {
        "type": "TALK_ROLE_NPC",
        "_id": "2045"
      },
      "talkContentTextMapHash": 1923744658,
      "talkAssetPath": "",
      "talkAssetPathAlter": "",
      "talkAudioName": "",
      "actionBefore": "GCG/ClearWorldChallengeTalk",
      "actionWhile": "",
      "actionAfter": "",
      "optionIcon": "",
      "iconPath": ""
    }
  ]
}