{
  "talkId": 6204405,
  "KPGKDHAFHFE": "FREE",
  "dialogList": [
    {
      "id": 620440501,
      "nextDialogs": [
        620440502
      ],
      "talkRole": {
        "type": "TALK_ROLE_PLAYER",
        "_id": ""
      },
      "talkContentTextMapHash": 2493941943,
      "talkAssetPath": "",
      "talkAssetPathAlter": "",
      "talkAudioName": "",
      "actionBefore": "",
      "actionWhile": "",
      "actionAfter": "",
      "optionIcon": "UI_Icon_Intee_Shop",
      "iconPath": ""
    },
    {
      "id": 620440502,
      "talkRole": {
        "type": "TALK_ROLE_NPC",
        "_id": "2044"
      },
      "talkContentTextMapHash": 3887256303,
      "talkAssetPath": "",
      "talkAssetPathAlter": "",
      "talkAudioName": "",
      "actionBefore": "",
      "actionWhile": "",
      "actionAfter": "Shop/shop_open_1026",
      "optionIcon": "",
      "iconPath": ""
    }
  ]
}