{
  "talkId": 6204502,
  "KPGKDHAFHFE": "FREE",
  "dialogList": [
    {
      "id": 620450201,
      "nextDialogs": [
        620450202
      ],
      "talkRole": {
        "type": "TALK_ROLE_PLAYER",
        "_id": ""
      },
      "talkContentTextMapHash": 474573671,
      "talkAssetPath": "",
      "talkAssetPathAlter": "",
      "talkAudioName": "",
      "actionBefore": "",
      "actionWhile": "",
      "actionAfter": "",
      "optionIcon": "UI_Icon_Intee_Restaurant",
      "iconPath": ""
    },
    {
      "id": 620450202,
      "talkRole": {
        "type": "TALK_ROLE_NPC",
        "_id": "2045"
      },
      "talkContentTextMapHash": 1272949263,
      "talkAssetPath": "",
      "talkAssetPathAlter": "",
      "talkAudioName": "",
      "actionBefore": "",
      "actionWhile": "",
      "actionAfter": "Shop/shop_open_1010",
      "optionIcon": "",
      "iconPath": ""
    }
  ]
}