{
  "talkId": 6204902,
  "KPGKDHAFHFE": "FREE",
  "dialogList": [
    {
      "id": 620490201,
      "nextDialogs": [
        620490202
      ],
      "talkRole": {
        "type": "TALK_ROLE_NPC",
        "_id": "2049"
      },
      "talkContentTextMapHash": 458582047,
      "talkAssetPath": "",
      "talkAssetPathAlter": "",
      "talkAudioName": "",
      "actionBefore": "",
      "actionWhile": "",
      "actionAfter": "",
      "optionIcon": "",
      "iconPath": ""
    },
    {
      "id": 620490202,
      "nextDialogs": [
        620490203
      ],
      "talkRole": {
        "type": "TALK_ROLE_NPC",
        "_id": "2049"
      },
      "talkContentTextMapHash": 2344342751,
      "talkAssetPath": "",
      "talkAssetPathAlter": "",
      "talkAudioName": "",
      "actionBefore": "",
      "actionWhile": "",
      "actionAfter": "",
      "optionIcon": "",
      "iconPath": ""
    },
    {
      "id": 620490203,
      "nextDialogs": [
        620490204
      ],
      "talkRole": {
        "type": "TALK_ROLE_NPC",
        "_id": "2049"
      },
      "talkContentTextMapHash": 4029785287,
      "talkAssetPath": "",
      "talkAssetPathAlter": "",
      "talkAudioName": "",
      "actionBefore": "",
      "actionWhile": "",
      "actionAfter": "",
      "optionIcon": "",
      "iconPath": ""
    },
    {
      "id": 620490204,
      "nextDialogs": [
        620490205
      ],
      "talkRole": {
        "type": "TALK_ROLE_NPC",
        "_id": "2049"
      },
      "talkContentTextMapHash": 1573399895,
      "talkAssetPath": "",
      "talkAssetPathAlter": "",
      "talkAudioName": "",
      "actionBefore": "",
      "actionWhile": "",
      "actionAfter": "",
      "optionIcon": "",
      "iconPath": ""
    },
    {
      "id": 620490205,
      "nextDialogs": [
        620490206
      ],
      "talkRole": {
        "type": "TALK_ROLE_NPC",
        "_id": "2049"
      },
      "talkContentTextMapHash": 1283601439,
      "talkAssetPath": "",
      "talkAssetPathAlter": "",
      "talkAudioName": "",
      "actionBefore": "",
      "actionWhile": "",
      "actionAfter": "",
      "optionIcon": "",
      "iconPath": ""
    },
    {
      "id": 620490206,
      "nextDialogs": [
        620490207
      ],
      "talkShowType": "TALK_SHOW_FORCE_SELECT",
      "talkRole": {
        "type": "TALK_ROLE_NPC",
        "_id": "2049"
      },
      "talkContentTextMapHash": 1339759703,
      "talkAssetPath": "",
      "talkAssetPathAlter": "",
      "talkAudioName": "",
      "actionBefore": "",
      "actionWhile": "",
      "actionAfter": "",
      "optionIcon": "",
      "iconPath": ""
    },
    {
      "id": 620490207,
      "nextDialogs": [
        620490208
      ],
      "talkRole": {
        "type": "TALK_ROLE_NPC",
        "_id": "2049"
      },
      "talkContentTextMapHash": 288418423,
      "talkAssetPath": "",
      "talkAssetPathAlter": "",
      "talkAudioName": "",
      "actionBefore": "",
      "actionWhile": "",
      "actionAfter": "",
      "optionIcon": "",
      "iconPath": ""
    },
    {
      "id": 620490208,
      "nextDialogs": [
        620490209
      ],
      "talkRole": {
        "type": "TALK_ROLE_NPC",
        "_id": "2049"
      },
      "talkContentTextMapHash": 1185259567,
      "talkAssetPath": "",
      "talkAssetPathAlter": "",
      "talkAudioName": "",
      "actionBefore": "",
      "actionWhile": "",
      "actionAfter": "",
      "optionIcon": "",
      "iconPath": ""
    },
    {
      "id": 620490209,
      "talkRole": {
        "type": "TALK_ROLE_NPC",
        "_id": "2049"
      },
      "talkContentTextMapHash": 1177198871,
      "talkAssetPath": "",
      "talkAssetPathAlter": "",
      "talkAudioName": "",
      "actionBefore": "",
      "actionWhile": "",
      "actionAfter": "",
      "optionIcon": "",
      "iconPath": ""
    }
  ]
}