{
  "talkId": 6204301,
  "KPGKDHAFHFE": "FREE",
  "dialogList": [
    {
      "id": 620430101,
      "talkRole": {
        "type": "TALK_ROLE_NPC",
        "_id": "2043"
      },
      "talkContentTextMapHash": 1839393391,
      "talkAssetPath": "",
      "talkAssetPathAlter": "",
      "talkAudioName": "",
      "actionBefore": "",
      "actionWhile": "TEST/LerpInNpcNoSteer",
      "actionAfter": "",
      "optionIcon": "",
      "iconPath": ""
    }
  ]
}