{
  "talkId": 6204705,
  "KPGKDHAFHFE": "FREE",
  "dialogList": [
    {
      "id": 620470501,
      "nextDialogs": [
        620470502
      ],
      "talkShowType": "TALK_SHOW_FORCE_SELECT",
      "talkRole": {
        "type": "TALK_ROLE_PLAYER",
        "_id": ""
      },
      "talkContentTextMapHash": 2619785226,
      "talkAssetPath": "",
      "talkAssetPathAlter": "",
      "talkAudioName": "",
      "actionBefore": "",
      "actionWhile": "",
      "actionAfter": "",
      "optionIcon": "",
      "iconPath": ""
    },
    {
      "id": 620470502,
      "nextDialogs": [
        620470503
      ],
      "talkRole": {
        "type": "TALK_ROLE_NPC",
        "_id": "2047"
      },
      "talkContentTextMapHash": 1581579250,
      "talkAssetPath": "",
      "talkAssetPathAlter": "",
      "talkAudioName": "",
      "actionBefore": "",
      "actionWhile": "",
      "actionAfter": "",
      "optionIcon": "",
      "iconPath": ""
    },
    {
      "id": 620470503,
      "nextDialogs": [
        620470504
      ],
      "talkRole": {
        "type": "TALK_ROLE_NPC",
        "_id": "2047"
      },
      "talkContentTextMapHash": 3871938730,
      "talkAssetPath": "",
      "talkAssetPathAlter": "",
      "talkAudioName": "",
      "actionBefore": "",
      "actionWhile": "",
      "actionAfter": "",
      "optionIcon": "",
      "iconPath": ""
    },
    {
      "id": 620470504,
      "talkRole": {
        "type": "TALK_ROLE_NPC",
        "_id": "2047"
      },
      "talkContentTextMapHash": 1174013634,
      "talkAssetPath": "",
      "talkAssetPathAlter": "",
      "talkAudioName": "",
      "actionBefore": "",
      "actionWhile": "",
      "actionAfter": "",
      "optionIcon": "",
      "iconPath": ""
    }
  ]
}