{
  "talkId": 6204802,
  "KPGKDHAFHFE": "FREE",
  "dialogList": [
    {
      "id": 620480201,
      "nextDialogs": [
        620480202
      ],
      "talkRole": {
        "type": "TALK_ROLE_PLAYER",
        "_id": ""
      },
      "talkContentTextMapHash": 236192503,
      "talkAssetPath": "",
      "talkAssetPathAlter": "",
      "talkAudioName": "",
      "actionBefore": "",
      "actionWhile": "",
      "actionAfter": "",
      "optionIcon": "UI_Icon_Intee_Shop",
      "iconPath": ""
    },
    {
      "id": 620480202,
      "talkRole": {
        "type": "TALK_ROLE_NPC",
        "_id": "2048"
      },
      "talkContentTextMapHash": 2039800311,
      "talkAssetPath": "",
      "talkAssetPathAlter": "",
      "talkAudioName": "",
      "actionBefore": "",
      "actionWhile": "",
      "actionAfter": "Shop/shop_open_1003",
      "optionIcon": "",
      "iconPath": ""
    }
  ]
}