{
  "talkId": 6204103,
  "KPGKDHAFHFE": "FREE",
  "dialogList": [
    {
      "id": 620410301,
      "nextDialogs": [
        620410302
      ],
      "talkRole": {
        "type": "TALK_ROLE_PLAYER",
        "_id": ""
      },
      "talkContentTextMapHash": 824687831,
      "talkAssetPath": "",
      "talkAssetPathAlter": "",
      "talkAudioName": "",
      "actionBefore": "",
      "actionWhile": "",
      "actionAfter": "",
      "optionIcon": "",
      "iconPath": ""
    },
    {
      "id": 620410302,
      "talkRole": {
        "type": "TALK_ROLE_NPC",
        "_id": "2041"
      },
      "talkContentTextMapHash": 1229716255,
      "talkAssetPath": "",
      "talkAssetPathAlter": "",
      "talkAudioName": "",
      "actionBefore": "",
      "actionWhile": "",
      "actionAfter": "",
      "optionIcon": "",
      "iconPath": ""
    }
  ]
}