{
  "talkId": 6205402,
  "KPGKDHAFHFE": "FREE",
  "dialogList": [
    {
      "id": 620540201,
      "nextDialogs": [
        620540202
      ],
      "talkRole": {
        "type": "TALK_ROLE_PLAYER",
        "_id": ""
      },
      "talkContentTextMapHash": 22935615,
      "talkAssetPath": "",
      "talkAssetPathAlter": "",
      "talkAudioName": "",
      "actionBefore": "",
      "actionWhile": "",
      "actionAfter": "",
      "optionIcon": "",
      "iconPath": ""
    },
    {
      "id": 620540202,
      "nextDialogs": [
        620540203
      ],
      "talkRole": {
        "type": "TALK_ROLE_NPC",
        "_id": "2054"
      },
      "talkContentTextMapHash": 1584801279,
      "talkAssetPath": "",
      "talkAssetPathAlter": "",
      "talkAudioName": "",
      "actionBefore": "",
      "actionWhile": "",
      "actionAfter": "",
      "optionIcon": "",
      "iconPath": ""
    },
    {
      "id": 620540203,
      "nextDialogs": [
        620540204
      ],
      "talkRole": {
        "type": "TALK_ROLE_NPC",
        "_id": "2054"
      },
      "talkContentTextMapHash": 296688407,
      "talkAssetPath": "",
      "talkAssetPathAlter": "",
      "talkAudioName": "",
      "actionBefore": "",
      "actionWhile": "",
      "actionAfter": "",
      "optionIcon": "",
      "iconPath": ""
    },
    {
      "id": 620540204,
      "nextDialogs": [
        620540205
      ],
      "talkRole": {
        "type": "TALK_ROLE_NPC",
        "_id": "2054"
      },
      "talkContentTextMapHash": 4167174255,
      "talkAssetPath": "",
      "talkAssetPathAlter": "",
      "talkAudioName": "",
      "actionBefore": "",
      "actionWhile": "",
      "actionAfter": "",
      "optionIcon": "",
      "iconPath": ""
    },
    {
      "id": 620540205,
      "nextDialogs": [
        620540206
      ],
      "talkRole": {
        "type": "TALK_ROLE_NPC",
        "_id": "2054"
      },
      "talkContentTextMapHash": 3127557871,
      "talkAssetPath": "",
      "talkAssetPathAlter": "",
      "talkAudioName": "",
      "actionBefore": "",
      "actionWhile": "",
      "actionAfter": "",
      "optionIcon": "",
      "iconPath": ""
    },
    {
      "id": 620540206,
      "talkRole": {
        "type": "TALK_ROLE_NPC",
        "_id": "2054"
      },
      "talkContentTextMapHash": 2194235639,
      "talkAssetPath": "",
      "talkAssetPathAlter": "",
      "talkAudioName": "",
      "actionBefore": "",
      "actionWhile": "",
      "actionAfter": "",
      "optionIcon": "",
      "iconPath": ""
    }
  ]
}