{
  "talkId": 6205002,
  "KPGKDHAFHFE": "FREE",
  "dialogList": [
    {
      "id": 620500201,
      "nextDialogs": [
        620500202
      ],
      "talkRole": {
        "type": "TALK_ROLE_PLAYER",
        "_id": ""
      },
      "talkContentTextMapHash": 1187038303,
      "talkAssetPath": "",
      "talkAssetPathAlter": "",
      "talkAudioName": "",
      "actionBefore": "",
      "actionWhile": "",
      "actionAfter": "",
      "optionIcon": "",
      "iconPath": ""
    },
    {
      "id": 620500202,
      "nextDialogs": [
        620500203
      ],
      "talkRole": {
        "type": "TALK_ROLE_NPC",
        "_id": "2050"
      },
      "talkContentTextMapHash": 3244436679,
      "talkAssetPath": "",
      "talkAssetPathAlter": "",
      "talkAudioName": "",
      "actionBefore": "",
      "actionWhile": "",
      "actionAfter": "",
      "optionIcon": "",
      "iconPath": ""
    },
    {
      "id": 620500203,
      "nextDialogs": [
        620500204
      ],
      "talkRole": {
        "type": "TALK_ROLE_NPC",
        "_id": "2050"
      },
      "talkContentTextMapHash": 1801057671,
      "talkAssetPath": "",
      "talkAssetPathAlter": "",
      "talkAudioName": "",
      "actionBefore": "",
      "actionWhile": "",
      "actionAfter": "",
      "optionIcon": "",
      "iconPath": ""
    },
    {
      "id": 620500204,
      "nextDialogs": [
        620500205
      ],
      "talkRole": {
        "type": "TALK_ROLE_NPC",
        "_id": "2050"
      },
      "talkContentTextMapHash": 844747223,
      "talkAssetPath": "",
      "talkAssetPathAlter": "",
      "talkAudioName": "",
      "actionBefore": "",
      "actionWhile": "",
      "actionAfter": "",
      "optionIcon": "",
      "iconPath": ""
    },
    {
      "id": 620500205,
      "nextDialogs": [
        620500206
      ],
      "talkShowType": "TALK_SHOW_FORCE_SELECT",
      "talkRole": {
        "type": "TALK_ROLE_PLAYER",
        "_id": ""
      },
      "talkContentTextMapHash": 1256617999,
      "talkAssetPath": "",
      "talkAssetPathAlter": "",
      "talkAudioName": "",
      "actionBefore": "",
      "actionWhile": "",
      "actionAfter": "",
      "optionIcon": "",
      "iconPath": ""
    },
    {
      "id": 620500206,
      "nextDialogs": [
        620500207
      ],
      "talkRole": {
        "type": "TALK_ROLE_NPC",
        "_id": "2050"
      },
      "talkContentTextMapHash": 100666831,
      "talkAssetPath": "",
      "talkAssetPathAlter": "",
      "talkAudioName": "",
      "actionBefore": "",
      "actionWhile": "",
      "actionAfter": "",
      "optionIcon": "",
      "iconPath": ""
    },
    {
      "id": 620500207,
      "nextDialogs": [
        620500208
      ],
      "talkRole": {
        "type": "TALK_ROLE_NPC",
        "_id": "2050"
      },
      "talkContentTextMapHash": 3306953847,
      "talkAssetPath": "",
      "talkAssetPathAlter": "",
      "talkAudioName": "",
      "actionBefore": "",
      "actionWhile": "",
      "actionAfter": "",
      "optionIcon": "",
      "iconPath": ""
    },
    {
      "id": 620500208,
      "nextDialogs": [
        620500209
      ],
      "talkRole": {
        "type": "TALK_ROLE_NPC",
        "_id": "2050"
      },
      "talkContentTextMapHash": 3778090559,
      "talkAssetPath": "",
      "talkAssetPathAlter": "",
      "talkAudioName": "",
      "actionBefore": "",
      "actionWhile": "",
      "actionAfter": "",
      "optionIcon": "",
      "iconPath": ""
    },
    {
      "id": 620500209,
      "nextDialogs": [
        620500210
      ],
      "talkRole": {
        "type": "TALK_ROLE_NPC",
        "_id": "2050"
      },
      "talkContentTextMapHash": 664970975,
      "talkAssetPath": "",
      "talkAssetPathAlter": "",
      "talkAudioName": "",
      "actionBefore": "",
      "actionWhile": "",
      "actionAfter": "",
      "optionIcon": "",
      "iconPath": ""
    },
    {
      "id": 620500210,
      "talkRole": {
        "type": "TALK_ROLE_NPC",
        "_id": "2050"
      },
      "talkContentTextMapHash": 2838008175,
      "talkAssetPath": "",
      "talkAssetPathAlter": "",
      "talkAudioName": "",
      "actionBefore": "",
      "actionWhile": "",
      "actionAfter": "",
      "optionIcon": "",
      "iconPath": ""
    }
  ]
}