{
  "talkId": 6205502,
  "KPGKDHAFHFE": "FREE",
  "dialogList": [
    {
      "id": 620550201,
      "nextDialogs": [
        620550202
      ],
      "talkRole": {
        "type": "TALK_ROLE_PLAYER",
        "_id": ""
      },
      "talkContentTextMapHash": 1323945271,
      "talkAssetPath": "",
      "talkAssetPathAlter": "",
      "talkAudioName": "",
      "actionBefore": "",
      "actionWhile": "",
      "actionAfter": "",
      "optionIcon": "",
      "iconPath": ""
    },
    {
      "id": 620550202,
      "nextDialogs": [
        620550203
      ],
      "talkRole": {
        "type": "TALK_ROLE_NPC",
        "_id": "2055"
      },
      "talkContentTextMapHash": 3667112167,
      "talkAssetPath": "",
      "talkAssetPathAlter": "",
      "talkAudioName": "",
      "actionBefore": "",
      "actionWhile": "",
      "actionAfter": "",
      "optionIcon": "",
      "iconPath": ""
    },
    {
      "id": 620550203,
      "nextDialogs": [
        620550204
      ],
      "talkRole": {
        "type": "TALK_ROLE_NPC",
        "_id": "2055"
      },
      "talkContentTextMapHash": 1447731591,
      "talkAssetPath": "",
      "talkAssetPathAlter": "",
      "talkAudioName": "",
      "actionBefore": "",
      "actionWhile": "",
      "actionAfter": "",
      "optionIcon": "",
      "iconPath": ""
    },
    {
      "id": 620550204,
      "nextDialogs": [
        620550205
      ],
      "talkRole": {
        "type": "TALK_ROLE_NPC",
        "_id": "2055"
      },
      "talkContentTextMapHash": 2867510631,
      "talkAssetPath": "",
      "talkAssetPathAlter": "",
      "talkAudioName": "",
      "actionBefore": "",
      "actionWhile": "",
      "actionAfter": "",
      "optionIcon": "",
      "iconPath": ""
    },
    {
      "id": 620550205,
      "talkRole": {
        "type": "TALK_ROLE_NPC",
        "_id": "2055"
      },
      "talkContentTextMapHash": 5269447,
      "talkAssetPath": "",
      "talkAssetPathAlter": "",
      "talkAudioName": "",
      "actionBefore": "",
      "actionWhile": "",
      "actionAfter": "",
      "optionIcon": "",
      "iconPath": ""
    }
  ]
}