{
  "talkId": 6205901,
  "KPGKDHAFHFE": "FREE",
  "dialogList": [
    {
      "id": 620590101,
      "nextDialogs": [
        620590102
      ],
      "talkRole": {
        "type": "TALK_ROLE_NPC",
        "_id": "2059"
      },
      "talkContentTextMapHash": 617806759,
      "talkAssetPath": "",
      "talkAssetPathAlter": "",
      "talkAudioName": "",
      "actionBefore": "",
      "actionWhile": "TEST/LerpInNpc",
      "actionAfter": "",
      "optionIcon": "",
      "iconPath": ""
    },
    {
      "id": 620590102,
      "nextDialogs": [
        620590103
      ],
      "talkRole": {
        "type": "TALK_ROLE_NPC",
        "_id": "2059"
      },
      "talkContentTextMapHash": 47671895,
      "talkAssetPath": "",
      "talkAssetPathAlter": "",
      "talkAudioName": "",
      "actionBefore": "",
      "actionWhile": "",
      "actionAfter": "",
      "optionIcon": "",
      "iconPath": ""
    },
    {
      "id": 620590103,
      "talkRole": {
        "type": "TALK_ROLE_NPC",
        "_id": "2059"
      },
      "talkContentTextMapHash": 4038439775,
      "talkAssetPath": "",
      "talkAssetPathAlter": "",
      "talkAudioName": "",
      "actionBefore": "",
      "actionWhile": "",
      "actionAfter": "",
      "optionIcon": "",
      "iconPath": ""
    }
  ]
}