{
  "talkId": 6205802,
  "KPGKDHAFHFE": "FREE",
  "dialogList": [
    {
      "id": 620580201,
      "nextDialogs": [
        620580202
      ],
      "talkRole": {
        "type": "TALK_ROLE_PLAYER",
        "_id": ""
      },
      "talkContentTextMapHash": 109475831,
      "talkAssetPath": "",
      "talkAssetPathAlter": "",
      "talkAudioName": "",
      "actionBefore": "",
      "actionWhile": "",
      "actionAfter": "",
      "optionIcon": "",
      "iconPath": ""
    },
    {
      "id": 620580202,
      "nextDialogs": [
        620580203
      ],
      "talkRole": {
        "type": "TALK_ROLE_NPC",
        "_id": "2058"
      },
      "talkContentTextMapHash": 505112575,
      "talkAssetPath": "",
      "talkAssetPathAlter": "",
      "talkAudioName": "",
      "actionBefore": "",
      "actionWhile": "",
      "actionAfter": "",
      "optionIcon": "",
      "iconPath": ""
    },
    {
      "id": 620580203,
      "nextDialogs": [
        620580204
      ],
      "talkRole": {
        "type": "TALK_ROLE_NPC",
        "_id": "2058"
      },
      "talkContentTextMapHash": 4178612895,
      "talkAssetPath": "",
      "talkAssetPathAlter": "",
      "talkAudioName": "",
      "actionBefore": "",
      "actionWhile": "",
      "actionAfter": "",
      "optionIcon": "",
      "iconPath": ""
    },
    {
      "id": 620580204,
      "nextDialogs": [
        620580205
      ],
      "talkRole": {
        "type": "TALK_ROLE_NPC",
        "_id": "2058"
      },
      "talkContentTextMapHash": 1267710895,
      "talkAssetPath": "",
      "talkAssetPathAlter": "",
      "talkAudioName": "",
      "actionBefore": "",
      "actionWhile": "",
      "actionAfter": "",
      "optionIcon": "",
      "iconPath": ""
    },
    {
      "id": 620580205,
      "nextDialogs": [
        620580206,
        620580401
      ],
      "talkRole": {
        "type": "TALK_ROLE_NPC",
        "_id": "2058"
      },
      "talkContentTextMapHash": 1033256719,
      "talkAssetPath": "",
      "talkAssetPathAlter": "",
      "talkAudioName": "",
      "actionBefore": "",
      "actionWhile": "",
      "actionAfter": "",
      "optionIcon": "",
      "iconPath": ""
    },
    {
      "id": 620580206,
      "nextDialogs": [
        620580207
      ],
      "talkShowType": "TALK_SHOW_FORCE_SELECT",
      "talkRole": {
        "type": "TALK_ROLE_PLAYER",
        "_id": ""
      },
      "talkContentTextMapHash": 2882130231,
      "talkAssetPath": "",
      "talkAssetPathAlter": "",
      "talkAudioName": "",
      "actionBefore": "",
      "actionWhile": "",
      "actionAfter": "",
      "optionIcon": "",
      "iconPath": ""
    },
    {
      "id": 620580207,
      "nextDialogs": [
        620580208
      ],
      "talkRole": {
        "type": "TALK_ROLE_NPC",
        "_id": "2058"
      },
      "talkContentTextMapHash": 3001822527,
      "talkAssetPath": "",
      "talkAssetPathAlter": "",
      "talkAudioName": "",
      "actionBefore": "",
      "actionWhile": "",
      "actionAfter": "",
      "optionIcon": "",
      "iconPath": ""
    },
    {
      "id": 620580208,
      "nextDialogs": [
        620580209
      ],
      "talkRole": {
        "type": "TALK_ROLE_NPC",
        "_id": "2058"
      },
      "talkContentTextMapHash": 3176173999,
      "talkAssetPath": "",
      "talkAssetPathAlter": "",
      "talkAudioName": "",
      "actionBefore": "",
      "actionWhile": "",
      "actionAfter": "",
      "optionIcon": "",
      "iconPath": ""
    },
    {
      "id": 620580209,
      "nextDialogs": [
        620580210
      ],
      "talkRole": {
        "type": "TALK_ROLE_NPC",
        "_id": "2058"
      },
      "talkContentTextMapHash": 3370218607,
      "talkAssetPath": "",
      "talkAssetPathAlter": "",
      "talkAudioName": "",
      "actionBefore": "",
      "actionWhile": "",
      "actionAfter": "",
      "optionIcon": "",
      "iconPath": ""
    },
    {
      "id": 620580210,
      "talkRole": {
        "type": "TALK_ROLE_NPC",
        "_id": "2058"
      },
      "talkContentTextMapHash": 422087039,
      "talkAssetPath": "",
      "talkAssetPathAlter": "",
      "talkAudioName": "",
      "actionBefore": "",
      "actionWhile": "",
      "actionAfter": "",
      "optionIcon": "",
      "iconPath": ""
    },
    {
      "id": 620580401,
      "nextDialogs": [
        620580402
      ],
      "talkShowType": "TALK_SHOW_FORCE_SELECT",
      "talkRole": {
        "type": "TALK_ROLE_PLAYER",
        "_id": ""
      },
      "talkContentTextMapHash": 1296705551,
      "talkAssetPath": "",
      "talkAssetPathAlter": "",
      "talkAudioName": "",
      "actionBefore": "",
      "actionWhile": "",
      "actionAfter": "",
      "optionIcon": "",
      "iconPath": ""
    },
    {
      "id": 620580402,
      "nextDialogs": [
        620580403
      ],
      "talkRole": {
        "type": "TALK_ROLE_NPC",
        "_id": "2058"
      },
      "talkContentTextMapHash": 1472560055,
      "talkAssetPath": "",
      "talkAssetPathAlter": "",
      "talkAudioName": "",
      "actionBefore": "",
      "actionWhile": "",
      "actionAfter": "",
      "optionIcon": "",
      "iconPath": ""
    },
    {
      "id": 620580403,
      "nextDialogs": [
        620580404
      ],
      "talkRole": {
        "type": "TALK_ROLE_NPC",
        "_id": "2058"
      },
      "talkContentTextMapHash": 2867307623,
      "talkAssetPath": "",
      "talkAssetPathAlter": "",
      "talkAudioName": "",
      "actionBefore": "",
      "actionWhile": "",
      "actionAfter": "",
      "optionIcon": "",
      "iconPath": ""
    },
    {
      "id": 620580404,
      "nextDialogs": [
        620580405
      ],
      "talkRole": {
        "type": "TALK_ROLE_NPC",
        "_id": "2058"
      },
      "talkContentTextMapHash": 3234984343,
      "talkAssetPath": "",
      "talkAssetPathAlter": "",
      "talkAudioName": "",
      "actionBefore": "",
      "actionWhile": "",
      "actionAfter": "",
      "optionIcon": "",
      "iconPath": ""
    },
    {
      "id": 620580405,
      "talkRole": {
        "type": "TALK_ROLE_NPC",
        "_id": "2058"
      },
      "talkContentTextMapHash": 2493176079,
      "talkAssetPath": "",
      "talkAssetPathAlter": "",
      "talkAudioName": "",
      "actionBefore": "",
      "actionWhile": "",
      "actionAfter": "",
      "optionIcon": "",
      "iconPath": ""
    }
  ]
}