{
  "talkId": 6205501,
  "KPGKDHAFHFE": "FREE",
  "dialogList": [
    {
      "id": 620550101,
      "talkRole": {
        "type": "TALK_ROLE_NPC",
        "_id": "2055"
      },
      "talkContentTextMapHash": 3127075783,
      "talkAssetPath": "",
      "talkAssetPathAlter": "",
      "talkAudioName": "",
      "actionBefore": "",
      "actionWhile": "TEST/LerpInNpc",
      "actionAfter": "",
      "optionIcon": "",
      "iconPath": ""
    }
  ]
}