{
  "talkId": 6205601,
  "KPGKDHAFHFE": "FREE",
  "dialogList": [
    {
      "id": 620560101,
      "nextDialogs": [
        620560102
      ],
      "talkRole": {
        "type": "TALK_ROLE_NPC",
        "_id": "2056"
      },
      "talkContentTextMapHash": 496522551,
      "talkAssetPath": "",
      "talkAssetPathAlter": "",
      "talkAudioName": "",
      "actionBefore": "",
      "actionWhile": "TEST/LerpInNpc",
      "actionAfter": "",
      "optionIcon": "",
      "iconPath": ""
    },
    {
      "id": 620560102,
      "talkRole": {
        "type": "TALK_ROLE_NPC",
        "_id": "2056"
      },
      "talkContentTextMapHash": 2071535999,
      "talkAssetPath": "",
      "talkAssetPathAlter": "",
      "talkAudioName": "",
      "actionBefore": "",
      "actionWhile": "",
      "actionAfter": "",
      "optionIcon": "",
      "iconPath": ""
    }
  ]
}