{
  "talkId": 6205505,
  "KPGKDHAFHFE": "FREE",
  "dialogList": [
    {
      "id": 620550501,
      "talkRole": {
        "type": "TALK_ROLE_NPC",
        "_id": "2055"
      },
      "talkContentTextMapHash": 3049213215,
      "talkAssetPath": "",
      "talkAssetPathAlter": "",
      "talkAudioName": "",
      "actionBefore": "",
      "actionWhile": "",
      "actionAfter": "",
      "optionIcon": "",
      "iconPath": ""
    }
  ]
}