{
  "talkId": 6205003,
  "KPGKDHAFHFE": "FREE",
  "dialogList": [
    {
      "id": 620500301,
      "nextDialogs": [
        620500302
      ],
      "talkRole": {
        "type": "TALK_ROLE_PLAYER",
        "_id": ""
      },
      "talkContentTextMapHash": 867530183,
      "talkAssetPath": "",
      "talkAssetPathAlter": "",
      "talkAudioName": "",
      "actionBefore": "",
      "actionWhile": "",
      "actionAfter": "",
      "optionIcon": "",
      "iconPath": ""
    },
    {
      "id": 620500302,
      "nextDialogs": [
        620500303
      ],
      "talkRole": {
        "type": "TALK_ROLE_NPC",
        "_id": "2050"
      },
      "talkContentTextMapHash": 2648764527,
      "talkAssetPath": "",
      "talkAssetPathAlter": "",
      "talkAudioName": "",
      "actionBefore": "",
      "actionWhile": "",
      "actionAfter": "",
      "optionIcon": "",
      "iconPath": ""
    },
    {
      "id": 620500303,
      "talkRole": {
        "type": "TALK_ROLE_NPC",
        "_id": "2050"
      },
      "talkContentTextMapHash": 2257698735,
      "talkAssetPath": "",
      "talkAssetPathAlter": "",
      "talkAudioName": "",
      "actionBefore": "",
      "actionWhile": "",
      "actionAfter": "",
      "optionIcon": "",
      "iconPath": ""
    }
  ]
}