{
  "talkId": 6206406,
  "KPGKDHAFHFE": "FREE",
  "dialogList": [
    {
      "id": 620640601,
      "nextDialogs": [
        620640602
      ],
      "talkRole": {
        "type": "TALK_ROLE_PLAYER",
        "_id": ""
      },
      "talkContentTextMapHash": 2961180695,
      "talkAssetPath": "",
      "talkAssetPathAlter": "",
      "talkAudioName": "",
      "actionBefore": "",
      "actionWhile": "",
      "actionAfter": "",
      "optionIcon": "",
      "iconPath": ""
    },
    {
      "id": 620640602,
      "nextDialogs": [
        620640603
      ],
      "talkRole": {
        "type": "TALK_ROLE_NPC",
        "_id": "2064"
      },
      "talkContentTextMapHash": 1204905375,
      "talkAssetPath": "",
      "talkAssetPathAlter": "",
      "talkAudioName": "",
      "actionBefore": "",
      "actionWhile": "",
      "actionAfter": "",
      "optionIcon": "",
      "iconPath": ""
    },
    {
      "id": 620640603,
      "nextDialogs": [
        620640604
      ],
      "talkRole": {
        "type": "TALK_ROLE_NPC",
        "_id": "2064"
      },
      "talkContentTextMapHash": 2086099863,
      "talkAssetPath": "",
      "talkAssetPathAlter": "",
      "talkAudioName": "",
      "actionBefore": "",
      "actionWhile": "",
      "actionAfter": "",
      "optionIcon": "",
      "iconPath": ""
    },
    {
      "id": 620640604,
      "nextDialogs": [
        620640605
      ],
      "talkRole": {
        "type": "TALK_ROLE_NPC",
        "_id": "2064"
      },
      "talkContentTextMapHash": 3938017543,
      "talkAssetPath": "",
      "talkAssetPathAlter": "",
      "talkAudioName": "",
      "actionBefore": "",
      "actionWhile": "",
      "actionAfter": "",
      "optionIcon": "",
      "iconPath": ""
    },
    {
      "id": 620640605,
      "talkRole": {
        "type": "TALK_ROLE_NPC",
        "_id": "2064"
      },
      "talkContentTextMapHash": 4033271239,
      "talkAssetPath": "",
      "talkAssetPathAlter": "",
      "talkAudioName": "",
      "actionBefore": "",
      "actionWhile": "",
      "actionAfter": "",
      "optionIcon": "",
      "iconPath": ""
    }
  ]
}