{
  "talkId": 6206402,
  "KPGKDHAFHFE": "FREE",
  "dialogList": [
    {
      "id": 620640201,
      "nextDialogs": [
        620640202
      ],
      "talkRole": {
        "type": "TALK_ROLE_PLAYER",
        "_id": ""
      },
      "talkContentTextMapHash": 3974717511,
      "talkAssetPath": "",
      "talkAssetPathAlter": "",
      "talkAudioName": "",
      "actionBefore": "",
      "actionWhile": "",
      "actionAfter": "",
      "optionIcon": "",
      "iconPath": ""
    },
    {
      "id": 620640202,
      "nextDialogs": [
        620640203
      ],
      "talkRole": {
        "type": "TALK_ROLE_NPC",
        "_id": "2064"
      },
      "talkContentTextMapHash": 2688507903,
      "talkAssetPath": "",
      "talkAssetPathAlter": "",
      "talkAudioName": "",
      "actionBefore": "",
      "actionWhile": "",
      "actionAfter": "",
      "optionIcon": "",
      "iconPath": ""
    },
    {
      "id": 620640203,
      "nextDialogs": [
        620640204
      ],
      "talkRole": {
        "type": "TALK_ROLE_NPC",
        "_id": "2064"
      },
      "talkContentTextMapHash": 343611487,
      "talkAssetPath": "",
      "talkAssetPathAlter": "",
      "talkAudioName": "",
      "actionBefore": "",
      "actionWhile": "",
      "actionAfter": "",
      "optionIcon": "",
      "iconPath": ""
    },
    {
      "id": 620640204,
      "nextDialogs": [
        620640205
      ],
      "talkRole": {
        "type": "TALK_ROLE_NPC",
        "_id": "2064"
      },
      "talkContentTextMapHash": 824150911,
      "talkAssetPath": "",
      "talkAssetPathAlter": "",
      "talkAudioName": "",
      "actionBefore": "",
      "actionWhile": "",
      "actionAfter": "",
      "optionIcon": "",
      "iconPath": ""
    },
    {
      "id": 620640205,
      "nextDialogs": [
        620640206
      ],
      "talkRole": {
        "type": "TALK_ROLE_NPC",
        "_id": "2064"
      },
      "talkContentTextMapHash": 536070623,
      "talkAssetPath": "",
      "talkAssetPathAlter": "",
      "talkAudioName": "",
      "actionBefore": "",
      "actionWhile": "",
      "actionAfter": "",
      "optionIcon": "",
      "iconPath": ""
    },
    {
      "id": 620640206,
      "nextDialogs": [
        620640207
      ],
      "talkRole": {
        "type": "TALK_ROLE_NPC",
        "_id": "2064"
      },
      "talkContentTextMapHash": 3976352743,
      "talkAssetPath": "",
      "talkAssetPathAlter": "",
      "talkAudioName": "",
      "actionBefore": "",
      "actionWhile": "",
      "actionAfter": "",
      "optionIcon": "",
      "iconPath": ""
    },
    {
      "id": 620640207,
      "nextDialogs": [
        620640208
      ],
      "talkRole": {
        "type": "TALK_ROLE_NPC",
        "_id": "2064"
      },
      "talkContentTextMapHash": 2430166247,
      "talkAssetPath": "",
      "talkAssetPathAlter": "",
      "talkAudioName": "",
      "actionBefore": "",
      "actionWhile": "",
      "actionAfter": "",
      "optionIcon": "",
      "iconPath": ""
    },
    {
      "id": 620640208,
      "talkRole": {
        "type": "TALK_ROLE_NPC",
        "_id": "2064"
      },
      "talkContentTextMapHash": 1525355215,
      "talkAssetPath": "",
      "talkAssetPathAlter": "",
      "talkAudioName": "",
      "actionBefore": "",
      "actionWhile": "",
      "actionAfter": "",
      "optionIcon": "",
      "iconPath": ""
    }
  ]
}