{
  "talkId": 6206707,
  "KPGKDHAFHFE": "FREE",
  "dialogList": [
    {
      "id": 620670701,
      "nextDialogs": [
        620670702
      ],
      "talkRole": {
        "type": "TALK_ROLE_NPC",
        "_id": "2067"
      },
      "talkContentTextMapHash": 3535072855,
      "talkAssetPath": "",
      "talkAssetPathAlter": "",
      "talkAudioName": "",
      "actionBefore": "",
      "actionWhile": "",
      "actionAfter": "",
      "optionIcon": "",
      "iconPath": ""
    },
    {
      "id": 620670702,
      "nextDialogs": [
        620670703
      ],
      "talkRole": {
        "type": "TALK_ROLE_NPC",
        "_id": "2067"
      },
      "talkContentTextMapHash": 1835127495,
      "talkAssetPath": "",
      "talkAssetPathAlter": "",
      "talkAudioName": "",
      "actionBefore": "",
      "actionWhile": "",
      "actionAfter": "",
      "optionIcon": "",
      "iconPath": ""
    },
    {
      "id": 620670703,
      "talkRole": {
        "type": "TALK_ROLE_NPC",
        "_id": "2067"
      },
      "talkContentTextMapHash": 2777299759,
      "talkAssetPath": "",
      "talkAssetPathAlter": "",
      "talkAudioName": "",
      "actionBefore": "",
      "actionWhile": "",
      "actionAfter": "",
      "optionIcon": "",
      "iconPath": ""
    }
  ]
}