{
  "talkId": 6206101,
  "KPGKDHAFHFE": "FREE",
  "dialogList": [
    {
      "id": 620610101,
      "talkRole": {
        "type": "TALK_ROLE_NPC",
        "_id": "2061"
      },
      "talkContentTextMapHash": 26136250,
      "talkAssetPath": "",
      "talkAssetPathAlter": "",
      "talkAudioName": "",
      "actionBefore": "",
      "actionWhile": "",
      "actionAfter": "",
      "optionIcon": "",
      "iconPath": ""
    }
  ]
}