{
  "talkId": 6206901,
  "KPGKDHAFHFE": "FREE",
  "dialogList": [
    {
      "id": 620690101,
      "nextDialogs": [
        620690102
      ],
      "talkRole": {
        "type": "TALK_ROLE_NPC",
        "_id": "2069"
      },
      "talkContentTextMapHash": 3139626383,
      "talkAssetPath": "",
      "talkAssetPathAlter": "",
      "talkAudioName": "",
      "actionBefore": "",
      "actionWhile": "TEST/LerpInNpc",
      "actionAfter": "",
      "optionIcon": "",
      "iconPath": ""
    },
    {
      "id": 620690102,
      "talkRole": {
        "type": "TALK_ROLE_NPC",
        "_id": "2069"
      },
      "talkContentTextMapHash": 2591279967,
      "talkAssetPath": "",
      "talkAssetPathAlter": "",
      "talkAudioName": "",
      "actionBefore": "",
      "actionWhile": "",
      "actionAfter": "",
      "optionIcon": "",
      "iconPath": ""
    }
  ]
}