{
  "talkId": 6206201,
  "KPGKDHAFHFE": "FREE",
  "dialogList": [
    {
      "id": 620620101,
      "nextDialogs": [
        620620102
      ],
      "talkRole": {
        "type": "TALK_ROLE_NPC",
        "_id": "1626"
      },
      "talkContentTextMapHash": 54426055,
      "talkAssetPath": "",
      "talkAssetPathAlter": "",
      "talkAudioName": "",
      "actionBefore": "",
      "actionWhile": "TEST/LerpInNpc",
      "actionAfter": "",
      "optionIcon": "",
      "iconPath": ""
    },
    {
      "id": 620620102,
      "nextDialogs": [
        620620103
      ],
      "talkRole": {
        "type": "TALK_ROLE_NPC",
        "_id": "2062"
      },
      "talkContentTextMapHash": 2657451703,
      "talkAssetPath": "",
      "talkAssetPathAlter": "",
      "talkAudioName": "",
      "actionBefore": "",
      "actionWhile": "",
      "actionAfter": "",
      "optionIcon": "",
      "iconPath": ""
    },
    {
      "id": 620620103,
      "nextDialogs": [
        620620104
      ],
      "talkRole": {
        "type": "TALK_ROLE_NPC",
        "_id": "1626"
      },
      "talkContentTextMapHash": 1531358599,
      "talkAssetPath": "",
      "talkAssetPathAlter": "",
      "talkAudioName": "",
      "actionBefore": "",
      "actionWhile": "",
      "actionAfter": "",
      "optionIcon": "",
      "iconPath": ""
    },
    {
      "id": 620620104,
      "nextDialogs": [
        620620105
      ],
      "talkRole": {
        "type": "TALK_ROLE_NPC",
        "_id": "1626"
      },
      "talkContentTextMapHash": 930714767,
      "talkAssetPath": "",
      "talkAssetPathAlter": "",
      "talkAudioName": "",
      "actionBefore": "",
      "actionWhile": "",
      "actionAfter": "",
      "optionIcon": "",
      "iconPath": ""
    },
    {
      "id": 620620105,
      "nextDialogs": [
        620620106
      ],
      "talkRole": {
        "type": "TALK_ROLE_NPC",
        "_id": "2062"
      },
      "talkContentTextMapHash": 2510750151,
      "talkAssetPath": "",
      "talkAssetPathAlter": "",
      "talkAudioName": "",
      "actionBefore": "",
      "actionWhile": "",
      "actionAfter": "",
      "optionIcon": "",
      "iconPath": ""
    },
    {
      "id": 620620106,
      "nextDialogs": [
        620620107
      ],
      "talkRole": {
        "type": "TALK_ROLE_NPC",
        "_id": "1626"
      },
      "talkContentTextMapHash": 905234463,
      "talkAssetPath": "",
      "talkAssetPathAlter": "",
      "talkAudioName": "",
      "actionBefore": "",
      "actionWhile": "",
      "actionAfter": "",
      "optionIcon": "",
      "iconPath": ""
    },
    {
      "id": 620620107,
      "nextDialogs": [
        620620108
      ],
      "talkRole": {
        "type": "TALK_ROLE_NPC",
        "_id": "2062"
      },
      "talkContentTextMapHash": 1225281023,
      "talkAssetPath": "",
      "talkAssetPathAlter": "",
      "talkAudioName": "",
      "actionBefore": "",
      "actionWhile": "",
      "actionAfter": "",
      "optionIcon": "",
      "iconPath": ""
    },
    {
      "id": 620620108,
      "nextDialogs": [
        620620109
      ],
      "talkRole": {
        "type": "TALK_ROLE_NPC",
        "_id": "1626"
      },
      "talkContentTextMapHash": 946991399,
      "talkAssetPath": "",
      "talkAssetPathAlter": "",
      "talkAudioName": "",
      "actionBefore": "",
      "actionWhile": "",
      "actionAfter": "",
      "optionIcon": "",
      "iconPath": ""
    },
    {
      "id": 620620109,
      "nextDialogs": [
        620620110
      ],
      "talkRole": {
        "type": "TALK_ROLE_NPC",
        "_id": "1626"
      },
      "talkContentTextMapHash": 3243317423,
      "talkAssetPath": "",
      "talkAssetPathAlter": "",
      "talkAudioName": "",
      "actionBefore": "",
      "actionWhile": "",
      "actionAfter": "",
      "optionIcon": "",
      "iconPath": ""
    },
    {
      "id": 620620110,
      "nextDialogs": [
        620620111
      ],
      "talkRole": {
        "type": "TALK_ROLE_NPC",
        "_id": "2062"
      },
      "talkContentTextMapHash": 2493049151,
      "talkAssetPath": "",
      "talkAssetPathAlter": "",
      "talkAudioName": "",
      "actionBefore": "",
      "actionWhile": "",
      "actionAfter": "",
      "optionIcon": "",
      "iconPath": ""
    },
    {
      "id": 620620111,
      "nextDialogs": [
        620620112
      ],
      "talkRole": {
        "type": "TALK_ROLE_NPC",
        "_id": "1626"
      },
      "talkContentTextMapHash": 1590648191,
      "talkAssetPath": "",
      "talkAssetPathAlter": "",
      "talkAudioName": "",
      "actionBefore": "",
      "actionWhile": "",
      "actionAfter": "",
      "optionIcon": "",
      "iconPath": ""
    },
    {
      "id": 620620112,
      "nextDialogs": [
        620620113
      ],
      "talkRole": {
        "type": "TALK_ROLE_NPC",
        "_id": "2062"
      },
      "talkContentTextMapHash": 1361704055,
      "talkAssetPath": "",
      "talkAssetPathAlter": "",
      "talkAudioName": "",
      "actionBefore": "",
      "actionWhile": "",
      "actionAfter": "",
      "optionIcon": "",
      "iconPath": ""
    },
    {
      "id": 620620113,
      "talkRole": {
        "type": "TALK_ROLE_NPC",
        "_id": "2062"
      },
      "talkContentTextMapHash": 1986876967,
      "talkAssetPath": "",
      "talkAssetPathAlter": "",
      "talkAudioName": "",
      "actionBefore": "",
      "actionWhile": "",
      "actionAfter": "",
      "optionIcon": "",
      "iconPath": ""
    }
  ]
}