{
  "talkId": 6207602,
  "KPGKDHAFHFE": "FREE",
  "dialogList": [
    {
      "id": 620760201,
      "nextDialogs": [
        620760202
      ],
      "talkRole": {
        "type": "TALK_ROLE_PLAYER",
        "_id": ""
      },
      "talkContentTextMapHash": 2989218351,
      "talkAssetPath": "",
      "talkAssetPathAlter": "",
      "talkAudioName": "",
      "actionBefore": "",
      "actionWhile": "",
      "actionAfter": "",
      "optionIcon": "",
      "iconPath": ""
    },
    {
      "id": 620760202,
      "nextDialogs": [
        620760203
      ],
      "talkRole": {
        "type": "TALK_ROLE_NPC",
        "_id": "2076"
      },
      "talkContentTextMapHash": 158690351,
      "talkAssetPath": "",
      "talkAssetPathAlter": "",
      "talkAudioName": "",
      "actionBefore": "",
      "actionWhile": "",
      "actionAfter": "",
      "optionIcon": "",
      "iconPath": ""
    },
    {
      "id": 620760203,
      "nextDialogs": [
        620760204
      ],
      "talkRole": {
        "type": "TALK_ROLE_NPC",
        "_id": "2076"
      },
      "talkContentTextMapHash": 2947157151,
      "talkAssetPath": "",
      "talkAssetPathAlter": "",
      "talkAudioName": "",
      "actionBefore": "",
      "actionWhile": "",
      "actionAfter": "",
      "optionIcon": "",
      "iconPath": ""
    },
    {
      "id": 620760204,
      "nextDialogs": [
        620760205
      ],
      "talkRole": {
        "type": "TALK_ROLE_NPC",
        "_id": "2076"
      },
      "talkContentTextMapHash": 3262942695,
      "talkAssetPath": "",
      "talkAssetPathAlter": "",
      "talkAudioName": "",
      "actionBefore": "",
      "actionWhile": "",
      "actionAfter": "",
      "optionIcon": "",
      "iconPath": ""
    },
    {
      "id": 620760205,
      "talkRole": {
        "type": "TALK_ROLE_NPC",
        "_id": "2076"
      },
      "talkContentTextMapHash": 2408372815,
      "talkAssetPath": "",
      "talkAssetPathAlter": "",
      "talkAudioName": "",
      "actionBefore": "",
      "actionWhile": "",
      "actionAfter": "",
      "optionIcon": "",
      "iconPath": ""
    }
  ]
}