{
  "talkId": 6207401,
  "KPGKDHAFHFE": "FREE",
  "dialogList": [
    {
      "id": 620740101,
      "nextDialogs": [
        620740102
      ],
      "talkRole": {
        "type": "TALK_ROLE_NPC",
        "_id": "2074"
      },
      "talkContentTextMapHash": 524570591,
      "talkAssetPath": "",
      "talkAssetPathAlter": "",
      "talkAudioName": "",
      "actionBefore": "",
      "actionWhile": "TEST/LerpInNpcNoSteer",
      "actionAfter": "",
      "optionIcon": "",
      "iconPath": ""
    },
    {
      "id": 620740102,
      "nextDialogs": [
        620740103
      ],
      "talkRole": {
        "type": "TALK_ROLE_NPC",
        "_id": "2031"
      },
      "talkContentTextMapHash": 1529282351,
      "talkAssetPath": "",
      "talkAssetPathAlter": "",
      "talkAudioName": "",
      "actionBefore": "",
      "actionWhile": "",
      "actionAfter": "",
      "optionIcon": "",
      "iconPath": ""
    },
    {
      "id": 620740103,
      "nextDialogs": [
        620740104
      ],
      "talkRole": {
        "type": "TALK_ROLE_NPC",
        "_id": "2074"
      },
      "talkContentTextMapHash": 2132595207,
      "talkAssetPath": "",
      "talkAssetPathAlter": "",
      "talkAudioName": "",
      "actionBefore": "",
      "actionWhile": "",
      "actionAfter": "",
      "optionIcon": "",
      "iconPath": ""
    },
    {
      "id": 620740104,
      "nextDialogs": [
        620740105
      ],
      "talkRole": {
        "type": "TALK_ROLE_NPC",
        "_id": "2030"
      },
      "talkContentTextMapHash": 1923970455,
      "talkAssetPath": "",
      "talkAssetPathAlter": "",
      "talkAudioName": "",
      "actionBefore": "",
      "actionWhile": "",
      "actionAfter": "",
      "optionIcon": "",
      "iconPath": ""
    },
    {
      "id": 620740105,
      "nextDialogs": [
        620740106
      ],
      "talkRole": {
        "type": "TALK_ROLE_NPC",
        "_id": "2074"
      },
      "talkContentTextMapHash": 397712839,
      "talkAssetPath": "",
      "talkAssetPathAlter": "",
      "talkAudioName": "",
      "actionBefore": "",
      "actionWhile": "",
      "actionAfter": "",
      "optionIcon": "",
      "iconPath": ""
    },
    {
      "id": 620740106,
      "nextDialogs": [
        620740107
      ],
      "talkRole": {
        "type": "TALK_ROLE_NPC",
        "_id": "2030"
      },
      "talkContentTextMapHash": 2492808415,
      "talkAssetPath": "",
      "talkAssetPathAlter": "",
      "talkAudioName": "",
      "actionBefore": "",
      "actionWhile": "",
      "actionAfter": "",
      "optionIcon": "",
      "iconPath": ""
    },
    {
      "id": 620740107,
      "nextDialogs": [
        620740108
      ],
      "talkRole": {
        "type": "TALK_ROLE_NPC",
        "_id": "2074"
      },
      "talkContentTextMapHash": 3376182935,
      "talkAssetPath": "",
      "talkAssetPathAlter": "",
      "talkAudioName": "",
      "actionBefore": "",
      "actionWhile": "",
      "actionAfter": "",
      "optionIcon": "",
      "iconPath": ""
    },
    {
      "id": 620740108,
      "nextDialogs": [
        620740109
      ],
      "talkRole": {
        "type": "TALK_ROLE_NPC",
        "_id": "2030"
      },
      "talkContentTextMapHash": 1597093447,
      "talkAssetPath": "",
      "talkAssetPathAlter": "",
      "talkAudioName": "",
      "actionBefore": "",
      "actionWhile": "",
      "actionAfter": "",
      "optionIcon": "",
      "iconPath": ""
    },
    {
      "id": 620740109,
      "nextDialogs": [
        620740110
      ],
      "talkRole": {
        "type": "TALK_ROLE_NPC",
        "_id": "2030"
      },
      "talkContentTextMapHash": 770791503,
      "talkAssetPath": "",
      "talkAssetPathAlter": "",
      "talkAudioName": "",
      "actionBefore": "",
      "actionWhile": "",
      "actionAfter": "",
      "optionIcon": "",
      "iconPath": ""
    },
    {
      "id": 620740110,
      "nextDialogs": [
        620740111
      ],
      "talkRole": {
        "type": "TALK_ROLE_NPC",
        "_id": "2074"
      },
      "talkContentTextMapHash": 1198854639,
      "talkAssetPath": "",
      "talkAssetPathAlter": "",
      "talkAudioName": "",
      "actionBefore": "",
      "actionWhile": "",
      "actionAfter": "",
      "optionIcon": "",
      "iconPath": ""
    },
    {
      "id": 620740111,
      "nextDialogs": [
        620740112
      ],
      "talkRole": {
        "type": "TALK_ROLE_NPC",
        "_id": "2030"
      },
      "talkContentTextMapHash": 2951641831,
      "talkAssetPath": "",
      "talkAssetPathAlter": "",
      "talkAudioName": "",
      "actionBefore": "",
      "actionWhile": "",
      "actionAfter": "",
      "optionIcon": "",
      "iconPath": ""
    },
    {
      "id": 620740112,
      "nextDialogs": [
        620740113
      ],
      "talkRole": {
        "type": "TALK_ROLE_NPC",
        "_id": "2031"
      },
      "talkContentTextMapHash": 4053649895,
      "talkAssetPath": "",
      "talkAssetPathAlter": "",
      "talkAudioName": "",
      "actionBefore": "",
      "actionWhile": "",
      "actionAfter": "",
      "optionIcon": "",
      "iconPath": ""
    },
    {
      "id": 620740113,
      "nextDialogs": [
        620740114
      ],
      "talkRole": {
        "type": "TALK_ROLE_NPC",
        "_id": "2030"
      },
      "talkContentTextMapHash": 2660344519,
      "talkAssetPath": "",
      "talkAssetPathAlter": "",
      "talkAudioName": "",
      "actionBefore": "",
      "actionWhile": "",
      "actionAfter": "",
      "optionIcon": "",
      "iconPath": ""
    },
    {
      "id": 620740114,
      "nextDialogs": [
        620740115
      ],
      "talkRole": {
        "type": "TALK_ROLE_NPC",
        "_id": "2031"
      },
      "talkContentTextMapHash": 591787623,
      "talkAssetPath": "",
      "talkAssetPathAlter": "",
      "talkAudioName": "",
      "actionBefore": "",
      "actionWhile": "",
      "actionAfter": "",
      "optionIcon": "",
      "iconPath": ""
    },
    {
      "id": 620740115,
      "talkRole": {
        "type": "TALK_ROLE_NPC",
        "_id": "2074"
      },
      "talkContentTextMapHash": 4024530799,
      "talkAssetPath": "",
      "talkAssetPathAlter": "",
      "talkAudioName": "",
      "actionBefore": "",
      "actionWhile": "",
      "actionAfter": "TEST/LerpOutNpcNoSteer",
      "optionIcon": "",
      "iconPath": ""
    }
  ]
}