{
  "talkId": 6207204,
  "KPGKDHAFHFE": "FREE",
  "dialogList": [
    {
      "id": 620720401,
      "nextDialogs": [
        620720402
      ],
      "talkRole": {
        "type": "TALK_ROLE_PLAYER",
        "_id": ""
      },
      "talkContentTextMapHash": 3812669719,
      "talkAssetPath": "",
      "talkAssetPathAlter": "",
      "talkAudioName": "",
      "actionBefore": "",
      "actionWhile": "",
      "actionAfter": "",
      "optionIcon": "",
      "iconPath": ""
    },
    {
      "id": 620720402,
      "talkRole": {
        "type": "TALK_ROLE_NPC",
        "_id": "2072"
      },
      "talkContentTextMapHash": 924299303,
      "talkAssetPath": "",
      "talkAssetPathAlter": "",
      "talkAudioName": "",
      "actionBefore": "",
      "actionWhile": "",
      "actionAfter": "",
      "optionIcon": "",
      "iconPath": ""
    }
  ]
}