{
  "talkId": 6207702,
  "KPGKDHAFHFE": "FREE",
  "dialogList": [
    {
      "id": 620770201,
      "nextDialogs": [
        620770202
      ],
      "talkRole": {
        "type": "TALK_ROLE_PLAYER",
        "_id": ""
      },
      "talkContentTextMapHash": 1315070743,
      "talkAssetPath": "",
      "talkAssetPathAlter": "",
      "talkAudioName": "",
      "actionBefore": "",
      "actionWhile": "",
      "actionAfter": "",
      "optionIcon": "",
      "iconPath": ""
    },
    {
      "id": 620770202,
      "nextDialogs": [
        620770203
      ],
      "talkRole": {
        "type": "TALK_ROLE_NPC",
        "_id": "2077"
      },
      "talkContentTextMapHash": 3829205423,
      "talkAssetPath": "",
      "talkAssetPathAlter": "",
      "talkAudioName": "",
      "actionBefore": "",
      "actionWhile": "",
      "actionAfter": "",
      "optionIcon": "",
      "iconPath": ""
    },
    {
      "id": 620770203,
      "talkRole": {
        "type": "TALK_ROLE_NPC",
        "_id": "2077"
      },
      "talkContentTextMapHash": 2431552119,
      "talkAssetPath": "",
      "talkAssetPathAlter": "",
      "talkAudioName": "",
      "actionBefore": "",
      "actionWhile": "",
      "actionAfter": "",
      "optionIcon": "",
      "iconPath": ""
    }
  ]
}