{
  "talkId": 6207601,
  "KPGKDHAFHFE": "FREE",
  "dialogList": [
    {
      "id": 620760101,
      "talkRole": {
        "type": "TALK_ROLE_NPC",
        "_id": "2076"
      },
      "talkContentTextMapHash": 3494433543,
      "talkAssetPath": "",
      "talkAssetPathAlter": "",
      "talkAudioName": "",
      "actionBefore": "",
      "actionWhile": "TEST/LerpInNpc",
      "actionAfter": "",
      "optionIcon": "",
      "iconPath": ""
    }
  ]
}