{
  "talkId": 6207703,
  "KPGKDHAFHFE": "FREE",
  "dialogList": [
    {
      "id": 620770301,
      "nextDialogs": [
        620770302
      ],
      "talkRole": {
        "type": "TALK_ROLE_PLAYER",
        "_id": ""
      },
      "talkContentTextMapHash": 1669017263,
      "talkAssetPath": "",
      "talkAssetPathAlter": "",
      "talkAudioName": "",
      "actionBefore": "",
      "actionWhile": "",
      "actionAfter": "",
      "optionIcon": "",
      "iconPath": ""
    },
    {
      "id": 620770302,
      "nextDialogs": [
        620770303
      ],
      "talkRole": {
        "type": "TALK_ROLE_NPC",
        "_id": "2077"
      },
      "talkContentTextMapHash": 2739352575,
      "talkAssetPath": "",
      "talkAssetPathAlter": "",
      "talkAudioName": "",
      "actionBefore": "",
      "actionWhile": "",
      "actionAfter": "",
      "optionIcon": "",
      "iconPath": ""
    },
    {
      "id": 620770303,
      "nextDialogs": [
        620770304
      ],
      "talkRole": {
        "type": "TALK_ROLE_NPC",
        "_id": "2077"
      },
      "talkContentTextMapHash": 3271474647,
      "talkAssetPath": "",
      "talkAssetPathAlter": "",
      "talkAudioName": "",
      "actionBefore": "",
      "actionWhile": "",
      "actionAfter": "",
      "optionIcon": "",
      "iconPath": ""
    },
    {
      "id": 620770304,
      "talkRole": {
        "type": "TALK_ROLE_NPC",
        "_id": "2077"
      },
      "talkContentTextMapHash": 44055615,
      "talkAssetPath": "",
      "talkAssetPathAlter": "",
      "talkAudioName": "",
      "actionBefore": "",
      "actionWhile": "",
      "actionAfter": "",
      "optionIcon": "",
      "iconPath": ""
    }
  ]
}