{
  "talkId": 6207701,
  "KPGKDHAFHFE": "FREE",
  "dialogList": [
    {
      "id": 620770101,
      "talkRole": {
        "type": "TALK_ROLE_NPC",
        "_id": "2077"
      },
      "talkContentTextMapHash": 2516521095,
      "talkAssetPath": "",
      "talkAssetPathAlter": "",
      "talkAudioName": "",
      "actionBefore": "",
      "actionWhile": "TEST/LerpInNpc",
      "actionAfter": "",
      "optionIcon": "",
      "iconPath": ""
    }
  ]
}