{
  "talkId": 6207603,
  "KPGKDHAFHFE": "FREE",
  "dialogList": [
    {
      "id": 620760301,
      "nextDialogs": [
        620760302
      ],
      "talkRole": {
        "type": "TALK_ROLE_PLAYER",
        "_id": ""
      },
      "talkContentTextMapHash": 1980800415,
      "talkAssetPath": "",
      "talkAssetPathAlter": "",
      "talkAudioName": "",
      "actionBefore": "",
      "actionWhile": "",
      "actionAfter": "",
      "optionIcon": "",
      "iconPath": ""
    },
    {
      "id": 620760302,
      "nextDialogs": [
        620760303
      ],
      "talkRole": {
        "type": "TALK_ROLE_NPC",
        "_id": "2076"
      },
      "talkContentTextMapHash": 3901704343,
      "talkAssetPath": "",
      "talkAssetPathAlter": "",
      "talkAudioName": "",
      "actionBefore": "",
      "actionWhile": "",
      "actionAfter": "",
      "optionIcon": "",
      "iconPath": ""
    },
    {
      "id": 620760303,
      "nextDialogs": [
        620760304
      ],
      "talkRole": {
        "type": "TALK_ROLE_NPC",
        "_id": "2076"
      },
      "talkContentTextMapHash": 1246364407,
      "talkAssetPath": "",
      "talkAssetPathAlter": "",
      "talkAudioName": "",
      "actionBefore": "",
      "actionWhile": "",
      "actionAfter": "",
      "optionIcon": "",
      "iconPath": ""
    },
    {
      "id": 620760304,
      "talkRole": {
        "type": "TALK_ROLE_NPC",
        "_id": "2076"
      },
      "talkContentTextMapHash": 3740248911,
      "talkAssetPath": "",
      "talkAssetPathAlter": "",
      "talkAudioName": "",
      "actionBefore": "",
      "actionWhile": "",
      "actionAfter": "",
      "optionIcon": "",
      "iconPath": ""
    }
  ]
}