{
  "talkId": 6207304,
  "KPGKDHAFHFE": "FREE",
  "dialogList": [
    {
      "id": 620730401,
      "nextDialogs": [
        620730402
      ],
      "talkRole": {
        "type": "TALK_ROLE_PLAYER",
        "_id": ""
      },
      "talkContentTextMapHash": 2049881855,
      "talkAssetPath": "",
      "talkAssetPathAlter": "",
      "talkAudioName": "",
      "actionBefore": "",
      "actionWhile": "",
      "actionAfter": "",
      "optionIcon": "",
      "iconPath": ""
    },
    {
      "id": 620730402,
      "talkRole": {
        "type": "TALK_ROLE_NPC",
        "_id": "2073"
      },
      "talkContentTextMapHash": 2801866255,
      "talkAssetPath": "",
      "talkAssetPathAlter": "",
      "talkAudioName": "",
      "actionBefore": "",
      "actionWhile": "",
      "actionAfter": "",
      "optionIcon": "",
      "iconPath": ""
    }
  ]
}