{
  "talkId": 6208603,
  "KPGKDHAFHFE": "FREE",
  "dialogList": [
    {
      "id": 620860301,
      "nextDialogs": [
        620860302
      ],
      "talkRole": {
        "type": "TALK_ROLE_NPC",
        "_id": "2086"
      },
      "talkContentTextMapHash": 2301789631,
      "talkAssetPath": "",
      "talkAssetPathAlter": "",
      "talkAudioName": "",
      "actionBefore": "",
      "actionWhile": "",
      "actionAfter": "",
      "optionIcon": "",
      "iconPath": ""
    },
    {
      "id": 620860302,
      "nextDialogs": [
        620860303
      ],
      "talkRole": {
        "type": "TALK_ROLE_NPC",
        "_id": "2086"
      },
      "talkContentTextMapHash": 4035034815,
      "talkAssetPath": "",
      "talkAssetPathAlter": "",
      "talkAudioName": "",
      "actionBefore": "",
      "actionWhile": "",
      "actionAfter": "",
      "optionIcon": "",
      "iconPath": ""
    },
    {
      "id": 620860303,
      "nextDialogs": [
        620860304
      ],
      "talkRole": {
        "type": "TALK_ROLE_NPC",
        "_id": "2086"
      },
      "talkContentTextMapHash": 27119079,
      "talkAssetPath": "",
      "talkAssetPathAlter": "",
      "talkAudioName": "",
      "actionBefore": "",
      "actionWhile": "",
      "actionAfter": "",
      "optionIcon": "",
      "iconPath": ""
    },
    {
      "id": 620860304,
      "nextDialogs": [
        620860305
      ],
      "talkRole": {
        "type": "TALK_ROLE_NPC",
        "_id": "2086"
      },
      "talkContentTextMapHash": 936458879,
      "talkAssetPath": "",
      "talkAssetPathAlter": "",
      "talkAudioName": "",
      "actionBefore": "",
      "actionWhile": "",
      "actionAfter": "",
      "optionIcon": "",
      "iconPath": ""
    },
    {
      "id": 620860305,
      "talkRole": {
        "type": "TALK_ROLE_NPC",
        "_id": "2086"
      },
      "talkContentTextMapHash": 3556260671,
      "talkAssetPath": "",
      "talkAssetPathAlter": "",
      "talkAudioName": "",
      "actionBefore": "",
      "actionWhile": "",
      "actionAfter": "",
      "optionIcon": "",
      "iconPath": ""
    }
  ]
}