{
  "talkId": 6208001,
  "KPGKDHAFHFE": "FREE",
  "dialogList": [
    {
      "id": 620800101,
      "talkRole": {
        "type": "TALK_ROLE_NPC",
        "_id": "2080"
      },
      "talkContentTextMapHash": 1363047815,
      "talkAssetPath": "",
      "talkAssetPathAlter": "",
      "talkAudioName": "",
      "actionBefore": "",
      "actionWhile": "TEST/LerpInNpcNoSteer",
      "actionAfter": "",
      "optionIcon": "",
      "iconPath": ""
    }
  ]
}