{
  "talkId": 6209301,
  "KPGKDHAFHFE": "FREE",
  "dialogList": [
    {
      "id": 620930101,
      "talkRole": {
        "type": "TALK_ROLE_NPC",
        "_id": "2093"
      },
      "talkContentTextMapHash": 217880783,
      "talkAssetPath": "",
      "talkAssetPathAlter": "",
      "talkAudioName": "",
      "actionBefore": "",
      "actionWhile": "TEST/LerpInNpc",
      "actionAfter": "",
      "optionIcon": "",
      "iconPath": ""
    }
  ]
}