{
  "talkId": 6209007,
  "KPGKDHAFHFE": "FREE",
  "dialogList": [
    {
      "id": 620900701,
      "nextDialogs": [
        620900702
      ],
      "talkRole": {
        "type": "TALK_ROLE_PLAYER",
        "_id": ""
      },
      "talkContentTextMapHash": 557093143,
      "talkAssetPath": "",
      "talkAssetPathAlter": "",
      "talkAudioName": "",
      "actionBefore": "",
      "actionWhile": "",
      "actionAfter": "",
      "optionIcon": "",
      "iconPath": ""
    },
    {
      "id": 620900702,
      "nextDialogs": [
        620900703
      ],
      "talkRole": {
        "type": "TALK_ROLE_NPC",
        "_id": "2090"
      },
      "talkContentTextMapHash": 1344668143,
      "talkAssetPath": "",
      "talkAssetPathAlter": "",
      "talkAudioName": "",
      "actionBefore": "",
      "actionWhile": "",
      "actionAfter": "",
      "optionIcon": "",
      "iconPath": ""
    },
    {
      "id": 620900703,
      "nextDialogs": [
        620900704
      ],
      "talkRole": {
        "type": "TALK_ROLE_NPC",
        "_id": "2090"
      },
      "talkContentTextMapHash": 3945433463,
      "talkAssetPath": "",
      "talkAssetPathAlter": "",
      "talkAudioName": "",
      "actionBefore": "",
      "actionWhile": "",
      "actionAfter": "",
      "optionIcon": "",
      "iconPath": ""
    },
    {
      "id": 620900704,
      "talkRole": {
        "type": "TALK_ROLE_NPC",
        "_id": "2090"
      },
      "talkContentTextMapHash": 1362225927,
      "talkAssetPath": "",
      "talkAssetPathAlter": "",
      "talkAudioName": "",
      "actionBefore": "",
      "actionWhile": "",
      "actionAfter": "",
      "optionIcon": "",
      "iconPath": ""
    }
  ]
}