{
  "talkId": 6209706,
  "KPGKDHAFHFE": "FREE",
  "dialogList": [
    {
      "id": 620970601,
      "nextDialogs": [
        620970602
      ],
      "talkRole": {
        "type": "TALK_ROLE_PLAYER",
        "_id": ""
      },
      "talkContentTextMapHash": 3699214503,
      "talkAssetPath": "",
      "talkAssetPathAlter": "",
      "talkAudioName": "",
      "actionBefore": "",
      "actionWhile": "",
      "actionAfter": "",
      "optionIcon": "",
      "iconPath": ""
    },
    {
      "id": 620970602,
      "nextDialogs": [
        620970603
      ],
      "talkRole": {
        "type": "TALK_ROLE_NPC",
        "_id": "2097"
      },
      "talkContentTextMapHash": 3710456847,
      "talkAssetPath": "",
      "talkAssetPathAlter": "",
      "talkAudioName": "",
      "actionBefore": "",
      "actionWhile": "",
      "actionAfter": "",
      "optionIcon": "",
      "iconPath": ""
    },
    {
      "id": 620970603,
      "nextDialogs": [
        620970604
      ],
      "talkRole": {
        "type": "TALK_ROLE_NPC",
        "_id": "2097"
      },
      "talkContentTextMapHash": 2218776063,
      "talkAssetPath": "",
      "talkAssetPathAlter": "",
      "talkAudioName": "",
      "actionBefore": "",
      "actionWhile": "",
      "actionAfter": "",
      "optionIcon": "",
      "iconPath": ""
    },
    {
      "id": 620970604,
      "nextDialogs": [
        620970605
      ],
      "talkRole": {
        "type": "TALK_ROLE_NPC",
        "_id": "2097"
      },
      "talkContentTextMapHash": 3019976999,
      "talkAssetPath": "",
      "talkAssetPathAlter": "",
      "talkAudioName": "",
      "actionBefore": "",
      "actionWhile": "",
      "actionAfter": "",
      "optionIcon": "",
      "iconPath": ""
    },
    {
      "id": 620970605,
      "talkRole": {
        "type": "TALK_ROLE_NPC",
        "_id": "2097"
      },
      "talkContentTextMapHash": 2091655879,
      "talkAssetPath": "",
      "talkAssetPathAlter": "",
      "talkAudioName": "",
      "actionBefore": "",
      "actionWhile": "",
      "actionAfter": "",
      "optionIcon": "",
      "iconPath": ""
    }
  ]
}