{
  "talkId": 6209401,
  "KPGKDHAFHFE": "FREE",
  "dialogList": [
    {
      "id": 620940101,
      "nextDialogs": [
        620940102
      ],
      "talkRole": {
        "type": "TALK_ROLE_NPC",
        "_id": "2094"
      },
      "talkContentTextMapHash": 3206186103,
      "talkAssetPath": "",
      "talkAssetPathAlter": "",
      "talkAudioName": "",
      "actionBefore": "",
      "actionWhile": "TEST/LerpInNpc",
      "actionAfter": "",
      "optionIcon": "",
      "iconPath": ""
    },
    {
      "id": 620940102,
      "talkRole": {
        "type": "TALK_ROLE_NPC",
        "_id": "2094"
      },
      "talkContentTextMapHash": 1435559199,
      "talkAssetPath": "",
      "talkAssetPathAlter": "",
      "talkAudioName": "",
      "actionBefore": "",
      "actionWhile": "",
      "actionAfter": "",
      "optionIcon": "",
      "iconPath": ""
    }
  ]
}