{
  "talkId": 6209503,
  "KPGKDHAFHFE": "FREE",
  "dialogList": [
    {
      "id": 620950301,
      "nextDialogs": [
        620950302
      ],
      "talkRole": {
        "type": "TALK_ROLE_NPC",
        "_id": "2095"
      },
      "talkContentTextMapHash": 1986181095,
      "talkAssetPath": "",
      "talkAssetPathAlter": "",
      "talkAudioName": "",
      "actionBefore": "",
      "actionWhile": "",
      "actionAfter": "",
      "optionIcon": "",
      "iconPath": ""
    },
    {
      "id": 620950302,
      "nextDialogs": [
        620950303
      ],
      "talkRole": {
        "type": "TALK_ROLE_NPC",
        "_id": "2095"
      },
      "talkContentTextMapHash": 2240078919,
      "talkAssetPath": "",
      "talkAssetPathAlter": "",
      "talkAudioName": "",
      "actionBefore": "",
      "actionWhile": "",
      "actionAfter": "",
      "optionIcon": "",
      "iconPath": ""
    },
    {
      "id": 620950303,
      "talkRole": {
        "type": "TALK_ROLE_NPC",
        "_id": "2095"
      },
      "talkContentTextMapHash": 3985518759,
      "talkAssetPath": "",
      "talkAssetPathAlter": "",
      "talkAudioName": "",
      "actionBefore": "",
      "actionWhile": "",
      "actionAfter": "",
      "optionIcon": "",
      "iconPath": ""
    }
  ]
}