{
  "talkId": 6209703,
  "KPGKDHAFHFE": "FREE",
  "dialogList": [
    {
      "id": 620970301,
      "nextDialogs": [
        620970302
      ],
      "talkRole": {
        "type": "TALK_ROLE_NPC",
        "_id": "2097"
      },
      "talkContentTextMapHash": 347682519,
      "talkAssetPath": "",
      "talkAssetPathAlter": "",
      "talkAudioName": "",
      "actionBefore": "",
      "actionWhile": "",
      "actionAfter": "",
      "optionIcon": "",
      "iconPath": ""
    },
    {
      "id": 620970302,
      "nextDialogs": [
        620970303
      ],
      "talkRole": {
        "type": "TALK_ROLE_NPC",
        "_id": "2097"
      },
      "talkContentTextMapHash": 2316020031,
      "talkAssetPath": "",
      "talkAssetPathAlter": "",
      "talkAudioName": "",
      "actionBefore": "",
      "actionWhile": "",
      "actionAfter": "",
      "optionIcon": "",
      "iconPath": ""
    },
    {
      "id": 620970303,
      "nextDialogs": [
        620970304
      ],
      "talkRole": {
        "type": "TALK_ROLE_NPC",
        "_id": "2097"
      },
      "talkContentTextMapHash": 3866904767,
      "talkAssetPath": "",
      "talkAssetPathAlter": "",
      "talkAudioName": "",
      "actionBefore": "",
      "actionWhile": "",
      "actionAfter": "",
      "optionIcon": "",
      "iconPath": ""
    },
    {
      "id": 620970304,
      "nextDialogs": [
        620970305
      ],
      "talkRole": {
        "type": "TALK_ROLE_NPC",
        "_id": "2097"
      },
      "talkContentTextMapHash": 209540231,
      "talkAssetPath": "",
      "talkAssetPathAlter": "",
      "talkAudioName": "",
      "actionBefore": "",
      "actionWhile": "",
      "actionAfter": "",
      "optionIcon": "",
      "iconPath": ""
    },
    {
      "id": 620970305,
      "talkRole": {
        "type": "TALK_ROLE_NPC",
        "_id": "2097"
      },
      "talkContentTextMapHash": 660685839,
      "talkAssetPath": "",
      "talkAssetPathAlter": "",
      "talkAudioName": "",
      "actionBefore": "",
      "actionWhile": "",
      "actionAfter": "",
      "optionIcon": "",
      "iconPath": ""
    }
  ]
}