{
  "talkId": 6210603,
  "KPGKDHAFHFE": "FREE",
  "dialogList": [
    {
      "id": 621060301,
      "nextDialogs": [
        621060302
      ],
      "talkRole": {
        "type": "TALK_ROLE_PLAYER",
        "_id": ""
      },
      "talkContentTextMapHash": 895395919,
      "talkAssetPath": "",
      "talkAssetPathAlter": "",
      "talkAudioName": "",
      "actionBefore": "",
      "actionWhile": "",
      "actionAfter": "",
      "optionIcon": "",
      "iconPath": ""
    },
    {
      "id": 621060302,
      "talkRole": {
        "type": "TALK_ROLE_NPC",
        "_id": "2106"
      },
      "talkContentTextMapHash": 4148813527,
      "talkAssetPath": "",
      "talkAssetPathAlter": "",
      "talkAudioName": "",
      "actionBefore": "",
      "actionWhile": "",
      "actionAfter": "",
      "optionIcon": "",
      "iconPath": ""
    }
  ]
}