{
  "talkId": 6210403,
  "KPGKDHAFHFE": "FREE",
  "dialogList": [
    {
      "id": 621040301,
      "nextDialogs": [
        621040302
      ],
      "talkRole": {
        "type": "TALK_ROLE_PLAYER",
        "_id": ""
      },
      "talkContentTextMapHash": 339539951,
      "talkAssetPath": "",
      "talkAssetPathAlter": "",
      "talkAudioName": "",
      "actionBefore": "",
      "actionWhile": "",
      "actionAfter": "",
      "optionIcon": "",
      "iconPath": ""
    },
    {
      "id": 621040302,
      "nextDialogs": [
        621040303
      ],
      "talkRole": {
        "type": "TALK_ROLE_NPC",
        "_id": "2104"
      },
      "talkContentTextMapHash": 2363322535,
      "talkAssetPath": "",
      "talkAssetPathAlter": "",
      "talkAudioName": "",
      "actionBefore": "",
      "actionWhile": "",
      "actionAfter": "",
      "optionIcon": "",
      "iconPath": ""
    },
    {
      "id": 621040303,
      "nextDialogs": [
        621040304
      ],
      "talkRole": {
        "type": "TALK_ROLE_NPC",
        "_id": "2104"
      },
      "talkContentTextMapHash": 2486203191,
      "talkAssetPath": "",
      "talkAssetPathAlter": "",
      "talkAudioName": "",
      "actionBefore": "",
      "actionWhile": "",
      "actionAfter": "",
      "optionIcon": "",
      "iconPath": ""
    },
    {
      "id": 621040304,
      "nextDialogs": [
        621040305
      ],
      "talkRole": {
        "type": "TALK_ROLE_NPC",
        "_id": "2104"
      },
      "talkContentTextMapHash": 2920678063,
      "talkAssetPath": "",
      "talkAssetPathAlter": "",
      "talkAudioName": "",
      "actionBefore": "",
      "actionWhile": "",
      "actionAfter": "",
      "optionIcon": "",
      "iconPath": ""
    },
    {
      "id": 621040305,
      "talkRole": {
        "type": "TALK_ROLE_NPC",
        "_id": "2104"
      },
      "talkContentTextMapHash": 896195559,
      "talkAssetPath": "",
      "talkAssetPathAlter": "",
      "talkAudioName": "",
      "actionBefore": "",
      "actionWhile": "",
      "actionAfter": "",
      "optionIcon": "",
      "iconPath": ""
    }
  ]
}