{
  "talkId": 6210602,
  "KPGKDHAFHFE": "FREE",
  "dialogList": [
    {
      "id": 621060201,
      "nextDialogs": [
        621060202
      ],
      "talkRole": {
        "type": "TALK_ROLE_PLAYER",
        "_id": ""
      },
      "talkContentTextMapHash": 3758920647,
      "talkAssetPath": "",
      "talkAssetPathAlter": "",
      "talkAudioName": "",
      "actionBefore": "",
      "actionWhile": "",
      "actionAfter": "",
      "optionIcon": "",
      "iconPath": ""
    },
    {
      "id": 621060202,
      "nextDialogs": [
        621060203
      ],
      "talkRole": {
        "type": "TALK_ROLE_NPC",
        "_id": "2106"
      },
      "talkContentTextMapHash": 620369431,
      "talkAssetPath": "",
      "talkAssetPathAlter": "",
      "talkAudioName": "",
      "actionBefore": "",
      "actionWhile": "",
      "actionAfter": "",
      "optionIcon": "",
      "iconPath": ""
    },
    {
      "id": 621060203,
      "nextDialogs": [
        621060204
      ],
      "talkRole": {
        "type": "TALK_ROLE_NPC",
        "_id": "2106"
      },
      "talkContentTextMapHash": 659173071,
      "talkAssetPath": "",
      "talkAssetPathAlter": "",
      "talkAudioName": "",
      "actionBefore": "",
      "actionWhile": "",
      "actionAfter": "",
      "optionIcon": "",
      "iconPath": ""
    },
    {
      "id": 621060204,
      "nextDialogs": [
        621060205
      ],
      "talkRole": {
        "type": "TALK_ROLE_NPC",
        "_id": "2106"
      },
      "talkContentTextMapHash": 2523670503,
      "talkAssetPath": "",
      "talkAssetPathAlter": "",
      "talkAudioName": "",
      "actionBefore": "",
      "actionWhile": "",
      "actionAfter": "",
      "optionIcon": "",
      "iconPath": ""
    },
    {
      "id": 621060205,
      "nextDialogs": [
        621060206
      ],
      "talkRole": {
        "type": "TALK_ROLE_NPC",
        "_id": "2106"
      },
      "talkContentTextMapHash": 1703196191,
      "talkAssetPath": "",
      "talkAssetPathAlter": "",
      "talkAudioName": "",
      "actionBefore": "",
      "actionWhile": "",
      "actionAfter": "",
      "optionIcon": "",
      "iconPath": ""
    },
    {
      "id": 621060206,
      "talkRole": {
        "type": "TALK_ROLE_NPC",
        "_id": "2106"
      },
      "talkContentTextMapHash": 3409851951,
      "talkAssetPath": "",
      "talkAssetPathAlter": "",
      "talkAudioName": "",
      "actionBefore": "",
      "actionWhile": "",
      "actionAfter": "",
      "optionIcon": "",
      "iconPath": ""
    }
  ]
}