{
  "talkId": 6210101,
  "KPGKDHAFHFE": "FREE",
  "dialogList": [
    {
      "id": 621010101,
      "talkRole": {
        "type": "TALK_ROLE_NPC",
        "_id": "2101"
      },
      "talkContentTextMapHash": 2782580599,
      "talkAssetPath": "",
      "talkAssetPathAlter": "",
      "talkAudioName": "",
      "actionBefore": "",
      "actionWhile": "TEST/LerpInNpc",
      "actionAfter": "",
      "optionIcon": "",
      "iconPath": ""
    }
  ]
}