{
  "talkId": 6211801,
  "KPGKDHAFHFE": "FREE",
  "dialogList": [
    {
      "id": 621180101,
      "nextDialogs": [
        621180102
      ],
      "talkRole": {
        "type": "TALK_ROLE_NPC",
        "_id": "2118"
      },
      "talkContentTextMapHash": 3048672991,
      "talkAssetPath": "",
      "talkAssetPathAlter": "",
      "talkAudioName": "",
      "actionBefore": "",
      "actionWhile": "TEST/LerpInNpc",
      "actionAfter": "",
      "optionIcon": "",
      "iconPath": ""
    },
    {
      "id": 621180102,
      "talkRole": {
        "type": "TALK_ROLE_NPC",
        "_id": "2118"
      },
      "talkContentTextMapHash": 2388331047,
      "talkAssetPath": "",
      "talkAssetPathAlter": "",
      "talkAudioName": "",
      "actionBefore": "",
      "actionWhile": "",
      "actionAfter": "",
      "optionIcon": "",
      "iconPath": ""
    }
  ]
}