{
  "talkId": 6211903,
  "KPGKDHAFHFE": "FREE",
  "dialogList": [
    {
      "id": 621190301,
      "nextDialogs": [
        621190302
      ],
      "talkRole": {
        "type": "TALK_ROLE_PLAYER",
        "_id": ""
      },
      "talkContentTextMapHash": 1763620327,
      "talkAssetPath": "",
      "talkAssetPathAlter": "",
      "talkAudioName": "",
      "actionBefore": "",
      "actionWhile": "",
      "actionAfter": "",
      "optionIcon": "",
      "iconPath": ""
    },
    {
      "id": 621190302,
      "talkRole": {
        "type": "TALK_ROLE_NPC",
        "_id": "2119"
      },
      "talkContentTextMapHash": 3900718927,
      "talkAssetPath": "",
      "talkAssetPathAlter": "",
      "talkAudioName": "",
      "actionBefore": "",
      "actionWhile": "",
      "actionAfter": "",
      "optionIcon": "",
      "iconPath": ""
    }
  ]
}