{
  "talkId": 6211501,
  "KPGKDHAFHFE": "FREE",
  "dialogList": [
    {
      "id": 621150101,
      "talkRole": {
        "type": "TALK_ROLE_NPC",
        "_id": "2115"
      },
      "talkContentTextMapHash": 2361949535,
      "talkAssetPath": "",
      "talkAssetPathAlter": "",
      "talkAudioName": "",
      "actionBefore": "",
      "actionWhile": "TEST/LerpInNpcNoSteer",
      "actionAfter": "",
      "optionIcon": "",
      "iconPath": ""
    }
  ]
}