{
  "talkId": 6212001,
  "KPGKDHAFHFE": "FREE",
  "dialogList": [
    {
      "id": 621200101,
      "nextDialogs": [
        621200102
      ],
      "talkRole": {
        "type": "TALK_ROLE_NPC",
        "_id": "2120"
      },
      "talkContentTextMapHash": 2639802735,
      "talkAssetPath": "",
      "talkAssetPathAlter": "",
      "talkAudioName": "",
      "actionBefore": "",
      "actionWhile": "TEST/LerpInNpc",
      "actionAfter": "",
      "optionIcon": "",
      "iconPath": ""
    },
    {
      "id": 621200102,
      "talkRole": {
        "type": "TALK_ROLE_NPC",
        "_id": "2120"
      },
      "talkContentTextMapHash": 347900543,
      "talkAssetPath": "",
      "talkAssetPathAlter": "",
      "talkAudioName": "",
      "actionBefore": "",
      "actionWhile": "",
      "actionAfter": "",
      "optionIcon": "",
      "iconPath": ""
    }
  ]
}