{
  "talkId": 6212702,
  "KPGKDHAFHFE": "FREE",
  "dialogList": [
    {
      "id": 621270201,
      "nextDialogs": [
        621270202
      ],
      "talkRole": {
        "type": "TALK_ROLE_PLAYER",
        "_id": ""
      },
      "talkContentTextMapHash": 502026039,
      "talkAssetPath": "",
      "talkAssetPathAlter": "",
      "talkAudioName": "",
      "actionBefore": "",
      "actionWhile": "",
      "actionAfter": "",
      "optionIcon": "",
      "iconPath": ""
    },
    {
      "id": 621270202,
      "nextDialogs": [
        621270203
      ],
      "talkRole": {
        "type": "TALK_ROLE_NPC",
        "_id": "2127"
      },
      "talkContentTextMapHash": 2073992623,
      "talkAssetPath": "",
      "talkAssetPathAlter": "",
      "talkAudioName": "",
      "actionBefore": "",
      "actionWhile": "",
      "actionAfter": "",
      "optionIcon": "",
      "iconPath": ""
    },
    {
      "id": 621270203,
      "nextDialogs": [
        621270204
      ],
      "talkRole": {
        "type": "TALK_ROLE_NPC",
        "_id": "2127"
      },
      "talkContentTextMapHash": 1576256823,
      "talkAssetPath": "",
      "talkAssetPathAlter": "",
      "talkAudioName": "",
      "actionBefore": "",
      "actionWhile": "",
      "actionAfter": "",
      "optionIcon": "",
      "iconPath": ""
    },
    {
      "id": 621270204,
      "nextDialogs": [
        621270205
      ],
      "talkShowType": "TALK_SHOW_FORCE_SELECT",
      "talkRole": {
        "type": "TALK_ROLE_PLAYER",
        "_id": ""
      },
      "talkContentTextMapHash": 829122511,
      "talkAssetPath": "",
      "talkAssetPathAlter": "",
      "talkAudioName": "",
      "actionBefore": "",
      "actionWhile": "",
      "actionAfter": "",
      "optionIcon": "",
      "iconPath": ""
    },
    {
      "id": 621270205,
      "nextDialogs": [
        621270206
      ],
      "talkRole": {
        "type": "TALK_ROLE_NPC",
        "_id": "2127"
      },
      "talkContentTextMapHash": 1141511159,
      "talkAssetPath": "",
      "talkAssetPathAlter": "",
      "talkAudioName": "",
      "actionBefore": "",
      "actionWhile": "",
      "actionAfter": "",
      "optionIcon": "",
      "iconPath": ""
    },
    {
      "id": 621270206,
      "nextDialogs": [
        621270207
      ],
      "talkRole": {
        "type": "TALK_ROLE_NPC",
        "_id": "2127"
      },
      "talkContentTextMapHash": 2555552247,
      "talkAssetPath": "",
      "talkAssetPathAlter": "",
      "talkAudioName": "",
      "actionBefore": "",
      "actionWhile": "",
      "actionAfter": "",
      "optionIcon": "",
      "iconPath": ""
    },
    {
      "id": 621270207,
      "talkRole": {
        "type": "TALK_ROLE_NPC",
        "_id": "2127"
      },
      "talkContentTextMapHash": 3973710463,
      "talkAssetPath": "",
      "talkAssetPathAlter": "",
      "talkAudioName": "",
      "actionBefore": "",
      "actionWhile": "",
      "actionAfter": "",
      "optionIcon": "",
      "iconPath": ""
    }
  ]
}