{
  "talkId": 6212003,
  "KPGKDHAFHFE": "FREE",
  "dialogList": [
    {
      "id": 621200301,
      "nextDialogs": [
        621200302
      ],
      "talkRole": {
        "type": "TALK_ROLE_PLAYER",
        "_id": ""
      },
      "talkContentTextMapHash": 831659775,
      "talkAssetPath": "",
      "talkAssetPathAlter": "",
      "talkAudioName": "",
      "actionBefore": "",
      "actionWhile": "",
      "actionAfter": "",
      "optionIcon": "",
      "iconPath": ""
    },
    {
      "id": 621200302,
      "talkRole": {
        "type": "TALK_ROLE_NPC",
        "_id": "2120"
      },
      "talkContentTextMapHash": 3998317279,
      "talkAssetPath": "",
      "talkAssetPathAlter": "",
      "talkAudioName": "",
      "actionBefore": "",
      "actionWhile": "",
      "actionAfter": "",
      "optionIcon": "",
      "iconPath": ""
    }
  ]
}