{
  "talkId": 6213101,
  "KPGKDHAFHFE": "FREE",
  "dialogList": [
    {
      "id": 621310101,
      "nextDialogs": [
        621310102
      ],
      "talkRole": {
        "type": "TALK_ROLE_NPC",
        "_id": "2131"
      },
      "talkContentTextMapHash": 3645281775,
      "talkAssetPath": "",
      "talkAssetPathAlter": "",
      "talkAudioName": "",
      "actionBefore": "",
      "actionWhile": "TEST/LerpInNpcNoSteer",
      "actionAfter": "",
      "optionIcon": "",
      "iconPath": ""
    },
    {
      "id": 621310102,
      "talkRole": {
        "type": "TALK_ROLE_NPC",
        "_id": "2131"
      },
      "talkContentTextMapHash": 831772599,
      "talkAssetPath": "",
      "talkAssetPathAlter": "",
      "talkAudioName": "",
      "actionBefore": "",
      "actionWhile": "",
      "actionAfter": "",
      "optionIcon": "",
      "iconPath": ""
    }
  ]
}