{
  "talkId": 6213902,
  "KPGKDHAFHFE": "FREE",
  "dialogList": [
    {
      "id": 621390201,
      "nextDialogs": [
        621390202
      ],
      "talkRole": {
        "type": "TALK_ROLE_PLAYER",
        "_id": ""
      },
      "talkContentTextMapHash": 198495231,
      "talkAssetPath": "",
      "talkAssetPathAlter": "",
      "talkAudioName": "",
      "actionBefore": "",
      "actionWhile": "",
      "actionAfter": "",
      "optionIcon": "",
      "iconPath": ""
    },
    {
      "id": 621390202,
      "nextDialogs": [
        621390203
      ],
      "talkRole": {
        "type": "TALK_ROLE_NPC",
        "_id": "2139"
      },
      "talkContentTextMapHash": 2045320143,
      "talkAssetPath": "",
      "talkAssetPathAlter": "",
      "talkAudioName": "",
      "actionBefore": "",
      "actionWhile": "",
      "actionAfter": "",
      "optionIcon": "",
      "iconPath": ""
    },
    {
      "id": 621390203,
      "talkRole": {
        "type": "TALK_ROLE_NPC",
        "_id": "2139"
      },
      "talkContentTextMapHash": 1606093279,
      "talkAssetPath": "",
      "talkAssetPathAlter": "",
      "talkAudioName": "",
      "actionBefore": "",
      "actionWhile": "",
      "actionAfter": "",
      "optionIcon": "",
      "iconPath": ""
    }
  ]
}