{
  "talkId": 6214307,
  "KPGKDHAFHFE": "FREE",
  "dialogList": [
    {
      "id": 621430701,
      "nextDialogs": [
        621430702
      ],
      "talkShowType": "TALK_SHOW_FORCE_SELECT",
      "talkRole": {
        "type": "TALK_ROLE_PLAYER",
        "_id": ""
      },
      "talkContentTextMapHash": 3707968650,
      "talkAssetPath": "",
      "talkAssetPathAlter": "",
      "talkAudioName": "",
      "actionBefore": "",
      "actionWhile": "",
      "actionAfter": "",
      "optionIcon": "",
      "iconPath": ""
    },
    {
      "id": 621430702,
      "nextDialogs": [
        621430703
      ],
      "talkRole": {
        "type": "TALK_ROLE_NPC",
        "_id": "2143"
      },
      "talkContentTextMapHash": 335036258,
      "talkAssetPath": "",
      "talkAssetPathAlter": "",
      "talkAudioName": "",
      "actionBefore": "",
      "actionWhile": "",
      "actionAfter": "",
      "optionIcon": "",
      "iconPath": ""
    },
    {
      "id": 621430703,
      "nextDialogs": [
        621430704
      ],
      "talkRole": {
        "type": "TALK_ROLE_NPC",
        "_id": "2143"
      },
      "talkContentTextMapHash": 3018954642,
      "talkAssetPath": "",
      "talkAssetPathAlter": "",
      "talkAudioName": "",
      "actionBefore": "",
      "actionWhile": "",
      "actionAfter": "",
      "optionIcon": "",
      "iconPath": ""
    },
    {
      "id": 621430704,
      "nextDialogs": [
        621430705
      ],
      "talkRole": {
        "type": "TALK_ROLE_NPC",
        "_id": "2143"
      },
      "talkContentTextMapHash": 1967817506,
      "talkAssetPath": "",
      "talkAssetPathAlter": "",
      "talkAudioName": "",
      "actionBefore": "",
      "actionWhile": "",
      "actionAfter": "",
      "optionIcon": "",
      "iconPath": ""
    },
    {
      "id": 621430705,
      "talkRole": {
        "type": "TALK_ROLE_NPC",
        "_id": "2143"
      },
      "talkContentTextMapHash": 696966170,
      "talkAssetPath": "",
      "talkAssetPathAlter": "",
      "talkAudioName": "",
      "actionBefore": "",
      "actionWhile": "",
      "actionAfter": "",
      "optionIcon": "",
      "iconPath": ""
    }
  ]
}