{
  "talkId": 6214203,
  "KPGKDHAFHFE": "FREE",
  "dialogList": [
    {
      "id": 621420301,
      "nextDialogs": [
        621420302
      ],
      "talkRole": {
        "type": "TALK_ROLE_PLAYER",
        "_id": ""
      },
      "talkContentTextMapHash": 2860000607,
      "talkAssetPath": "",
      "talkAssetPathAlter": "",
      "talkAudioName": "",
      "actionBefore": "",
      "actionWhile": "",
      "actionAfter": "",
      "optionIcon": "",
      "iconPath": ""
    },
    {
      "id": 621420302,
      "talkRole": {
        "type": "TALK_ROLE_NPC",
        "_id": "2142"
      },
      "talkContentTextMapHash": 151754135,
      "talkAssetPath": "",
      "talkAssetPathAlter": "",
      "talkAudioName": "",
      "actionBefore": "",
      "actionWhile": "",
      "actionAfter": "",
      "optionIcon": "",
      "iconPath": ""
    }
  ]
}