{
  "talkId": 6214505,
  "KPGKDHAFHFE": "FREE",
  "dialogList": [
    {
      "id": 621450501,
      "nextDialogs": [
        621450502
      ],
      "talkShowType": "TALK_SHOW_FORCE_SELECT",
      "talkRole": {
        "type": "TALK_ROLE_PLAYER",
        "_id": ""
      },
      "talkContentTextMapHash": 1711770863,
      "talkAssetPath": "",
      "talkAssetPathAlter": "",
      "talkAudioName": "",
      "actionBefore": "",
      "actionWhile": "",
      "actionAfter": "",
      "optionIcon": "UI_Icon_Intee_Shop",
      "iconPath": ""
    },
    {
      "id": 621450502,
      "nextDialogs": [
        621450503
      ],
      "talkRole": {
        "type": "TALK_ROLE_NPC",
        "_id": "2145"
      },
      "talkContentTextMapHash": 2057407991,
      "talkAssetPath": "",
      "talkAssetPathAlter": "",
      "talkAudioName": "",
      "actionBefore": "",
      "actionWhile": "",
      "actionAfter": "",
      "optionIcon": "",
      "iconPath": ""
    },
    {
      "id": 621450503,
      "nextDialogs": [
        621450504
      ],
      "talkRole": {
        "type": "TALK_ROLE_NPC",
        "_id": "2145"
      },
      "talkContentTextMapHash": 1829783143,
      "talkAssetPath": "",
      "talkAssetPathAlter": "",
      "talkAudioName": "",
      "actionBefore": "",
      "actionWhile": "",
      "actionAfter": "",
      "optionIcon": "",
      "iconPath": ""
    },
    {
      "id": 621450504,
      "talkRole": {
        "type": "TALK_ROLE_NPC",
        "_id": "2145"
      },
      "talkContentTextMapHash": 2259888775,
      "talkAssetPath": "",
      "talkAssetPathAlter": "",
      "talkAudioName": "",
      "actionBefore": "",
      "actionWhile": "",
      "actionAfter": "Shop/shop_open_1036",
      "optionIcon": "",
      "iconPath": ""
    }
  ]
}