{
  "talkId": 6214206,
  "KPGKDHAFHFE": "FREE",
  "dialogList": [
    {
      "id": 621420601,
      "nextDialogs": [
        621420602
      ],
      "talkShowType": "TALK_SHOW_FORCE_SELECT",
      "talkRole": {
        "type": "TALK_ROLE_PLAYER",
        "_id": ""
      },
      "talkContentTextMapHash": 2281239018,
      "talkAssetPath": "",
      "talkAssetPathAlter": "",
      "talkAudioName": "",
      "actionBefore": "",
      "actionWhile": "",
      "actionAfter": "",
      "optionIcon": "",
      "iconPath": ""
    },
    {
      "id": 621420602,
      "nextDialogs": [
        621420603
      ],
      "talkRole": {
        "type": "TALK_ROLE_NPC",
        "_id": "2142"
      },
      "talkContentTextMapHash": 3095183754,
      "talkAssetPath": "",
      "talkAssetPathAlter": "",
      "talkAudioName": "",
      "actionBefore": "",
      "actionWhile": "",
      "actionAfter": "",
      "optionIcon": "",
      "iconPath": ""
    },
    {
      "id": 621420603,
      "nextDialogs": [
        621420604
      ],
      "talkRole": {
        "type": "TALK_ROLE_NPC",
        "_id": "2142"
      },
      "talkContentTextMapHash": 1741607010,
      "talkAssetPath": "",
      "talkAssetPathAlter": "",
      "talkAudioName": "",
      "actionBefore": "",
      "actionWhile": "",
      "actionAfter": "",
      "optionIcon": "",
      "iconPath": ""
    },
    {
      "id": 621420604,
      "nextDialogs": [
        621420605
      ],
      "talkRole": {
        "type": "TALK_ROLE_NPC",
        "_id": "2142"
      },
      "talkContentTextMapHash": 3529830306,
      "talkAssetPath": "",
      "talkAssetPathAlter": "",
      "talkAudioName": "",
      "actionBefore": "",
      "actionWhile": "",
      "actionAfter": "",
      "optionIcon": "",
      "iconPath": ""
    },
    {
      "id": 621420605,
      "nextDialogs": [
        621420606
      ],
      "talkRole": {
        "type": "TALK_ROLE_NPC",
        "_id": "2142"
      },
      "talkContentTextMapHash": 4106065850,
      "talkAssetPath": "",
      "talkAssetPathAlter": "",
      "talkAudioName": "",
      "actionBefore": "",
      "actionWhile": "",
      "actionAfter": "",
      "optionIcon": "",
      "iconPath": ""
    },
    {
      "id": 621420606,
      "nextDialogs": [
        621420607
      ],
      "talkRole": {
        "type": "TALK_ROLE_NPC",
        "_id": "2142"
      },
      "talkContentTextMapHash": 752913298,
      "talkAssetPath": "",
      "talkAssetPathAlter": "",
      "talkAudioName": "",
      "actionBefore": "",
      "actionWhile": "",
      "actionAfter": "",
      "optionIcon": "",
      "iconPath": ""
    },
    {
      "id": 621420607,
      "talkRole": {
        "type": "TALK_ROLE_NPC",
        "_id": "2142"
      },
      "talkContentTextMapHash": 1062664314,
      "talkAssetPath": "",
      "talkAssetPathAlter": "",
      "talkAudioName": "",
      "actionBefore": "",
      "actionWhile": "",
      "actionAfter": "",
      "optionIcon": "",
      "iconPath": ""
    }
  ]
}