{
  "talkId": 6215403,
  "KPGKDHAFHFE": "FREE",
  "dialogList": [
    {
      "id": 621540301,
      "nextDialogs": [
        621540302
      ],
      "talkShowType": "TALK_SHOW_FORCE_SELECT",
      "talkRole": {
        "type": "TALK_ROLE_PLAYER",
        "_id": ""
      },
      "talkContentTextMapHash": 389453106,
      "talkAssetPath": "",
      "talkAssetPathAlter": "",
      "talkAudioName": "",
      "actionBefore": "",
      "actionWhile": "",
      "actionAfter": "",
      "optionIcon": "",
      "iconPath": ""
    },
    {
      "id": 621540302,
      "talkRole": {
        "type": "TALK_ROLE_NPC",
        "_id": "2154"
      },
      "talkContentTextMapHash": 3522909698,
      "talkAssetPath": "",
      "talkAssetPathAlter": "",
      "talkAudioName": "",
      "actionBefore": "",
      "actionWhile": "",
      "actionAfter": "",
      "optionIcon": "",
      "iconPath": ""
    }
  ]
}