{
  "talkId": 6216802,
  "KPGKDHAFHFE": "FREE",
  "dialogList": [
    {
      "id": 621680201,
      "nextDialogs": [
        621680202
      ],
      "talkShowType": "TALK_SHOW_FORCE_SELECT",
      "talkRole": {
        "type": "TALK_ROLE_PLAYER",
        "_id": ""
      },
      "talkContentTextMapHash": 116744666,
      "talkAssetPath": "",
      "talkAssetPathAlter": "",
      "talkAudioName": "",
      "actionBefore": "",
      "actionWhile": "",
      "actionAfter": "",
      "optionIcon": "",
      "iconPath": ""
    },
    {
      "id": 621680202,
      "nextDialogs": [
        621680203
      ],
      "talkRole": {
        "type": "TALK_ROLE_NPC",
        "_id": "2168"
      },
      "talkContentTextMapHash": 3488410498,
      "talkAssetPath": "",
      "talkAssetPathAlter": "",
      "talkAudioName": "",
      "actionBefore": "",
      "actionWhile": "",
      "actionAfter": "",
      "optionIcon": "",
      "iconPath": ""
    },
    {
      "id": 621680203,
      "nextDialogs": [
        621680204
      ],
      "talkRole": {
        "type": "TALK_ROLE_NPC",
        "_id": "2168"
      },
      "talkContentTextMapHash": 3902948738,
      "talkAssetPath": "",
      "talkAssetPathAlter": "",
      "talkAudioName": "",
      "actionBefore": "",
      "actionWhile": "",
      "actionAfter": "",
      "optionIcon": "",
      "iconPath": ""
    },
    {
      "id": 621680204,
      "nextDialogs": [
        621680205
      ],
      "talkRole": {
        "type": "TALK_ROLE_NPC",
        "_id": "2168"
      },
      "talkContentTextMapHash": 4003531842,
      "talkAssetPath": "",
      "talkAssetPathAlter": "",
      "talkAudioName": "",
      "actionBefore": "",
      "actionWhile": "",
      "actionAfter": "",
      "optionIcon": "",
      "iconPath": ""
    },
    {
      "id": 621680205,
      "talkRole": {
        "type": "TALK_ROLE_NPC",
        "_id": "2168"
      },
      "talkContentTextMapHash": 336882082,
      "talkAssetPath": "",
      "talkAssetPathAlter": "",
      "talkAudioName": "",
      "actionBefore": "",
      "actionWhile": "",
      "actionAfter": "",
      "optionIcon": "",
      "iconPath": ""
    }
  ]
}