{
  "talkId": 6216404,
  "KPGKDHAFHFE": "FREE",
  "dialogList": [
    {
      "id": 621640401,
      "nextDialogs": [
        621640402
      ],
      "talkShowType": "TALK_SHOW_FORCE_SELECT",
      "talkRole": {
        "type": "TALK_ROLE_PLAYER",
        "_id": ""
      },
      "talkContentTextMapHash": 1962208346,
      "talkAssetPath": "",
      "talkAssetPathAlter": "",
      "talkAudioName": "",
      "actionBefore": "",
      "actionWhile": "",
      "actionAfter": "",
      "optionIcon": "",
      "iconPath": ""
    },
    {
      "id": 621640402,
      "nextDialogs": [
        621640403
      ],
      "talkRole": {
        "type": "TALK_ROLE_NPC",
        "_id": "2164"
      },
      "talkContentTextMapHash": 2646148906,
      "talkAssetPath": "",
      "talkAssetPathAlter": "",
      "talkAudioName": "",
      "actionBefore": "",
      "actionWhile": "",
      "actionAfter": "",
      "optionIcon": "",
      "iconPath": ""
    },
    {
      "id": 621640403,
      "nextDialogs": [
        621640404
      ],
      "talkRole": {
        "type": "TALK_ROLE_NPC",
        "_id": "2164"
      },
      "talkContentTextMapHash": 3859603874,
      "talkAssetPath": "",
      "talkAssetPathAlter": "",
      "talkAudioName": "",
      "actionBefore": "",
      "actionWhile": "",
      "actionAfter": "",
      "optionIcon": "",
      "iconPath": ""
    },
    {
      "id": 621640404,
      "nextDialogs": [
        621640405
      ],
      "talkRole": {
        "type": "TALK_ROLE_NPC",
        "_id": "2164"
      },
      "talkContentTextMapHash": 3802729690,
      "talkAssetPath": "",
      "talkAssetPathAlter": "",
      "talkAudioName": "",
      "actionBefore": "",
      "actionWhile": "",
      "actionAfter": "",
      "optionIcon": "",
      "iconPath": ""
    },
    {
      "id": 621640405,
      "talkRole": {
        "type": "TALK_ROLE_NPC",
        "_id": "2164"
      },
      "talkContentTextMapHash": 793049186,
      "talkAssetPath": "",
      "talkAssetPathAlter": "",
      "talkAudioName": "",
      "actionBefore": "",
      "actionWhile": "",
      "actionAfter": "",
      "optionIcon": "",
      "iconPath": ""
    }
  ]
}