{
  "talkId": 6216402,
  "KPGKDHAFHFE": "FREE",
  "dialogList": [
    {
      "id": 621640201,
      "nextDialogs": [
        621640202
      ],
      "talkShowType": "TALK_SHOW_FORCE_SELECT",
      "talkRole": {
        "type": "TALK_ROLE_PLAYER",
        "_id": ""
      },
      "talkContentTextMapHash": 879050290,
      "talkAssetPath": "",
      "talkAssetPathAlter": "",
      "talkAudioName": "",
      "actionBefore": "",
      "actionWhile": "",
      "actionAfter": "",
      "optionIcon": "",
      "iconPath": ""
    },
    {
      "id": 621640202,
      "nextDialogs": [
        621640203
      ],
      "talkRole": {
        "type": "TALK_ROLE_NPC",
        "_id": "2164"
      },
      "talkContentTextMapHash": 1823749978,
      "talkAssetPath": "",
      "talkAssetPathAlter": "",
      "talkAudioName": "",
      "actionBefore": "",
      "actionWhile": "",
      "actionAfter": "",
      "optionIcon": "",
      "iconPath": ""
    },
    {
      "id": 621640203,
      "talkRole": {
        "type": "TALK_ROLE_NPC",
        "_id": "2164"
      },
      "talkContentTextMapHash": 4085087658,
      "talkAssetPath": "",
      "talkAssetPathAlter": "",
      "talkAudioName": "",
      "actionBefore": "",
      "actionWhile": "",
      "actionAfter": "",
      "optionIcon": "",
      "iconPath": ""
    }
  ]
}