{
  "talkId": 6216405,
  "KPGKDHAFHFE": "FREE",
  "dialogList": [
    {
      "id": 621640501,
      "nextDialogs": [
        621640502
      ],
      "talkShowType": "TALK_SHOW_FORCE_SELECT",
      "talkRole": {
        "type": "TALK_ROLE_PLAYER",
        "_id": ""
      },
      "talkContentTextMapHash": 593265730,
      "talkAssetPath": "",
      "talkAssetPathAlter": "",
      "talkAudioName": "",
      "actionBefore": "",
      "actionWhile": "",
      "actionAfter": "",
      "optionIcon": "",
      "iconPath": ""
    },
    {
      "id": 621640502,
      "talkRole": {
        "type": "TALK_ROLE_NPC",
        "_id": "2164"
      },
      "talkContentTextMapHash": 2482511514,
      "talkAssetPath": "",
      "talkAssetPathAlter": "",
      "talkAudioName": "",
      "actionBefore": "",
      "actionWhile": "",
      "actionAfter": "",
      "optionIcon": "",
      "iconPath": ""
    }
  ]
}