{
  "talkId": 6219902,
  "KPGKDHAFHFE": "FREE",
  "dialogList": [
    {
      "id": 621990201,
      "nextDialogs": [
        621990202
      ],
      "talkShowType": "TALK_SHOW_FORCE_SELECT",
      "talkRole": {
        "type": "TALK_ROLE_PLAYER",
        "_id": ""
      },
      "talkContentTextMapHash": 810193794,
      "talkAssetPath": "",
      "talkAssetPathAlter": "",
      "talkAudioName": "",
      "actionBefore": "",
      "actionWhile": "",
      "actionAfter": "",
      "optionIcon": "",
      "iconPath": ""
    },
    {
      "id": 621990202,
      "nextDialogs": [
        621990203
      ],
      "talkRole": {
        "type": "TALK_ROLE_NPC",
        "_id": "2199"
      },
      "talkContentTextMapHash": 3665647210,
      "talkAssetPath": "",
      "talkAssetPathAlter": "",
      "talkAudioName": "",
      "actionBefore": "",
      "actionWhile": "",
      "actionAfter": "",
      "optionIcon": "",
      "iconPath": ""
    },
    {
      "id": 621990203,
      "talkRole": {
        "type": "TALK_ROLE_NPC",
        "_id": "2199"
      },
      "talkContentTextMapHash": 3824223746,
      "talkAssetPath": "",
      "talkAssetPathAlter": "",
      "talkAudioName": "",
      "actionBefore": "",
      "actionWhile": "",
      "actionAfter": "",
      "optionIcon": "",
      "iconPath": ""
    }
  ]
}