{
  "talkId": 6220810,
  "KPGKDHAFHFE": "FREE",
  "dialogList": [
    {
      "id": 622081001,
      "talkRole": {
        "type": "TALK_ROLE_NPC",
        "_id": "2208"
      },
      "talkContentTextMapHash": 559635362,
      "talkAssetPath": "",
      "talkAssetPathAlter": "",
      "talkAudioName": "",
      "actionBefore": "GCG/ClearWorldChallengeTalk",
      "actionWhile": "",
      "actionAfter": "",
      "optionIcon": "",
      "iconPath": ""
    }
  ]
}