{
  "talkId": 6220206,
  "KPGKDHAFHFE": "FREE",
  "dialogList": [
    {
      "id": 622020601,
      "talkShowType": "TALK_SHOW_FORCE_SELECT",
      "talkRole": {
        "type": "TALK_ROLE_PLAYER",
        "_id": ""
      },
      "talkContentTextMapHash": 2649580162,
      "talkAssetPath": "",
      "talkAssetPathAlter": "",
      "talkAudioName": "",
      "actionBefore": "",
      "actionWhile": "",
      "actionAfter": "GCG/open_GcgLevelPage_Bigworld",
      "optionIcon": "UI_Icon_Intee_GcgZhanDou",
      "iconPath": ""
    }
  ]
}