{
  "talkId": 6220103,
  "KPGKDHAFHFE": "FREE",
  "dialogList": [
    {
      "id": 622010301,
      "nextDialogs": [
        622010302
      ],
      "talkRole": {
        "type": "TALK_ROLE_PLAYER",
        "_id": ""
      },
      "talkContentTextMapHash": 264671791,
      "talkAssetPath": "",
      "talkAssetPathAlter": "",
      "talkAudioName": "",
      "actionBefore": "",
      "actionWhile": "",
      "actionAfter": "",
      "optionIcon": "",
      "iconPath": ""
    },
    {
      "id": 622010302,
      "talkRole": {
        "type": "TALK_ROLE_NPC",
        "_id": "2201"
      },
      "talkContentTextMapHash": 3156021567,
      "talkAssetPath": "",
      "talkAssetPathAlter": "",
      "talkAudioName": "",
      "actionBefore": "",
      "actionWhile": "",
      "actionAfter": "TEST/LerpOutNpcNoSteer",
      "optionIcon": "",
      "iconPath": ""
    }
  ]
}