{
  "talkId": 6220213,
  "KPGKDHAFHFE": "FREE",
  "dialogList": [
    {
      "id": 622021301,
      "talkRole": {
        "type": "TALK_ROLE_NPC",
        "_id": "2202"
      },
      "talkContentTextMapHash": 1332624082,
      "talkAssetPath": "",
      "talkAssetPathAlter": "",
      "talkAudioName": "",
      "actionBefore": "GCG/ClearWorldChallengeTalk",
      "actionWhile": "",
      "actionAfter": "",
      "optionIcon": "",
      "iconPath": ""
    }
  ]
}