{
  "talkId": 6222602,
  "KPGKDHAFHFE": "FREE",
  "dialogList": [
    {
      "id": 622260201,
      "nextDialogs": [
        622260202
      ],
      "talkShowType": "TALK_SHOW_FORCE_SELECT",
      "talkRole": {
        "type": "TALK_ROLE_PLAYER",
        "_id": ""
      },
      "talkContentTextMapHash": 1952784802,
      "talkAssetPath": "",
      "talkAssetPathAlter": "",
      "talkAudioName": "",
      "actionBefore": "",
      "actionWhile": "",
      "actionAfter": "",
      "optionIcon": "",
      "iconPath": ""
    },
    {
      "id": 622260202,
      "talkRole": {
        "type": "TALK_ROLE_NPC",
        "_id": "2226"
      },
      "talkContentTextMapHash": 19139362,
      "talkAssetPath": "",
      "talkAssetPathAlter": "",
      "talkAudioName": "",
      "actionBefore": "",
      "actionWhile": "",
      "actionAfter": "",
      "optionIcon": "",
      "iconPath": ""
    }
  ]
}