{
  "talkId": 6224201,
  "KPGKDHAFHFE": "FREE",
  "dialogList": [
    {
      "id": 622420101,
      "nextDialogs": [
        622420102
      ],
      "talkRole": {
        "type": "TALK_ROLE_NPC",
        "_id": "2242"
      },
      "talkContentTextMapHash": 2122562154,
      "talkAssetPath": "",
      "talkAssetPathAlter": "",
      "talkAudioName": "",
      "actionBefore": "",
      "actionWhile": "",
      "actionAfter": "",
      "optionIcon": "",
      "iconPath": ""
    },
    {
      "id": 622420102,
      "nextDialogs": [
        622420103
      ],
      "talkRole": {
        "type": "TALK_ROLE_NPC",
        "_id": "2242"
      },
      "talkContentTextMapHash": 1223525322,
      "talkAssetPath": "",
      "talkAssetPathAlter": "",
      "talkAudioName": "",
      "actionBefore": "",
      "actionWhile": "",
      "actionAfter": "",
      "optionIcon": "",
      "iconPath": ""
    },
    {
      "id": 622420103,
      "talkRole": {
        "type": "TALK_ROLE_NPC",
        "_id": "2242"
      },
      "talkContentTextMapHash": 3425687274,
      "talkAssetPath": "",
      "talkAssetPathAlter": "",
      "talkAudioName": "",
      "actionBefore": "",
      "actionWhile": "",
      "actionAfter": "",
      "optionIcon": "",
      "iconPath": ""
    }
  ]
}