{
  "talkId": 6225101,
  "KPGKDHAFHFE": "FREE",
  "dialogList": [
    {
      "id": 622510101,
      "nextDialogs": [
        622510102
      ],
      "talkRole": {
        "type": "TALK_ROLE_NPC",
        "_id": "2251"
      },
      "talkContentTextMapHash": 743608434,
      "talkAssetPath": "",
      "talkAssetPathAlter": "",
      "talkAudioName": "",
      "actionBefore": "SimpleTalk/PaimonTalkPlus_Start",
      "actionWhile": "",
      "actionAfter": "",
      "optionIcon": "",
      "iconPath": ""
    },
    {
      "id": 622510102,
      "talkShowType": "TALK_SHOW_FORCE_SELECT",
      "talkRole": {
        "type": "TALK_ROLE_PLAYER",
        "_id": ""
      },
      "talkContentTextMapHash": 4070817506,
      "talkAssetPath": "",
      "talkAssetPathAlter": "",
      "talkAudioName": "",
      "actionBefore": "",
      "actionWhile": "",
      "actionAfter": "",
      "optionIcon": "",
      "iconPath": ""
    }
  ]
}