{
  "talkId": 6226405,
  "KPGKDHAFHFE": "FREE",
  "dialogList": [
    {
      "id": 622640501,
      "nextDialogs": [
        622640502
      ],
      "talkShowType": "TALK_SHOW_FORCE_SELECT",
      "talkRole": {
        "type": "TALK_ROLE_PLAYER",
        "_id": ""
      },
      "talkContentTextMapHash": 3017566130,
      "talkAssetPath": "",
      "talkAssetPathAlter": "",
      "talkAudioName": "",
      "actionBefore": "",
      "actionWhile": "",
      "actionAfter": "",
      "optionIcon": "",
      "iconPath": ""
    },
    {
      "id": 622640502,
      "talkRole": {
        "type": "TALK_ROLE_NPC",
        "_id": "2264"
      },
      "talkContentTextMapHash": 45517578,
      "talkAssetPath": "",
      "talkAssetPathAlter": "",
      "talkAudioName": "",
      "actionBefore": "",
      "actionWhile": "SimpleTalk/StrikeChest",
      "actionAfter": "",
      "optionIcon": "",
      "iconPath": ""
    }
  ]
}