{
  "talkId": 6226005,
  "KPGKDHAFHFE": "FREE",
  "dialogList": [
    {
      "id": 622600501,
      "nextDialogs": [
        622600502
      ],
      "talkShowType": "TALK_SHOW_FORCE_SELECT",
      "talkRole": {
        "type": "TALK_ROLE_PLAYER",
        "_id": ""
      },
      "talkContentTextMapHash": 1673272178,
      "talkAssetPath": "",
      "talkAssetPathAlter": "",
      "talkAudioName": "",
      "actionBefore": "",
      "actionWhile": "",
      "actionAfter": "",
      "optionIcon": "",
      "iconPath": ""
    },
    {
      "id": 622600502,
      "nextDialogs": [
        622600503
      ],
      "talkRole": {
        "type": "TALK_ROLE_NPC",
        "_id": "2260"
      },
      "talkContentTextMapHash": 758306090,
      "talkAssetPath": "",
      "talkAssetPathAlter": "",
      "talkAudioName": "",
      "actionBefore": "",
      "actionWhile": "SimpleTalk/RandomTalk",
      "actionAfter": "",
      "optionIcon": "",
      "iconPath": ""
    },
    {
      "id": 622600503,
      "nextDialogs": [
        622600504
      ],
      "talkRole": {
        "type": "TALK_ROLE_NPC",
        "_id": "2260"
      },
      "talkContentTextMapHash": 2047753434,
      "talkAssetPath": "",
      "talkAssetPathAlter": "",
      "talkAudioName": "",
      "actionBefore": "",
      "actionWhile": "",
      "actionAfter": "",
      "optionIcon": "",
      "iconPath": ""
    },
    {
      "id": 622600504,
      "talkRole": {
        "type": "TALK_ROLE_NPC",
        "_id": "2260"
      },
      "talkContentTextMapHash": 1134282282,
      "talkAssetPath": "",
      "talkAssetPathAlter": "",
      "talkAudioName": "",
      "actionBefore": "",
      "actionWhile": "SimpleTalk/RandomTalk",
      "actionAfter": "",
      "optionIcon": "",
      "iconPath": ""
    }
  ]
}