{
  "talkId": 6230401,
  "KPGKDHAFHFE": "FREE",
  "dialogList": [
    {
      "id": 623040101,
      "talkRole": {
        "type": "TALK_ROLE_NPC",
        "_id": "2304"
      },
      "talkContentTextMapHash": 655433143,
      "talkAssetPath": "",
      "talkAssetPathAlter": "",
      "talkAudioName": "",
      "actionBefore": "",
      "actionWhile": "TEST/LerpInNpc",
      "actionAfter": "",
      "optionIcon": "",
      "iconPath": ""
    }
  ]
}