{
  "talkId": 6230004,
  "KPGKDHAFHFE": "FREE",
  "dialogList": [
    {
      "id": 623000401,
      "nextDialogs": [
        623000402
      ],
      "talkRole": {
        "type": "TALK_ROLE_PLAYER",
        "_id": ""
      },
      "talkContentTextMapHash": 3236490191,
      "talkAssetPath": "",
      "talkAssetPathAlter": "",
      "talkAudioName": "",
      "actionBefore": "",
      "actionWhile": "",
      "actionAfter": "",
      "optionIcon": "",
      "iconPath": ""
    },
    {
      "id": 623000402,
      "talkRole": {
        "type": "TALK_ROLE_NPC",
        "_id": "2300"
      },
      "talkContentTextMapHash": 2351536383,
      "talkAssetPath": "",
      "talkAssetPathAlter": "",
      "talkAudioName": "",
      "actionBefore": "",
      "actionWhile": "",
      "actionAfter": "",
      "optionIcon": "",
      "iconPath": ""
    }
  ]
}