{
  "talkId": 6230405,
  "KPGKDHAFHFE": "FREE",
  "dialogList": [
    {
      "id": 623040501,
      "talkRole": {
        "type": "TALK_ROLE_NPC",
        "_id": "2304"
      },
      "talkContentTextMapHash": 1014836898,
      "talkAssetPath": "",
      "talkAssetPathAlter": "",
      "talkAudioName": "",
      "actionBefore": "GCG/ClearWorldChallengeTalk",
      "actionWhile": "",
      "actionAfter": "",
      "optionIcon": "",
      "iconPath": ""
    }
  ]
}