{
  "talkId": 6240003,
  "KPGKDHAFHFE": "FREE",
  "dialogList": [
    {
      "id": 624000301,
      "nextDialogs": [
        624000302
      ],
      "talkRole": {
        "type": "TALK_ROLE_PLAYER",
        "_id": ""
      },
      "talkContentTextMapHash": 4071835583,
      "talkAssetPath": "",
      "talkAssetPathAlter": "",
      "talkAudioName": "",
      "actionBefore": "",
      "actionWhile": "",
      "actionAfter": "",
      "optionIcon": "",
      "iconPath": ""
    },
    {
      "id": 624000302,
      "nextDialogs": [
        624000303
      ],
      "talkRole": {
        "type": "TALK_ROLE_NPC",
        "_id": "2400"
      },
      "talkContentTextMapHash": 714627575,
      "talkAssetPath": "",
      "talkAssetPathAlter": "",
      "talkAudioName": "",
      "actionBefore": "",
      "actionWhile": "",
      "actionAfter": "",
      "optionIcon": "",
      "iconPath": ""
    },
    {
      "id": 624000303,
      "nextDialogs": [
        624000304
      ],
      "talkRole": {
        "type": "TALK_ROLE_NPC",
        "_id": "2400"
      },
      "talkContentTextMapHash": 2036673719,
      "talkAssetPath": "",
      "talkAssetPathAlter": "",
      "talkAudioName": "",
      "actionBefore": "",
      "actionWhile": "",
      "actionAfter": "",
      "optionIcon": "",
      "iconPath": ""
    },
    {
      "id": 624000304,
      "nextDialogs": [
        624000305
      ],
      "talkRole": {
        "type": "TALK_ROLE_NPC",
        "_id": "2400"
      },
      "talkContentTextMapHash": 723881215,
      "talkAssetPath": "",
      "talkAssetPathAlter": "",
      "talkAudioName": "",
      "actionBefore": "",
      "actionWhile": "",
      "actionAfter": "",
      "optionIcon": "",
      "iconPath": ""
    },
    {
      "id": 624000305,
      "talkRole": {
        "type": "TALK_ROLE_NPC",
        "_id": "2400"
      },
      "talkContentTextMapHash": 391178071,
      "talkAssetPath": "",
      "talkAssetPathAlter": "",
      "talkAudioName": "",
      "actionBefore": "",
      "actionWhile": "",
      "actionAfter": "",
      "optionIcon": "",
      "iconPath": ""
    }
  ]
}