{
  "talkId": 6240602,
  "KPGKDHAFHFE": "FREE",
  "dialogList": [
    {
      "id": 624060201,
      "nextDialogs": [
        624060202
      ],
      "talkRole": {
        "type": "TALK_ROLE_PLAYER",
        "_id": ""
      },
      "talkContentTextMapHash": 922662239,
      "talkAssetPath": "",
      "talkAssetPathAlter": "",
      "talkAudioName": "",
      "actionBefore": "",
      "actionWhile": "",
      "actionAfter": "",
      "optionIcon": "",
      "iconPath": ""
    },
    {
      "id": 624060202,
      "talkRole": {
        "type": "TALK_ROLE_NPC",
        "_id": "2406"
      },
      "talkContentTextMapHash": 3616061143,
      "talkAssetPath": "",
      "talkAssetPathAlter": "",
      "talkAudioName": "",
      "actionBefore": "",
      "actionWhile": "",
      "actionAfter": "TEST/LerpOutNpcNoSteer",
      "optionIcon": "",
      "iconPath": ""
    }
  ]
}