{
  "talkId": 6240101,
  "KPGKDHAFHFE": "FREE",
  "dialogList": [
    {
      "id": 624010101,
      "nextDialogs": [
        624010102
      ],
      "talkRole": {
        "type": "TALK_ROLE_NPC",
        "_id": "2401"
      },
      "talkContentTextMapHash": 1109219615,
      "talkAssetPath": "",
      "talkAssetPathAlter": "",
      "talkAudioName": "",
      "actionBefore": "",
      "actionWhile": "TEST/LerpInNpc",
      "actionAfter": "",
      "optionIcon": "",
      "iconPath": ""
    },
    {
      "id": 624010102,
      "talkRole": {
        "type": "TALK_ROLE_NPC",
        "_id": "2401"
      },
      "talkContentTextMapHash": 2625759263,
      "talkAssetPath": "",
      "talkAssetPathAlter": "",
      "talkAudioName": "",
      "actionBefore": "",
      "actionWhile": "",
      "actionAfter": "",
      "optionIcon": "",
      "iconPath": ""
    }
  ]
}