{
  "talkId": 6241803,
  "KPGKDHAFHFE": "FREE",
  "dialogList": [
    {
      "id": 624180301,
      "nextDialogs": [
        624180302
      ],
      "talkRole": {
        "type": "TALK_ROLE_PLAYER",
        "_id": ""
      },
      "talkContentTextMapHash": 843881063,
      "talkAssetPath": "",
      "talkAssetPathAlter": "",
      "talkAudioName": "",
      "actionBefore": "",
      "actionWhile": "",
      "actionAfter": "",
      "optionIcon": "",
      "iconPath": ""
    },
    {
      "id": 624180302,
      "nextDialogs": [
        624180303
      ],
      "talkRole": {
        "type": "TALK_ROLE_NPC",
        "_id": "2418"
      },
      "talkContentTextMapHash": 2329193079,
      "talkAssetPath": "",
      "talkAssetPathAlter": "",
      "talkAudioName": "",
      "actionBefore": "",
      "actionWhile": "",
      "actionAfter": "",
      "optionIcon": "",
      "iconPath": ""
    },
    {
      "id": 624180303,
      "nextDialogs": [
        624180304
      ],
      "talkRole": {
        "type": "TALK_ROLE_NPC",
        "_id": "2418"
      },
      "talkContentTextMapHash": 2382899007,
      "talkAssetPath": "",
      "talkAssetPathAlter": "",
      "talkAudioName": "",
      "actionBefore": "",
      "actionWhile": "",
      "actionAfter": "",
      "optionIcon": "",
      "iconPath": ""
    },
    {
      "id": 624180304,
      "nextDialogs": [
        624180305
      ],
      "talkShowType": "TALK_SHOW_FORCE_SELECT",
      "talkRole": {
        "type": "TALK_ROLE_PLAYER",
        "_id": ""
      },
      "talkContentTextMapHash": 2231541007,
      "talkAssetPath": "",
      "talkAssetPathAlter": "",
      "talkAudioName": "",
      "actionBefore": "",
      "actionWhile": "",
      "actionAfter": "",
      "optionIcon": "",
      "iconPath": ""
    },
    {
      "id": 624180305,
      "nextDialogs": [
        624180306
      ],
      "talkRole": {
        "type": "TALK_ROLE_NPC",
        "_id": "2418"
      },
      "talkContentTextMapHash": 3044898415,
      "talkAssetPath": "",
      "talkAssetPathAlter": "",
      "talkAudioName": "",
      "actionBefore": "",
      "actionWhile": "",
      "actionAfter": "",
      "optionIcon": "",
      "iconPath": ""
    },
    {
      "id": 624180306,
      "nextDialogs": [
        624180307
      ],
      "talkRole": {
        "type": "TALK_ROLE_NPC",
        "_id": "2418"
      },
      "talkContentTextMapHash": 3587303295,
      "talkAssetPath": "",
      "talkAssetPathAlter": "",
      "talkAudioName": "",
      "actionBefore": "",
      "actionWhile": "",
      "actionAfter": "",
      "optionIcon": "",
      "iconPath": ""
    },
    {
      "id": 624180307,
      "nextDialogs": [
        624180308
      ],
      "talkRole": {
        "type": "TALK_ROLE_NPC",
        "_id": "2418"
      },
      "talkContentTextMapHash": 1877430759,
      "talkAssetPath": "",
      "talkAssetPathAlter": "",
      "talkAudioName": "",
      "actionBefore": "",
      "actionWhile": "",
      "actionAfter": "",
      "optionIcon": "",
      "iconPath": ""
    },
    {
      "id": 624180308,
      "nextDialogs": [
        624180309
      ],
      "talkShowType": "TALK_SHOW_FORCE_SELECT",
      "talkRole": {
        "type": "TALK_ROLE_PLAYER",
        "_id": ""
      },
      "talkContentTextMapHash": 3244751703,
      "talkAssetPath": "",
      "talkAssetPathAlter": "",
      "talkAudioName": "",
      "actionBefore": "",
      "actionWhile": "",
      "actionAfter": "",
      "optionIcon": "",
      "iconPath": ""
    },
    {
      "id": 624180309,
      "nextDialogs": [
        624180310
      ],
      "talkRole": {
        "type": "TALK_ROLE_NPC",
        "_id": "2418"
      },
      "talkContentTextMapHash": 2908984007,
      "talkAssetPath": "",
      "talkAssetPathAlter": "",
      "talkAudioName": "",
      "actionBefore": "",
      "actionWhile": "",
      "actionAfter": "",
      "optionIcon": "",
      "iconPath": ""
    },
    {
      "id": 624180310,
      "nextDialogs": [
        624180311
      ],
      "talkRole": {
        "type": "TALK_ROLE_NPC",
        "_id": "2418"
      },
      "talkContentTextMapHash": 1531993079,
      "talkAssetPath": "",
      "talkAssetPathAlter": "",
      "talkAudioName": "",
      "actionBefore": "",
      "actionWhile": "",
      "actionAfter": "",
      "optionIcon": "",
      "iconPath": ""
    },
    {
      "id": 624180311,
      "nextDialogs": [
        624180312
      ],
      "talkRole": {
        "type": "TALK_ROLE_NPC",
        "_id": "2418"
      },
      "talkContentTextMapHash": 3532889071,
      "talkAssetPath": "",
      "talkAssetPathAlter": "",
      "talkAudioName": "",
      "actionBefore": "",
      "actionWhile": "",
      "actionAfter": "",
      "optionIcon": "",
      "iconPath": ""
    },
    {
      "id": 624180312,
      "talkRole": {
        "type": "TALK_ROLE_NPC",
        "_id": "2418"
      },
      "talkContentTextMapHash": 1962713503,
      "talkAssetPath": "",
      "talkAssetPathAlter": "",
      "talkAudioName": "",
      "actionBefore": "",
      "actionWhile": "",
      "actionAfter": "",
      "optionIcon": "",
      "iconPath": ""
    }
  ]
}