{
  "talkId": 6241101,
  "KPGKDHAFHFE": "FREE",
  "dialogList": [
    {
      "id": 624110101,
      "talkRole": {
        "type": "TALK_ROLE_NPC",
        "_id": "2411"
      },
      "talkContentTextMapHash": 2889225183,
      "talkAssetPath": "",
      "talkAssetPathAlter": "",
      "talkAudioName": "",
      "actionBefore": "",
      "actionWhile": "TEST/LerpInNpc",
      "actionAfter": "",
      "optionIcon": "",
      "iconPath": ""
    }
  ]
}