{
  "talkId": 6242101,
  "KPGKDHAFHFE": "FREE",
  "dialogList": [
    {
      "id": 624210101,
      "talkRole": {
        "type": "TALK_ROLE_NPC",
        "_id": "2421"
      },
      "talkContentTextMapHash": 3520939567,
      "talkAssetPath": "",
      "talkAssetPathAlter": "",
      "talkAudioName": "",
      "actionBefore": "",
      "actionWhile": "TEST/LerpInNpc",
      "actionAfter": "",
      "optionIcon": "",
      "iconPath": ""
    }
  ]
}