{
  "talkId": 6242502,
  "KPGKDHAFHFE": "FREE",
  "dialogList": [
    {
      "id": 624250201,
      "nextDialogs": [
        624250202
      ],
      "talkRole": {
        "type": "TALK_ROLE_PLAYER",
        "_id": ""
      },
      "talkContentTextMapHash": 1774838023,
      "talkAssetPath": "",
      "talkAssetPathAlter": "",
      "talkAudioName": "",
      "actionBefore": "",
      "actionWhile": "",
      "actionAfter": "",
      "optionIcon": "",
      "iconPath": ""
    },
    {
      "id": 624250202,
      "nextDialogs": [
        624250203
      ],
      "talkRole": {
        "type": "TALK_ROLE_NPC",
        "_id": "2425"
      },
      "talkContentTextMapHash": 2279782599,
      "talkAssetPath": "",
      "talkAssetPathAlter": "",
      "talkAudioName": "",
      "actionBefore": "",
      "actionWhile": "",
      "actionAfter": "",
      "optionIcon": "",
      "iconPath": ""
    },
    {
      "id": 624250203,
      "nextDialogs": [
        624250204
      ],
      "talkRole": {
        "type": "TALK_ROLE_NPC",
        "_id": "2425"
      },
      "talkContentTextMapHash": 1498145103,
      "talkAssetPath": "",
      "talkAssetPathAlter": "",
      "talkAudioName": "",
      "actionBefore": "",
      "actionWhile": "",
      "actionAfter": "",
      "optionIcon": "",
      "iconPath": ""
    },
    {
      "id": 624250204,
      "nextDialogs": [
        624250205
      ],
      "talkRole": {
        "type": "TALK_ROLE_NPC",
        "_id": "2425"
      },
      "talkContentTextMapHash": 3141758575,
      "talkAssetPath": "",
      "talkAssetPathAlter": "",
      "talkAudioName": "",
      "actionBefore": "",
      "actionWhile": "",
      "actionAfter": "",
      "optionIcon": "",
      "iconPath": ""
    },
    {
      "id": 624250205,
      "nextDialogs": [
        624250206
      ],
      "talkShowType": "TALK_SHOW_FORCE_SELECT",
      "talkRole": {
        "type": "TALK_ROLE_PLAYER",
        "_id": ""
      },
      "talkContentTextMapHash": 2764824127,
      "talkAssetPath": "",
      "talkAssetPathAlter": "",
      "talkAudioName": "",
      "actionBefore": "",
      "actionWhile": "",
      "actionAfter": "",
      "optionIcon": "",
      "iconPath": ""
    },
    {
      "id": 624250206,
      "nextDialogs": [
        624250207
      ],
      "talkRole": {
        "type": "TALK_ROLE_NPC",
        "_id": "2425"
      },
      "talkContentTextMapHash": 2315316983,
      "talkAssetPath": "",
      "talkAssetPathAlter": "",
      "talkAudioName": "",
      "actionBefore": "",
      "actionWhile": "",
      "actionAfter": "",
      "optionIcon": "",
      "iconPath": ""
    },
    {
      "id": 624250207,
      "nextDialogs": [
        624250208
      ],
      "talkRole": {
        "type": "TALK_ROLE_NPC",
        "_id": "2425"
      },
      "talkContentTextMapHash": 796213719,
      "talkAssetPath": "",
      "talkAssetPathAlter": "",
      "talkAudioName": "",
      "actionBefore": "",
      "actionWhile": "",
      "actionAfter": "",
      "optionIcon": "",
      "iconPath": ""
    },
    {
      "id": 624250208,
      "nextDialogs": [
        624250209
      ],
      "talkRole": {
        "type": "TALK_ROLE_NPC",
        "_id": "2425"
      },
      "talkContentTextMapHash": 2639005695,
      "talkAssetPath": "",
      "talkAssetPathAlter": "",
      "talkAudioName": "",
      "actionBefore": "",
      "actionWhile": "",
      "actionAfter": "",
      "optionIcon": "",
      "iconPath": ""
    },
    {
      "id": 624250209,
      "talkRole": {
        "type": "TALK_ROLE_NPC",
        "_id": "2425"
      },
      "talkContentTextMapHash": 1973442271,
      "talkAssetPath": "",
      "talkAssetPathAlter": "",
      "talkAudioName": "",
      "actionBefore": "",
      "actionWhile": "",
      "actionAfter": "",
      "optionIcon": "",
      "iconPath": ""
    }
  ]
}