{
  "talkId": 6242803,
  "KPGKDHAFHFE": "FREE",
  "dialogList": [
    {
      "id": 624280301,
      "nextDialogs": [
        624280302
      ],
      "talkRole": {
        "type": "TALK_ROLE_PLAYER",
        "_id": ""
      },
      "talkContentTextMapHash": 140455719,
      "talkAssetPath": "",
      "talkAssetPathAlter": "",
      "talkAudioName": "",
      "actionBefore": "",
      "actionWhile": "",
      "actionAfter": "",
      "optionIcon": "",
      "iconPath": ""
    },
    {
      "id": 624280302,
      "talkRole": {
        "type": "TALK_ROLE_NPC",
        "_id": "2428"
      },
      "talkContentTextMapHash": 756588751,
      "talkAssetPath": "",
      "talkAssetPathAlter": "",
      "talkAudioName": "",
      "actionBefore": "",
      "actionWhile": "",
      "actionAfter": "",
      "optionIcon": "",
      "iconPath": ""
    }
  ]
}