{
  "talkId": 6242403,
  "KPGKDHAFHFE": "FREE",
  "dialogList": [
    {
      "id": 624240301,
      "nextDialogs": [
        624240302
      ],
      "talkRole": {
        "type": "TALK_ROLE_PLAYER",
        "_id": ""
      },
      "talkContentTextMapHash": 729201287,
      "talkAssetPath": "",
      "talkAssetPathAlter": "",
      "talkAudioName": "",
      "actionBefore": "",
      "actionWhile": "",
      "actionAfter": "",
      "optionIcon": "",
      "iconPath": ""
    },
    {
      "id": 624240302,
      "talkRole": {
        "type": "TALK_ROLE_NPC",
        "_id": "2424"
      },
      "talkContentTextMapHash": 2140920279,
      "talkAssetPath": "",
      "talkAssetPathAlter": "",
      "talkAudioName": "",
      "actionBefore": "",
      "actionWhile": "",
      "actionAfter": "",
      "optionIcon": "",
      "iconPath": ""
    }
  ]
}