{
  "talkId": 6243904,
  "KPGKDHAFHFE": "FREE",
  "dialogList": [
    {
      "id": 624390401,
      "nextDialogs": [
        624390402
      ],
      "talkShowType": "TALK_SHOW_FORCE_SELECT",
      "talkRole": {
        "type": "TALK_ROLE_PLAYER",
        "_id": ""
      },
      "talkContentTextMapHash": 1345460431,
      "talkAssetPath": "",
      "talkAssetPathAlter": "",
      "talkAudioName": "",
      "actionBefore": "",
      "actionWhile": "",
      "actionAfter": "",
      "optionIcon": "",
      "iconPath": ""
    },
    {
      "id": 624390402,
      "talkRole": {
        "type": "TALK_ROLE_NPC",
        "_id": "2439"
      },
      "talkContentTextMapHash": 264894399,
      "talkAssetPath": "",
      "talkAssetPathAlter": "",
      "talkAudioName": "",
      "actionBefore": "",
      "actionWhile": "",
      "actionAfter": "",
      "optionIcon": "",
      "iconPath": ""
    }
  ]
}