{
  "talkId": 6243803,
  "KPGKDHAFHFE": "FREE",
  "dialogList": [
    {
      "id": 624380301,
      "nextDialogs": [
        624380302
      ],
      "talkShowType": "TALK_SHOW_FORCE_SELECT",
      "talkRole": {
        "type": "TALK_ROLE_PLAYER",
        "_id": ""
      },
      "talkContentTextMapHash": 1373003247,
      "talkAssetPath": "",
      "talkAssetPathAlter": "",
      "talkAudioName": "",
      "actionBefore": "",
      "actionWhile": "",
      "actionAfter": "",
      "optionIcon": "",
      "iconPath": ""
    },
    {
      "id": 624380302,
      "nextDialogs": [
        624380303
      ],
      "talkRole": {
        "type": "TALK_ROLE_NPC",
        "_id": "2438"
      },
      "talkContentTextMapHash": 1362314399,
      "talkAssetPath": "",
      "talkAssetPathAlter": "",
      "talkAudioName": "",
      "actionBefore": "",
      "actionWhile": "",
      "actionAfter": "",
      "optionIcon": "",
      "iconPath": ""
    },
    {
      "id": 624380303,
      "nextDialogs": [
        624380304
      ],
      "talkRole": {
        "type": "TALK_ROLE_NPC",
        "_id": "2438"
      },
      "talkContentTextMapHash": 2020369887,
      "talkAssetPath": "",
      "talkAssetPathAlter": "",
      "talkAudioName": "",
      "actionBefore": "",
      "actionWhile": "",
      "actionAfter": "",
      "optionIcon": "",
      "iconPath": ""
    },
    {
      "id": 624380304,
      "talkRole": {
        "type": "TALK_ROLE_NPC",
        "_id": "2438"
      },
      "talkContentTextMapHash": 2154329303,
      "talkAssetPath": "",
      "talkAssetPathAlter": "",
      "talkAudioName": "",
      "actionBefore": "",
      "actionWhile": "",
      "actionAfter": "",
      "optionIcon": "",
      "iconPath": ""
    }
  ]
}