{
  "talkId": 6243801,
  "KPGKDHAFHFE": "FREE",
  "dialogList": [
    {
      "id": 624380101,
      "talkRole": {
        "type": "TALK_ROLE_NPC",
        "_id": "2438"
      },
      "talkContentTextMapHash": 661381119,
      "talkAssetPath": "",
      "talkAssetPathAlter": "",
      "talkAudioName": "",
      "actionBefore": "",
      "actionWhile": "",
      "actionAfter": "",
      "optionIcon": "",
      "iconPath": ""
    }
  ]
}