{
  "talkId": 6243505,
  "KPGKDHAFHFE": "FREE",
  "dialogList": [
    {
      "id": 624350501,
      "nextDialogs": [
        624350502
      ],
      "talkShowType": "TALK_SHOW_FORCE_SELECT",
      "talkRole": {
        "type": "TALK_ROLE_PLAYER",
        "_id": ""
      },
      "talkContentTextMapHash": 921192559,
      "talkAssetPath": "",
      "talkAssetPathAlter": "",
      "talkAudioName": "",
      "actionBefore": "",
      "actionWhile": "",
      "actionAfter": "",
      "optionIcon": "",
      "iconPath": ""
    },
    {
      "id": 624350502,
      "nextDialogs": [
        624350503
      ],
      "talkRole": {
        "type": "TALK_ROLE_NPC",
        "_id": "2435"
      },
      "talkContentTextMapHash": 1256394247,
      "talkAssetPath": "",
      "talkAssetPathAlter": "",
      "talkAudioName": "",
      "actionBefore": "",
      "actionWhile": "",
      "actionAfter": "",
      "optionIcon": "",
      "iconPath": ""
    },
    {
      "id": 624350503,
      "nextDialogs": [
        624350504
      ],
      "talkRole": {
        "type": "TALK_ROLE_NPC",
        "_id": "2435"
      },
      "talkContentTextMapHash": 991036359,
      "talkAssetPath": "",
      "talkAssetPathAlter": "",
      "talkAudioName": "",
      "actionBefore": "",
      "actionWhile": "",
      "actionAfter": "",
      "optionIcon": "",
      "iconPath": ""
    },
    {
      "id": 624350504,
      "nextDialogs": [
        624350505
      ],
      "talkRole": {
        "type": "TALK_ROLE_NPC",
        "_id": "2435"
      },
      "talkContentTextMapHash": 3368322383,
      "talkAssetPath": "",
      "talkAssetPathAlter": "",
      "talkAudioName": "",
      "actionBefore": "",
      "actionWhile": "",
      "actionAfter": "",
      "optionIcon": "",
      "iconPath": ""
    },
    {
      "id": 624350505,
      "nextDialogs": [
        624350506
      ],
      "talkRole": {
        "type": "TALK_ROLE_NPC",
        "_id": "2435"
      },
      "talkContentTextMapHash": 3507271079,
      "talkAssetPath": "",
      "talkAssetPathAlter": "",
      "talkAudioName": "",
      "actionBefore": "",
      "actionWhile": "",
      "actionAfter": "",
      "optionIcon": "",
      "iconPath": ""
    },
    {
      "id": 624350506,
      "talkRole": {
        "type": "TALK_ROLE_NPC",
        "_id": "2435"
      },
      "talkContentTextMapHash": 2625619175,
      "talkAssetPath": "",
      "talkAssetPathAlter": "",
      "talkAudioName": "",
      "actionBefore": "",
      "actionWhile": "",
      "actionAfter": "",
      "optionIcon": "",
      "iconPath": ""
    }
  ]
}