{
  "talkId": 6243804,
  "KPGKDHAFHFE": "FREE",
  "dialogList": [
    {
      "id": 624380401,
      "nextDialogs": [
        624380402
      ],
      "talkShowType": "TALK_SHOW_FORCE_SELECT",
      "talkRole": {
        "type": "TALK_ROLE_PLAYER",
        "_id": ""
      },
      "talkContentTextMapHash": 508614167,
      "talkAssetPath": "",
      "talkAssetPathAlter": "",
      "talkAudioName": "",
      "actionBefore": "",
      "actionWhile": "",
      "actionAfter": "",
      "optionIcon": "",
      "iconPath": ""
    },
    {
      "id": 624380402,
      "talkRole": {
        "type": "TALK_ROLE_NPC",
        "_id": "2438"
      },
      "talkContentTextMapHash": 1222103167,
      "talkAssetPath": "",
      "talkAssetPathAlter": "",
      "talkAudioName": "",
      "actionBefore": "",
      "actionWhile": "",
      "actionAfter": "",
      "optionIcon": "",
      "iconPath": ""
    }
  ]
}