{
  "talkId": 6244201,
  "KPGKDHAFHFE": "FREE",
  "dialogList": [
    {
      "id": 624420101,
      "nextDialogs": [
        624420102
      ],
      "talkRole": {
        "type": "TALK_ROLE_NPC",
        "_id": "2442"
      },
      "talkContentTextMapHash": 4261914895,
      "talkAssetPath": "",
      "talkAssetPathAlter": "",
      "talkAudioName": "",
      "actionBefore": "",
      "actionWhile": "",
      "actionAfter": "",
      "optionIcon": "",
      "iconPath": ""
    },
    {
      "id": 624420102,
      "talkRole": {
        "type": "TALK_ROLE_NPC",
        "_id": "2442"
      },
      "talkContentTextMapHash": 21095415,
      "talkAssetPath": "",
      "talkAssetPathAlter": "",
      "talkAudioName": "",
      "actionBefore": "",
      "actionWhile": "",
      "actionAfter": "",
      "optionIcon": "",
      "iconPath": ""
    }
  ]
}