{
  "talkId": 6244203,
  "KPGKDHAFHFE": "FREE",
  "dialogList": [
    {
      "id": 624420301,
      "nextDialogs": [
        624420302
      ],
      "talkShowType": "TALK_SHOW_FORCE_SELECT",
      "talkRole": {
        "type": "TALK_ROLE_PLAYER",
        "_id": ""
      },
      "talkContentTextMapHash": 798480007,
      "talkAssetPath": "",
      "talkAssetPathAlter": "",
      "talkAudioName": "",
      "actionBefore": "",
      "actionWhile": "",
      "actionAfter": "",
      "optionIcon": "",
      "iconPath": ""
    },
    {
      "id": 624420302,
      "nextDialogs": [
        624420303
      ],
      "talkRole": {
        "type": "TALK_ROLE_NPC",
        "_id": "2442"
      },
      "talkContentTextMapHash": 4087513751,
      "talkAssetPath": "",
      "talkAssetPathAlter": "",
      "talkAudioName": "",
      "actionBefore": "",
      "actionWhile": "",
      "actionAfter": "",
      "optionIcon": "",
      "iconPath": ""
    },
    {
      "id": 624420303,
      "nextDialogs": [
        624420304
      ],
      "talkRole": {
        "type": "TALK_ROLE_NPC",
        "_id": "2442"
      },
      "talkContentTextMapHash": 3049904727,
      "talkAssetPath": "",
      "talkAssetPathAlter": "",
      "talkAudioName": "",
      "actionBefore": "",
      "actionWhile": "",
      "actionAfter": "",
      "optionIcon": "",
      "iconPath": ""
    },
    {
      "id": 624420304,
      "nextDialogs": [
        624420305
      ],
      "talkRole": {
        "type": "TALK_ROLE_NPC",
        "_id": "2442"
      },
      "talkContentTextMapHash": 3820851671,
      "talkAssetPath": "",
      "talkAssetPathAlter": "",
      "talkAudioName": "",
      "actionBefore": "",
      "actionWhile": "",
      "actionAfter": "",
      "optionIcon": "",
      "iconPath": ""
    },
    {
      "id": 624420305,
      "nextDialogs": [
        624420306
      ],
      "talkRole": {
        "type": "TALK_ROLE_NPC",
        "_id": "2442"
      },
      "talkContentTextMapHash": 276933687,
      "talkAssetPath": "",
      "talkAssetPathAlter": "",
      "talkAudioName": "",
      "actionBefore": "",
      "actionWhile": "",
      "actionAfter": "",
      "optionIcon": "",
      "iconPath": ""
    },
    {
      "id": 624420306,
      "talkRole": {
        "type": "TALK_ROLE_NPC",
        "_id": "2442"
      },
      "talkContentTextMapHash": 911507007,
      "talkAssetPath": "",
      "talkAssetPathAlter": "",
      "talkAudioName": "",
      "actionBefore": "",
      "actionWhile": "",
      "actionAfter": "",
      "optionIcon": "",
      "iconPath": ""
    }
  ]
}