{
  "talkId": 6244501,
  "KPGKDHAFHFE": "FREE",
  "dialogList": [
    {
      "id": 624450101,
      "talkRole": {
        "type": "TALK_ROLE_NPC",
        "_id": "2445"
      },
      "talkContentTextMapHash": 2771001639,
      "talkAssetPath": "",
      "talkAssetPathAlter": "",
      "talkAudioName": "",
      "actionBefore": "",
      "actionWhile": "",
      "actionAfter": "",
      "optionIcon": "",
      "iconPath": ""
    }
  ]
}