{
  "talkId": 6244204,
  "KPGKDHAFHFE": "FREE",
  "dialogList": [
    {
      "id": 624420401,
      "nextDialogs": [
        624420402
      ],
      "talkShowType": "TALK_SHOW_FORCE_SELECT",
      "talkRole": {
        "type": "TALK_ROLE_PLAYER",
        "_id": ""
      },
      "talkContentTextMapHash": 1158592247,
      "talkAssetPath": "",
      "talkAssetPathAlter": "",
      "talkAudioName": "",
      "actionBefore": "",
      "actionWhile": "",
      "actionAfter": "",
      "optionIcon": "",
      "iconPath": ""
    },
    {
      "id": 624420402,
      "talkRole": {
        "type": "TALK_ROLE_NPC",
        "_id": "2442"
      },
      "talkContentTextMapHash": 1168522791,
      "talkAssetPath": "",
      "talkAssetPathAlter": "",
      "talkAudioName": "",
      "actionBefore": "",
      "actionWhile": "",
      "actionAfter": "",
      "optionIcon": "",
      "iconPath": ""
    }
  ]
}