{
  "talkId": 6245405,
  "KPGKDHAFHFE": "FREE",
  "dialogList": [
    {
      "id": 624540501,
      "nextDialogs": [
        624540502
      ],
      "talkShowType": "TALK_SHOW_FORCE_SELECT",
      "talkRole": {
        "type": "TALK_ROLE_PLAYER",
        "_id": ""
      },
      "talkContentTextMapHash": 1348028407,
      "talkAssetPath": "",
      "talkAssetPathAlter": "",
      "talkAudioName": "",
      "actionBefore": "",
      "actionWhile": "",
      "actionAfter": "",
      "optionIcon": "",
      "iconPath": ""
    },
    {
      "id": 624540502,
      "nextDialogs": [
        624540503
      ],
      "talkRole": {
        "type": "TALK_ROLE_NPC",
        "_id": "2454"
      },
      "talkContentTextMapHash": 3599564287,
      "talkAssetPath": "",
      "talkAssetPathAlter": "",
      "talkAudioName": "",
      "actionBefore": "",
      "actionWhile": "",
      "actionAfter": "",
      "optionIcon": "",
      "iconPath": ""
    },
    {
      "id": 624540503,
      "nextDialogs": [
        624540504
      ],
      "talkRole": {
        "type": "TALK_ROLE_NPC",
        "_id": "2454"
      },
      "talkContentTextMapHash": 930636623,
      "talkAssetPath": "",
      "talkAssetPathAlter": "",
      "talkAudioName": "",
      "actionBefore": "",
      "actionWhile": "",
      "actionAfter": "",
      "optionIcon": "",
      "iconPath": ""
    },
    {
      "id": 624540504,
      "nextDialogs": [
        624540505
      ],
      "talkRole": {
        "type": "TALK_ROLE_NPC",
        "_id": "2454"
      },
      "talkContentTextMapHash": 2434542335,
      "talkAssetPath": "",
      "talkAssetPathAlter": "",
      "talkAudioName": "",
      "actionBefore": "",
      "actionWhile": "",
      "actionAfter": "",
      "optionIcon": "",
      "iconPath": ""
    },
    {
      "id": 624540505,
      "nextDialogs": [
        624540506
      ],
      "talkRole": {
        "type": "TALK_ROLE_NPC",
        "_id": "2454"
      },
      "talkContentTextMapHash": 867598111,
      "talkAssetPath": "",
      "talkAssetPathAlter": "",
      "talkAudioName": "",
      "actionBefore": "",
      "actionWhile": "",
      "actionAfter": "",
      "optionIcon": "",
      "iconPath": ""
    },
    {
      "id": 624540506,
      "nextDialogs": [
        624540507
      ],
      "talkRole": {
        "type": "TALK_ROLE_NPC",
        "_id": "2454"
      },
      "talkContentTextMapHash": 2354399999,
      "talkAssetPath": "",
      "talkAssetPathAlter": "",
      "talkAudioName": "",
      "actionBefore": "",
      "actionWhile": "",
      "actionAfter": "",
      "optionIcon": "",
      "iconPath": ""
    },
    {
      "id": 624540507,
      "talkRole": {
        "type": "TALK_ROLE_NPC",
        "_id": "2454"
      },
      "talkContentTextMapHash": 3121102799,
      "talkAssetPath": "",
      "talkAssetPathAlter": "",
      "talkAudioName": "",
      "actionBefore": "",
      "actionWhile": "",
      "actionAfter": "",
      "optionIcon": "",
      "iconPath": ""
    }
  ]
}