{
  "talkId": 6245103,
  "KPGKDHAFHFE": "FREE",
  "dialogList": [
    {
      "id": 624510301,
      "nextDialogs": [
        624510302
      ],
      "talkRole": {
        "type": "TALK_ROLE_PLAYER",
        "_id": ""
      },
      "talkContentTextMapHash": 1149853711,
      "talkAssetPath": "",
      "talkAssetPathAlter": "",
      "talkAudioName": "",
      "actionBefore": "",
      "actionWhile": "",
      "actionAfter": "",
      "optionIcon": "",
      "iconPath": ""
    },
    {
      "id": 624510302,
      "nextDialogs": [
        624510303
      ],
      "talkRole": {
        "type": "TALK_ROLE_NPC",
        "_id": "2451"
      },
      "talkContentTextMapHash": 604808071,
      "talkAssetPath": "",
      "talkAssetPathAlter": "",
      "talkAudioName": "",
      "actionBefore": "",
      "actionWhile": "",
      "actionAfter": "",
      "optionIcon": "",
      "iconPath": ""
    },
    {
      "id": 624510303,
      "nextDialogs": [
        624510304
      ],
      "talkRole": {
        "type": "TALK_ROLE_NPC",
        "_id": "2451"
      },
      "talkContentTextMapHash": 1423058239,
      "talkAssetPath": "",
      "talkAssetPathAlter": "",
      "talkAudioName": "",
      "actionBefore": "",
      "actionWhile": "",
      "actionAfter": "",
      "optionIcon": "",
      "iconPath": ""
    },
    {
      "id": 624510304,
      "nextDialogs": [
        624510305
      ],
      "talkRole": {
        "type": "TALK_ROLE_NPC",
        "_id": "2451"
      },
      "talkContentTextMapHash": 1878143887,
      "talkAssetPath": "",
      "talkAssetPathAlter": "",
      "talkAudioName": "",
      "actionBefore": "",
      "actionWhile": "",
      "actionAfter": "",
      "optionIcon": "",
      "iconPath": ""
    },
    {
      "id": 624510305,
      "talkRole": {
        "type": "TALK_ROLE_NPC",
        "_id": "2451"
      },
      "talkContentTextMapHash": 3671862607,
      "talkAssetPath": "",
      "talkAssetPathAlter": "",
      "talkAudioName": "",
      "actionBefore": "",
      "actionWhile": "",
      "actionAfter": "",
      "optionIcon": "",
      "iconPath": ""
    }
  ]
}