{
  "talkId": 6246001,
  "KPGKDHAFHFE": "FREE",
  "dialogList": [
    {
      "id": 624600101,
      "talkRole": {
        "type": "TALK_ROLE_NPC",
        "_id": "2460"
      },
      "talkContentTextMapHash": 1971918031,
      "talkAssetPath": "",
      "talkAssetPathAlter": "",
      "talkAudioName": "",
      "actionBefore": "",
      "actionWhile": "TEST/LerpInNpc",
      "actionAfter": "",
      "optionIcon": "",
      "iconPath": ""
    }
  ]
}