{
  "talkId": 6247003,
  "KPGKDHAFHFE": "FREE",
  "dialogList": [
    {
      "id": 624700301,
      "nextDialogs": [
        624700302
      ],
      "talkShowType": "TALK_SHOW_FORCE_SELECT",
      "talkRole": {
        "type": "TALK_ROLE_PLAYER",
        "_id": ""
      },
      "talkContentTextMapHash": 3211792738,
      "talkAssetPath": "",
      "talkAssetPathAlter": "",
      "talkAudioName": "",
      "actionBefore": "",
      "actionWhile": "",
      "actionAfter": "",
      "optionIcon": "",
      "iconPath": ""
    },
    {
      "id": 624700302,
      "nextDialogs": [
        624700303
      ],
      "talkRole": {
        "type": "TALK_ROLE_NPC",
        "_id": "2470"
      },
      "talkContentTextMapHash": 2666496074,
      "talkAssetPath": "",
      "talkAssetPathAlter": "",
      "talkAudioName": "",
      "actionBefore": "",
      "actionWhile": "",
      "actionAfter": "",
      "optionIcon": "",
      "iconPath": ""
    },
    {
      "id": 624700303,
      "nextDialogs": [
        624700304
      ],
      "talkRole": {
        "type": "TALK_ROLE_NPC",
        "_id": "2470"
      },
      "talkContentTextMapHash": 2135324210,
      "talkAssetPath": "",
      "talkAssetPathAlter": "",
      "talkAudioName": "",
      "actionBefore": "",
      "actionWhile": "",
      "actionAfter": "",
      "optionIcon": "",
      "iconPath": ""
    },
    {
      "id": 624700304,
      "nextDialogs": [
        624700305
      ],
      "talkRole": {
        "type": "TALK_ROLE_NPC",
        "_id": "2470"
      },
      "talkContentTextMapHash": 608695162,
      "talkAssetPath": "",
      "talkAssetPathAlter": "",
      "talkAudioName": "",
      "actionBefore": "",
      "actionWhile": "",
      "actionAfter": "",
      "optionIcon": "",
      "iconPath": ""
    },
    {
      "id": 624700305,
      "nextDialogs": [
        624700306
      ],
      "talkRole": {
        "type": "TALK_ROLE_NPC",
        "_id": "2470"
      },
      "talkContentTextMapHash": 2247726098,
      "talkAssetPath": "",
      "talkAssetPathAlter": "",
      "talkAudioName": "",
      "actionBefore": "",
      "actionWhile": "",
      "actionAfter": "",
      "optionIcon": "",
      "iconPath": ""
    },
    {
      "id": 624700306,
      "nextDialogs": [
        624700307
      ],
      "talkRole": {
        "type": "TALK_ROLE_NPC",
        "_id": "2470"
      },
      "talkContentTextMapHash": 594577946,
      "talkAssetPath": "",
      "talkAssetPathAlter": "",
      "talkAudioName": "",
      "actionBefore": "",
      "actionWhile": "",
      "actionAfter": "",
      "optionIcon": "",
      "iconPath": ""
    },
    {
      "id": 624700307,
      "nextDialogs": [
        624700308
      ],
      "talkRole": {
        "type": "TALK_ROLE_NPC",
        "_id": "2470"
      },
      "talkContentTextMapHash": 1207931218,
      "talkAssetPath": "",
      "talkAssetPathAlter": "",
      "talkAudioName": "",
      "actionBefore": "",
      "actionWhile": "",
      "actionAfter": "",
      "optionIcon": "",
      "iconPath": ""
    },
    {
      "id": 624700308,
      "nextDialogs": [
        624700309
      ],
      "talkRole": {
        "type": "TALK_ROLE_NPC",
        "_id": "2470"
      },
      "talkContentTextMapHash": 3730588850,
      "talkAssetPath": "",
      "talkAssetPathAlter": "",
      "talkAudioName": "",
      "actionBefore": "",
      "actionWhile": "",
      "actionAfter": "",
      "optionIcon": "",
      "iconPath": ""
    },
    {
      "id": 624700309,
      "nextDialogs": [
        624700310
      ],
      "talkRole": {
        "type": "TALK_ROLE_NPC",
        "_id": "2470"
      },
      "talkContentTextMapHash": 1091775458,
      "talkAssetPath": "",
      "talkAssetPathAlter": "",
      "talkAudioName": "",
      "actionBefore": "",
      "actionWhile": "",
      "actionAfter": "",
      "optionIcon": "",
      "iconPath": ""
    },
    {
      "id": 624700310,
      "nextDialogs": [
        624700311
      ],
      "talkRole": {
        "type": "TALK_ROLE_NPC",
        "_id": "2470"
      },
      "talkContentTextMapHash": 2605641882,
      "talkAssetPath": "",
      "talkAssetPathAlter": "",
      "talkAudioName": "",
      "actionBefore": "",
      "actionWhile": "",
      "actionAfter": "",
      "optionIcon": "",
      "iconPath": ""
    },
    {
      "id": 624700311,
      "talkRole": {
        "type": "TALK_ROLE_NPC",
        "_id": "2470"
      },
      "talkContentTextMapHash": 2408028890,
      "talkAssetPath": "",
      "talkAssetPathAlter": "",
      "talkAudioName": "",
      "actionBefore": "",
      "actionWhile": "",
      "actionAfter": "",
      "optionIcon": "",
      "iconPath": ""
    }
  ]
}