{
  "talkId": 6247502,
  "KPGKDHAFHFE": "FREE",
  "dialogList": [
    {
      "id": 624750201,
      "nextDialogs": [
        624750202
      ],
      "talkShowType": "TALK_SHOW_FORCE_SELECT",
      "talkRole": {
        "type": "TALK_ROLE_PLAYER",
        "_id": ""
      },
      "talkContentTextMapHash": 2806038402,
      "talkAssetPath": "",
      "talkAssetPathAlter": "",
      "talkAudioName": "",
      "actionBefore": "",
      "actionWhile": "",
      "actionAfter": "",
      "optionIcon": "",
      "iconPath": ""
    },
    {
      "id": 624750202,
      "nextDialogs": [
        624750203
      ],
      "talkRole": {
        "type": "TALK_ROLE_NPC",
        "_id": "2475"
      },
      "talkContentTextMapHash": 2822699466,
      "talkAssetPath": "",
      "talkAssetPathAlter": "",
      "talkAudioName": "",
      "actionBefore": "",
      "actionWhile": "",
      "actionAfter": "",
      "optionIcon": "",
      "iconPath": ""
    },
    {
      "id": 624750203,
      "nextDialogs": [
        624750204
      ],
      "talkRole": {
        "type": "TALK_ROLE_NPC",
        "_id": "2475"
      },
      "talkContentTextMapHash": 1070591682,
      "talkAssetPath": "",
      "talkAssetPathAlter": "",
      "talkAudioName": "",
      "actionBefore": "",
      "actionWhile": "",
      "actionAfter": "",
      "optionIcon": "",
      "iconPath": ""
    },
    {
      "id": 624750204,
      "nextDialogs": [
        624750205
      ],
      "talkRole": {
        "type": "TALK_ROLE_NPC",
        "_id": "2475"
      },
      "talkContentTextMapHash": 789357282,
      "talkAssetPath": "",
      "talkAssetPathAlter": "",
      "talkAudioName": "",
      "actionBefore": "",
      "actionWhile": "",
      "actionAfter": "",
      "optionIcon": "",
      "iconPath": ""
    },
    {
      "id": 624750205,
      "nextDialogs": [
        624750206
      ],
      "talkRole": {
        "type": "TALK_ROLE_NPC",
        "_id": "2475"
      },
      "talkContentTextMapHash": 2449753874,
      "talkAssetPath": "",
      "talkAssetPathAlter": "",
      "talkAudioName": "",
      "actionBefore": "",
      "actionWhile": "",
      "actionAfter": "",
      "optionIcon": "",
      "iconPath": ""
    },
    {
      "id": 624750206,
      "nextDialogs": [
        624750207
      ],
      "talkRole": {
        "type": "TALK_ROLE_NPC",
        "_id": "2475"
      },
      "talkContentTextMapHash": 3859641834,
      "talkAssetPath": "",
      "talkAssetPathAlter": "",
      "talkAudioName": "",
      "actionBefore": "",
      "actionWhile": "",
      "actionAfter": "",
      "optionIcon": "",
      "iconPath": ""
    },
    {
      "id": 624750207,
      "talkRole": {
        "type": "TALK_ROLE_NPC",
        "_id": "2475"
      },
      "talkContentTextMapHash": 951629642,
      "talkAssetPath": "",
      "talkAssetPathAlter": "",
      "talkAudioName": "",
      "actionBefore": "",
      "actionWhile": "",
      "actionAfter": "",
      "optionIcon": "",
      "iconPath": ""
    }
  ]
}