{
  "talkId": 6248603,
  "KPGKDHAFHFE": "FREE",
  "dialogList": [
    {
      "id": 624860301,
      "nextDialogs": [
        624860302
      ],
      "talkShowType": "TALK_SHOW_FORCE_SELECT",
      "talkRole": {
        "type": "TALK_ROLE_PLAYER",
        "_id": ""
      },
      "talkContentTextMapHash": 2733668770,
      "talkAssetPath": "",
      "talkAssetPathAlter": "",
      "talkAudioName": "",
      "actionBefore": "",
      "actionWhile": "",
      "actionAfter": "",
      "optionIcon": "",
      "iconPath": ""
    },
    {
      "id": 624860302,
      "nextDialogs": [
        624860303
      ],
      "talkRole": {
        "type": "TALK_ROLE_NPC",
        "_id": "2486"
      },
      "talkContentTextMapHash": 3547675874,
      "talkAssetPath": "",
      "talkAssetPathAlter": "",
      "talkAudioName": "",
      "actionBefore": "",
      "actionWhile": "",
      "actionAfter": "",
      "optionIcon": "",
      "iconPath": ""
    },
    {
      "id": 624860303,
      "nextDialogs": [
        624860304
      ],
      "talkRole": {
        "type": "TALK_ROLE_NPC",
        "_id": "2486"
      },
      "talkContentTextMapHash": 62967586,
      "talkAssetPath": "",
      "talkAssetPathAlter": "",
      "talkAudioName": "",
      "actionBefore": "",
      "actionWhile": "",
      "actionAfter": "",
      "optionIcon": "",
      "iconPath": ""
    },
    {
      "id": 624860304,
      "nextDialogs": [
        624860305
      ],
      "talkRole": {
        "type": "TALK_ROLE_NPC",
        "_id": "2486"
      },
      "talkContentTextMapHash": 3902828490,
      "talkAssetPath": "",
      "talkAssetPathAlter": "",
      "talkAudioName": "",
      "actionBefore": "",
      "actionWhile": "",
      "actionAfter": "",
      "optionIcon": "",
      "iconPath": ""
    },
    {
      "id": 624860305,
      "talkRole": {
        "type": "TALK_ROLE_NPC",
        "_id": "2486"
      },
      "talkContentTextMapHash": 1318950170,
      "talkAssetPath": "",
      "talkAssetPathAlter": "",
      "talkAudioName": "",
      "actionBefore": "",
      "actionWhile": "",
      "actionAfter": "",
      "optionIcon": "",
      "iconPath": ""
    }
  ]
}