{
  "talkId": 6248403,
  "KPGKDHAFHFE": "FREE",
  "dialogList": [
    {
      "id": 624840301,
      "nextDialogs": [
        624840302
      ],
      "talkShowType": "TALK_SHOW_FORCE_SELECT",
      "talkRole": {
        "type": "TALK_ROLE_PLAYER",
        "_id": ""
      },
      "talkContentTextMapHash": 855795354,
      "talkAssetPath": "",
      "talkAssetPathAlter": "",
      "talkAudioName": "",
      "actionBefore": "",
      "actionWhile": "",
      "actionAfter": "",
      "optionIcon": "",
      "iconPath": ""
    },
    {
      "id": 624840302,
      "nextDialogs": [
        624840303
      ],
      "talkRole": {
        "type": "TALK_ROLE_NPC",
        "_id": "2484"
      },
      "talkContentTextMapHash": 2277209322,
      "talkAssetPath": "",
      "talkAssetPathAlter": "",
      "talkAudioName": "",
      "actionBefore": "",
      "actionWhile": "",
      "actionAfter": "",
      "optionIcon": "",
      "iconPath": ""
    },
    {
      "id": 624840303,
      "nextDialogs": [
        624840304
      ],
      "talkRole": {
        "type": "TALK_ROLE_NPC",
        "_id": "2484"
      },
      "talkContentTextMapHash": 1349811426,
      "talkAssetPath": "",
      "talkAssetPathAlter": "",
      "talkAudioName": "",
      "actionBefore": "",
      "actionWhile": "",
      "actionAfter": "",
      "optionIcon": "",
      "iconPath": ""
    },
    {
      "id": 624840304,
      "nextDialogs": [
        624840305
      ],
      "talkRole": {
        "type": "TALK_ROLE_NPC",
        "_id": "2484"
      },
      "talkContentTextMapHash": 1561505602,
      "talkAssetPath": "",
      "talkAssetPathAlter": "",
      "talkAudioName": "",
      "actionBefore": "",
      "actionWhile": "",
      "actionAfter": "",
      "optionIcon": "",
      "iconPath": ""
    },
    {
      "id": 624840305,
      "talkRole": {
        "type": "TALK_ROLE_NPC",
        "_id": "2484"
      },
      "talkContentTextMapHash": 1314319410,
      "talkAssetPath": "",
      "talkAssetPathAlter": "",
      "talkAudioName": "",
      "actionBefore": "",
      "actionWhile": "",
      "actionAfter": "",
      "optionIcon": "",
      "iconPath": ""
    }
  ]
}