{
  "talkId": 6248404,
  "KPGKDHAFHFE": "FREE",
  "dialogList": [
    {
      "id": 624840401,
      "nextDialogs": [
        624840402
      ],
      "talkShowType": "TALK_SHOW_FORCE_SELECT",
      "talkRole": {
        "type": "TALK_ROLE_PLAYER",
        "_id": ""
      },
      "talkContentTextMapHash": 3139667522,
      "talkAssetPath": "",
      "talkAssetPathAlter": "",
      "talkAudioName": "",
      "actionBefore": "",
      "actionWhile": "",
      "actionAfter": "",
      "optionIcon": "",
      "iconPath": ""
    },
    {
      "id": 624840402,
      "talkRole": {
        "type": "TALK_ROLE_NPC",
        "_id": "2484"
      },
      "talkContentTextMapHash": 3462483698,
      "talkAssetPath": "",
      "talkAssetPathAlter": "",
      "talkAudioName": "",
      "actionBefore": "",
      "actionWhile": "",
      "actionAfter": "",
      "optionIcon": "",
      "iconPath": ""
    }
  ]
}