{
  "talkId": 6248805,
  "KPGKDHAFHFE": "FREE",
  "dialogList": [
    {
      "id": 624880501,
      "nextDialogs": [
        624880502
      ],
      "talkShowType": "TALK_SHOW_FORCE_SELECT",
      "talkRole": {
        "type": "TALK_ROLE_PLAYER",
        "_id": ""
      },
      "talkContentTextMapHash": 1420152826,
      "talkAssetPath": "",
      "talkAssetPathAlter": "",
      "talkAudioName": "",
      "actionBefore": "",
      "actionWhile": "",
      "actionAfter": "",
      "optionIcon": "",
      "iconPath": ""
    },
    {
      "id": 624880502,
      "talkRole": {
        "type": "TALK_ROLE_NPC",
        "_id": "2488"
      },
      "talkContentTextMapHash": 4139458538,
      "talkAssetPath": "",
      "talkAssetPathAlter": "",
      "talkAudioName": "",
      "actionBefore": "",
      "actionWhile": "",
      "actionAfter": "",
      "optionIcon": "",
      "iconPath": ""
    }
  ]
}