{
  "talkId": 6248205,
  "KPGKDHAFHFE": "FREE",
  "dialogList": [
    {
      "id": 624820501,
      "nextDialogs": [
        624820502
      ],
      "talkShowType": "TALK_SHOW_FORCE_SELECT",
      "talkRole": {
        "type": "TALK_ROLE_PLAYER",
        "_id": ""
      },
      "talkContentTextMapHash": 1530167818,
      "talkAssetPath": "",
      "talkAssetPathAlter": "",
      "talkAudioName": "",
      "actionBefore": "",
      "actionWhile": "",
      "actionAfter": "",
      "optionIcon": "",
      "iconPath": ""
    },
    {
      "id": 624820502,
      "nextDialogs": [
        624820503
      ],
      "talkRole": {
        "type": "TALK_ROLE_NPC",
        "_id": "2482"
      },
      "talkContentTextMapHash": 777357842,
      "talkAssetPath": "",
      "talkAssetPathAlter": "",
      "talkAudioName": "",
      "actionBefore": "",
      "actionWhile": "",
      "actionAfter": "",
      "optionIcon": "",
      "iconPath": ""
    },
    {
      "id": 624820503,
      "nextDialogs": [
        624820504
      ],
      "talkRole": {
        "type": "TALK_ROLE_NPC",
        "_id": "2482"
      },
      "talkContentTextMapHash": 2327105346,
      "talkAssetPath": "",
      "talkAssetPathAlter": "",
      "talkAudioName": "",
      "actionBefore": "",
      "actionWhile": "",
      "actionAfter": "",
      "optionIcon": "",
      "iconPath": ""
    },
    {
      "id": 624820504,
      "nextDialogs": [
        624820505
      ],
      "talkRole": {
        "type": "TALK_ROLE_NPC",
        "_id": "2482"
      },
      "talkContentTextMapHash": 2636302058,
      "talkAssetPath": "",
      "talkAssetPathAlter": "",
      "talkAudioName": "",
      "actionBefore": "",
      "actionWhile": "",
      "actionAfter": "",
      "optionIcon": "",
      "iconPath": ""
    },
    {
      "id": 624820505,
      "nextDialogs": [
        624820506
      ],
      "talkRole": {
        "type": "TALK_ROLE_NPC",
        "_id": "2482"
      },
      "talkContentTextMapHash": 2941013202,
      "talkAssetPath": "",
      "talkAssetPathAlter": "",
      "talkAudioName": "",
      "actionBefore": "",
      "actionWhile": "",
      "actionAfter": "",
      "optionIcon": "",
      "iconPath": ""
    },
    {
      "id": 624820506,
      "nextDialogs": [
        624820507
      ],
      "talkRole": {
        "type": "TALK_ROLE_NPC",
        "_id": "2482"
      },
      "talkContentTextMapHash": 1723497386,
      "talkAssetPath": "",
      "talkAssetPathAlter": "",
      "talkAudioName": "",
      "actionBefore": "",
      "actionWhile": "",
      "actionAfter": "",
      "optionIcon": "",
      "iconPath": ""
    },
    {
      "id": 624820507,
      "nextDialogs": [
        624820508
      ],
      "talkRole": {
        "type": "TALK_ROLE_NPC",
        "_id": "2482"
      },
      "talkContentTextMapHash": 3976437666,
      "talkAssetPath": "",
      "talkAssetPathAlter": "",
      "talkAudioName": "",
      "actionBefore": "",
      "actionWhile": "",
      "actionAfter": "",
      "optionIcon": "",
      "iconPath": ""
    },
    {
      "id": 624820508,
      "nextDialogs": [
        624820509
      ],
      "talkRole": {
        "type": "TALK_ROLE_NPC",
        "_id": "2482"
      },
      "talkContentTextMapHash": 2643622010,
      "talkAssetPath": "",
      "talkAssetPathAlter": "",
      "talkAudioName": "",
      "actionBefore": "",
      "actionWhile": "",
      "actionAfter": "",
      "optionIcon": "",
      "iconPath": ""
    },
    {
      "id": 624820509,
      "nextDialogs": [
        624820510
      ],
      "talkRole": {
        "type": "TALK_ROLE_NPC",
        "_id": "2482"
      },
      "talkContentTextMapHash": 4002687514,
      "talkAssetPath": "",
      "talkAssetPathAlter": "",
      "talkAudioName": "",
      "actionBefore": "",
      "actionWhile": "",
      "actionAfter": "",
      "optionIcon": "",
      "iconPath": ""
    },
    {
      "id": 624820510,
      "talkRole": {
        "type": "TALK_ROLE_NPC",
        "_id": "2482"
      },
      "talkContentTextMapHash": 3449368946,
      "talkAssetPath": "",
      "talkAssetPathAlter": "",
      "talkAudioName": "",
      "actionBefore": "",
      "actionWhile": "",
      "actionAfter": "",
      "optionIcon": "",
      "iconPath": ""
    }
  ]
}