{
  "talkId": 6248704,
  "KPGKDHAFHFE": "FREE",
  "dialogList": [
    {
      "id": 624870401,
      "nextDialogs": [
        624870402
      ],
      "talkShowType": "TALK_SHOW_FORCE_SELECT",
      "talkRole": {
        "type": "TALK_ROLE_PLAYER",
        "_id": ""
      },
      "talkContentTextMapHash": 2268244290,
      "talkAssetPath": "",
      "talkAssetPathAlter": "",
      "talkAudioName": "",
      "actionBefore": "",
      "actionWhile": "",
      "actionAfter": "",
      "optionIcon": "",
      "iconPath": ""
    },
    {
      "id": 624870402,
      "talkRole": {
        "type": "TALK_ROLE_NPC",
        "_id": "2487"
      },
      "talkContentTextMapHash": 3483432010,
      "talkAssetPath": "",
      "talkAssetPathAlter": "",
      "talkAudioName": "",
      "actionBefore": "",
      "actionWhile": "",
      "actionAfter": "",
      "optionIcon": "",
      "iconPath": ""
    }
  ]
}