{
  "talkId": 6249607,
  "KPGKDHAFHFE": "FREE",
  "dialogList": [
    {
      "id": 624960701,
      "nextDialogs": [
        624960702
      ],
      "talkShowType": "TALK_SHOW_FORCE_SELECT",
      "talkRole": {
        "type": "TALK_ROLE_PLAYER",
        "_id": ""
      },
      "talkContentTextMapHash": 3689662130,
      "talkAssetPath": "",
      "talkAssetPathAlter": "",
      "talkAudioName": "",
      "actionBefore": "",
      "actionWhile": "",
      "actionAfter": "",
      "optionIcon": "",
      "iconPath": ""
    },
    {
      "id": 624960702,
      "nextDialogs": [
        624960703
      ],
      "talkRole": {
        "type": "TALK_ROLE_NPC",
        "_id": "2496"
      },
      "talkContentTextMapHash": 842988562,
      "talkAssetPath": "",
      "talkAssetPathAlter": "",
      "talkAudioName": "",
      "actionBefore": "",
      "actionWhile": "SimpleTalk/RandomTalk",
      "actionAfter": "",
      "optionIcon": "",
      "iconPath": ""
    },
    {
      "id": 624960703,
      "talkRole": {
        "type": "TALK_ROLE_NPC",
        "_id": "2496"
      },
      "talkContentTextMapHash": 252851338,
      "talkAssetPath": "",
      "talkAssetPathAlter": "",
      "talkAudioName": "",
      "actionBefore": "",
      "actionWhile": "",
      "actionAfter": "",
      "optionIcon": "",
      "iconPath": ""
    }
  ]
}