{
  "talkId": 6249201,
  "KPGKDHAFHFE": "FREE",
  "dialogList": [
    {
      "id": 624920101,
      "nextDialogs": [
        624920102
      ],
      "talkRole": {
        "type": "TALK_ROLE_NPC",
        "_id": "2492"
      },
      "talkContentTextMapHash": 3514104634,
      "talkAssetPath": "",
      "talkAssetPathAlter": "",
      "talkAudioName": "",
      "actionBefore": "",
      "actionWhile": "",
      "actionAfter": "",
      "optionIcon": "",
      "iconPath": ""
    },
    {
      "id": 624920102,
      "talkRole": {
        "type": "TALK_ROLE_NPC",
        "_id": "2492"
      },
      "talkContentTextMapHash": 4144782050,
      "talkAssetPath": "",
      "talkAssetPathAlter": "",
      "talkAudioName": "",
      "actionBefore": "",
      "actionWhile": "",
      "actionAfter": "",
      "optionIcon": "",
      "iconPath": ""
    }
  ]
}