{
  "talkId": 6249808,
  "KPGKDHAFHFE": "FREE",
  "dialogList": [
    {
      "id": 624980801,
      "nextDialogs": [
        624980802
      ],
      "talkShowType": "TALK_SHOW_FORCE_SELECT",
      "talkRole": {
        "type": "TALK_ROLE_PLAYER",
        "_id": ""
      },
      "talkContentTextMapHash": 1035387066,
      "talkAssetPath": "",
      "talkAssetPathAlter": "",
      "talkAudioName": "",
      "actionBefore": "",
      "actionWhile": "",
      "actionAfter": "",
      "optionIcon": "",
      "iconPath": ""
    },
    {
      "id": 624980802,
      "nextDialogs": [
        624980803
      ],
      "talkRole": {
        "type": "TALK_ROLE_NPC",
        "_id": "2498"
      },
      "talkContentTextMapHash": 1243061162,
      "talkAssetPath": "",
      "talkAssetPathAlter": "",
      "talkAudioName": "",
      "actionBefore": "",
      "actionWhile": "",
      "actionAfter": "",
      "optionIcon": "",
      "iconPath": ""
    },
    {
      "id": 624980803,
      "nextDialogs": [
        624980804
      ],
      "talkRole": {
        "type": "TALK_ROLE_NPC",
        "_id": "2498"
      },
      "talkContentTextMapHash": 2430092218,
      "talkAssetPath": "",
      "talkAssetPathAlter": "",
      "talkAudioName": "",
      "actionBefore": "",
      "actionWhile": "",
      "actionAfter": "",
      "optionIcon": "",
      "iconPath": ""
    },
    {
      "id": 624980804,
      "nextDialogs": [
        624980805
      ],
      "talkRole": {
        "type": "TALK_ROLE_NPC",
        "_id": "2498"
      },
      "talkContentTextMapHash": 2778427594,
      "talkAssetPath": "",
      "talkAssetPathAlter": "",
      "talkAudioName": "",
      "actionBefore": "",
      "actionWhile": "",
      "actionAfter": "",
      "optionIcon": "",
      "iconPath": ""
    }
  ]
}