{
  "talkId": 6249505,
  "KPGKDHAFHFE": "FREE",
  "dialogList": [
    {
      "id": 624950501,
      "talkRole": {
        "type": "TALK_ROLE_NPC",
        "_id": "2495"
      },
      "talkContentTextMapHash": 2290536682,
      "talkAssetPath": "",
      "talkAssetPathAlter": "",
      "talkAudioName": "",
      "actionBefore": "",
      "actionWhile": "SimpleTalk/Think_Start",
      "actionAfter": "",
      "optionIcon": "",
      "iconPath": ""
    }
  ]
}