{
  "talkId": 6249804,
  "KPGKDHAFHFE": "FREE",
  "dialogList": [
    {
      "id": 624980401,
      "nextDialogs": [
        624980402
      ],
      "talkShowType": "TALK_SHOW_FORCE_SELECT",
      "talkRole": {
        "type": "TALK_ROLE_PLAYER",
        "_id": ""
      },
      "talkContentTextMapHash": 120202090,
      "talkAssetPath": "",
      "talkAssetPathAlter": "",
      "talkAudioName": "",
      "actionBefore": "",
      "actionWhile": "",
      "actionAfter": "",
      "optionIcon": "",
      "iconPath": ""
    },
    {
      "id": 624980402,
      "talkRole": {
        "type": "TALK_ROLE_NPC",
        "_id": "2498"
      },
      "talkContentTextMapHash": 1565425098,
      "talkAssetPath": "",
      "talkAssetPathAlter": "",
      "talkAudioName": "",
      "actionBefore": "",
      "actionWhile": "",
      "actionAfter": "",
      "optionIcon": "",
      "iconPath": ""
    }
  ]
}