{
  "talkId": 6249103,
  "KPGKDHAFHFE": "FREE",
  "dialogList": [
    {
      "id": 624910301,
      "nextDialogs": [
        624910302
      ],
      "talkShowType": "TALK_SHOW_FORCE_SELECT",
      "talkRole": {
        "type": "TALK_ROLE_PLAYER",
        "_id": ""
      },
      "talkContentTextMapHash": 1339215498,
      "talkAssetPath": "",
      "talkAssetPathAlter": "",
      "talkAudioName": "",
      "actionBefore": "",
      "actionWhile": "",
      "actionAfter": "",
      "optionIcon": "",
      "iconPath": ""
    },
    {
      "id": 624910302,
      "talkRole": {
        "type": "TALK_ROLE_NPC",
        "_id": "2491"
      },
      "talkContentTextMapHash": 2864101034,
      "talkAssetPath": "",
      "talkAssetPathAlter": "",
      "talkAudioName": "",
      "actionBefore": "",
      "actionWhile": "",
      "actionAfter": "",
      "optionIcon": "",
      "iconPath": ""
    }
  ]
}