{
  "talkId": 6249101,
  "KPGKDHAFHFE": "FREE",
  "dialogList": [
    {
      "id": 624910101,
      "talkRole": {
        "type": "TALK_ROLE_NPC",
        "_id": "2491"
      },
      "talkContentTextMapHash": 4272920634,
      "talkAssetPath": "",
      "talkAssetPathAlter": "",
      "talkAudioName": "",
      "actionBefore": "",
      "actionWhile": "",
      "actionAfter": "",
      "optionIcon": "",
      "iconPath": ""
    }
  ]
}