{
  "talkId": 6250504,
  "KPGKDHAFHFE": "FREE",
  "dialogList": [
    {
      "id": 625050401,
      "nextDialogs": [
        625050402
      ],
      "talkShowType": "TALK_SHOW_FORCE_SELECT",
      "talkRole": {
        "type": "TALK_ROLE_PLAYER",
        "_id": ""
      },
      "talkContentTextMapHash": 3024669170,
      "talkAssetPath": "",
      "talkAssetPathAlter": "",
      "talkAudioName": "",
      "actionBefore": "",
      "actionWhile": "",
      "actionAfter": "",
      "optionIcon": "",
      "iconPath": ""
    },
    {
      "id": 625050402,
      "nextDialogs": [
        625050403
      ],
      "talkRole": {
        "type": "TALK_ROLE_NPC",
        "_id": "2505"
      },
      "talkContentTextMapHash": 223181250,
      "talkAssetPath": "",
      "talkAssetPathAlter": "",
      "talkAudioName": "",
      "actionBefore": "",
      "actionWhile": "",
      "actionAfter": "",
      "optionIcon": "",
      "iconPath": ""
    },
    {
      "id": 625050403,
      "nextDialogs": [
        625050404
      ],
      "talkRole": {
        "type": "TALK_ROLE_NPC",
        "_id": "2505"
      },
      "talkContentTextMapHash": 724593058,
      "talkAssetPath": "",
      "talkAssetPathAlter": "",
      "talkAudioName": "",
      "actionBefore": "",
      "actionWhile": "",
      "actionAfter": "",
      "optionIcon": "",
      "iconPath": ""
    },
    {
      "id": 625050404,
      "nextDialogs": [
        625050405
      ],
      "talkRole": {
        "type": "TALK_ROLE_NPC",
        "_id": "2505"
      },
      "talkContentTextMapHash": 3354817226,
      "talkAssetPath": "",
      "talkAssetPathAlter": "",
      "talkAudioName": "",
      "actionBefore": "",
      "actionWhile": "",
      "actionAfter": "",
      "optionIcon": "",
      "iconPath": ""
    },
    {
      "id": 625050405,
      "nextDialogs": [
        625050406
      ],
      "talkRole": {
        "type": "TALK_ROLE_NPC",
        "_id": "2505"
      },
      "talkContentTextMapHash": 3064621826,
      "talkAssetPath": "",
      "talkAssetPathAlter": "",
      "talkAudioName": "",
      "actionBefore": "",
      "actionWhile": "",
      "actionAfter": "",
      "optionIcon": "",
      "iconPath": ""
    },
    {
      "id": 625050406,
      "nextDialogs": [
        625050407
      ],
      "talkRole": {
        "type": "TALK_ROLE_NPC",
        "_id": "2505"
      },
      "talkContentTextMapHash": 3685257082,
      "talkAssetPath": "",
      "talkAssetPathAlter": "",
      "talkAudioName": "",
      "actionBefore": "",
      "actionWhile": "",
      "actionAfter": "",
      "optionIcon": "",
      "iconPath": ""
    },
    {
      "id": 625050407,
      "nextDialogs": [
        625050408
      ],
      "talkRole": {
        "type": "TALK_ROLE_NPC",
        "_id": "2505"
      },
      "talkContentTextMapHash": 3765518554,
      "talkAssetPath": "",
      "talkAssetPathAlter": "",
      "talkAudioName": "",
      "actionBefore": "",
      "actionWhile": "",
      "actionAfter": "",
      "optionIcon": "",
      "iconPath": ""
    },
    {
      "id": 625050408,
      "talkRole": {
        "type": "TALK_ROLE_NPC",
        "_id": "2505"
      },
      "talkContentTextMapHash": 2006589234,
      "talkAssetPath": "",
      "talkAssetPathAlter": "",
      "talkAudioName": "",
      "actionBefore": "",
      "actionWhile": "",
      "actionAfter": "",
      "optionIcon": "",
      "iconPath": ""
    }
  ]
}