{
  "talkId": 6250404,
  "KPGKDHAFHFE": "FREE",
  "dialogList": [
    {
      "id": 625040401,
      "nextDialogs": [
        625040402
      ],
      "talkShowType": "TALK_SHOW_FORCE_SELECT",
      "talkRole": {
        "type": "TALK_ROLE_PLAYER",
        "_id": ""
      },
      "talkContentTextMapHash": 122779370,
      "talkAssetPath": "",
      "talkAssetPathAlter": "",
      "talkAudioName": "",
      "actionBefore": "",
      "actionWhile": "",
      "actionAfter": "SimpleTalk/SteerOnly",
      "optionIcon": "",
      "iconPath": ""
    },
    {
      "id": 625040402,
      "talkRole": {
        "type": "TALK_ROLE_NPC",
        "_id": "2504"
      },
      "talkContentTextMapHash": 860482410,
      "talkAssetPath": "",
      "talkAssetPathAlter": "",
      "talkAudioName": "",
      "actionBefore": "",
      "actionWhile": "SimpleTalk/RandomTalk",
      "actionAfter": "",
      "optionIcon": "",
      "iconPath": ""
    }
  ]
}