{
  "talkId": 6250004,
  "KPGKDHAFHFE": "FREE",
  "dialogList": [
    {
      "id": 625000401,
      "nextDialogs": [
        625000402
      ],
      "talkShowType": "TALK_SHOW_FORCE_SELECT",
      "talkRole": {
        "type": "TALK_ROLE_PLAYER",
        "_id": ""
      },
      "talkContentTextMapHash": 1765324066,
      "talkAssetPath": "",
      "talkAssetPathAlter": "",
      "talkAudioName": "",
      "actionBefore": "",
      "actionWhile": "",
      "actionAfter": "",
      "optionIcon": "",
      "iconPath": ""
    },
    {
      "id": 625000402,
      "talkRole": {
        "type": "TALK_ROLE_NPC",
        "_id": "2500"
      },
      "talkContentTextMapHash": 1395620722,
      "talkAssetPath": "",
      "talkAssetPathAlter": "",
      "talkAudioName": "",
      "actionBefore": "",
      "actionWhile": "",
      "actionAfter": "",
      "optionIcon": "",
      "iconPath": ""
    }
  ]
}