{
  "talkId": 6250402,
  "KPGKDHAFHFE": "FREE",
  "dialogList": [
    {
      "id": 625040201,
      "nextDialogs": [
        625040202
      ],
      "talkShowType": "TALK_SHOW_FORCE_SELECT",
      "talkRole": {
        "type": "TALK_ROLE_PLAYER",
        "_id": ""
      },
      "talkContentTextMapHash": 1244452714,
      "talkAssetPath": "",
      "talkAssetPathAlter": "",
      "talkAudioName": "",
      "actionBefore": "",
      "actionWhile": "",
      "actionAfter": "SimpleTalk/SteerOnly",
      "optionIcon": "",
      "iconPath": ""
    },
    {
      "id": 625040202,
      "nextDialogs": [
        625040203
      ],
      "talkRole": {
        "type": "TALK_ROLE_NPC",
        "_id": "2504"
      },
      "talkContentTextMapHash": 150531986,
      "talkAssetPath": "",
      "talkAssetPathAlter": "",
      "talkAudioName": "",
      "actionBefore": "",
      "actionWhile": "SimpleTalk/RandomTalk",
      "actionAfter": "",
      "optionIcon": "",
      "iconPath": ""
    },
    {
      "id": 625040203,
      "talkRole": {
        "type": "TALK_ROLE_NPC",
        "_id": "2504"
      },
      "talkContentTextMapHash": 2258504258,
      "talkAssetPath": "",
      "talkAssetPathAlter": "",
      "talkAudioName": "",
      "actionBefore": "",
      "actionWhile": "",
      "actionAfter": "",
      "optionIcon": "",
      "iconPath": ""
    }
  ]
}