{
  "talkId": 6251802,
  "KPGKDHAFHFE": "FREE",
  "dialogList": [
    {
      "id": 625180201,
      "nextDialogs": [
        625180202
      ],
      "talkShowType": "TALK_SHOW_FORCE_SELECT",
      "talkRole": {
        "type": "TALK_ROLE_PLAYER",
        "_id": ""
      },
      "talkContentTextMapHash": 2981425610,
      "talkAssetPath": "",
      "talkAssetPathAlter": "",
      "talkAudioName": "",
      "actionBefore": "",
      "actionWhile": "",
      "actionAfter": "",
      "optionIcon": "",
      "iconPath": ""
    },
    {
      "id": 625180202,
      "talkRole": {
        "type": "TALK_ROLE_NPC",
        "_id": "2518"
      },
      "talkContentTextMapHash": 471547082,
      "talkAssetPath": "",
      "talkAssetPathAlter": "",
      "talkAudioName": "",
      "actionBefore": "",
      "actionWhile": "",
      "actionAfter": "",
      "optionIcon": "",
      "iconPath": ""
    }
  ]
}