{
  "talkId": 6251403,
  "KPGKDHAFHFE": "FREE",
  "dialogList": [
    {
      "id": 625140301,
      "nextDialogs": [
        625140302
      ],
      "talkShowType": "TALK_SHOW_FORCE_SELECT",
      "talkRole": {
        "type": "TALK_ROLE_PLAYER",
        "_id": ""
      },
      "talkContentTextMapHash": 3506516498,
      "talkAssetPath": "",
      "talkAssetPathAlter": "",
      "talkAudioName": "",
      "actionBefore": "",
      "actionWhile": "",
      "actionAfter": "",
      "optionIcon": "",
      "iconPath": ""
    },
    {
      "id": 625140302,
      "nextDialogs": [
        625140303
      ],
      "talkRole": {
        "type": "TALK_ROLE_NPC",
        "_id": "2514"
      },
      "talkContentTextMapHash": 288778762,
      "talkAssetPath": "",
      "talkAssetPathAlter": "",
      "talkAudioName": "",
      "actionBefore": "",
      "actionWhile": "",
      "actionAfter": "",
      "optionIcon": "",
      "iconPath": ""
    },
    {
      "id": 625140303,
      "nextDialogs": [
        625140304
      ],
      "talkRole": {
        "type": "TALK_ROLE_NPC",
        "_id": "2514"
      },
      "talkContentTextMapHash": 4020792426,
      "talkAssetPath": "",
      "talkAssetPathAlter": "",
      "talkAudioName": "",
      "actionBefore": "",
      "actionWhile": "",
      "actionAfter": "",
      "optionIcon": "",
      "iconPath": ""
    },
    {
      "id": 625140304,
      "nextDialogs": [
        625140305
      ],
      "talkRole": {
        "type": "TALK_ROLE_NPC",
        "_id": "2514"
      },
      "talkContentTextMapHash": 297739034,
      "talkAssetPath": "",
      "talkAssetPathAlter": "",
      "talkAudioName": "",
      "actionBefore": "",
      "actionWhile": "",
      "actionAfter": "",
      "optionIcon": "",
      "iconPath": ""
    },
    {
      "id": 625140305,
      "talkRole": {
        "type": "TALK_ROLE_NPC",
        "_id": "2514"
      },
      "talkContentTextMapHash": 1929293594,
      "talkAssetPath": "",
      "talkAssetPathAlter": "",
      "talkAudioName": "",
      "actionBefore": "",
      "actionWhile": "",
      "actionAfter": "SimpleTalk/LerpOutNpcNoSteer_End",
      "optionIcon": "",
      "iconPath": ""
    }
  ]
}