{
  "talkId": 6251705,
  "KPGKDHAFHFE": "FREE",
  "dialogList": [
    {
      "id": 625170501,
      "nextDialogs": [
        625170502
      ],
      "talkShowType": "TALK_SHOW_FORCE_SELECT",
      "talkRole": {
        "type": "TALK_ROLE_PLAYER",
        "_id": ""
      },
      "talkContentTextMapHash": 3325627978,
      "talkAssetPath": "",
      "talkAssetPathAlter": "",
      "talkAudioName": "",
      "actionBefore": "",
      "actionWhile": "",
      "actionAfter": "",
      "optionIcon": "",
      "iconPath": ""
    },
    {
      "id": 625170502,
      "nextDialogs": [
        625170503
      ],
      "talkRole": {
        "type": "TALK_ROLE_NPC",
        "_id": "2517"
      },
      "talkContentTextMapHash": 3270373242,
      "talkAssetPath": "",
      "talkAssetPathAlter": "",
      "talkAudioName": "",
      "actionBefore": "",
      "actionWhile": "SimpleTalk/Think",
      "actionAfter": "",
      "optionIcon": "",
      "iconPath": ""
    },
    {
      "id": 625170503,
      "nextDialogs": [
        625170504
      ],
      "talkRole": {
        "type": "TALK_ROLE_NPC",
        "_id": "2517"
      },
      "talkContentTextMapHash": 2435430810,
      "talkAssetPath": "",
      "talkAssetPathAlter": "",
      "talkAudioName": "",
      "actionBefore": "",
      "actionWhile": "SimpleTalk/RandomTalk",
      "actionAfter": "",
      "optionIcon": "",
      "iconPath": ""
    },
    {
      "id": 625170504,
      "nextDialogs": [
        625170505
      ],
      "talkRole": {
        "type": "TALK_ROLE_NPC",
        "_id": "2517"
      },
      "talkContentTextMapHash": 2078238186,
      "talkAssetPath": "",
      "talkAssetPathAlter": "",
      "talkAudioName": "",
      "actionBefore": "",
      "actionWhile": "",
      "actionAfter": "",
      "optionIcon": "",
      "iconPath": ""
    },
    {
      "id": 625170505,
      "nextDialogs": [
        625170506
      ],
      "talkRole": {
        "type": "TALK_ROLE_NPC",
        "_id": "2517"
      },
      "talkContentTextMapHash": 414958482,
      "talkAssetPath": "",
      "talkAssetPathAlter": "",
      "talkAudioName": "",
      "actionBefore": "",
      "actionWhile": "SimpleTalk/RandomTalk",
      "actionAfter": "",
      "optionIcon": "",
      "iconPath": ""
    },
    {
      "id": 625170506,
      "talkRole": {
        "type": "TALK_ROLE_NPC",
        "_id": "2517"
      },
      "talkContentTextMapHash": 3433833946,
      "talkAssetPath": "",
      "talkAssetPathAlter": "",
      "talkAudioName": "",
      "actionBefore": "",
      "actionWhile": "SimpleTalk/RandomTalk",
      "actionAfter": "",
      "optionIcon": "",
      "iconPath": ""
    }
  ]
}