{
  "talkId": 6252201,
  "KPGKDHAFHFE": "FREE",
  "dialogList": [
    {
      "id": 625220101,
      "nextDialogs": [
        625220102
      ],
      "talkRole": {
        "type": "TALK_ROLE_NPC",
        "_id": "2522"
      },
      "talkContentTextMapHash": 2626487386,
      "talkAssetPath": "",
      "talkAssetPathAlter": "",
      "talkAudioName": "",
      "actionBefore": "",
      "actionWhile": "SimpleTalk/LerpInNpcNoSteer_Start",
      "actionAfter": "SimpleTalk/SteerOnly",
      "optionIcon": "",
      "iconPath": ""
    },
    {
      "id": 625220102,
      "talkRole": {
        "type": "TALK_ROLE_NPC",
        "_id": "2522"
      },
      "talkContentTextMapHash": 4007332626,
      "talkAssetPath": "",
      "talkAssetPathAlter": "",
      "talkAudioName": "",
      "actionBefore": "",
      "actionWhile": "SimpleTalk/RandomTalk",
      "actionAfter": "",
      "optionIcon": "",
      "iconPath": ""
    }
  ]
}