{
  "talkId": 6252203,
  "KPGKDHAFHFE": "FREE",
  "dialogList": [
    {
      "id": 625220301,
      "nextDialogs": [
        625220302
      ],
      "talkShowType": "TALK_SHOW_FORCE_SELECT",
      "talkRole": {
        "type": "TALK_ROLE_PLAYER",
        "_id": ""
      },
      "talkContentTextMapHash": 2996359322,
      "talkAssetPath": "",
      "talkAssetPathAlter": "",
      "talkAudioName": "",
      "actionBefore": "",
      "actionWhile": "",
      "actionAfter": "SimpleTalk/Standby",
      "optionIcon": "",
      "iconPath": ""
    },
    {
      "id": 625220302,
      "nextDialogs": [
        625220303
      ],
      "talkRole": {
        "type": "TALK_ROLE_NPC",
        "_id": "2522"
      },
      "talkContentTextMapHash": 4116619266,
      "talkAssetPath": "",
      "talkAssetPathAlter": "",
      "talkAudioName": "",
      "actionBefore": "",
      "actionWhile": "SimpleTalk/ShakeHead",
      "actionAfter": "",
      "optionIcon": "",
      "iconPath": ""
    },
    {
      "id": 625220303,
      "nextDialogs": [
        625220304
      ],
      "talkRole": {
        "type": "TALK_ROLE_NPC",
        "_id": "2522"
      },
      "talkContentTextMapHash": 2341892762,
      "talkAssetPath": "",
      "talkAssetPathAlter": "",
      "talkAudioName": "",
      "actionBefore": "",
      "actionWhile": "SimpleTalk/RandomTalk",
      "actionAfter": "",
      "optionIcon": "",
      "iconPath": ""
    },
    {
      "id": 625220304,
      "talkRole": {
        "type": "TALK_ROLE_NPC",
        "_id": "2522"
      },
      "talkContentTextMapHash": 3659608962,
      "talkAssetPath": "",
      "talkAssetPathAlter": "",
      "talkAudioName": "",
      "actionBefore": "",
      "actionWhile": "",
      "actionAfter": "",
      "optionIcon": "",
      "iconPath": ""
    }
  ]
}