{
  "talkId": 6252302,
  "KPGKDHAFHFE": "FREE",
  "dialogList": [
    {
      "id": 625230201,
      "nextDialogs": [
        625230202
      ],
      "talkShowType": "TALK_SHOW_FORCE_SELECT",
      "talkRole": {
        "type": "TALK_ROLE_PLAYER",
        "_id": ""
      },
      "talkContentTextMapHash": 3294643162,
      "talkAssetPath": "",
      "talkAssetPathAlter": "",
      "talkAudioName": "",
      "actionBefore": "",
      "actionWhile": "",
      "actionAfter": "",
      "optionIcon": "",
      "iconPath": ""
    },
    {
      "id": 625230202,
      "nextDialogs": [
        625230203
      ],
      "talkRole": {
        "type": "TALK_ROLE_NPC",
        "_id": "2523"
      },
      "talkContentTextMapHash": 2739770026,
      "talkAssetPath": "",
      "talkAssetPathAlter": "",
      "talkAudioName": "",
      "actionBefore": "",
      "actionWhile": "",
      "actionAfter": "",
      "optionIcon": "",
      "iconPath": ""
    },
    {
      "id": 625230203,
      "nextDialogs": [
        625230204
      ],
      "talkRole": {
        "type": "TALK_ROLE_NPC",
        "_id": "2523"
      },
      "talkContentTextMapHash": 319582738,
      "talkAssetPath": "",
      "talkAssetPathAlter": "",
      "talkAudioName": "",
      "actionBefore": "",
      "actionWhile": "",
      "actionAfter": "",
      "optionIcon": "",
      "iconPath": ""
    },
    {
      "id": 625230204,
      "talkRole": {
        "type": "TALK_ROLE_NPC",
        "_id": "2523"
      },
      "talkContentTextMapHash": 2958994522,
      "talkAssetPath": "",
      "talkAssetPathAlter": "",
      "talkAudioName": "",
      "actionBefore": "",
      "actionWhile": "",
      "actionAfter": "SimpleTalk/LerpOutNpcNoSteer_End",
      "optionIcon": "",
      "iconPath": ""
    }
  ]
}