{
  "talkId": 6300305,
  "KPGKDHAFHFE": "FREE",
  "dialogList": [
    {
      "id": 630030501,
      "nextDialogs": [
        630030502
      ],
      "talkShowType": "TALK_SHOW_FORCE_SELECT",
      "talkRole": {
        "type": "TALK_ROLE_PLAYER",
        "_id": ""
      },
      "talkContentTextMapHash": 2584995626,
      "talkAssetPath": "",
      "talkAssetPathAlter": "",
      "talkAudioName": "",
      "actionBefore": "",
      "actionWhile": "",
      "actionAfter": "",
      "optionIcon": "",
      "iconPath": ""
    },
    {
      "id": 630030502,
      "talkRole": {
        "type": "TALK_ROLE_NPC",
        "_id": "3003"
      },
      "talkContentTextMapHash": 2154668666,
      "talkAssetPath": "",
      "talkAssetPathAlter": "",
      "talkAudioName": "",
      "actionBefore": "",
      "actionWhile": "",
      "actionAfter": "",
      "optionIcon": "",
      "iconPath": ""
    }
  ]
}