{
  "talkId": 6300202,
  "KPGKDHAFHFE": "FREE",
  "dialogList": [
    {
      "id": 630020201,
      "nextDialogs": [
        630020202
      ],
      "talkShowType": "TALK_SHOW_FORCE_SELECT",
      "talkRole": {
        "type": "TALK_ROLE_PLAYER",
        "_id": ""
      },
      "talkContentTextMapHash": 3898456666,
      "talkAssetPath": "",
      "talkAssetPathAlter": "",
      "talkAudioName": "",
      "actionBefore": "",
      "actionWhile": "",
      "actionAfter": "",
      "optionIcon": "UI_Icon_Intee_GeneralCargo",
      "iconPath": ""
    },
    {
      "id": 630020202,
      "talkRole": {
        "type": "TALK_ROLE_NPC",
        "_id": "3002"
      },
      "talkContentTextMapHash": 3740064074,
      "talkAssetPath": "",
      "talkAssetPathAlter": "",
      "talkAudioName": "",
      "actionBefore": "",
      "actionWhile": "",
      "actionAfter": "Shop/shop_open_1056",
      "optionIcon": "",
      "iconPath": ""
    }
  ]
}