{
  "talkId": 6300303,
  "KPGKDHAFHFE": "FREE",
  "dialogList": [
    {
      "id": 630030301,
      "nextDialogs": [
        630030302
      ],
      "talkShowType": "TALK_SHOW_FORCE_SELECT",
      "talkRole": {
        "type": "TALK_ROLE_PLAYER",
        "_id": ""
      },
      "talkContentTextMapHash": 2871230978,
      "talkAssetPath": "",
      "talkAssetPathAlter": "",
      "talkAudioName": "",
      "actionBefore": "",
      "actionWhile": "",
      "actionAfter": "",
      "optionIcon": "",
      "iconPath": ""
    },
    {
      "id": 630030302,
      "nextDialogs": [
        630030303
      ],
      "talkRole": {
        "type": "TALK_ROLE_NPC",
        "_id": "3003"
      },
      "talkContentTextMapHash": 3848213778,
      "talkAssetPath": "",
      "talkAssetPathAlter": "",
      "talkAudioName": "",
      "actionBefore": "",
      "actionWhile": "",
      "actionAfter": "",
      "optionIcon": "",
      "iconPath": ""
    },
    {
      "id": 630030303,
      "nextDialogs": [
        630030304
      ],
      "talkRole": {
        "type": "TALK_ROLE_NPC",
        "_id": "3003"
      },
      "talkContentTextMapHash": 521242834,
      "talkAssetPath": "",
      "talkAssetPathAlter": "",
      "talkAudioName": "",
      "actionBefore": "",
      "actionWhile": "",
      "actionAfter": "",
      "optionIcon": "",
      "iconPath": ""
    },
    {
      "id": 630030304,
      "nextDialogs": [
        630030305
      ],
      "talkRole": {
        "type": "TALK_ROLE_NPC",
        "_id": "3003"
      },
      "talkContentTextMapHash": 3397761930,
      "talkAssetPath": "",
      "talkAssetPathAlter": "",
      "talkAudioName": "",
      "actionBefore": "",
      "actionWhile": "",
      "actionAfter": "",
      "optionIcon": "",
      "iconPath": ""
    },
    {
      "id": 630030305,
      "nextDialogs": [
        630030306
      ],
      "talkRole": {
        "type": "TALK_ROLE_NPC",
        "_id": "3003"
      },
      "talkContentTextMapHash": 2738753754,
      "talkAssetPath": "",
      "talkAssetPathAlter": "",
      "talkAudioName": "",
      "actionBefore": "",
      "actionWhile": "",
      "actionAfter": "",
      "optionIcon": "",
      "iconPath": ""
    },
    {
      "id": 630030306,
      "talkRole": {
        "type": "TALK_ROLE_NPC",
        "_id": "3003"
      },
      "talkContentTextMapHash": 3338371986,
      "talkAssetPath": "",
      "talkAssetPathAlter": "",
      "talkAudioName": "",
      "actionBefore": "",
      "actionWhile": "",
      "actionAfter": "",
      "optionIcon": "",
      "iconPath": ""
    }
  ]
}