{
  "talkId": 6300707,
  "KPGKDHAFHFE": "FREE",
  "dialogList": [
    {
      "id": 630070701,
      "nextDialogs": [
        630070702
      ],
      "talkRole": {
        "type": "TALK_ROLE_PLAYER",
        "_id": ""
      },
      "talkContentTextMapHash": 2189325986,
      "talkAssetPath": "",
      "talkAssetPathAlter": "",
      "talkAudioName": "",
      "actionBefore": "",
      "actionWhile": "",
      "actionAfter": "",
      "optionIcon": "",
      "iconPath": ""
    },
    {
      "id": 630070702,
      "nextDialogs": [
        630070703
      ],
      "talkRole": {
        "type": "TALK_ROLE_NPC",
        "_id": "3007"
      },
      "talkContentTextMapHash": 576942682,
      "talkAssetPath": "",
      "talkAssetPathAlter": "",
      "talkAudioName": "",
      "actionBefore": "",
      "actionWhile": "",
      "actionAfter": "",
      "optionIcon": "",
      "iconPath": ""
    },
    {
      "id": 630070703,
      "nextDialogs": [
        630070704
      ],
      "talkRole": {
        "type": "TALK_ROLE_NPC",
        "_id": "3007"
      },
      "talkContentTextMapHash": 1229580946,
      "talkAssetPath": "",
      "talkAssetPathAlter": "",
      "talkAudioName": "",
      "actionBefore": "",
      "actionWhile": "",
      "actionAfter": "",
      "optionIcon": "",
      "iconPath": ""
    },
    {
      "id": 630070704,
      "nextDialogs": [
        630070705
      ],
      "talkRole": {
        "type": "TALK_ROLE_NPC",
        "_id": "3007"
      },
      "talkContentTextMapHash": 2092911450,
      "talkAssetPath": "",
      "talkAssetPathAlter": "",
      "talkAudioName": "",
      "actionBefore": "",
      "actionWhile": "",
      "actionAfter": "",
      "optionIcon": "",
      "iconPath": ""
    },
    {
      "id": 630070705,
      "talkRole": {
        "type": "TALK_ROLE_NPC",
        "_id": "3007"
      },
      "talkContentTextMapHash": 2173217426,
      "talkAssetPath": "",
      "talkAssetPathAlter": "",
      "talkAudioName": "",
      "actionBefore": "",
      "actionWhile": "",
      "actionAfter": "",
      "optionIcon": "",
      "iconPath": ""
    }
  ]
}