{
  "talkId": 6300404,
  "KPGKDHAFHFE": "FREE",
  "dialogList": [
    {
      "id": 630040401,
      "nextDialogs": [
        630040402
      ],
      "talkShowType": "TALK_SHOW_FORCE_SELECT",
      "talkRole": {
        "type": "TALK_ROLE_PLAYER",
        "_id": ""
      },
      "talkContentTextMapHash": 3138876786,
      "talkAssetPath": "",
      "talkAssetPathAlter": "",
      "talkAudioName": "",
      "actionBefore": "",
      "actionWhile": "",
      "actionAfter": "",
      "optionIcon": "",
      "iconPath": ""
    },
    {
      "id": 630040402,
      "talkRole": {
        "type": "TALK_ROLE_NPC",
        "_id": "3004"
      },
      "talkContentTextMapHash": 148652394,
      "talkAssetPath": "",
      "talkAssetPathAlter": "",
      "talkAudioName": "",
      "actionBefore": "",
      "actionWhile": "",
      "actionAfter": "",
      "optionIcon": "",
      "iconPath": ""
    }
  ]
}