{
  "talkId": 6300703,
  "KPGKDHAFHFE": "FREE",
  "dialogList": [
    {
      "id": 630070301,
      "nextDialogs": [
        630070302
      ],
      "talkShowType": "TALK_SHOW_FORCE_SELECT",
      "talkRole": {
        "type": "TALK_ROLE_PLAYER",
        "_id": ""
      },
      "talkContentTextMapHash": 4018349282,
      "talkAssetPath": "",
      "talkAssetPathAlter": "",
      "talkAudioName": "",
      "actionBefore": "",
      "actionWhile": "",
      "actionAfter": "",
      "optionIcon": "",
      "iconPath": ""
    },
    {
      "id": 630070302,
      "nextDialogs": [
        630070303
      ],
      "talkRole": {
        "type": "TALK_ROLE_NPC",
        "_id": "3007"
      },
      "talkContentTextMapHash": 3729464634,
      "talkAssetPath": "",
      "talkAssetPathAlter": "",
      "talkAudioName": "",
      "actionBefore": "",
      "actionWhile": "",
      "actionAfter": "",
      "optionIcon": "",
      "iconPath": ""
    },
    {
      "id": 630070303,
      "nextDialogs": [
        630070304
      ],
      "talkRole": {
        "type": "TALK_ROLE_NPC",
        "_id": "3007"
      },
      "talkContentTextMapHash": 1524606242,
      "talkAssetPath": "",
      "talkAssetPathAlter": "",
      "talkAudioName": "",
      "actionBefore": "",
      "actionWhile": "",
      "actionAfter": "",
      "optionIcon": "",
      "iconPath": ""
    },
    {
      "id": 630070304,
      "nextDialogs": [
        630070305
      ],
      "talkRole": {
        "type": "TALK_ROLE_NPC",
        "_id": "3007"
      },
      "talkContentTextMapHash": 2924087354,
      "talkAssetPath": "",
      "talkAssetPathAlter": "",
      "talkAudioName": "",
      "actionBefore": "",
      "actionWhile": "",
      "actionAfter": "",
      "optionIcon": "",
      "iconPath": ""
    },
    {
      "id": 630070305,
      "talkRole": {
        "type": "TALK_ROLE_NPC",
        "_id": "3007"
      },
      "talkContentTextMapHash": 2322697290,
      "talkAssetPath": "",
      "talkAssetPathAlter": "",
      "talkAudioName": "",
      "actionBefore": "",
      "actionWhile": "",
      "actionAfter": "",
      "optionIcon": "",
      "iconPath": ""
    }
  ]
}