{
  "talkId": 6300401,
  "KPGKDHAFHFE": "FREE",
  "dialogList": [
    {
      "id": 630040101,
      "talkRole": {
        "type": "TALK_ROLE_NPC",
        "_id": "3004"
      },
      "talkContentTextMapHash": 838945498,
      "talkAssetPath": "",
      "talkAssetPathAlter": "",
      "talkAudioName": "",
      "actionBefore": "",
      "actionWhile": "TEST/LerpInNpc",
      "actionAfter": "",
      "optionIcon": "",
      "iconPath": ""
    }
  ]
}