{
  "talkId": 6300308,
  "KPGKDHAFHFE": "FREE",
  "dialogList": [
    {
      "id": 630030801,
      "talkRole": {
        "type": "TALK_ROLE_NPC",
        "_id": "3003"
      },
      "talkContentTextMapHash": 1154540578,
      "talkAssetPath": "",
      "talkAssetPathAlter": "",
      "talkAudioName": "",
      "actionBefore": "GCG/ClearWorldChallengeTalk",
      "actionWhile": "",
      "actionAfter": "",
      "optionIcon": "",
      "iconPath": ""
    }
  ]
}