{
  "talkId": 6301002,
  "KPGKDHAFHFE": "FREE",
  "dialogList": [
    {
      "id": 630100201,
      "nextDialogs": [
        630100202
      ],
      "talkShowType": "TALK_SHOW_FORCE_SELECT",
      "talkRole": {
        "type": "TALK_ROLE_PLAYER",
        "_id": ""
      },
      "talkContentTextMapHash": 3528718282,
      "talkAssetPath": "",
      "talkAssetPathAlter": "",
      "talkAudioName": "",
      "actionBefore": "",
      "actionWhile": "",
      "actionAfter": "",
      "optionIcon": "",
      "iconPath": ""
    },
    {
      "id": 630100202,
      "nextDialogs": [
        630100203
      ],
      "talkRole": {
        "type": "TALK_ROLE_NPC",
        "_id": "3010"
      },
      "talkContentTextMapHash": 1328574354,
      "talkAssetPath": "",
      "talkAssetPathAlter": "",
      "talkAudioName": "",
      "actionBefore": "",
      "actionWhile": "",
      "actionAfter": "",
      "optionIcon": "",
      "iconPath": ""
    },
    {
      "id": 630100203,
      "nextDialogs": [
        630100204
      ],
      "talkRole": {
        "type": "TALK_ROLE_NPC",
        "_id": "3010"
      },
      "talkContentTextMapHash": 2516831170,
      "talkAssetPath": "",
      "talkAssetPathAlter": "",
      "talkAudioName": "",
      "actionBefore": "",
      "actionWhile": "",
      "actionAfter": "",
      "optionIcon": "",
      "iconPath": ""
    },
    {
      "id": 630100204,
      "nextDialogs": [
        630100205
      ],
      "talkRole": {
        "type": "TALK_ROLE_NPC",
        "_id": "3010"
      },
      "talkContentTextMapHash": 1152597882,
      "talkAssetPath": "",
      "talkAssetPathAlter": "",
      "talkAudioName": "",
      "actionBefore": "",
      "actionWhile": "",
      "actionAfter": "",
      "optionIcon": "",
      "iconPath": ""
    },
    {
      "id": 630100205,
      "talkRole": {
        "type": "TALK_ROLE_NPC",
        "_id": "3010"
      },
      "talkContentTextMapHash": 4261622154,
      "talkAssetPath": "",
      "talkAssetPathAlter": "",
      "talkAudioName": "",
      "actionBefore": "",
      "actionWhile": "",
      "actionAfter": "",
      "optionIcon": "",
      "iconPath": ""
    }
  ]
}