{
  "talkId": 6301301,
  "KPGKDHAFHFE": "FREE",
  "dialogList": [
    {
      "id": 630130101,
      "talkRole": {
        "type": "TALK_ROLE_NPC",
        "_id": "3013"
      },
      "talkContentTextMapHash": 1819285010,
      "talkAssetPath": "",
      "talkAssetPathAlter": "",
      "talkAudioName": "",
      "actionBefore": "",
      "actionWhile": "TEST/LerpInNpc",
      "actionAfter": "",
      "optionIcon": "",
      "iconPath": ""
    }
  ]
}