{
  "talkId": 6301501,
  "KPGKDHAFHFE": "FREE",
  "dialogList": [
    {
      "id": 630150101,
      "talkRole": {
        "type": "TALK_ROLE_NPC",
        "_id": "3015"
      },
      "talkContentTextMapHash": 3447308618,
      "talkAssetPath": "",
      "talkAssetPathAlter": "",
      "talkAudioName": "",
      "actionBefore": "",
      "actionWhile": "",
      "actionAfter": "",
      "optionIcon": "",
      "iconPath": ""
    }
  ]
}