{
  "talkId": 6302501,
  "KPGKDHAFHFE": "FREE",
  "dialogList": [
    {
      "id": 630250101,
      "talkRole": {
        "type": "TALK_ROLE_NPC",
        "_id": "3025"
      },
      "talkContentTextMapHash": 2418379514,
      "talkAssetPath": "",
      "talkAssetPathAlter": "",
      "talkAudioName": "",
      "actionBefore": "",
      "actionWhile": "TEST/LerpInNpc",
      "actionAfter": "",
      "optionIcon": "",
      "iconPath": ""
    }
  ]
}