{
  "talkId": 6302803,
  "KPGKDHAFHFE": "FREE",
  "dialogList": [
    {
      "id": 630280301,
      "nextDialogs": [
        630280302
      ],
      "talkShowType": "TALK_SHOW_FORCE_SELECT",
      "talkRole": {
        "type": "TALK_ROLE_PLAYER",
        "_id": ""
      },
      "talkContentTextMapHash": 131412746,
      "talkAssetPath": "",
      "talkAssetPathAlter": "",
      "talkAudioName": "",
      "actionBefore": "",
      "actionWhile": "",
      "actionAfter": "",
      "optionIcon": "UI_Icon_Intee_Blacksmith",
      "iconPath": ""
    },
    {
      "id": 630280302,
      "talkRole": {
        "type": "TALK_ROLE_NPC",
        "_id": "3028"
      },
      "talkContentTextMapHash": 2189294914,
      "talkAssetPath": "",
      "talkAssetPathAlter": "",
      "talkAudioName": "",
      "actionBefore": "",
      "actionWhile": "",
      "actionAfter": "UI/open_forging_page",
      "optionIcon": "",
      "iconPath": ""
    }
  ]
}