{
  "talkId": 6302103,
  "KPGKDHAFHFE": "FREE",
  "dialogList": [
    {
      "id": 630210301,
      "nextDialogs": [
        630210302
      ],
      "talkShowType": "TALK_SHOW_FORCE_SELECT",
      "talkRole": {
        "type": "TALK_ROLE_PLAYER",
        "_id": ""
      },
      "talkContentTextMapHash": 1327790890,
      "talkAssetPath": "",
      "talkAssetPathAlter": "",
      "talkAudioName": "",
      "actionBefore": "",
      "actionWhile": "",
      "actionAfter": "",
      "optionIcon": "",
      "iconPath": ""
    },
    {
      "id": 630210302,
      "talkRole": {
        "type": "TALK_ROLE_NPC",
        "_id": "3021"
      },
      "talkContentTextMapHash": 976715226,
      "talkAssetPath": "",
      "talkAssetPathAlter": "",
      "talkAudioName": "",
      "actionBefore": "",
      "actionWhile": "",
      "actionAfter": "",
      "optionIcon": "",
      "iconPath": ""
    }
  ]
}