{
  "talkId": 6302212,
  "KPGKDHAFHFE": "FREE",
  "dialogList": [
    {
      "id": 630221201,
      "nextDialogs": [
        630221202
      ],
      "talkShowType": "TALK_SHOW_FORCE_SELECT",
      "talkRole": {
        "type": "TALK_ROLE_PLAYER",
        "_id": ""
      },
      "talkContentTextMapHash": 1560854194,
      "talkAssetPath": "",
      "talkAssetPathAlter": "",
      "talkAudioName": "",
      "actionBefore": "",
      "actionWhile": "",
      "actionAfter": "",
      "optionIcon": "",
      "iconPath": ""
    },
    {
      "id": 630221202,
      "talkRole": {
        "type": "TALK_ROLE_NPC",
        "_id": "3022"
      },
      "talkContentTextMapHash": 4027079122,
      "talkAssetPath": "",
      "talkAssetPathAlter": "",
      "talkAudioName": "",
      "actionBefore": "",
      "actionWhile": "",
      "actionAfter": "",
      "optionIcon": "",
      "iconPath": ""
    }
  ]
}