{
  "talkId": 6302104,
  "KPGKDHAFHFE": "FREE",
  "dialogList": [
    {
      "id": 630210401,
      "nextDialogs": [
        630210402
      ],
      "talkShowType": "TALK_SHOW_FORCE_SELECT",
      "talkRole": {
        "type": "TALK_ROLE_PLAYER",
        "_id": ""
      },
      "talkContentTextMapHash": 3980367170,
      "talkAssetPath": "",
      "talkAssetPathAlter": "",
      "talkAudioName": "",
      "actionBefore": "",
      "actionWhile": "",
      "actionAfter": "",
      "optionIcon": "",
      "iconPath": ""
    },
    {
      "id": 630210402,
      "nextDialogs": [
        630210403
      ],
      "talkRole": {
        "type": "TALK_ROLE_NPC",
        "_id": "3021"
      },
      "talkContentTextMapHash": 2967784794,
      "talkAssetPath": "",
      "talkAssetPathAlter": "",
      "talkAudioName": "",
      "actionBefore": "",
      "actionWhile": "",
      "actionAfter": "",
      "optionIcon": "",
      "iconPath": ""
    },
    {
      "id": 630210403,
      "nextDialogs": [
        630210404
      ],
      "talkRole": {
        "type": "TALK_ROLE_NPC",
        "_id": "3021"
      },
      "talkContentTextMapHash": 2314127082,
      "talkAssetPath": "",
      "talkAssetPathAlter": "",
      "talkAudioName": "",
      "actionBefore": "",
      "actionWhile": "",
      "actionAfter": "",
      "optionIcon": "",
      "iconPath": ""
    },
    {
      "id": 630210404,
      "talkRole": {
        "type": "TALK_ROLE_NPC",
        "_id": "3021"
      },
      "talkContentTextMapHash": 3702990986,
      "talkAssetPath": "",
      "talkAssetPathAlter": "",
      "talkAudioName": "",
      "actionBefore": "",
      "actionWhile": "",
      "actionAfter": "",
      "optionIcon": "",
      "iconPath": ""
    }
  ]
}