{
  "talkId": 6302805,
  "KPGKDHAFHFE": "FREE",
  "dialogList": [
    {
      "id": 630280501,
      "nextDialogs": [
        630280502
      ],
      "talkShowType": "TALK_SHOW_FORCE_SELECT",
      "talkRole": {
        "type": "TALK_ROLE_PLAYER",
        "_id": ""
      },
      "talkContentTextMapHash": 68325386,
      "talkAssetPath": "",
      "talkAssetPathAlter": "",
      "talkAudioName": "",
      "actionBefore": "",
      "actionWhile": "",
      "actionAfter": "",
      "optionIcon": "",
      "iconPath": ""
    },
    {
      "id": 630280502,
      "nextDialogs": [
        630280503
      ],
      "talkRole": {
        "type": "TALK_ROLE_NPC",
        "_id": "3028"
      },
      "talkContentTextMapHash": 3296965602,
      "talkAssetPath": "",
      "talkAssetPathAlter": "",
      "talkAudioName": "",
      "actionBefore": "",
      "actionWhile": "",
      "actionAfter": "",
      "optionIcon": "",
      "iconPath": ""
    },
    {
      "id": 630280503,
      "nextDialogs": [
        630280504
      ],
      "talkRole": {
        "type": "TALK_ROLE_NPC",
        "_id": "3028"
      },
      "talkContentTextMapHash": 612305242,
      "talkAssetPath": "",
      "talkAssetPathAlter": "",
      "talkAudioName": "",
      "actionBefore": "",
      "actionWhile": "",
      "actionAfter": "",
      "optionIcon": "",
      "iconPath": ""
    },
    {
      "id": 630280504,
      "nextDialogs": [
        630280505
      ],
      "talkRole": {
        "type": "TALK_ROLE_NPC",
        "_id": "3028"
      },
      "talkContentTextMapHash": 2407928338,
      "talkAssetPath": "",
      "talkAssetPathAlter": "",
      "talkAudioName": "",
      "actionBefore": "",
      "actionWhile": "",
      "actionAfter": "",
      "optionIcon": "",
      "iconPath": ""
    },
    {
      "id": 630280505,
      "talkRole": {
        "type": "TALK_ROLE_NPC",
        "_id": "3028"
      },
      "talkContentTextMapHash": 361727266,
      "talkAssetPath": "",
      "talkAssetPathAlter": "",
      "talkAudioName": "",
      "actionBefore": "",
      "actionWhile": "",
      "actionAfter": "TEST/LerpOutNpcNoSteer",
      "optionIcon": "",
      "iconPath": ""
    }
  ]
}