{
  "talkId": 6302904,
  "KPGKDHAFHFE": "FREE",
  "dialogList": [
    {
      "id": 630290401,
      "nextDialogs": [
        630290402
      ],
      "talkShowType": "TALK_SHOW_FORCE_SELECT",
      "talkRole": {
        "type": "TALK_ROLE_PLAYER",
        "_id": ""
      },
      "talkContentTextMapHash": 1128375826,
      "talkAssetPath": "",
      "talkAssetPathAlter": "",
      "talkAudioName": "",
      "actionBefore": "",
      "actionWhile": "",
      "actionAfter": "",
      "optionIcon": "",
      "iconPath": ""
    },
    {
      "id": 630290402,
      "nextDialogs": [
        630290403
      ],
      "talkRole": {
        "type": "TALK_ROLE_NPC",
        "_id": "3029"
      },
      "talkContentTextMapHash": 942337930,
      "talkAssetPath": "",
      "talkAssetPathAlter": "",
      "talkAudioName": "",
      "actionBefore": "",
      "actionWhile": "",
      "actionAfter": "",
      "optionIcon": "",
      "iconPath": ""
    },
    {
      "id": 630290403,
      "nextDialogs": [
        630290404
      ],
      "talkRole": {
        "type": "TALK_ROLE_NPC",
        "_id": "3029"
      },
      "talkContentTextMapHash": 3633814162,
      "talkAssetPath": "",
      "talkAssetPathAlter": "",
      "talkAudioName": "",
      "actionBefore": "",
      "actionWhile": "",
      "actionAfter": "",
      "optionIcon": "",
      "iconPath": ""
    },
    {
      "id": 630290404,
      "nextDialogs": [
        630290405
      ],
      "talkRole": {
        "type": "TALK_ROLE_NPC",
        "_id": "3029"
      },
      "talkContentTextMapHash": 1512615090,
      "talkAssetPath": "",
      "talkAssetPathAlter": "",
      "talkAudioName": "",
      "actionBefore": "",
      "actionWhile": "",
      "actionAfter": "",
      "optionIcon": "",
      "iconPath": ""
    },
    {
      "id": 630290405,
      "nextDialogs": [
        630290406
      ],
      "talkRole": {
        "type": "TALK_ROLE_NPC",
        "_id": "3029"
      },
      "talkContentTextMapHash": 4243264082,
      "talkAssetPath": "",
      "talkAssetPathAlter": "",
      "talkAudioName": "",
      "actionBefore": "",
      "actionWhile": "",
      "actionAfter": "",
      "optionIcon": "",
      "iconPath": ""
    },
    {
      "id": 630290406,
      "talkRole": {
        "type": "TALK_ROLE_NPC",
        "_id": "3029"
      },
      "talkContentTextMapHash": 1308031610,
      "talkAssetPath": "",
      "talkAssetPathAlter": "",
      "talkAudioName": "",
      "actionBefore": "",
      "actionWhile": "",
      "actionAfter": "",
      "optionIcon": "",
      "iconPath": ""
    }
  ]
}