{
  "talkId": 6303401,
  "KPGKDHAFHFE": "FREE",
  "dialogList": [
    {
      "id": 630340101,
      "nextDialogs": [
        630340102
      ],
      "talkRole": {
        "type": "TALK_ROLE_NPC",
        "_id": "3034"
      },
      "talkContentTextMapHash": 3578112634,
      "talkAssetPath": "",
      "talkAssetPathAlter": "",
      "talkAudioName": "",
      "actionBefore": "",
      "actionWhile": "TEST/LerpInNpc",
      "actionAfter": "",
      "optionIcon": "",
      "iconPath": ""
    },
    {
      "id": 630340102,
      "nextDialogs": [
        630340103
      ],
      "talkRole": {
        "type": "TALK_ROLE_NPC",
        "_id": "3034"
      },
      "talkContentTextMapHash": 1284720282,
      "talkAssetPath": "",
      "talkAssetPathAlter": "",
      "talkAudioName": "",
      "actionBefore": "",
      "actionWhile": "",
      "actionAfter": "",
      "optionIcon": "",
      "iconPath": ""
    },
    {
      "id": 630340103,
      "talkRole": {
        "type": "TALK_ROLE_NPC",
        "_id": "3034"
      },
      "talkContentTextMapHash": 2630494466,
      "talkAssetPath": "",
      "talkAssetPathAlter": "",
      "talkAudioName": "",
      "actionBefore": "",
      "actionWhile": "",
      "actionAfter": "",
      "optionIcon": "",
      "iconPath": ""
    }
  ]
}