{
  "talkId": 6303103,
  "KPGKDHAFHFE": "FREE",
  "dialogList": [
    {
      "id": 630310301,
      "nextDialogs": [
        630310302
      ],
      "talkShowType": "TALK_SHOW_FORCE_SELECT",
      "talkRole": {
        "type": "TALK_ROLE_PLAYER",
        "_id": ""
      },
      "talkContentTextMapHash": 603387978,
      "talkAssetPath": "",
      "talkAssetPathAlter": "",
      "talkAudioName": "",
      "actionBefore": "",
      "actionWhile": "",
      "actionAfter": "",
      "optionIcon": "",
      "iconPath": ""
    },
    {
      "id": 630310302,
      "talkRole": {
        "type": "TALK_ROLE_NPC",
        "_id": "3031"
      },
      "talkContentTextMapHash": 422400762,
      "talkAssetPath": "",
      "talkAssetPathAlter": "",
      "talkAudioName": "",
      "actionBefore": "",
      "actionWhile": "",
      "actionAfter": "",
      "optionIcon": "",
      "iconPath": ""
    }
  ]
}