{
  "talkId": 6303405,
  "KPGKDHAFHFE": "FREE",
  "dialogList": [
    {
      "id": 630340501,
      "nextDialogs": [
        630340502
      ],
      "talkShowType": "TALK_SHOW_FORCE_SELECT",
      "talkRole": {
        "type": "TALK_ROLE_PLAYER",
        "_id": ""
      },
      "talkContentTextMapHash": 2297931442,
      "talkAssetPath": "",
      "talkAssetPathAlter": "",
      "talkAudioName": "",
      "actionBefore": "",
      "actionWhile": "",
      "actionAfter": "",
      "optionIcon": "",
      "iconPath": ""
    },
    {
      "id": 630340502,
      "nextDialogs": [
        630340503
      ],
      "talkRole": {
        "type": "TALK_ROLE_NPC",
        "_id": "3034"
      },
      "talkContentTextMapHash": 1907733138,
      "talkAssetPath": "",
      "talkAssetPathAlter": "",
      "talkAudioName": "",
      "actionBefore": "",
      "actionWhile": "",
      "actionAfter": "",
      "optionIcon": "",
      "iconPath": ""
    },
    {
      "id": 630340503,
      "talkRole": {
        "type": "TALK_ROLE_NPC",
        "_id": "3034"
      },
      "talkContentTextMapHash": 250203034,
      "talkAssetPath": "",
      "talkAssetPathAlter": "",
      "talkAudioName": "",
      "actionBefore": "",
      "actionWhile": "",
      "actionAfter": "",
      "optionIcon": "",
      "iconPath": ""
    }
  ]
}