{
  "talkId": 6304407,
  "KPGKDHAFHFE": "FREE",
  "dialogList": [
    {
      "id": 630440701,
      "nextDialogs": [
        630440702
      ],
      "talkShowType": "TALK_SHOW_FORCE_SELECT",
      "talkRole": {
        "type": "TALK_ROLE_PLAYER",
        "_id": ""
      },
      "talkContentTextMapHash": 571180554,
      "talkAssetPath": "",
      "talkAssetPathAlter": "",
      "talkAudioName": "",
      "actionBefore": "",
      "actionWhile": "",
      "actionAfter": "",
      "optionIcon": "",
      "iconPath": ""
    },
    {
      "id": 630440702,
      "nextDialogs": [
        630440703
      ],
      "talkRole": {
        "type": "TALK_ROLE_NPC",
        "_id": "3044"
      },
      "talkContentTextMapHash": 2957753282,
      "talkAssetPath": "",
      "talkAssetPathAlter": "",
      "talkAudioName": "",
      "actionBefore": "",
      "actionWhile": "",
      "actionAfter": "",
      "optionIcon": "",
      "iconPath": ""
    },
    {
      "id": 630440703,
      "nextDialogs": [
        630440704
      ],
      "talkRole": {
        "type": "TALK_ROLE_NPC",
        "_id": "3044"
      },
      "talkContentTextMapHash": 2151399130,
      "talkAssetPath": "",
      "talkAssetPathAlter": "",
      "talkAudioName": "",
      "actionBefore": "",
      "actionWhile": "",
      "actionAfter": "",
      "optionIcon": "",
      "iconPath": ""
    },
    {
      "id": 630440704,
      "nextDialogs": [
        630440705
      ],
      "talkRole": {
        "type": "TALK_ROLE_NPC",
        "_id": "3044"
      },
      "talkContentTextMapHash": 1008162162,
      "talkAssetPath": "",
      "talkAssetPathAlter": "",
      "talkAudioName": "",
      "actionBefore": "",
      "actionWhile": "",
      "actionAfter": "",
      "optionIcon": "",
      "iconPath": ""
    },
    {
      "id": 630440705,
      "talkRole": {
        "type": "TALK_ROLE_NPC",
        "_id": "3044"
      },
      "talkContentTextMapHash": 3891999842,
      "talkAssetPath": "",
      "talkAssetPathAlter": "",
      "talkAudioName": "",
      "actionBefore": "",
      "actionWhile": "",
      "actionAfter": "",
      "optionIcon": "",
      "iconPath": ""
    }
  ]
}