{
  "talkId": 6304501,
  "KPGKDHAFHFE": "FREE",
  "dialogList": [
    {
      "id": 630450101,
      "nextDialogs": [
        630450102
      ],
      "talkRole": {
        "type": "TALK_ROLE_NPC",
        "_id": "3045"
      },
      "talkContentTextMapHash": 1227006242,
      "talkAssetPath": "",
      "talkAssetPathAlter": "",
      "talkAudioName": "",
      "actionBefore": "",
      "actionWhile": "",
      "actionAfter": "",
      "optionIcon": "",
      "iconPath": ""
    },
    {
      "id": 630450102,
      "talkRole": {
        "type": "TALK_ROLE_NPC",
        "_id": "3045"
      },
      "talkContentTextMapHash": 2281322794,
      "talkAssetPath": "",
      "talkAssetPathAlter": "",
      "talkAudioName": "",
      "actionBefore": "",
      "actionWhile": "",
      "actionAfter": "",
      "optionIcon": "",
      "iconPath": ""
    }
  ]
}