{
  "talkId": 6304202,
  "KPGKDHAFHFE": "FREE",
  "dialogList": [
    {
      "id": 630420201,
      "nextDialogs": [
        630420202
      ],
      "talkShowType": "TALK_SHOW_FORCE_SELECT",
      "talkRole": {
        "type": "TALK_ROLE_PLAYER",
        "_id": ""
      },
      "talkContentTextMapHash": 1919071026,
      "talkAssetPath": "",
      "talkAssetPathAlter": "",
      "talkAudioName": "",
      "actionBefore": "",
      "actionWhile": "",
      "actionAfter": "",
      "optionIcon": "",
      "iconPath": ""
    },
    {
      "id": 630420202,
      "nextDialogs": [
        630420203
      ],
      "talkRole": {
        "type": "TALK_ROLE_NPC",
        "_id": "3042"
      },
      "talkContentTextMapHash": 1488436402,
      "talkAssetPath": "",
      "talkAssetPathAlter": "",
      "talkAudioName": "",
      "actionBefore": "",
      "actionWhile": "",
      "actionAfter": "",
      "optionIcon": "",
      "iconPath": ""
    },
    {
      "id": 630420203,
      "nextDialogs": [
        630420204
      ],
      "talkRole": {
        "type": "TALK_ROLE_NPC",
        "_id": "3042"
      },
      "talkContentTextMapHash": 2860427914,
      "talkAssetPath": "",
      "talkAssetPathAlter": "",
      "talkAudioName": "",
      "actionBefore": "",
      "actionWhile": "",
      "actionAfter": "",
      "optionIcon": "",
      "iconPath": ""
    },
    {
      "id": 630420204,
      "talkRole": {
        "type": "TALK_ROLE_NPC",
        "_id": "3042"
      },
      "talkContentTextMapHash": 3172555130,
      "talkAssetPath": "",
      "talkAssetPathAlter": "",
      "talkAudioName": "",
      "actionBefore": "",
      "actionWhile": "",
      "actionAfter": "",
      "optionIcon": "",
      "iconPath": ""
    }
  ]
}