{
  "talkId": 6304303,
  "KPGKDHAFHFE": "FREE",
  "dialogList": [
    {
      "id": 630430301,
      "nextDialogs": [
        630430302
      ],
      "talkShowType": "TALK_SHOW_FORCE_SELECT",
      "talkRole": {
        "type": "TALK_ROLE_PLAYER",
        "_id": ""
      },
      "talkContentTextMapHash": 173671450,
      "talkAssetPath": "",
      "talkAssetPathAlter": "",
      "talkAudioName": "",
      "actionBefore": "",
      "actionWhile": "",
      "actionAfter": "",
      "optionIcon": "",
      "iconPath": ""
    },
    {
      "id": 630430302,
      "talkRole": {
        "type": "TALK_ROLE_NPC",
        "_id": "3043"
      },
      "talkContentTextMapHash": 3504909210,
      "talkAssetPath": "",
      "talkAssetPathAlter": "",
      "talkAudioName": "",
      "actionBefore": "",
      "actionWhile": "",
      "actionAfter": "",
      "optionIcon": "",
      "iconPath": ""
    }
  ]
}