{
  "talkId": 6304702,
  "KPGKDHAFHFE": "FREE",
  "dialogList": [
    {
      "id": 630470201,
      "nextDialogs": [
        630470202
      ],
      "talkShowType": "TALK_SHOW_FORCE_SELECT",
      "talkRole": {
        "type": "TALK_ROLE_PLAYER",
        "_id": ""
      },
      "talkContentTextMapHash": 3515474610,
      "talkAssetPath": "",
      "talkAssetPathAlter": "",
      "talkAudioName": "",
      "actionBefore": "",
      "actionWhile": "",
      "actionAfter": "",
      "optionIcon": "",
      "iconPath": ""
    },
    {
      "id": 630470202,
      "nextDialogs": [
        630470203
      ],
      "talkRole": {
        "type": "TALK_ROLE_NPC",
        "_id": "3047"
      },
      "talkContentTextMapHash": 1223616690,
      "talkAssetPath": "",
      "talkAssetPathAlter": "",
      "talkAudioName": "",
      "actionBefore": "",
      "actionWhile": "",
      "actionAfter": "",
      "optionIcon": "",
      "iconPath": ""
    },
    {
      "id": 630470203,
      "talkRole": {
        "type": "TALK_ROLE_NPC",
        "_id": "3047"
      },
      "talkContentTextMapHash": 4185091714,
      "talkAssetPath": "",
      "talkAssetPathAlter": "",
      "talkAudioName": "",
      "actionBefore": "",
      "actionWhile": "",
      "actionAfter": "",
      "optionIcon": "",
      "iconPath": ""
    }
  ]
}