{
  "talkId": 6304301,
  "KPGKDHAFHFE": "FREE",
  "dialogList": [
    {
      "id": 630430101,
      "nextDialogs": [
        630430102
      ],
      "talkRole": {
        "type": "TALK_ROLE_NPC",
        "_id": "3043"
      },
      "talkContentTextMapHash": 2196540346,
      "talkAssetPath": "",
      "talkAssetPathAlter": "",
      "talkAudioName": "",
      "actionBefore": "",
      "actionWhile": "TEST/LerpInNpc",
      "actionAfter": "",
      "optionIcon": "",
      "iconPath": ""
    },
    {
      "id": 630430102,
      "talkRole": {
        "type": "TALK_ROLE_NPC",
        "_id": "3043"
      },
      "talkContentTextMapHash": 3961123178,
      "talkAssetPath": "",
      "talkAssetPathAlter": "",
      "talkAudioName": "",
      "actionBefore": "",
      "actionWhile": "",
      "actionAfter": "",
      "optionIcon": "",
      "iconPath": ""
    }
  ]
}