{
  "talkId": 6304902,
  "KPGKDHAFHFE": "FREE",
  "dialogList": [
    {
      "id": 630490201,
      "nextDialogs": [
        630490202
      ],
      "talkRole": {
        "type": "TALK_ROLE_NPC",
        "_id": "3049"
      },
      "talkContentTextMapHash": 3271653946,
      "talkAssetPath": "",
      "talkAssetPathAlter": "",
      "talkAudioName": "",
      "actionBefore": "",
      "actionWhile": "TEST/LerpInNpcNoSteer",
      "actionAfter": "",
      "optionIcon": "",
      "iconPath": ""
    },
    {
      "id": 630490202,
      "nextDialogs": [
        630490203
      ],
      "talkRole": {
        "type": "TALK_ROLE_NPC",
        "_id": "3050"
      },
      "talkContentTextMapHash": 2633244250,
      "talkAssetPath": "",
      "talkAssetPathAlter": "",
      "talkAudioName": "",
      "actionBefore": "",
      "actionWhile": "",
      "actionAfter": "",
      "optionIcon": "",
      "iconPath": ""
    },
    {
      "id": 630490203,
      "nextDialogs": [
        630490204
      ],
      "talkRole": {
        "type": "TALK_ROLE_NPC",
        "_id": "3049"
      },
      "talkContentTextMapHash": 3979317818,
      "talkAssetPath": "",
      "talkAssetPathAlter": "",
      "talkAudioName": "",
      "actionBefore": "",
      "actionWhile": "",
      "actionAfter": "",
      "optionIcon": "",
      "iconPath": ""
    },
    {
      "id": 630490204,
      "nextDialogs": [
        630490205
      ],
      "talkRole": {
        "type": "TALK_ROLE_NPC",
        "_id": "3049"
      },
      "talkContentTextMapHash": 4147242634,
      "talkAssetPath": "",
      "talkAssetPathAlter": "",
      "talkAudioName": "",
      "actionBefore": "",
      "actionWhile": "",
      "actionAfter": "",
      "optionIcon": "",
      "iconPath": ""
    },
    {
      "id": 630490205,
      "nextDialogs": [
        630490206
      ],
      "talkRole": {
        "type": "TALK_ROLE_NPC",
        "_id": "3050"
      },
      "talkContentTextMapHash": 3525210274,
      "talkAssetPath": "",
      "talkAssetPathAlter": "",
      "talkAudioName": "",
      "actionBefore": "",
      "actionWhile": "",
      "actionAfter": "",
      "optionIcon": "",
      "iconPath": ""
    },
    {
      "id": 630490206,
      "nextDialogs": [
        630490207
      ],
      "talkRole": {
        "type": "TALK_ROLE_NPC",
        "_id": "3050"
      },
      "talkContentTextMapHash": 884116138,
      "talkAssetPath": "",
      "talkAssetPathAlter": "",
      "talkAudioName": "",
      "actionBefore": "",
      "actionWhile": "",
      "actionAfter": "",
      "optionIcon": "",
      "iconPath": ""
    },
    {
      "id": 630490207,
      "nextDialogs": [
        630490208
      ],
      "talkRole": {
        "type": "TALK_ROLE_NPC",
        "_id": "3050"
      },
      "talkContentTextMapHash": 489295506,
      "talkAssetPath": "",
      "talkAssetPathAlter": "",
      "talkAudioName": "",
      "actionBefore": "",
      "actionWhile": "",
      "actionAfter": "",
      "optionIcon": "",
      "iconPath": ""
    },
    {
      "id": 630490208,
      "nextDialogs": [
        630490209
      ],
      "talkRole": {
        "type": "TALK_ROLE_NPC",
        "_id": "3049"
      },
      "talkContentTextMapHash": 639188962,
      "talkAssetPath": "",
      "talkAssetPathAlter": "",
      "talkAudioName": "",
      "actionBefore": "",
      "actionWhile": "",
      "actionAfter": "",
      "optionIcon": "",
      "iconPath": ""
    },
    {
      "id": 630490209,
      "nextDialogs": [
        630490210
      ],
      "talkRole": {
        "type": "TALK_ROLE_NPC",
        "_id": "3050"
      },
      "talkContentTextMapHash": 4058394938,
      "talkAssetPath": "",
      "talkAssetPathAlter": "",
      "talkAudioName": "",
      "actionBefore": "",
      "actionWhile": "",
      "actionAfter": "",
      "optionIcon": "",
      "iconPath": ""
    },
    {
      "id": 630490210,
      "nextDialogs": [
        630490211
      ],
      "talkRole": {
        "type": "TALK_ROLE_NPC",
        "_id": "3050"
      },
      "talkContentTextMapHash": 4098306498,
      "talkAssetPath": "",
      "talkAssetPathAlter": "",
      "talkAudioName": "",
      "actionBefore": "",
      "actionWhile": "",
      "actionAfter": "",
      "optionIcon": "",
      "iconPath": ""
    },
    {
      "id": 630490211,
      "talkRole": {
        "type": "TALK_ROLE_NPC",
        "_id": "3050"
      },
      "talkContentTextMapHash": 86814866,
      "talkAssetPath": "",
      "talkAssetPathAlter": "",
      "talkAudioName": "",
      "actionBefore": "",
      "actionWhile": "",
      "actionAfter": "TEST/LerpOutNpcNoSteer",
      "optionIcon": "",
      "iconPath": ""
    }
  ]
}