{
  "talkId": 6304505,
  "KPGKDHAFHFE": "FREE",
  "dialogList": [
    {
      "id": 630450501,
      "nextDialogs": [
        630450502
      ],
      "talkShowType": "TALK_SHOW_FORCE_SELECT",
      "talkRole": {
        "type": "TALK_ROLE_PLAYER",
        "_id": ""
      },
      "talkContentTextMapHash": 301700650,
      "talkAssetPath": "",
      "talkAssetPathAlter": "",
      "talkAudioName": "",
      "actionBefore": "",
      "actionWhile": "",
      "actionAfter": "",
      "optionIcon": "",
      "iconPath": ""
    },
    {
      "id": 630450502,
      "nextDialogs": [
        630450503
      ],
      "talkRole": {
        "type": "TALK_ROLE_NPC",
        "_id": "3045"
      },
      "talkContentTextMapHash": 2478857018,
      "talkAssetPath": "",
      "talkAssetPathAlter": "",
      "talkAudioName": "",
      "actionBefore": "",
      "actionWhile": "",
      "actionAfter": "",
      "optionIcon": "",
      "iconPath": ""
    },
    {
      "id": 630450503,
      "nextDialogs": [
        630450504
      ],
      "talkRole": {
        "type": "TALK_ROLE_NPC",
        "_id": "3045"
      },
      "talkContentTextMapHash": 52993818,
      "talkAssetPath": "",
      "talkAssetPathAlter": "",
      "talkAudioName": "",
      "actionBefore": "",
      "actionWhile": "",
      "actionAfter": "",
      "optionIcon": "",
      "iconPath": ""
    },
    {
      "id": 630450504,
      "nextDialogs": [
        630450505
      ],
      "talkRole": {
        "type": "TALK_ROLE_NPC",
        "_id": "3045"
      },
      "talkContentTextMapHash": 3605719666,
      "talkAssetPath": "",
      "talkAssetPathAlter": "",
      "talkAudioName": "",
      "actionBefore": "",
      "actionWhile": "",
      "actionAfter": "",
      "optionIcon": "",
      "iconPath": ""
    },
    {
      "id": 630450505,
      "talkRole": {
        "type": "TALK_ROLE_NPC",
        "_id": "3045"
      },
      "talkContentTextMapHash": 3777995666,
      "talkAssetPath": "",
      "talkAssetPathAlter": "",
      "talkAudioName": "",
      "actionBefore": "",
      "actionWhile": "",
      "actionAfter": "",
      "optionIcon": "",
      "iconPath": ""
    }
  ]
}