{
  "talkId": 6305011,
  "KPGKDHAFHFE": "FREE",
  "dialogList": [
    {
      "id": 630501101,
      "nextDialogs": [
        630501102
      ],
      "talkShowType": "TALK_SHOW_FORCE_SELECT",
      "talkRole": {
        "type": "TALK_ROLE_PLAYER",
        "_id": ""
      },
      "talkContentTextMapHash": 574461426,
      "talkAssetPath": "",
      "talkAssetPathAlter": "",
      "talkAudioName": "",
      "actionBefore": "",
      "actionWhile": "",
      "actionAfter": "",
      "optionIcon": "",
      "iconPath": ""
    },
    {
      "id": 630501102,
      "talkRole": {
        "type": "TALK_ROLE_NPC",
        "_id": "3050"
      },
      "talkContentTextMapHash": 4175524746,
      "talkAssetPath": "",
      "talkAssetPathAlter": "",
      "talkAudioName": "",
      "actionBefore": "",
      "actionWhile": "",
      "actionAfter": "",
      "optionIcon": "",
      "iconPath": ""
    }
  ]
}