{
  "talkId": 6305902,
  "KPGKDHAFHFE": "FREE",
  "dialogList": [
    {
      "id": 630590201,
      "nextDialogs": [
        630590202
      ],
      "talkShowType": "TALK_SHOW_FORCE_SELECT",
      "talkRole": {
        "type": "TALK_ROLE_PLAYER",
        "_id": ""
      },
      "talkContentTextMapHash": 3821951482,
      "talkAssetPath": "",
      "talkAssetPathAlter": "",
      "talkAudioName": "",
      "actionBefore": "",
      "actionWhile": "",
      "actionAfter": "",
      "optionIcon": "",
      "iconPath": ""
    },
    {
      "id": 630590202,
      "nextDialogs": [
        630590203
      ],
      "talkRole": {
        "type": "TALK_ROLE_NPC",
        "_id": "3059"
      },
      "talkContentTextMapHash": 3063070714,
      "talkAssetPath": "",
      "talkAssetPathAlter": "",
      "talkAudioName": "",
      "actionBefore": "",
      "actionWhile": "",
      "actionAfter": "",
      "optionIcon": "",
      "iconPath": ""
    },
    {
      "id": 630590203,
      "nextDialogs": [
        630590204
      ],
      "talkRole": {
        "type": "TALK_ROLE_NPC",
        "_id": "3059"
      },
      "talkContentTextMapHash": 3076803634,
      "talkAssetPath": "",
      "talkAssetPathAlter": "",
      "talkAudioName": "",
      "actionBefore": "",
      "actionWhile": "",
      "actionAfter": "",
      "optionIcon": "",
      "iconPath": ""
    },
    {
      "id": 630590204,
      "talkRole": {
        "type": "TALK_ROLE_NPC",
        "_id": "3059"
      },
      "talkContentTextMapHash": 1328632354,
      "talkAssetPath": "",
      "talkAssetPathAlter": "",
      "talkAudioName": "",
      "actionBefore": "",
      "actionWhile": "",
      "actionAfter": "",
      "optionIcon": "",
      "iconPath": ""
    }
  ]
}