{
  "talkId": 6306905,
  "KPGKDHAFHFE": "FREE",
  "dialogList": [
    {
      "id": 630690501,
      "nextDialogs": [
        630690502
      ],
      "talkShowType": "TALK_SHOW_FORCE_SELECT",
      "talkRole": {
        "type": "TALK_ROLE_PLAYER",
        "_id": ""
      },
      "talkContentTextMapHash": 1947586258,
      "talkAssetPath": "",
      "talkAssetPathAlter": "",
      "talkAudioName": "",
      "actionBefore": "",
      "actionWhile": "",
      "actionAfter": "",
      "optionIcon": "",
      "iconPath": ""
    },
    {
      "id": 630690502,
      "talkRole": {
        "type": "TALK_ROLE_NPC",
        "_id": "3069"
      },
      "talkContentTextMapHash": 3083982066,
      "talkAssetPath": "",
      "talkAssetPathAlter": "",
      "talkAudioName": "",
      "actionBefore": "",
      "actionWhile": "",
      "actionAfter": "",
      "optionIcon": "",
      "iconPath": ""
    }
  ]
}