{
  "talkId": 6306907,
  "KPGKDHAFHFE": "FREE",
  "dialogList": [
    {
      "id": 630690701,
      "nextDialogs": [
        630690702
      ],
      "talkShowType": "TALK_SHOW_FORCE_SELECT",
      "talkRole": {
        "type": "TALK_ROLE_PLAYER",
        "_id": ""
      },
      "talkContentTextMapHash": 2564178002,
      "talkAssetPath": "",
      "talkAssetPathAlter": "",
      "talkAudioName": "",
      "actionBefore": "",
      "actionWhile": "",
      "actionAfter": "",
      "optionIcon": "",
      "iconPath": ""
    },
    {
      "id": 630690702,
      "nextDialogs": [
        630690703
      ],
      "talkRole": {
        "type": "TALK_ROLE_NPC",
        "_id": "3069"
      },
      "talkContentTextMapHash": 1035482090,
      "talkAssetPath": "",
      "talkAssetPathAlter": "",
      "talkAudioName": "",
      "actionBefore": "",
      "actionWhile": "",
      "actionAfter": "",
      "optionIcon": "",
      "iconPath": ""
    },
    {
      "id": 630690703,
      "nextDialogs": [
        630690704
      ],
      "talkRole": {
        "type": "TALK_ROLE_NPC",
        "_id": "3069"
      },
      "talkContentTextMapHash": 3624652338,
      "talkAssetPath": "",
      "talkAssetPathAlter": "",
      "talkAudioName": "",
      "actionBefore": "",
      "actionWhile": "",
      "actionAfter": "",
      "optionIcon": "",
      "iconPath": ""
    },
    {
      "id": 630690704,
      "talkRole": {
        "type": "TALK_ROLE_NPC",
        "_id": "3069"
      },
      "talkContentTextMapHash": 2200288962,
      "talkAssetPath": "",
      "talkAssetPathAlter": "",
      "talkAudioName": "",
      "actionBefore": "",
      "actionWhile": "",
      "actionAfter": "",
      "optionIcon": "",
      "iconPath": ""
    }
  ]
}