{
  "talkId": 6306505,
  "KPGKDHAFHFE": "FREE",
  "dialogList": [
    {
      "id": 630650501,
      "nextDialogs": [
        630650502
      ],
      "talkShowType": "TALK_SHOW_FORCE_SELECT",
      "talkRole": {
        "type": "TALK_ROLE_PLAYER",
        "_id": ""
      },
      "talkContentTextMapHash": 3827596690,
      "talkAssetPath": "",
      "talkAssetPathAlter": "",
      "talkAudioName": "",
      "actionBefore": "",
      "actionWhile": "",
      "actionAfter": "",
      "optionIcon": "",
      "iconPath": ""
    },
    {
      "id": 630650502,
      "nextDialogs": [
        630650503
      ],
      "talkRole": {
        "type": "TALK_ROLE_NPC",
        "_id": "3065"
      },
      "talkContentTextMapHash": 3353873754,
      "talkAssetPath": "",
      "talkAssetPathAlter": "",
      "talkAudioName": "",
      "actionBefore": "",
      "actionWhile": "",
      "actionAfter": "",
      "optionIcon": "",
      "iconPath": ""
    },
    {
      "id": 630650503,
      "talkRole": {
        "type": "TALK_ROLE_NPC",
        "_id": "3065"
      },
      "talkContentTextMapHash": 3293803442,
      "talkAssetPath": "",
      "talkAssetPathAlter": "",
      "talkAudioName": "",
      "actionBefore": "",
      "actionWhile": "",
      "actionAfter": "",
      "optionIcon": "",
      "iconPath": ""
    }
  ]
}