{
  "talkId": 6306101,
  "KPGKDHAFHFE": "FREE",
  "dialogList": [
    {
      "id": 630610101,
      "nextDialogs": [
        630610102
      ],
      "talkRole": {
        "type": "TALK_ROLE_NPC",
        "_id": "3061"
      },
      "talkContentTextMapHash": 3993920242,
      "talkAssetPath": "",
      "talkAssetPathAlter": "",
      "talkAudioName": "",
      "actionBefore": "",
      "actionWhile": "TEST/LerpInNpc",
      "actionAfter": "",
      "optionIcon": "",
      "iconPath": ""
    },
    {
      "id": 630610102,
      "talkRole": {
        "type": "TALK_ROLE_NPC",
        "_id": "3061"
      },
      "talkContentTextMapHash": 543637586,
      "talkAssetPath": "",
      "talkAssetPathAlter": "",
      "talkAudioName": "",
      "actionBefore": "",
      "actionWhile": "",
      "actionAfter": "",
      "optionIcon": "",
      "iconPath": ""
    }
  ]
}