{
  "talkId": 6306901,
  "KPGKDHAFHFE": "FREE",
  "dialogList": [
    {
      "id": 630690101,
      "talkRole": {
        "type": "TALK_ROLE_NPC",
        "_id": "3069"
      },
      "talkContentTextMapHash": 1259833090,
      "talkAssetPath": "",
      "talkAssetPathAlter": "",
      "talkAudioName": "",
      "actionBefore": "",
      "actionWhile": "TEST/LerpInNpc",
      "actionAfter": "",
      "optionIcon": "",
      "iconPath": ""
    }
  ]
}