{
  "talkId": 6306906,
  "KPGKDHAFHFE": "FREE",
  "dialogList": [
    {
      "id": 630690601,
      "nextDialogs": [
        630690602
      ],
      "talkShowType": "TALK_SHOW_FORCE_SELECT",
      "talkRole": {
        "type": "TALK_ROLE_PLAYER",
        "_id": ""
      },
      "talkContentTextMapHash": 318311666,
      "talkAssetPath": "",
      "talkAssetPathAlter": "",
      "talkAudioName": "",
      "actionBefore": "",
      "actionWhile": "",
      "actionAfter": "",
      "optionIcon": "",
      "iconPath": ""
    },
    {
      "id": 630690602,
      "nextDialogs": [
        630690603
      ],
      "talkRole": {
        "type": "TALK_ROLE_NPC",
        "_id": "3069"
      },
      "talkContentTextMapHash": 1604869466,
      "talkAssetPath": "",
      "talkAssetPathAlter": "",
      "talkAudioName": "",
      "actionBefore": "",
      "actionWhile": "",
      "actionAfter": "",
      "optionIcon": "",
      "iconPath": ""
    },
    {
      "id": 630690603,
      "nextDialogs": [
        630690604
      ],
      "talkRole": {
        "type": "TALK_ROLE_NPC",
        "_id": "3069"
      },
      "talkContentTextMapHash": 4116255154,
      "talkAssetPath": "",
      "talkAssetPathAlter": "",
      "talkAudioName": "",
      "actionBefore": "",
      "actionWhile": "",
      "actionAfter": "",
      "optionIcon": "",
      "iconPath": ""
    },
    {
      "id": 630690604,
      "talkRole": {
        "type": "TALK_ROLE_NPC",
        "_id": "3069"
      },
      "talkContentTextMapHash": 4039506594,
      "talkAssetPath": "",
      "talkAssetPathAlter": "",
      "talkAudioName": "",
      "actionBefore": "",
      "actionWhile": "",
      "actionAfter": "",
      "optionIcon": "",
      "iconPath": ""
    }
  ]
}