{
  "talkId": 6307706,
  "KPGKDHAFHFE": "FREE",
  "dialogList": [
    {
      "id": 630770601,
      "nextDialogs": [
        630770602
      ],
      "talkShowType": "TALK_SHOW_FORCE_SELECT",
      "talkRole": {
        "type": "TALK_ROLE_PLAYER",
        "_id": ""
      },
      "talkContentTextMapHash": 4222054042,
      "talkAssetPath": "",
      "talkAssetPathAlter": "",
      "talkAudioName": "",
      "actionBefore": "",
      "actionWhile": "",
      "actionAfter": "",
      "optionIcon": "",
      "iconPath": ""
    },
    {
      "id": 630770602,
      "nextDialogs": [
        630770603
      ],
      "talkRole": {
        "type": "TALK_ROLE_NPC",
        "_id": "3077"
      },
      "talkContentTextMapHash": 1983619722,
      "talkAssetPath": "",
      "talkAssetPathAlter": "",
      "talkAudioName": "",
      "actionBefore": "",
      "actionWhile": "",
      "actionAfter": "",
      "optionIcon": "",
      "iconPath": ""
    },
    {
      "id": 630770603,
      "nextDialogs": [
        630770604
      ],
      "talkRole": {
        "type": "TALK_ROLE_NPC",
        "_id": "3077"
      },
      "talkContentTextMapHash": 1862727162,
      "talkAssetPath": "",
      "talkAssetPathAlter": "",
      "talkAudioName": "",
      "actionBefore": "",
      "actionWhile": "",
      "actionAfter": "",
      "optionIcon": "",
      "iconPath": ""
    },
    {
      "id": 630770604,
      "nextDialogs": [
        630770605
      ],
      "talkRole": {
        "type": "TALK_ROLE_NPC",
        "_id": "3077"
      },
      "talkContentTextMapHash": 29341770,
      "talkAssetPath": "",
      "talkAssetPathAlter": "",
      "talkAudioName": "",
      "actionBefore": "",
      "actionWhile": "",
      "actionAfter": "",
      "optionIcon": "",
      "iconPath": ""
    },
    {
      "id": 630770605,
      "talkRole": {
        "type": "TALK_ROLE_NPC",
        "_id": "3077"
      },
      "talkContentTextMapHash": 2229922034,
      "talkAssetPath": "",
      "talkAssetPathAlter": "",
      "talkAudioName": "",
      "actionBefore": "",
      "actionWhile": "",
      "actionAfter": "",
      "optionIcon": "",
      "iconPath": ""
    }
  ]
}