{
  "talkId": 6307108,
  "KPGKDHAFHFE": "FREE",
  "dialogList": [
    {
      "id": 630710801,
      "nextDialogs": [
        630710802
      ],
      "talkShowType": "TALK_SHOW_FORCE_SELECT",
      "talkRole": {
        "type": "TALK_ROLE_PLAYER",
        "_id": ""
      },
      "talkContentTextMapHash": 3589258098,
      "talkAssetPath": "",
      "talkAssetPathAlter": "",
      "talkAudioName": "",
      "actionBefore": "",
      "actionWhile": "",
      "actionAfter": "",
      "optionIcon": "",
      "iconPath": ""
    },
    {
      "id": 630710802,
      "talkRole": {
        "type": "TALK_ROLE_NPC",
        "_id": "3071"
      },
      "talkContentTextMapHash": 1785479602,
      "talkAssetPath": "",
      "talkAssetPathAlter": "",
      "talkAudioName": "",
      "actionBefore": "",
      "actionWhile": "",
      "actionAfter": "",
      "optionIcon": "",
      "iconPath": ""
    }
  ]
}