{
  "talkId": 6307803,
  "KPGKDHAFHFE": "FREE",
  "dialogList": [
    {
      "id": 630780301,
      "nextDialogs": [
        630780302
      ],
      "talkShowType": "TALK_SHOW_FORCE_SELECT",
      "talkRole": {
        "type": "TALK_ROLE_PLAYER",
        "_id": ""
      },
      "talkContentTextMapHash": 2635982026,
      "talkAssetPath": "",
      "talkAssetPathAlter": "",
      "talkAudioName": "",
      "actionBefore": "",
      "actionWhile": "",
      "actionAfter": "",
      "optionIcon": "",
      "iconPath": ""
    },
    {
      "id": 630780302,
      "nextDialogs": [
        630780303
      ],
      "talkRole": {
        "type": "TALK_ROLE_NPC",
        "_id": "3078"
      },
      "talkContentTextMapHash": 1974662850,
      "talkAssetPath": "",
      "talkAssetPathAlter": "",
      "talkAudioName": "",
      "actionBefore": "",
      "actionWhile": "",
      "actionAfter": "",
      "optionIcon": "",
      "iconPath": ""
    },
    {
      "id": 630780303,
      "nextDialogs": [
        630780304
      ],
      "talkRole": {
        "type": "TALK_ROLE_NPC",
        "_id": "3078"
      },
      "talkContentTextMapHash": 3354123234,
      "talkAssetPath": "",
      "talkAssetPathAlter": "",
      "talkAudioName": "",
      "actionBefore": "",
      "actionWhile": "",
      "actionAfter": "",
      "optionIcon": "",
      "iconPath": ""
    },
    {
      "id": 630780304,
      "talkRole": {
        "type": "TALK_ROLE_NPC",
        "_id": "3078"
      },
      "talkContentTextMapHash": 1173932570,
      "talkAssetPath": "",
      "talkAssetPathAlter": "",
      "talkAudioName": "",
      "actionBefore": "",
      "actionWhile": "",
      "actionAfter": "",
      "optionIcon": "",
      "iconPath": ""
    }
  ]
}