{
  "talkId": 6307402,
  "KPGKDHAFHFE": "FREE",
  "dialogList": [
    {
      "id": 630740201,
      "nextDialogs": [
        630740202
      ],
      "talkShowType": "TALK_SHOW_FORCE_SELECT",
      "talkRole": {
        "type": "TALK_ROLE_PLAYER",
        "_id": ""
      },
      "talkContentTextMapHash": 625807442,
      "talkAssetPath": "",
      "talkAssetPathAlter": "",
      "talkAudioName": "",
      "actionBefore": "",
      "actionWhile": "",
      "actionAfter": "",
      "optionIcon": "",
      "iconPath": ""
    },
    {
      "id": 630740202,
      "nextDialogs": [
        630740203
      ],
      "talkRole": {
        "type": "TALK_ROLE_NPC",
        "_id": "3074"
      },
      "talkContentTextMapHash": 2388344490,
      "talkAssetPath": "",
      "talkAssetPathAlter": "",
      "talkAudioName": "",
      "actionBefore": "",
      "actionWhile": "",
      "actionAfter": "",
      "optionIcon": "",
      "iconPath": ""
    },
    {
      "id": 630740203,
      "nextDialogs": [
        630740204
      ],
      "talkRole": {
        "type": "TALK_ROLE_NPC",
        "_id": "3074"
      },
      "talkContentTextMapHash": 3241357738,
      "talkAssetPath": "",
      "talkAssetPathAlter": "",
      "talkAudioName": "",
      "actionBefore": "",
      "actionWhile": "",
      "actionAfter": "",
      "optionIcon": "",
      "iconPath": ""
    },
    {
      "id": 630740204,
      "talkRole": {
        "type": "TALK_ROLE_NPC",
        "_id": "3074"
      },
      "talkContentTextMapHash": 922365634,
      "talkAssetPath": "",
      "talkAssetPathAlter": "",
      "talkAudioName": "",
      "actionBefore": "",
      "actionWhile": "",
      "actionAfter": "",
      "optionIcon": "",
      "iconPath": ""
    }
  ]
}