{
  "talkId": 6307012,
  "KPGKDHAFHFE": "FREE",
  "dialogList": [
    {
      "id": 630701201,
      "nextDialogs": [
        630701202
      ],
      "talkShowType": "TALK_SHOW_FORCE_SELECT",
      "talkRole": {
        "type": "TALK_ROLE_PLAYER",
        "_id": ""
      },
      "talkContentTextMapHash": 4258161522,
      "talkAssetPath": "",
      "talkAssetPathAlter": "",
      "talkAudioName": "",
      "actionBefore": "",
      "actionWhile": "",
      "actionAfter": "",
      "optionIcon": "",
      "iconPath": ""
    },
    {
      "id": 630701202,
      "nextDialogs": [
        630701203
      ],
      "talkRole": {
        "type": "TALK_ROLE_NPC",
        "_id": "3070"
      },
      "talkContentTextMapHash": 3706003754,
      "talkAssetPath": "",
      "talkAssetPathAlter": "",
      "talkAudioName": "",
      "actionBefore": "",
      "actionWhile": "",
      "actionAfter": "",
      "optionIcon": "",
      "iconPath": ""
    },
    {
      "id": 630701203,
      "talkRole": {
        "type": "TALK_ROLE_NPC",
        "_id": "3070"
      },
      "talkContentTextMapHash": 3793812842,
      "talkAssetPath": "",
      "talkAssetPathAlter": "",
      "talkAudioName": "",
      "actionBefore": "",
      "actionWhile": "",
      "actionAfter": "",
      "optionIcon": "",
      "iconPath": ""
    }
  ]
}