{
  "talkId": 6307606,
  "KPGKDHAFHFE": "FREE",
  "dialogList": [
    {
      "id": 630760601,
      "nextDialogs": [
        630760602
      ],
      "talkShowType": "TALK_SHOW_FORCE_SELECT",
      "talkRole": {
        "type": "TALK_ROLE_PLAYER",
        "_id": ""
      },
      "talkContentTextMapHash": 1982342666,
      "talkAssetPath": "",
      "talkAssetPathAlter": "",
      "talkAudioName": "",
      "actionBefore": "",
      "actionWhile": "",
      "actionAfter": "",
      "optionIcon": "",
      "iconPath": ""
    },
    {
      "id": 630760602,
      "nextDialogs": [
        630760603
      ],
      "talkRole": {
        "type": "TALK_ROLE_NPC",
        "_id": "3076"
      },
      "talkContentTextMapHash": 1267346698,
      "talkAssetPath": "",
      "talkAssetPathAlter": "",
      "talkAudioName": "",
      "actionBefore": "",
      "actionWhile": "",
      "actionAfter": "",
      "optionIcon": "",
      "iconPath": ""
    },
    {
      "id": 630760603,
      "nextDialogs": [
        630760604
      ],
      "talkRole": {
        "type": "TALK_ROLE_NPC",
        "_id": "3076"
      },
      "talkContentTextMapHash": 2751641402,
      "talkAssetPath": "",
      "talkAssetPathAlter": "",
      "talkAudioName": "",
      "actionBefore": "",
      "actionWhile": "",
      "actionAfter": "",
      "optionIcon": "",
      "iconPath": ""
    },
    {
      "id": 630760604,
      "talkRole": {
        "type": "TALK_ROLE_NPC",
        "_id": "3076"
      },
      "talkContentTextMapHash": 2668892218,
      "talkAssetPath": "",
      "talkAssetPathAlter": "",
      "talkAudioName": "",
      "actionBefore": "",
      "actionWhile": "",
      "actionAfter": "",
      "optionIcon": "",
      "iconPath": ""
    }
  ]
}