{
  "talkId": 6307302,
  "KPGKDHAFHFE": "FREE",
  "dialogList": [
    {
      "id": 630730201,
      "nextDialogs": [
        630730202
      ],
      "talkShowType": "TALK_SHOW_FORCE_SELECT",
      "talkRole": {
        "type": "TALK_ROLE_PLAYER",
        "_id": ""
      },
      "talkContentTextMapHash": 2516713538,
      "talkAssetPath": "",
      "talkAssetPathAlter": "",
      "talkAudioName": "",
      "actionBefore": "",
      "actionWhile": "",
      "actionAfter": "",
      "optionIcon": "",
      "iconPath": ""
    },
    {
      "id": 630730202,
      "nextDialogs": [
        630730203
      ],
      "talkRole": {
        "type": "TALK_ROLE_NPC",
        "_id": "3073"
      },
      "talkContentTextMapHash": 1141978810,
      "talkAssetPath": "",
      "talkAssetPathAlter": "",
      "talkAudioName": "",
      "actionBefore": "",
      "actionWhile": "",
      "actionAfter": "",
      "optionIcon": "",
      "iconPath": ""
    },
    {
      "id": 630730203,
      "nextDialogs": [
        630730204
      ],
      "talkRole": {
        "type": "TALK_ROLE_NPC",
        "_id": "3073"
      },
      "talkContentTextMapHash": 2966008034,
      "talkAssetPath": "",
      "talkAssetPathAlter": "",
      "talkAudioName": "",
      "actionBefore": "",
      "actionWhile": "",
      "actionAfter": "",
      "optionIcon": "",
      "iconPath": ""
    },
    {
      "id": 630730204,
      "nextDialogs": [
        630730205
      ],
      "talkRole": {
        "type": "TALK_ROLE_NPC",
        "_id": "3073"
      },
      "talkContentTextMapHash": 3360491402,
      "talkAssetPath": "",
      "talkAssetPathAlter": "",
      "talkAudioName": "",
      "actionBefore": "",
      "actionWhile": "",
      "actionAfter": "",
      "optionIcon": "",
      "iconPath": ""
    },
    {
      "id": 630730205,
      "talkRole": {
        "type": "TALK_ROLE_NPC",
        "_id": "3073"
      },
      "talkContentTextMapHash": 2577961178,
      "talkAssetPath": "",
      "talkAssetPathAlter": "",
      "talkAudioName": "",
      "actionBefore": "",
      "actionWhile": "",
      "actionAfter": "",
      "optionIcon": "",
      "iconPath": ""
    }
  ]
}