{
  "talkId": 6307406,
  "KPGKDHAFHFE": "FREE",
  "dialogList": [
    {
      "id": 630740601,
      "nextDialogs": [
        630740602
      ],
      "talkShowType": "TALK_SHOW_FORCE_SELECT",
      "talkRole": {
        "type": "TALK_ROLE_PLAYER",
        "_id": ""
      },
      "talkContentTextMapHash": 290587410,
      "talkAssetPath": "",
      "talkAssetPathAlter": "",
      "talkAudioName": "",
      "actionBefore": "",
      "actionWhile": "",
      "actionAfter": "",
      "optionIcon": "",
      "iconPath": ""
    },
    {
      "id": 630740602,
      "nextDialogs": [
        630740603
      ],
      "talkRole": {
        "type": "TALK_ROLE_NPC",
        "_id": "3074"
      },
      "talkContentTextMapHash": 2299300626,
      "talkAssetPath": "",
      "talkAssetPathAlter": "",
      "talkAudioName": "",
      "actionBefore": "",
      "actionWhile": "",
      "actionAfter": "",
      "optionIcon": "",
      "iconPath": ""
    },
    {
      "id": 630740603,
      "nextDialogs": [
        630740604
      ],
      "talkRole": {
        "type": "TALK_ROLE_NPC",
        "_id": "3074"
      },
      "talkContentTextMapHash": 2265143410,
      "talkAssetPath": "",
      "talkAssetPathAlter": "",
      "talkAudioName": "",
      "actionBefore": "",
      "actionWhile": "",
      "actionAfter": "",
      "optionIcon": "",
      "iconPath": ""
    },
    {
      "id": 630740604,
      "nextDialogs": [
        630740605
      ],
      "talkRole": {
        "type": "TALK_ROLE_NPC",
        "_id": "3074"
      },
      "talkContentTextMapHash": 2969425490,
      "talkAssetPath": "",
      "talkAssetPathAlter": "",
      "talkAudioName": "",
      "actionBefore": "",
      "actionWhile": "",
      "actionAfter": "",
      "optionIcon": "",
      "iconPath": ""
    },
    {
      "id": 630740605,
      "talkRole": {
        "type": "TALK_ROLE_NPC",
        "_id": "3074"
      },
      "talkContentTextMapHash": 1839633794,
      "talkAssetPath": "",
      "talkAssetPathAlter": "",
      "talkAudioName": "",
      "actionBefore": "",
      "actionWhile": "",
      "actionAfter": "",
      "optionIcon": "",
      "iconPath": ""
    }
  ]
}