{
  "talkId": 6308606,
  "KPGKDHAFHFE": "FREE",
  "dialogList": [
    {
      "id": 630860601,
      "nextDialogs": [
        630860602
      ],
      "talkShowType": "TALK_SHOW_FORCE_SELECT",
      "talkRole": {
        "type": "TALK_ROLE_PLAYER",
        "_id": ""
      },
      "talkContentTextMapHash": 2455877618,
      "talkAssetPath": "",
      "talkAssetPathAlter": "",
      "talkAudioName": "",
      "actionBefore": "",
      "actionWhile": "",
      "actionAfter": "",
      "optionIcon": "",
      "iconPath": ""
    },
    {
      "id": 630860602,
      "nextDialogs": [
        630860603
      ],
      "talkRole": {
        "type": "TALK_ROLE_NPC",
        "_id": "3086"
      },
      "talkContentTextMapHash": 2762409314,
      "talkAssetPath": "",
      "talkAssetPathAlter": "",
      "talkAudioName": "",
      "actionBefore": "",
      "actionWhile": "",
      "actionAfter": "",
      "optionIcon": "",
      "iconPath": ""
    },
    {
      "id": 630860603,
      "nextDialogs": [
        630860604
      ],
      "talkRole": {
        "type": "TALK_ROLE_NPC",
        "_id": "3086"
      },
      "talkContentTextMapHash": 2913864218,
      "talkAssetPath": "",
      "talkAssetPathAlter": "",
      "talkAudioName": "",
      "actionBefore": "",
      "actionWhile": "",
      "actionAfter": "",
      "optionIcon": "",
      "iconPath": ""
    },
    {
      "id": 630860604,
      "nextDialogs": [
        630860605
      ],
      "talkRole": {
        "type": "TALK_ROLE_NPC",
        "_id": "3086"
      },
      "talkContentTextMapHash": 4217417538,
      "talkAssetPath": "",
      "talkAssetPathAlter": "",
      "talkAudioName": "",
      "actionBefore": "",
      "actionWhile": "",
      "actionAfter": "",
      "optionIcon": "",
      "iconPath": ""
    },
    {
      "id": 630860605,
      "nextDialogs": [
        630860606
      ],
      "talkRole": {
        "type": "TALK_ROLE_NPC",
        "_id": "3086"
      },
      "talkContentTextMapHash": 1756199466,
      "talkAssetPath": "",
      "talkAssetPathAlter": "",
      "talkAudioName": "",
      "actionBefore": "",
      "actionWhile": "",
      "actionAfter": "",
      "optionIcon": "",
      "iconPath": ""
    },
    {
      "id": 630860606,
      "talkRole": {
        "type": "TALK_ROLE_NPC",
        "_id": "3086"
      },
      "talkContentTextMapHash": 186359330,
      "talkAssetPath": "",
      "talkAssetPathAlter": "",
      "talkAudioName": "",
      "actionBefore": "",
      "actionWhile": "",
      "actionAfter": "",
      "optionIcon": "",
      "iconPath": ""
    }
  ]
}