{
  "talkId": 6308907,
  "KPGKDHAFHFE": "FREE",
  "dialogList": [
    {
      "id": 630890701,
      "nextDialogs": [
        630890702
      ],
      "talkShowType": "TALK_SHOW_FORCE_SELECT",
      "talkRole": {
        "type": "TALK_ROLE_PLAYER",
        "_id": ""
      },
      "talkContentTextMapHash": 3507423986,
      "talkAssetPath": "",
      "talkAssetPathAlter": "",
      "talkAudioName": "",
      "actionBefore": "",
      "actionWhile": "",
      "actionAfter": "",
      "optionIcon": "",
      "iconPath": ""
    },
    {
      "id": 630890702,
      "nextDialogs": [
        630890703
      ],
      "talkRole": {
        "type": "TALK_ROLE_NPC",
        "_id": "3089"
      },
      "talkContentTextMapHash": 1194549858,
      "talkAssetPath": "",
      "talkAssetPathAlter": "",
      "talkAudioName": "",
      "actionBefore": "",
      "actionWhile": "",
      "actionAfter": "",
      "optionIcon": "",
      "iconPath": ""
    },
    {
      "id": 630890703,
      "talkRole": {
        "type": "TALK_ROLE_NPC",
        "_id": "3089"
      },
      "talkContentTextMapHash": 3326389970,
      "talkAssetPath": "",
      "talkAssetPathAlter": "",
      "talkAudioName": "",
      "actionBefore": "",
      "actionWhile": "",
      "actionAfter": "",
      "optionIcon": "",
      "iconPath": ""
    }
  ]
}