{
  "talkId": 6308003,
  "KPGKDHAFHFE": "FREE",
  "dialogList": [
    {
      "id": 630800301,
      "nextDialogs": [
        630800302
      ],
      "talkShowType": "TALK_SHOW_FORCE_SELECT",
      "talkRole": {
        "type": "TALK_ROLE_PLAYER",
        "_id": ""
      },
      "talkContentTextMapHash": 630928002,
      "talkAssetPath": "",
      "talkAssetPathAlter": "",
      "talkAudioName": "",
      "actionBefore": "",
      "actionWhile": "",
      "actionAfter": "",
      "optionIcon": "",
      "iconPath": ""
    },
    {
      "id": 630800302,
      "nextDialogs": [
        630800303
      ],
      "talkRole": {
        "type": "TALK_ROLE_NPC",
        "_id": "3080"
      },
      "talkContentTextMapHash": 1854368178,
      "talkAssetPath": "",
      "talkAssetPathAlter": "",
      "talkAudioName": "",
      "actionBefore": "",
      "actionWhile": "",
      "actionAfter": "",
      "optionIcon": "",
      "iconPath": ""
    },
    {
      "id": 630800303,
      "nextDialogs": [
        630800304
      ],
      "talkRole": {
        "type": "TALK_ROLE_NPC",
        "_id": "3080"
      },
      "talkContentTextMapHash": 3429875762,
      "talkAssetPath": "",
      "talkAssetPathAlter": "",
      "talkAudioName": "",
      "actionBefore": "",
      "actionWhile": "",
      "actionAfter": "",
      "optionIcon": "",
      "iconPath": ""
    },
    {
      "id": 630800304,
      "talkRole": {
        "type": "TALK_ROLE_NPC",
        "_id": "3080"
      },
      "talkContentTextMapHash": 2916544194,
      "talkAssetPath": "",
      "talkAssetPathAlter": "",
      "talkAudioName": "",
      "actionBefore": "",
      "actionWhile": "",
      "actionAfter": "",
      "optionIcon": "",
      "iconPath": ""
    }
  ]
}