{
  "talkId": 6308405,
  "KPGKDHAFHFE": "FREE",
  "dialogList": [
    {
      "id": 630840501,
      "nextDialogs": [
        630840502
      ],
      "talkShowType": "TALK_SHOW_FORCE_SELECT",
      "talkRole": {
        "type": "TALK_ROLE_PLAYER",
        "_id": ""
      },
      "talkContentTextMapHash": 2025299114,
      "talkAssetPath": "",
      "talkAssetPathAlter": "",
      "talkAudioName": "",
      "actionBefore": "",
      "actionWhile": "",
      "actionAfter": "",
      "optionIcon": "",
      "iconPath": ""
    },
    {
      "id": 630840502,
      "nextDialogs": [
        630840503
      ],
      "talkRole": {
        "type": "TALK_ROLE_NPC",
        "_id": "3084"
      },
      "talkContentTextMapHash": 3771046146,
      "talkAssetPath": "",
      "talkAssetPathAlter": "",
      "talkAudioName": "",
      "actionBefore": "",
      "actionWhile": "",
      "actionAfter": "",
      "optionIcon": "",
      "iconPath": ""
    },
    {
      "id": 630840503,
      "nextDialogs": [
        630840504
      ],
      "talkRole": {
        "type": "TALK_ROLE_NPC",
        "_id": "3084"
      },
      "talkContentTextMapHash": 2287812986,
      "talkAssetPath": "",
      "talkAssetPathAlter": "",
      "talkAudioName": "",
      "actionBefore": "",
      "actionWhile": "",
      "actionAfter": "",
      "optionIcon": "",
      "iconPath": ""
    },
    {
      "id": 630840504,
      "talkRole": {
        "type": "TALK_ROLE_NPC",
        "_id": "3084"
      },
      "talkContentTextMapHash": 553375610,
      "talkAssetPath": "",
      "talkAssetPathAlter": "",
      "talkAudioName": "",
      "actionBefore": "",
      "actionWhile": "",
      "actionAfter": "",
      "optionIcon": "",
      "iconPath": ""
    }
  ]
}