{
  "talkId": 6308004,
  "KPGKDHAFHFE": "FREE",
  "dialogList": [
    {
      "id": 630800401,
      "nextDialogs": [
        630800402
      ],
      "talkShowType": "TALK_SHOW_FORCE_SELECT",
      "talkRole": {
        "type": "TALK_ROLE_PLAYER",
        "_id": ""
      },
      "talkContentTextMapHash": 3599235282,
      "talkAssetPath": "",
      "talkAssetPathAlter": "",
      "talkAudioName": "",
      "actionBefore": "",
      "actionWhile": "",
      "actionAfter": "",
      "optionIcon": "",
      "iconPath": ""
    },
    {
      "id": 630800402,
      "talkRole": {
        "type": "TALK_ROLE_NPC",
        "_id": "3080"
      },
      "talkContentTextMapHash": 3743242906,
      "talkAssetPath": "",
      "talkAssetPathAlter": "",
      "talkAudioName": "",
      "actionBefore": "",
      "actionWhile": "",
      "actionAfter": "",
      "optionIcon": "",
      "iconPath": ""
    }
  ]
}