{
  "talkId": 6308202,
  "KPGKDHAFHFE": "FREE",
  "dialogList": [
    {
      "id": 630820201,
      "nextDialogs": [
        630820202
      ],
      "talkShowType": "TALK_SHOW_FORCE_SELECT",
      "talkRole": {
        "type": "TALK_ROLE_PLAYER",
        "_id": ""
      },
      "talkContentTextMapHash": 346623930,
      "talkAssetPath": "",
      "talkAssetPathAlter": "",
      "talkAudioName": "",
      "actionBefore": "",
      "actionWhile": "",
      "actionAfter": "",
      "optionIcon": "",
      "iconPath": ""
    },
    {
      "id": 630820202,
      "nextDialogs": [
        630820203
      ],
      "talkRole": {
        "type": "TALK_ROLE_NPC",
        "_id": "3082"
      },
      "talkContentTextMapHash": 1194179178,
      "talkAssetPath": "",
      "talkAssetPathAlter": "",
      "talkAudioName": "",
      "actionBefore": "",
      "actionWhile": "",
      "actionAfter": "",
      "optionIcon": "",
      "iconPath": ""
    },
    {
      "id": 630820203,
      "nextDialogs": [
        630820204
      ],
      "talkRole": {
        "type": "TALK_ROLE_NPC",
        "_id": "3082"
      },
      "talkContentTextMapHash": 1719460922,
      "talkAssetPath": "",
      "talkAssetPathAlter": "",
      "talkAudioName": "",
      "actionBefore": "",
      "actionWhile": "",
      "actionAfter": "",
      "optionIcon": "",
      "iconPath": ""
    },
    {
      "id": 630820204,
      "talkRole": {
        "type": "TALK_ROLE_NPC",
        "_id": "3082"
      },
      "talkContentTextMapHash": 2298065274,
      "talkAssetPath": "",
      "talkAssetPathAlter": "",
      "talkAudioName": "",
      "actionBefore": "",
      "actionWhile": "",
      "actionAfter": "",
      "optionIcon": "",
      "iconPath": ""
    }
  ]
}