{
  "talkId": 6308808,
  "KPGKDHAFHFE": "FREE",
  "dialogList": [
    {
      "id": 630880801,
      "nextDialogs": [
        630880802
      ],
      "talkShowType": "TALK_SHOW_FORCE_SELECT",
      "talkRole": {
        "type": "TALK_ROLE_PLAYER",
        "_id": ""
      },
      "talkContentTextMapHash": 2495492402,
      "talkAssetPath": "",
      "talkAssetPathAlter": "",
      "talkAudioName": "",
      "actionBefore": "",
      "actionWhile": "",
      "actionAfter": "",
      "optionIcon": "",
      "iconPath": ""
    },
    {
      "id": 630880802,
      "talkRole": {
        "type": "TALK_ROLE_NPC",
        "_id": "3088"
      },
      "talkContentTextMapHash": 1334332346,
      "talkAssetPath": "",
      "talkAssetPathAlter": "",
      "talkAudioName": "",
      "actionBefore": "",
      "actionWhile": "",
      "actionAfter": "",
      "optionIcon": "",
      "iconPath": ""
    }
  ]
}