{
  "talkId": 6309304,
  "KPGKDHAFHFE": "FREE",
  "dialogList": [
    {
      "id": 630930401,
      "nextDialogs": [
        630930402
      ],
      "talkShowType": "TALK_SHOW_FORCE_SELECT",
      "talkRole": {
        "type": "TALK_ROLE_PLAYER",
        "_id": ""
      },
      "talkContentTextMapHash": 3896628202,
      "talkAssetPath": "",
      "talkAssetPathAlter": "",
      "talkAudioName": "",
      "actionBefore": "",
      "actionWhile": "",
      "actionAfter": "",
      "optionIcon": "",
      "iconPath": ""
    },
    {
      "id": 630930402,
      "talkRole": {
        "type": "TALK_ROLE_NPC",
        "_id": "3093"
      },
      "talkContentTextMapHash": 1484168682,
      "talkAssetPath": "",
      "talkAssetPathAlter": "",
      "talkAudioName": "",
      "actionBefore": "",
      "actionWhile": "",
      "actionAfter": "",
      "optionIcon": "",
      "iconPath": ""
    }
  ]
}