{
  "talkId": 6309701,
  "KPGKDHAFHFE": "FREE",
  "dialogList": [
    {
      "id": 630970101,
      "talkRole": {
        "type": "TALK_ROLE_NPC",
        "_id": "3097"
      },
      "talkContentTextMapHash": 709260506,
      "talkAssetPath": "",
      "talkAssetPathAlter": "",
      "talkAudioName": "",
      "actionBefore": "",
      "actionWhile": "TEST/LerpInNpc",
      "actionAfter": "",
      "optionIcon": "",
      "iconPath": ""
    }
  ]
}