{
  "talkId": 6309805,
  "KPGKDHAFHFE": "FREE",
  "dialogList": [
    {
      "id": 630980501,
      "talkRole": {
        "type": "TALK_ROLE_NPC",
        "_id": "3098"
      },
      "talkContentTextMapHash": 3120276146,
      "talkAssetPath": "",
      "talkAssetPathAlter": "",
      "talkAudioName": "",
      "actionBefore": "",
      "actionWhile": "TEST/LerpInNpc",
      "actionAfter": "",
      "optionIcon": "",
      "iconPath": ""
    }
  ]
}