{
  "talkId": 6309904,
  "KPGKDHAFHFE": "FREE",
  "dialogList": [
    {
      "id": 630990401,
      "nextDialogs": [
        630990402
      ],
      "talkShowType": "TALK_SHOW_FORCE_SELECT",
      "talkRole": {
        "type": "TALK_ROLE_PLAYER",
        "_id": ""
      },
      "talkContentTextMapHash": 204717434,
      "talkAssetPath": "",
      "talkAssetPathAlter": "",
      "talkAudioName": "",
      "actionBefore": "",
      "actionWhile": "",
      "actionAfter": "",
      "optionIcon": "",
      "iconPath": ""
    },
    {
      "id": 630990402,
      "talkRole": {
        "type": "TALK_ROLE_NPC",
        "_id": "3099"
      },
      "talkContentTextMapHash": 2433392442,
      "talkAssetPath": "",
      "talkAssetPathAlter": "",
      "talkAudioName": "",
      "actionBefore": "",
      "actionWhile": "",
      "actionAfter": "",
      "optionIcon": "",
      "iconPath": ""
    }
  ]
}