{
  "talkId": 6310203,
  "KPGKDHAFHFE": "FREE",
  "dialogList": [
    {
      "id": 631020301,
      "nextDialogs": [
        631020302
      ],
      "talkShowType": "TALK_SHOW_FORCE_SELECT",
      "talkRole": {
        "type": "TALK_ROLE_PLAYER",
        "_id": ""
      },
      "talkContentTextMapHash": 2931908762,
      "talkAssetPath": "",
      "talkAssetPathAlter": "",
      "talkAudioName": "",
      "actionBefore": "",
      "actionWhile": "",
      "actionAfter": "",
      "optionIcon": "",
      "iconPath": ""
    },
    {
      "id": 631020302,
      "talkRole": {
        "type": "TALK_ROLE_NPC",
        "_id": "3102"
      },
      "talkContentTextMapHash": 2136308418,
      "talkAssetPath": "",
      "talkAssetPathAlter": "",
      "talkAudioName": "",
      "actionBefore": "",
      "actionWhile": "",
      "actionAfter": "",
      "optionIcon": "",
      "iconPath": ""
    }
  ]
}