{
  "talkId": 6310802,
  "KPGKDHAFHFE": "FREE",
  "dialogList": [
    {
      "id": 631080201,
      "nextDialogs": [
        631080202
      ],
      "talkShowType": "TALK_SHOW_FORCE_SELECT",
      "talkRole": {
        "type": "TALK_ROLE_PLAYER",
        "_id": ""
      },
      "talkContentTextMapHash": 3646755490,
      "talkAssetPath": "",
      "talkAssetPathAlter": "",
      "talkAudioName": "",
      "actionBefore": "",
      "actionWhile": "",
      "actionAfter": "",
      "optionIcon": "",
      "iconPath": ""
    },
    {
      "id": 631080202,
      "nextDialogs": [
        631080203
      ],
      "talkRole": {
        "type": "TALK_ROLE_NPC",
        "_id": "3108"
      },
      "talkContentTextMapHash": 3756012666,
      "talkAssetPath": "",
      "talkAssetPathAlter": "",
      "talkAudioName": "",
      "actionBefore": "",
      "actionWhile": "",
      "actionAfter": "",
      "optionIcon": "",
      "iconPath": ""
    },
    {
      "id": 631080203,
      "nextDialogs": [
        631080204
      ],
      "talkRole": {
        "type": "TALK_ROLE_NPC",
        "_id": "3108"
      },
      "talkContentTextMapHash": 4033126338,
      "talkAssetPath": "",
      "talkAssetPathAlter": "",
      "talkAudioName": "",
      "actionBefore": "",
      "actionWhile": "",
      "actionAfter": "",
      "optionIcon": "",
      "iconPath": ""
    },
    {
      "id": 631080204,
      "nextDialogs": [
        631080205
      ],
      "talkRole": {
        "type": "TALK_ROLE_NPC",
        "_id": "3108"
      },
      "talkContentTextMapHash": 2808661066,
      "talkAssetPath": "",
      "talkAssetPathAlter": "",
      "talkAudioName": "",
      "actionBefore": "",
      "actionWhile": "",
      "actionAfter": "",
      "optionIcon": "",
      "iconPath": ""
    },
    {
      "id": 631080205,
      "nextDialogs": [
        631080206
      ],
      "talkRole": {
        "type": "TALK_ROLE_NPC",
        "_id": "3108"
      },
      "talkContentTextMapHash": 1901185930,
      "talkAssetPath": "",
      "talkAssetPathAlter": "",
      "talkAudioName": "",
      "actionBefore": "",
      "actionWhile": "",
      "actionAfter": "",
      "optionIcon": "",
      "iconPath": ""
    },
    {
      "id": 631080206,
      "talkRole": {
        "type": "TALK_ROLE_NPC",
        "_id": "3108"
      },
      "talkContentTextMapHash": 1003101506,
      "talkAssetPath": "",
      "talkAssetPathAlter": "",
      "talkAudioName": "",
      "actionBefore": "",
      "actionWhile": "",
      "actionAfter": "",
      "optionIcon": "",
      "iconPath": ""
    }
  ]
}