{
  "talkId": 6310001,
  "KPGKDHAFHFE": "FREE",
  "dialogList": [
    {
      "id": 631000101,
      "talkRole": {
        "type": "TALK_ROLE_NPC",
        "_id": "3100"
      },
      "talkContentTextMapHash": 424457562,
      "talkAssetPath": "",
      "talkAssetPathAlter": "",
      "talkAudioName": "",
      "actionBefore": "",
      "actionWhile": "TEST/LerpInNpc",
      "actionAfter": "",
      "optionIcon": "",
      "iconPath": ""
    }
  ]
}