{
  "talkId": 6310706,
  "KPGKDHAFHFE": "FREE",
  "dialogList": [
    {
      "id": 631070601,
      "nextDialogs": [
        631070602
      ],
      "talkShowType": "TALK_SHOW_FORCE_SELECT",
      "talkRole": {
        "type": "TALK_ROLE_PLAYER",
        "_id": ""
      },
      "talkContentTextMapHash": 4212172234,
      "talkAssetPath": "",
      "talkAssetPathAlter": "",
      "talkAudioName": "",
      "actionBefore": "",
      "actionWhile": "",
      "actionAfter": "",
      "optionIcon": "",
      "iconPath": ""
    },
    {
      "id": 631070602,
      "talkRole": {
        "type": "TALK_ROLE_NPC",
        "_id": "3107"
      },
      "talkContentTextMapHash": 2182222666,
      "talkAssetPath": "",
      "talkAssetPathAlter": "",
      "talkAudioName": "",
      "actionBefore": "",
      "actionWhile": "",
      "actionAfter": "",
      "optionIcon": "",
      "iconPath": ""
    }
  ]
}