{
  "talkId": 6310101,
  "KPGKDHAFHFE": "FREE",
  "dialogList": [
    {
      "id": 631010101,
      "talkRole": {
        "type": "TALK_ROLE_NPC",
        "_id": "3101"
      },
      "talkContentTextMapHash": 497512586,
      "talkAssetPath": "",
      "talkAssetPathAlter": "",
      "talkAudioName": "",
      "actionBefore": "",
      "actionWhile": "",
      "actionAfter": "",
      "optionIcon": "",
      "iconPath": ""
    }
  ]
}