{
  "talkId": 6310610,
  "KPGKDHAFHFE": "FREE",
  "dialogList": [
    {
      "id": 631061001,
      "nextDialogs": [
        631061002
      ],
      "talkShowType": "TALK_SHOW_FORCE_SELECT",
      "talkRole": {
        "type": "TALK_ROLE_PLAYER",
        "_id": ""
      },
      "talkContentTextMapHash": 356864882,
      "talkAssetPath": "",
      "talkAssetPathAlter": "",
      "talkAudioName": "",
      "actionBefore": "",
      "actionWhile": "",
      "actionAfter": "",
      "optionIcon": "",
      "iconPath": ""
    },
    {
      "id": 631061002,
      "nextDialogs": [
        631061003
      ],
      "talkRole": {
        "type": "TALK_ROLE_NPC",
        "_id": "3106"
      },
      "talkContentTextMapHash": 1548781018,
      "talkAssetPath": "",
      "talkAssetPathAlter": "",
      "talkAudioName": "",
      "actionBefore": "",
      "actionWhile": "",
      "actionAfter": "",
      "optionIcon": "",
      "iconPath": ""
    },
    {
      "id": 631061003,
      "nextDialogs": [
        631061004
      ],
      "talkRole": {
        "type": "TALK_ROLE_NPC",
        "_id": "3106"
      },
      "talkContentTextMapHash": 1093423866,
      "talkAssetPath": "",
      "talkAssetPathAlter": "",
      "talkAudioName": "",
      "actionBefore": "",
      "actionWhile": "",
      "actionAfter": "",
      "optionIcon": "",
      "iconPath": ""
    },
    {
      "id": 631061004,
      "nextDialogs": [
        631061005
      ],
      "talkRole": {
        "type": "TALK_ROLE_NPC",
        "_id": "3106"
      },
      "talkContentTextMapHash": 4037123114,
      "talkAssetPath": "",
      "talkAssetPathAlter": "",
      "talkAudioName": "",
      "actionBefore": "",
      "actionWhile": "",
      "actionAfter": "",
      "optionIcon": "",
      "iconPath": ""
    },
    {
      "id": 631061005,
      "nextDialogs": [
        631061006
      ],
      "talkRole": {
        "type": "TALK_ROLE_NPC",
        "_id": "3106"
      },
      "talkContentTextMapHash": 1010315346,
      "talkAssetPath": "",
      "talkAssetPathAlter": "",
      "talkAudioName": "",
      "actionBefore": "",
      "actionWhile": "",
      "actionAfter": "",
      "optionIcon": "",
      "iconPath": ""
    },
    {
      "id": 631061006,
      "talkRole": {
        "type": "TALK_ROLE_NPC",
        "_id": "3106"
      },
      "talkContentTextMapHash": 995336010,
      "talkAssetPath": "",
      "talkAssetPathAlter": "",
      "talkAudioName": "",
      "actionBefore": "",
      "actionWhile": "",
      "actionAfter": "",
      "optionIcon": "",
      "iconPath": ""
    }
  ]
}