{
  "talkId": 6310306,
  "KPGKDHAFHFE": "FREE",
  "dialogList": [
    {
      "id": 631030601,
      "nextDialogs": [
        631030602
      ],
      "talkShowType": "TALK_SHOW_FORCE_SELECT",
      "talkRole": {
        "type": "TALK_ROLE_PLAYER",
        "_id": ""
      },
      "talkContentTextMapHash": 3846530290,
      "talkAssetPath": "",
      "talkAssetPathAlter": "",
      "talkAudioName": "",
      "actionBefore": "",
      "actionWhile": "",
      "actionAfter": "",
      "optionIcon": "",
      "iconPath": ""
    },
    {
      "id": 631030602,
      "nextDialogs": [
        631030603
      ],
      "talkRole": {
        "type": "TALK_ROLE_NPC",
        "_id": "3103"
      },
      "talkContentTextMapHash": 1115471994,
      "talkAssetPath": "",
      "talkAssetPathAlter": "",
      "talkAudioName": "",
      "actionBefore": "",
      "actionWhile": "",
      "actionAfter": "",
      "optionIcon": "",
      "iconPath": ""
    },
    {
      "id": 631030603,
      "nextDialogs": [
        631030604
      ],
      "talkRole": {
        "type": "TALK_ROLE_NPC",
        "_id": "3103"
      },
      "talkContentTextMapHash": 1408610794,
      "talkAssetPath": "",
      "talkAssetPathAlter": "",
      "talkAudioName": "",
      "actionBefore": "",
      "actionWhile": "",
      "actionAfter": "",
      "optionIcon": "",
      "iconPath": ""
    },
    {
      "id": 631030604,
      "nextDialogs": [
        631030605
      ],
      "talkRole": {
        "type": "TALK_ROLE_NPC",
        "_id": "3103"
      },
      "talkContentTextMapHash": 2454693330,
      "talkAssetPath": "",
      "talkAssetPathAlter": "",
      "talkAudioName": "",
      "actionBefore": "",
      "actionWhile": "",
      "actionAfter": "",
      "optionIcon": "",
      "iconPath": ""
    },
    {
      "id": 631030605,
      "talkRole": {
        "type": "TALK_ROLE_NPC",
        "_id": "3103"
      },
      "talkContentTextMapHash": 389456506,
      "talkAssetPath": "",
      "talkAssetPathAlter": "",
      "talkAudioName": "",
      "actionBefore": "",
      "actionWhile": "",
      "actionAfter": "",
      "optionIcon": "",
      "iconPath": ""
    }
  ]
}