{
  "talkId": 6311608,
  "KPGKDHAFHFE": "FREE",
  "dialogList": [
    {
      "id": 631160801,
      "nextDialogs": [
        631160802
      ],
      "talkShowType": "TALK_SHOW_FORCE_SELECT",
      "talkRole": {
        "type": "TALK_ROLE_PLAYER",
        "_id": ""
      },
      "talkContentTextMapHash": 2805073650,
      "talkAssetPath": "",
      "talkAssetPathAlter": "",
      "talkAudioName": "",
      "actionBefore": "",
      "actionWhile": "",
      "actionAfter": "",
      "optionIcon": "",
      "iconPath": ""
    },
    {
      "id": 631160802,
      "talkRole": {
        "type": "TALK_ROLE_NPC",
        "_id": "3116"
      },
      "talkContentTextMapHash": 1807604770,
      "talkAssetPath": "",
      "talkAssetPathAlter": "",
      "talkAudioName": "",
      "actionBefore": "",
      "actionWhile": "",
      "actionAfter": "",
      "optionIcon": "",
      "iconPath": ""
    }
  ]
}