{
  "talkId": 6311004,
  "KPGKDHAFHFE": "FREE",
  "dialogList": [
    {
      "id": 631100401,
      "nextDialogs": [
        631100402
      ],
      "talkShowType": "TALK_SHOW_FORCE_SELECT",
      "talkRole": {
        "type": "TALK_ROLE_PLAYER",
        "_id": ""
      },
      "talkContentTextMapHash": 1128500338,
      "talkAssetPath": "",
      "talkAssetPathAlter": "",
      "talkAudioName": "",
      "actionBefore": "",
      "actionWhile": "",
      "actionAfter": "",
      "optionIcon": "",
      "iconPath": ""
    },
    {
      "id": 631100402,
      "talkRole": {
        "type": "TALK_ROLE_NPC",
        "_id": "3110"
      },
      "talkContentTextMapHash": 3526594018,
      "talkAssetPath": "",
      "talkAssetPathAlter": "",
      "talkAudioName": "",
      "actionBefore": "",
      "actionWhile": "",
      "actionAfter": "",
      "optionIcon": "",
      "iconPath": ""
    }
  ]
}