{
  "talkId": 6311003,
  "KPGKDHAFHFE": "FREE",
  "dialogList": [
    {
      "id": 631100301,
      "nextDialogs": [
        631100302
      ],
      "talkShowType": "TALK_SHOW_FORCE_SELECT",
      "talkRole": {
        "type": "TALK_ROLE_PLAYER",
        "_id": ""
      },
      "talkContentTextMapHash": 180891826,
      "talkAssetPath": "",
      "talkAssetPathAlter": "",
      "talkAudioName": "",
      "actionBefore": "",
      "actionWhile": "",
      "actionAfter": "",
      "optionIcon": "",
      "iconPath": ""
    },
    {
      "id": 631100302,
      "nextDialogs": [
        631100303
      ],
      "talkRole": {
        "type": "TALK_ROLE_NPC",
        "_id": "3110"
      },
      "talkContentTextMapHash": 370697898,
      "talkAssetPath": "",
      "talkAssetPathAlter": "",
      "talkAudioName": "",
      "actionBefore": "",
      "actionWhile": "",
      "actionAfter": "",
      "optionIcon": "",
      "iconPath": ""
    },
    {
      "id": 631100303,
      "nextDialogs": [
        631100304
      ],
      "talkRole": {
        "type": "TALK_ROLE_NPC",
        "_id": "3110"
      },
      "talkContentTextMapHash": 1586440826,
      "talkAssetPath": "",
      "talkAssetPathAlter": "",
      "talkAudioName": "",
      "actionBefore": "",
      "actionWhile": "",
      "actionAfter": "",
      "optionIcon": "",
      "iconPath": ""
    },
    {
      "id": 631100304,
      "nextDialogs": [
        631100305
      ],
      "talkRole": {
        "type": "TALK_ROLE_NPC",
        "_id": "3110"
      },
      "talkContentTextMapHash": 3183976082,
      "talkAssetPath": "",
      "talkAssetPathAlter": "",
      "talkAudioName": "",
      "actionBefore": "",
      "actionWhile": "",
      "actionAfter": "",
      "optionIcon": "",
      "iconPath": ""
    },
    {
      "id": 631100305,
      "nextDialogs": [
        631100306
      ],
      "talkRole": {
        "type": "TALK_ROLE_NPC",
        "_id": "3110"
      },
      "talkContentTextMapHash": 3793337410,
      "talkAssetPath": "",
      "talkAssetPathAlter": "",
      "talkAudioName": "",
      "actionBefore": "",
      "actionWhile": "",
      "actionAfter": "",
      "optionIcon": "",
      "iconPath": ""
    },
    {
      "id": 631100306,
      "talkRole": {
        "type": "TALK_ROLE_NPC",
        "_id": "3110"
      },
      "talkContentTextMapHash": 543674746,
      "talkAssetPath": "",
      "talkAssetPathAlter": "",
      "talkAudioName": "",
      "actionBefore": "",
      "actionWhile": "",
      "actionAfter": "",
      "optionIcon": "",
      "iconPath": ""
    }
  ]
}