{
  "talkId": 6311110,
  "KPGKDHAFHFE": "FREE",
  "dialogList": [
    {
      "id": 631111001,
      "nextDialogs": [
        631111002
      ],
      "talkShowType": "TALK_SHOW_FORCE_SELECT",
      "talkRole": {
        "type": "TALK_ROLE_PLAYER",
        "_id": ""
      },
      "talkContentTextMapHash": 2406785874,
      "talkAssetPath": "",
      "talkAssetPathAlter": "",
      "talkAudioName": "",
      "actionBefore": "",
      "actionWhile": "",
      "actionAfter": "",
      "optionIcon": "",
      "iconPath": ""
    },
    {
      "id": 631111002,
      "nextDialogs": [
        631111003
      ],
      "talkRole": {
        "type": "TALK_ROLE_NPC",
        "_id": "3111"
      },
      "talkContentTextMapHash": 3366227490,
      "talkAssetPath": "",
      "talkAssetPathAlter": "",
      "talkAudioName": "",
      "actionBefore": "",
      "actionWhile": "",
      "actionAfter": "",
      "optionIcon": "",
      "iconPath": ""
    },
    {
      "id": 631111003,
      "nextDialogs": [
        631111004
      ],
      "talkRole": {
        "type": "TALK_ROLE_NPC",
        "_id": "3111"
      },
      "talkContentTextMapHash": 2357382570,
      "talkAssetPath": "",
      "talkAssetPathAlter": "",
      "talkAudioName": "",
      "actionBefore": "",
      "actionWhile": "",
      "actionAfter": "",
      "optionIcon": "",
      "iconPath": ""
    },
    {
      "id": 631111004,
      "nextDialogs": [
        631111005
      ],
      "talkRole": {
        "type": "TALK_ROLE_NPC",
        "_id": "3111"
      },
      "talkContentTextMapHash": 3967845586,
      "talkAssetPath": "",
      "talkAssetPathAlter": "",
      "talkAudioName": "",
      "actionBefore": "",
      "actionWhile": "",
      "actionAfter": "",
      "optionIcon": "",
      "iconPath": ""
    },
    {
      "id": 631111005,
      "nextDialogs": [
        631111006
      ],
      "talkRole": {
        "type": "TALK_ROLE_NPC",
        "_id": "3111"
      },
      "talkContentTextMapHash": 2961343778,
      "talkAssetPath": "",
      "talkAssetPathAlter": "",
      "talkAudioName": "",
      "actionBefore": "",
      "actionWhile": "",
      "actionAfter": "",
      "optionIcon": "",
      "iconPath": ""
    },
    {
      "id": 631111006,
      "talkRole": {
        "type": "TALK_ROLE_NPC",
        "_id": "3111"
      },
      "talkContentTextMapHash": 1771701274,
      "talkAssetPath": "",
      "talkAssetPathAlter": "",
      "talkAudioName": "",
      "actionBefore": "",
      "actionWhile": "",
      "actionAfter": "",
      "optionIcon": "",
      "iconPath": ""
    }
  ]
}