{
  "talkId": 6311401,
  "KPGKDHAFHFE": "FREE",
  "dialogList": [
    {
      "id": 631140101,
      "nextDialogs": [
        631140102
      ],
      "talkRole": {
        "type": "TALK_ROLE_NPC",
        "_id": "3114"
      },
      "talkContentTextMapHash": 2604135330,
      "talkAssetPath": "",
      "talkAssetPathAlter": "",
      "talkAudioName": "",
      "actionBefore": "",
      "actionWhile": "TEST/LerpInNpc",
      "actionAfter": "",
      "optionIcon": "",
      "iconPath": ""
    },
    {
      "id": 631140102,
      "talkRole": {
        "type": "TALK_ROLE_NPC",
        "_id": "3114"
      },
      "talkContentTextMapHash": 2955541794,
      "talkAssetPath": "",
      "talkAssetPathAlter": "",
      "talkAudioName": "",
      "actionBefore": "",
      "actionWhile": "",
      "actionAfter": "",
      "optionIcon": "",
      "iconPath": ""
    }
  ]
}