{
  "talkId": 6311109,
  "KPGKDHAFHFE": "FREE",
  "dialogList": [
    {
      "id": 631110901,
      "nextDialogs": [
        631110902
      ],
      "talkShowType": "TALK_SHOW_FORCE_SELECT",
      "talkRole": {
        "type": "TALK_ROLE_PLAYER",
        "_id": ""
      },
      "talkContentTextMapHash": 3457925970,
      "talkAssetPath": "",
      "talkAssetPathAlter": "",
      "talkAudioName": "",
      "actionBefore": "",
      "actionWhile": "",
      "actionAfter": "",
      "optionIcon": "",
      "iconPath": ""
    },
    {
      "id": 631110902,
      "nextDialogs": [
        631110903
      ],
      "talkRole": {
        "type": "TALK_ROLE_NPC",
        "_id": "3111"
      },
      "talkContentTextMapHash": 2727987314,
      "talkAssetPath": "",
      "talkAssetPathAlter": "",
      "talkAudioName": "",
      "actionBefore": "",
      "actionWhile": "",
      "actionAfter": "",
      "optionIcon": "",
      "iconPath": ""
    },
    {
      "id": 631110903,
      "nextDialogs": [
        631110904
      ],
      "talkRole": {
        "type": "TALK_ROLE_NPC",
        "_id": "3111"
      },
      "talkContentTextMapHash": 758859834,
      "talkAssetPath": "",
      "talkAssetPathAlter": "",
      "talkAudioName": "",
      "actionBefore": "",
      "actionWhile": "",
      "actionAfter": "",
      "optionIcon": "",
      "iconPath": ""
    },
    {
      "id": 631110904,
      "nextDialogs": [
        631110905
      ],
      "talkRole": {
        "type": "TALK_ROLE_NPC",
        "_id": "3111"
      },
      "talkContentTextMapHash": 3348332306,
      "talkAssetPath": "",
      "talkAssetPathAlter": "",
      "talkAudioName": "",
      "actionBefore": "",
      "actionWhile": "",
      "actionAfter": "",
      "optionIcon": "",
      "iconPath": ""
    },
    {
      "id": 631110905,
      "nextDialogs": [
        631110906
      ],
      "talkRole": {
        "type": "TALK_ROLE_NPC",
        "_id": "3111"
      },
      "talkContentTextMapHash": 4282730698,
      "talkAssetPath": "",
      "talkAssetPathAlter": "",
      "talkAudioName": "",
      "actionBefore": "",
      "actionWhile": "",
      "actionAfter": "",
      "optionIcon": "",
      "iconPath": ""
    },
    {
      "id": 631110906,
      "nextDialogs": [
        631110907
      ],
      "talkRole": {
        "type": "TALK_ROLE_NPC",
        "_id": "3111"
      },
      "talkContentTextMapHash": 241342354,
      "talkAssetPath": "",
      "talkAssetPathAlter": "",
      "talkAudioName": "",
      "actionBefore": "",
      "actionWhile": "",
      "actionAfter": "",
      "optionIcon": "",
      "iconPath": ""
    },
    {
      "id": 631110907,
      "talkRole": {
        "type": "TALK_ROLE_NPC",
        "_id": "3111"
      },
      "talkContentTextMapHash": 3663098610,
      "talkAssetPath": "",
      "talkAssetPathAlter": "",
      "talkAudioName": "",
      "actionBefore": "",
      "actionWhile": "",
      "actionAfter": "",
      "optionIcon": "",
      "iconPath": ""
    }
  ]
}