{
  "talkId": 6311404,
  "KPGKDHAFHFE": "FREE",
  "dialogList": [
    {
      "id": 631140401,
      "nextDialogs": [
        631140402
      ],
      "talkShowType": "TALK_SHOW_FORCE_SELECT",
      "talkRole": {
        "type": "TALK_ROLE_PLAYER",
        "_id": ""
      },
      "talkContentTextMapHash": 2271403362,
      "talkAssetPath": "",
      "talkAssetPathAlter": "",
      "talkAudioName": "",
      "actionBefore": "",
      "actionWhile": "",
      "actionAfter": "",
      "optionIcon": "",
      "iconPath": ""
    },
    {
      "id": 631140402,
      "talkRole": {
        "type": "TALK_ROLE_NPC",
        "_id": "3114"
      },
      "talkContentTextMapHash": 1661865010,
      "talkAssetPath": "",
      "talkAssetPathAlter": "",
      "talkAudioName": "",
      "actionBefore": "",
      "actionWhile": "",
      "actionAfter": "",
      "optionIcon": "",
      "iconPath": ""
    }
  ]
}