{
  "talkId": 6311504,
  "KPGKDHAFHFE": "FREE",
  "dialogList": [
    {
      "id": 631150401,
      "nextDialogs": [
        631150402
      ],
      "talkShowType": "TALK_SHOW_FORCE_SELECT",
      "talkRole": {
        "type": "TALK_ROLE_PLAYER",
        "_id": ""
      },
      "talkContentTextMapHash": 707731602,
      "talkAssetPath": "",
      "talkAssetPathAlter": "",
      "talkAudioName": "",
      "actionBefore": "",
      "actionWhile": "",
      "actionAfter": "",
      "optionIcon": "",
      "iconPath": ""
    },
    {
      "id": 631150402,
      "nextDialogs": [
        631150403
      ],
      "talkRole": {
        "type": "TALK_ROLE_NPC",
        "_id": "3115"
      },
      "talkContentTextMapHash": 3164102146,
      "talkAssetPath": "",
      "talkAssetPathAlter": "",
      "talkAudioName": "",
      "actionBefore": "",
      "actionWhile": "",
      "actionAfter": "",
      "optionIcon": "",
      "iconPath": ""
    },
    {
      "id": 631150403,
      "nextDialogs": [
        631150404
      ],
      "talkRole": {
        "type": "TALK_ROLE_NPC",
        "_id": "3115"
      },
      "talkContentTextMapHash": 1762593082,
      "talkAssetPath": "",
      "talkAssetPathAlter": "",
      "talkAudioName": "",
      "actionBefore": "",
      "actionWhile": "",
      "actionAfter": "",
      "optionIcon": "",
      "iconPath": ""
    },
    {
      "id": 631150404,
      "talkRole": {
        "type": "TALK_ROLE_NPC",
        "_id": "3115"
      },
      "talkContentTextMapHash": 2754186154,
      "talkAssetPath": "",
      "talkAssetPathAlter": "",
      "talkAudioName": "",
      "actionBefore": "",
      "actionWhile": "",
      "actionAfter": "",
      "optionIcon": "",
      "iconPath": ""
    }
  ]
}