{
  "talkId": 6311606,
  "KPGKDHAFHFE": "FREE",
  "dialogList": [
    {
      "id": 631160601,
      "nextDialogs": [
        631160602
      ],
      "talkShowType": "TALK_SHOW_FORCE_SELECT",
      "talkRole": {
        "type": "TALK_ROLE_PLAYER",
        "_id": ""
      },
      "talkContentTextMapHash": 1856229330,
      "talkAssetPath": "",
      "talkAssetPathAlter": "",
      "talkAudioName": "",
      "actionBefore": "",
      "actionWhile": "",
      "actionAfter": "",
      "optionIcon": "",
      "iconPath": ""
    },
    {
      "id": 631160602,
      "nextDialogs": [
        631160603
      ],
      "talkRole": {
        "type": "TALK_ROLE_NPC",
        "_id": "3116"
      },
      "talkContentTextMapHash": 3626880602,
      "talkAssetPath": "",
      "talkAssetPathAlter": "",
      "talkAudioName": "",
      "actionBefore": "",
      "actionWhile": "",
      "actionAfter": "",
      "optionIcon": "",
      "iconPath": ""
    },
    {
      "id": 631160603,
      "nextDialogs": [
        631160604
      ],
      "talkRole": {
        "type": "TALK_ROLE_NPC",
        "_id": "3116"
      },
      "talkContentTextMapHash": 4249494626,
      "talkAssetPath": "",
      "talkAssetPathAlter": "",
      "talkAudioName": "",
      "actionBefore": "",
      "actionWhile": "",
      "actionAfter": "",
      "optionIcon": "",
      "iconPath": ""
    },
    {
      "id": 631160604,
      "nextDialogs": [
        631160605
      ],
      "talkRole": {
        "type": "TALK_ROLE_NPC",
        "_id": "3116"
      },
      "talkContentTextMapHash": 982055666,
      "talkAssetPath": "",
      "talkAssetPathAlter": "",
      "talkAudioName": "",
      "actionBefore": "",
      "actionWhile": "",
      "actionAfter": "",
      "optionIcon": "",
      "iconPath": ""
    },
    {
      "id": 631160605,
      "talkRole": {
        "type": "TALK_ROLE_NPC",
        "_id": "3116"
      },
      "talkContentTextMapHash": 1103070842,
      "talkAssetPath": "",
      "talkAssetPathAlter": "",
      "talkAudioName": "",
      "actionBefore": "",
      "actionWhile": "",
      "actionAfter": "",
      "optionIcon": "",
      "iconPath": ""
    }
  ]
}