{
  "talkId": 6311406,
  "KPGKDHAFHFE": "FREE",
  "dialogList": [
    {
      "id": 631140601,
      "nextDialogs": [
        631140602
      ],
      "talkShowType": "TALK_SHOW_FORCE_SELECT",
      "talkRole": {
        "type": "TALK_ROLE_PLAYER",
        "_id": ""
      },
      "talkContentTextMapHash": 305903914,
      "talkAssetPath": "",
      "talkAssetPathAlter": "",
      "talkAudioName": "",
      "actionBefore": "",
      "actionWhile": "",
      "actionAfter": "",
      "optionIcon": "",
      "iconPath": ""
    },
    {
      "id": 631140602,
      "nextDialogs": [
        631140603
      ],
      "talkRole": {
        "type": "TALK_ROLE_NPC",
        "_id": "3114"
      },
      "talkContentTextMapHash": 2427020834,
      "talkAssetPath": "",
      "talkAssetPathAlter": "",
      "talkAudioName": "",
      "actionBefore": "",
      "actionWhile": "",
      "actionAfter": "",
      "optionIcon": "",
      "iconPath": ""
    },
    {
      "id": 631140603,
      "nextDialogs": [
        631140604
      ],
      "talkRole": {
        "type": "TALK_ROLE_NPC",
        "_id": "3114"
      },
      "talkContentTextMapHash": 3176998898,
      "talkAssetPath": "",
      "talkAssetPathAlter": "",
      "talkAudioName": "",
      "actionBefore": "",
      "actionWhile": "",
      "actionAfter": "",
      "optionIcon": "",
      "iconPath": ""
    },
    {
      "id": 631140604,
      "nextDialogs": [
        631140605
      ],
      "talkRole": {
        "type": "TALK_ROLE_NPC",
        "_id": "3114"
      },
      "talkContentTextMapHash": 472576650,
      "talkAssetPath": "",
      "talkAssetPathAlter": "",
      "talkAudioName": "",
      "actionBefore": "",
      "actionWhile": "",
      "actionAfter": "",
      "optionIcon": "",
      "iconPath": ""
    },
    {
      "id": 631140605,
      "nextDialogs": [
        631140606
      ],
      "talkRole": {
        "type": "TALK_ROLE_NPC",
        "_id": "3114"
      },
      "talkContentTextMapHash": 3595578322,
      "talkAssetPath": "",
      "talkAssetPathAlter": "",
      "talkAudioName": "",
      "actionBefore": "",
      "actionWhile": "",
      "actionAfter": "",
      "optionIcon": "",
      "iconPath": ""
    },
    {
      "id": 631140606,
      "talkRole": {
        "type": "TALK_ROLE_NPC",
        "_id": "3114"
      },
      "talkContentTextMapHash": 3348277386,
      "talkAssetPath": "",
      "talkAssetPathAlter": "",
      "talkAudioName": "",
      "actionBefore": "",
      "actionWhile": "",
      "actionAfter": "",
      "optionIcon": "",
      "iconPath": ""
    }
  ]
}