{
  "talkId": 6311408,
  "KPGKDHAFHFE": "FREE",
  "dialogList": [
    {
      "id": 631140801,
      "nextDialogs": [
        631140802
      ],
      "talkShowType": "TALK_SHOW_FORCE_SELECT",
      "talkRole": {
        "type": "TALK_ROLE_PLAYER",
        "_id": ""
      },
      "talkContentTextMapHash": 3964053866,
      "talkAssetPath": "",
      "talkAssetPathAlter": "",
      "talkAudioName": "",
      "actionBefore": "",
      "actionWhile": "",
      "actionAfter": "",
      "optionIcon": "",
      "iconPath": ""
    },
    {
      "id": 631140802,
      "talkRole": {
        "type": "TALK_ROLE_NPC",
        "_id": "3114"
      },
      "talkContentTextMapHash": 2864181866,
      "talkAssetPath": "",
      "talkAssetPathAlter": "",
      "talkAudioName": "",
      "actionBefore": "",
      "actionWhile": "",
      "actionAfter": "",
      "optionIcon": "",
      "iconPath": ""
    }
  ]
}