{
  "talkId": 6312907,
  "KPGKDHAFHFE": "FREE",
  "dialogList": [
    {
      "id": 631290701,
      "nextDialogs": [
        631290702
      ],
      "talkRole": {
        "type": "TALK_ROLE_NPC",
        "_id": "3129"
      },
      "talkContentTextMapHash": 3350536834,
      "talkAssetPath": "",
      "talkAssetPathAlter": "",
      "talkAudioName": "",
      "actionBefore": "",
      "actionWhile": "",
      "actionAfter": "",
      "optionIcon": "",
      "iconPath": ""
    },
    {
      "id": 631290702,
      "talkRole": {
        "type": "TALK_ROLE_NPC",
        "_id": "3129"
      },
      "talkContentTextMapHash": 742339282,
      "talkAssetPath": "",
      "talkAssetPathAlter": "",
      "talkAudioName": "",
      "actionBefore": "",
      "actionWhile": "",
      "actionAfter": "",
      "optionIcon": "",
      "iconPath": ""
    }
  ]
}