{
  "talkId": 6313501,
  "KPGKDHAFHFE": "FREE",
  "dialogList": [
    {
      "id": 631350101,
      "talkRole": {
        "type": "TALK_ROLE_NPC",
        "_id": "3135"
      },
      "talkContentTextMapHash": 179929474,
      "talkAssetPath": "",
      "talkAssetPathAlter": "",
      "talkAudioName": "",
      "actionBefore": "",
      "actionWhile": "TEST/LerpInNpc",
      "actionAfter": "",
      "optionIcon": "",
      "iconPath": ""
    }
  ]
}