{
  "talkId": 6314405,
  "KPGKDHAFHFE": "FREE",
  "dialogList": [
    {
      "id": 631440501,
      "nextDialogs": [
        631440502
      ],
      "talkShowType": "TALK_SHOW_FORCE_SELECT",
      "talkRole": {
        "type": "TALK_ROLE_PLAYER",
        "_id": ""
      },
      "talkContentTextMapHash": 3881653186,
      "talkAssetPath": "",
      "talkAssetPathAlter": "",
      "talkAudioName": "",
      "actionBefore": "",
      "actionWhile": "",
      "actionAfter": "",
      "optionIcon": "",
      "iconPath": ""
    },
    {
      "id": 631440502,
      "nextDialogs": [
        631440503
      ],
      "talkRole": {
        "type": "TALK_ROLE_NPC",
        "_id": "3144"
      },
      "talkContentTextMapHash": 365158762,
      "talkAssetPath": "",
      "talkAssetPathAlter": "",
      "talkAudioName": "",
      "actionBefore": "",
      "actionWhile": "",
      "actionAfter": "",
      "optionIcon": "",
      "iconPath": ""
    },
    {
      "id": 631440503,
      "nextDialogs": [
        631440504
      ],
      "talkRole": {
        "type": "TALK_ROLE_NPC",
        "_id": "3144"
      },
      "talkContentTextMapHash": 3249367674,
      "talkAssetPath": "",
      "talkAssetPathAlter": "",
      "talkAudioName": "",
      "actionBefore": "",
      "actionWhile": "",
      "actionAfter": "",
      "optionIcon": "",
      "iconPath": ""
    },
    {
      "id": 631440504,
      "nextDialogs": [
        631440505
      ],
      "talkRole": {
        "type": "TALK_ROLE_NPC",
        "_id": "3144"
      },
      "talkContentTextMapHash": 1805214610,
      "talkAssetPath": "",
      "talkAssetPathAlter": "",
      "talkAudioName": "",
      "actionBefore": "",
      "actionWhile": "",
      "actionAfter": "",
      "optionIcon": "",
      "iconPath": ""
    },
    {
      "id": 631440505,
      "nextDialogs": [
        631440506
      ],
      "talkRole": {
        "type": "TALK_ROLE_NPC",
        "_id": "3144"
      },
      "talkContentTextMapHash": 1952815266,
      "talkAssetPath": "",
      "talkAssetPathAlter": "",
      "talkAudioName": "",
      "actionBefore": "",
      "actionWhile": "",
      "actionAfter": "",
      "optionIcon": "",
      "iconPath": ""
    },
    {
      "id": 631440506,
      "talkRole": {
        "type": "TALK_ROLE_NPC",
        "_id": "3144"
      },
      "talkContentTextMapHash": 3504527114,
      "talkAssetPath": "",
      "talkAssetPathAlter": "",
      "talkAudioName": "",
      "actionBefore": "",
      "actionWhile": "",
      "actionAfter": "",
      "optionIcon": "",
      "iconPath": ""
    }
  ]
}