{
  "talkId": 6314906,
  "KPGKDHAFHFE": "FREE",
  "dialogList": [
    {
      "id": 631490601,
      "nextDialogs": [
        631490602
      ],
      "talkShowType": "TALK_SHOW_FORCE_SELECT",
      "talkRole": {
        "type": "TALK_ROLE_PLAYER",
        "_id": ""
      },
      "talkContentTextMapHash": 2458185082,
      "talkAssetPath": "",
      "talkAssetPathAlter": "",
      "talkAudioName": "",
      "actionBefore": "",
      "actionWhile": "",
      "actionAfter": "",
      "optionIcon": "",
      "iconPath": ""
    },
    {
      "id": 631490602,
      "nextDialogs": [
        631490603
      ],
      "talkRole": {
        "type": "TALK_ROLE_NPC",
        "_id": "3149"
      },
      "talkContentTextMapHash": 1123832106,
      "talkAssetPath": "",
      "talkAssetPathAlter": "",
      "talkAudioName": "",
      "actionBefore": "",
      "actionWhile": "",
      "actionAfter": "",
      "optionIcon": "",
      "iconPath": ""
    },
    {
      "id": 631490603,
      "nextDialogs": [
        631490604
      ],
      "talkRole": {
        "type": "TALK_ROLE_NPC",
        "_id": "3149"
      },
      "talkContentTextMapHash": 559888066,
      "talkAssetPath": "",
      "talkAssetPathAlter": "",
      "talkAudioName": "",
      "actionBefore": "",
      "actionWhile": "",
      "actionAfter": "",
      "optionIcon": "",
      "iconPath": ""
    },
    {
      "id": 631490604,
      "nextDialogs": [
        631490605
      ],
      "talkRole": {
        "type": "TALK_ROLE_NPC",
        "_id": "3149"
      },
      "talkContentTextMapHash": 2764033642,
      "talkAssetPath": "",
      "talkAssetPathAlter": "",
      "talkAudioName": "",
      "actionBefore": "",
      "actionWhile": "",
      "actionAfter": "",
      "optionIcon": "",
      "iconPath": ""
    },
    {
      "id": 631490605,
      "talkRole": {
        "type": "TALK_ROLE_NPC",
        "_id": "3149"
      },
      "talkContentTextMapHash": 693126298,
      "talkAssetPath": "",
      "talkAssetPathAlter": "",
      "talkAudioName": "",
      "actionBefore": "",
      "actionWhile": "",
      "actionAfter": "",
      "optionIcon": "",
      "iconPath": ""
    }
  ]
}