{
  "talkId": 6314202,
  "KPGKDHAFHFE": "FREE",
  "dialogList": [
    {
      "id": 631420201,
      "nextDialogs": [
        631420202
      ],
      "talkShowType": "TALK_SHOW_FORCE_SELECT",
      "talkRole": {
        "type": "TALK_ROLE_PLAYER",
        "_id": ""
      },
      "talkContentTextMapHash": 1543693290,
      "talkAssetPath": "",
      "talkAssetPathAlter": "",
      "talkAudioName": "",
      "actionBefore": "",
      "actionWhile": "",
      "actionAfter": "",
      "optionIcon": "",
      "iconPath": ""
    },
    {
      "id": 631420202,
      "nextDialogs": [
        631420203
      ],
      "talkRole": {
        "type": "TALK_ROLE_NPC",
        "_id": "3142"
      },
      "talkContentTextMapHash": 3693260146,
      "talkAssetPath": "",
      "talkAssetPathAlter": "",
      "talkAudioName": "",
      "actionBefore": "",
      "actionWhile": "",
      "actionAfter": "",
      "optionIcon": "",
      "iconPath": ""
    },
    {
      "id": 631420203,
      "nextDialogs": [
        631420204
      ],
      "talkRole": {
        "type": "TALK_ROLE_NPC",
        "_id": "3142"
      },
      "talkContentTextMapHash": 2825370714,
      "talkAssetPath": "",
      "talkAssetPathAlter": "",
      "talkAudioName": "",
      "actionBefore": "",
      "actionWhile": "",
      "actionAfter": "",
      "optionIcon": "",
      "iconPath": ""
    },
    {
      "id": 631420204,
      "nextDialogs": [
        631420205
      ],
      "talkRole": {
        "type": "TALK_ROLE_NPC",
        "_id": "3142"
      },
      "talkContentTextMapHash": 3331167186,
      "talkAssetPath": "",
      "talkAssetPathAlter": "",
      "talkAudioName": "",
      "actionBefore": "",
      "actionWhile": "",
      "actionAfter": "",
      "optionIcon": "",
      "iconPath": ""
    },
    {
      "id": 631420205,
      "nextDialogs": [
        631420206
      ],
      "talkRole": {
        "type": "TALK_ROLE_NPC",
        "_id": "3142"
      },
      "talkContentTextMapHash": 218586890,
      "talkAssetPath": "",
      "talkAssetPathAlter": "",
      "talkAudioName": "",
      "actionBefore": "",
      "actionWhile": "",
      "actionAfter": "",
      "optionIcon": "",
      "iconPath": ""
    },
    {
      "id": 631420206,
      "talkRole": {
        "type": "TALK_ROLE_NPC",
        "_id": "3142"
      },
      "talkContentTextMapHash": 1227620570,
      "talkAssetPath": "",
      "talkAssetPathAlter": "",
      "talkAudioName": "",
      "actionBefore": "",
      "actionWhile": "",
      "actionAfter": "",
      "optionIcon": "",
      "iconPath": ""
    }
  ]
}