{
  "talkId": 6314404,
  "KPGKDHAFHFE": "FREE",
  "dialogList": [
    {
      "id": 631440401,
      "nextDialogs": [
        631440402
      ],
      "talkShowType": "TALK_SHOW_FORCE_SELECT",
      "talkRole": {
        "type": "TALK_ROLE_PLAYER",
        "_id": ""
      },
      "talkContentTextMapHash": 3636777682,
      "talkAssetPath": "",
      "talkAssetPathAlter": "",
      "talkAudioName": "",
      "actionBefore": "",
      "actionWhile": "",
      "actionAfter": "",
      "optionIcon": "",
      "iconPath": ""
    },
    {
      "id": 631440402,
      "nextDialogs": [
        631440403
      ],
      "talkRole": {
        "type": "TALK_ROLE_NPC",
        "_id": "3144"
      },
      "talkContentTextMapHash": 3944866522,
      "talkAssetPath": "",
      "talkAssetPathAlter": "",
      "talkAudioName": "",
      "actionBefore": "",
      "actionWhile": "",
      "actionAfter": "",
      "optionIcon": "",
      "iconPath": ""
    },
    {
      "id": 631440403,
      "nextDialogs": [
        631440404
      ],
      "talkRole": {
        "type": "TALK_ROLE_NPC",
        "_id": "3144"
      },
      "talkContentTextMapHash": 2596549354,
      "talkAssetPath": "",
      "talkAssetPathAlter": "",
      "talkAudioName": "",
      "actionBefore": "",
      "actionWhile": "",
      "actionAfter": "",
      "optionIcon": "",
      "iconPath": ""
    },
    {
      "id": 631440404,
      "nextDialogs": [
        631440405
      ],
      "talkRole": {
        "type": "TALK_ROLE_NPC",
        "_id": "3144"
      },
      "talkContentTextMapHash": 3346260898,
      "talkAssetPath": "",
      "talkAssetPathAlter": "",
      "talkAudioName": "",
      "actionBefore": "",
      "actionWhile": "",
      "actionAfter": "",
      "optionIcon": "",
      "iconPath": ""
    },
    {
      "id": 631440405,
      "nextDialogs": [
        631440406
      ],
      "talkRole": {
        "type": "TALK_ROLE_NPC",
        "_id": "3144"
      },
      "talkContentTextMapHash": 2126820842,
      "talkAssetPath": "",
      "talkAssetPathAlter": "",
      "talkAudioName": "",
      "actionBefore": "",
      "actionWhile": "",
      "actionAfter": "",
      "optionIcon": "",
      "iconPath": ""
    },
    {
      "id": 631440406,
      "nextDialogs": [
        631440407
      ],
      "talkRole": {
        "type": "TALK_ROLE_NPC",
        "_id": "3144"
      },
      "talkContentTextMapHash": 2420257306,
      "talkAssetPath": "",
      "talkAssetPathAlter": "",
      "talkAudioName": "",
      "actionBefore": "",
      "actionWhile": "",
      "actionAfter": "",
      "optionIcon": "",
      "iconPath": ""
    },
    {
      "id": 631440407,
      "talkRole": {
        "type": "TALK_ROLE_NPC",
        "_id": "3144"
      },
      "talkContentTextMapHash": 102966602,
      "talkAssetPath": "",
      "talkAssetPathAlter": "",
      "talkAudioName": "",
      "actionBefore": "",
      "actionWhile": "",
      "actionAfter": "",
      "optionIcon": "",
      "iconPath": ""
    }
  ]
}