{
  "talkId": 6314702,
  "KPGKDHAFHFE": "FREE",
  "dialogList": [
    {
      "id": 631470201,
      "nextDialogs": [
        631470202
      ],
      "talkShowType": "TALK_SHOW_FORCE_SELECT",
      "talkRole": {
        "type": "TALK_ROLE_PLAYER",
        "_id": ""
      },
      "talkContentTextMapHash": 3857276978,
      "talkAssetPath": "",
      "talkAssetPathAlter": "",
      "talkAudioName": "",
      "actionBefore": "",
      "actionWhile": "",
      "actionAfter": "",
      "optionIcon": "",
      "iconPath": ""
    },
    {
      "id": 631470202,
      "talkRole": {
        "type": "TALK_ROLE_NPC",
        "_id": "3147"
      },
      "talkContentTextMapHash": 2766345098,
      "talkAssetPath": "",
      "talkAssetPathAlter": "",
      "talkAudioName": "",
      "actionBefore": "",
      "actionWhile": "",
      "actionAfter": "",
      "optionIcon": "",
      "iconPath": ""
    }
  ]
}