{
  "talkId": 6314901,
  "KPGKDHAFHFE": "FREE",
  "dialogList": [
    {
      "id": 631490101,
      "talkRole": {
        "type": "TALK_ROLE_NPC",
        "_id": "3149"
      },
      "talkContentTextMapHash": 3501824522,
      "talkAssetPath": "",
      "talkAssetPathAlter": "",
      "talkAudioName": "",
      "actionBefore": "",
      "actionWhile": "TEST/LerpInNpc",
      "actionAfter": "",
      "optionIcon": "",
      "iconPath": ""
    }
  ]
}