{
  "talkId": 6314102,
  "KPGKDHAFHFE": "FREE",
  "dialogList": [
    {
      "id": 631410201,
      "nextDialogs": [
        631410202
      ],
      "talkShowType": "TALK_SHOW_FORCE_SELECT",
      "talkRole": {
        "type": "TALK_ROLE_PLAYER",
        "_id": ""
      },
      "talkContentTextMapHash": 3740988370,
      "talkAssetPath": "",
      "talkAssetPathAlter": "",
      "talkAudioName": "",
      "actionBefore": "",
      "actionWhile": "",
      "actionAfter": "",
      "optionIcon": "",
      "iconPath": ""
    },
    {
      "id": 631410202,
      "nextDialogs": [
        631410203
      ],
      "talkRole": {
        "type": "TALK_ROLE_NPC",
        "_id": "3141"
      },
      "talkContentTextMapHash": 948469538,
      "talkAssetPath": "",
      "talkAssetPathAlter": "",
      "talkAudioName": "",
      "actionBefore": "",
      "actionWhile": "",
      "actionAfter": "",
      "optionIcon": "",
      "iconPath": ""
    },
    {
      "id": 631410203,
      "nextDialogs": [
        631410204
      ],
      "talkRole": {
        "type": "TALK_ROLE_NPC",
        "_id": "3141"
      },
      "talkContentTextMapHash": 263435226,
      "talkAssetPath": "",
      "talkAssetPathAlter": "",
      "talkAudioName": "",
      "actionBefore": "",
      "actionWhile": "",
      "actionAfter": "",
      "optionIcon": "",
      "iconPath": ""
    },
    {
      "id": 631410204,
      "nextDialogs": [
        631410205
      ],
      "talkRole": {
        "type": "TALK_ROLE_NPC",
        "_id": "3141"
      },
      "talkContentTextMapHash": 4226100858,
      "talkAssetPath": "",
      "talkAssetPathAlter": "",
      "talkAudioName": "",
      "actionBefore": "",
      "actionWhile": "",
      "actionAfter": "",
      "optionIcon": "",
      "iconPath": ""
    },
    {
      "id": 631410205,
      "talkRole": {
        "type": "TALK_ROLE_NPC",
        "_id": "3141"
      },
      "talkContentTextMapHash": 2600405570,
      "talkAssetPath": "",
      "talkAssetPathAlter": "",
      "talkAudioName": "",
      "actionBefore": "",
      "actionWhile": "",
      "actionAfter": "",
      "optionIcon": "",
      "iconPath": ""
    }
  ]
}