{
  "talkId": 6315301,
  "KPGKDHAFHFE": "FREE",
  "dialogList": [
    {
      "id": 631530101,
      "talkRole": {
        "type": "TALK_ROLE_NPC",
        "_id": "3153"
      },
      "talkContentTextMapHash": 3175887042,
      "talkAssetPath": "",
      "talkAssetPathAlter": "",
      "talkAudioName": "",
      "actionBefore": "",
      "actionWhile": "",
      "actionAfter": "",
      "optionIcon": "",
      "iconPath": ""
    }
  ]
}