{
  "talkId": 6315801,
  "KPGKDHAFHFE": "FREE",
  "dialogList": [
    {
      "id": 631580101,
      "nextDialogs": [
        631580102
      ],
      "talkRole": {
        "type": "TALK_ROLE_NPC",
        "_id": "3158"
      },
      "talkContentTextMapHash": 2608147682,
      "talkAssetPath": "",
      "talkAssetPathAlter": "",
      "talkAudioName": "",
      "actionBefore": "",
      "actionWhile": "TEST/LerpInNpc",
      "actionAfter": "",
      "optionIcon": "",
      "iconPath": ""
    },
    {
      "id": 631580102,
      "talkRole": {
        "type": "TALK_ROLE_NPC",
        "_id": "3158"
      },
      "talkContentTextMapHash": 217713570,
      "talkAssetPath": "",
      "talkAssetPathAlter": "",
      "talkAudioName": "",
      "actionBefore": "",
      "actionWhile": "",
      "actionAfter": "",
      "optionIcon": "",
      "iconPath": ""
    }
  ]
}