{
  "talkId": 6315501,
  "KPGKDHAFHFE": "FREE",
  "dialogList": [
    {
      "id": 631550101,
      "nextDialogs": [
        631550102
      ],
      "talkRole": {
        "type": "TALK_ROLE_NPC",
        "_id": "3155"
      },
      "talkContentTextMapHash": 1866723138,
      "talkAssetPath": "",
      "talkAssetPathAlter": "",
      "talkAudioName": "",
      "actionBefore": "",
      "actionWhile": "TEST/LerpInNpc",
      "actionAfter": "",
      "optionIcon": "",
      "iconPath": ""
    },
    {
      "id": 631550102,
      "talkRole": {
        "type": "TALK_ROLE_NPC",
        "_id": "3155"
      },
      "talkContentTextMapHash": 2078635058,
      "talkAssetPath": "",
      "talkAssetPathAlter": "",
      "talkAudioName": "",
      "actionBefore": "",
      "actionWhile": "",
      "actionAfter": "",
      "optionIcon": "",
      "iconPath": ""
    }
  ]
}