{
  "talkId": 6315205,
  "KPGKDHAFHFE": "FREE",
  "dialogList": [
    {
      "id": 631520501,
      "nextDialogs": [
        631520502
      ],
      "talkShowType": "TALK_SHOW_FORCE_SELECT",
      "talkRole": {
        "type": "TALK_ROLE_PLAYER",
        "_id": ""
      },
      "talkContentTextMapHash": 617710954,
      "talkAssetPath": "",
      "talkAssetPathAlter": "",
      "talkAudioName": "",
      "actionBefore": "",
      "actionWhile": "",
      "actionAfter": "",
      "optionIcon": "",
      "iconPath": ""
    },
    {
      "id": 631520502,
      "nextDialogs": [
        631520503
      ],
      "talkRole": {
        "type": "TALK_ROLE_NPC",
        "_id": "3152"
      },
      "talkContentTextMapHash": 3111809754,
      "talkAssetPath": "",
      "talkAssetPathAlter": "",
      "talkAudioName": "",
      "actionBefore": "",
      "actionWhile": "",
      "actionAfter": "",
      "optionIcon": "",
      "iconPath": ""
    },
    {
      "id": 631520503,
      "nextDialogs": [
        631520504
      ],
      "talkRole": {
        "type": "TALK_ROLE_NPC",
        "_id": "3152"
      },
      "talkContentTextMapHash": 3329659530,
      "talkAssetPath": "",
      "talkAssetPathAlter": "",
      "talkAudioName": "",
      "actionBefore": "",
      "actionWhile": "",
      "actionAfter": "",
      "optionIcon": "",
      "iconPath": ""
    },
    {
      "id": 631520504,
      "talkRole": {
        "type": "TALK_ROLE_NPC",
        "_id": "3152"
      },
      "talkContentTextMapHash": 3199794730,
      "talkAssetPath": "",
      "talkAssetPathAlter": "",
      "talkAudioName": "",
      "actionBefore": "",
      "actionWhile": "",
      "actionAfter": "",
      "optionIcon": "",
      "iconPath": ""
    }
  ]
}