{
  "talkId": 6315102,
  "KPGKDHAFHFE": "FREE",
  "dialogList": [
    {
      "id": 631510201,
      "nextDialogs": [
        631510202
      ],
      "talkShowType": "TALK_SHOW_FORCE_SELECT",
      "talkRole": {
        "type": "TALK_ROLE_PLAYER",
        "_id": ""
      },
      "talkContentTextMapHash": 3419240410,
      "talkAssetPath": "",
      "talkAssetPathAlter": "",
      "talkAudioName": "",
      "actionBefore": "",
      "actionWhile": "",
      "actionAfter": "",
      "optionIcon": "",
      "iconPath": ""
    },
    {
      "id": 631510202,
      "nextDialogs": [
        631510203
      ],
      "talkRole": {
        "type": "TALK_ROLE_NPC",
        "_id": "3151"
      },
      "talkContentTextMapHash": 2845542562,
      "talkAssetPath": "",
      "talkAssetPathAlter": "",
      "talkAudioName": "",
      "actionBefore": "",
      "actionWhile": "",
      "actionAfter": "",
      "optionIcon": "",
      "iconPath": ""
    },
    {
      "id": 631510203,
      "nextDialogs": [
        631510204
      ],
      "talkRole": {
        "type": "TALK_ROLE_NPC",
        "_id": "3151"
      },
      "talkContentTextMapHash": 3273865978,
      "talkAssetPath": "",
      "talkAssetPathAlter": "",
      "talkAudioName": "",
      "actionBefore": "",
      "actionWhile": "",
      "actionAfter": "",
      "optionIcon": "",
      "iconPath": ""
    },
    {
      "id": 631510204,
      "talkRole": {
        "type": "TALK_ROLE_NPC",
        "_id": "3151"
      },
      "talkContentTextMapHash": 1163016290,
      "talkAssetPath": "",
      "talkAssetPathAlter": "",
      "talkAudioName": "",
      "actionBefore": "",
      "actionWhile": "",
      "actionAfter": "",
      "optionIcon": "",
      "iconPath": ""
    }
  ]
}