{
  "talkId": 6315703,
  "KPGKDHAFHFE": "FREE",
  "dialogList": [
    {
      "id": 631570301,
      "nextDialogs": [
        631570302
      ],
      "talkShowType": "TALK_SHOW_FORCE_SELECT",
      "talkRole": {
        "type": "TALK_ROLE_PLAYER",
        "_id": ""
      },
      "talkContentTextMapHash": 840438210,
      "talkAssetPath": "",
      "talkAssetPathAlter": "",
      "talkAudioName": "",
      "actionBefore": "",
      "actionWhile": "",
      "actionAfter": "",
      "optionIcon": "",
      "iconPath": ""
    },
    {
      "id": 631570302,
      "talkRole": {
        "type": "TALK_ROLE_NPC",
        "_id": "3157"
      },
      "talkContentTextMapHash": 473151362,
      "talkAssetPath": "",
      "talkAssetPathAlter": "",
      "talkAudioName": "",
      "actionBefore": "",
      "actionWhile": "",
      "actionAfter": "",
      "optionIcon": "",
      "iconPath": ""
    }
  ]
}