{
  "talkId": 6315408,
  "KPGKDHAFHFE": "FREE",
  "dialogList": [
    {
      "id": 631540801,
      "nextDialogs": [
        631540802
      ],
      "talkRole": {
        "type": "TALK_ROLE_NPC",
        "_id": "3154"
      },
      "talkContentTextMapHash": 2229967194,
      "talkAssetPath": "",
      "talkAssetPathAlter": "",
      "talkAudioName": "",
      "actionBefore": "",
      "actionWhile": "",
      "actionAfter": "",
      "optionIcon": "",
      "iconPath": ""
    },
    {
      "id": 631540802,
      "talkRole": {
        "type": "TALK_ROLE_NPC",
        "_id": "3154"
      },
      "talkContentTextMapHash": 899588498,
      "talkAssetPath": "",
      "talkAssetPathAlter": "",
      "talkAudioName": "",
      "actionBefore": "",
      "actionWhile": "",
      "actionAfter": "",
      "optionIcon": "",
      "iconPath": ""
    }
  ]
}