{
  "talkId": 6316806,
  "KPGKDHAFHFE": "FREE",
  "dialogList": [
    {
      "id": 631680601,
      "talkRole": {
        "type": "TALK_ROLE_NPC",
        "_id": "3168"
      },
      "talkContentTextMapHash": 2626529042,
      "talkAssetPath": "",
      "talkAssetPathAlter": "",
      "talkAudioName": "",
      "actionBefore": "",
      "actionWhile": "",
      "actionAfter": "",
      "optionIcon": "",
      "iconPath": ""
    }
  ]
}