{
  "talkId": 6316503,
  "KPGKDHAFHFE": "FREE",
  "dialogList": [
    {
      "id": 631650301,
      "nextDialogs": [
        631650302
      ],
      "talkShowType": "TALK_SHOW_FORCE_SELECT",
      "talkRole": {
        "type": "TALK_ROLE_PLAYER",
        "_id": ""
      },
      "talkContentTextMapHash": 2609689098,
      "talkAssetPath": "",
      "talkAssetPathAlter": "",
      "talkAudioName": "",
      "actionBefore": "",
      "actionWhile": "",
      "actionAfter": "",
      "optionIcon": "",
      "iconPath": ""
    },
    {
      "id": 631650302,
      "nextDialogs": [
        631650303
      ],
      "talkRole": {
        "type": "TALK_ROLE_NPC",
        "_id": "3165"
      },
      "talkContentTextMapHash": 568510010,
      "talkAssetPath": "",
      "talkAssetPathAlter": "",
      "talkAudioName": "",
      "actionBefore": "",
      "actionWhile": "",
      "actionAfter": "",
      "optionIcon": "",
      "iconPath": ""
    },
    {
      "id": 631650303,
      "nextDialogs": [
        631650304
      ],
      "talkRole": {
        "type": "TALK_ROLE_NPC",
        "_id": "3165"
      },
      "talkContentTextMapHash": 311090106,
      "talkAssetPath": "",
      "talkAssetPathAlter": "",
      "talkAudioName": "",
      "actionBefore": "",
      "actionWhile": "",
      "actionAfter": "",
      "optionIcon": "",
      "iconPath": ""
    },
    {
      "id": 631650304,
      "nextDialogs": [
        631650305
      ],
      "talkRole": {
        "type": "TALK_ROLE_NPC",
        "_id": "3165"
      },
      "talkContentTextMapHash": 123900458,
      "talkAssetPath": "",
      "talkAssetPathAlter": "",
      "talkAudioName": "",
      "actionBefore": "",
      "actionWhile": "",
      "actionAfter": "",
      "optionIcon": "",
      "iconPath": ""
    },
    {
      "id": 631650305,
      "nextDialogs": [
        631650306
      ],
      "talkRole": {
        "type": "TALK_ROLE_NPC",
        "_id": "3165"
      },
      "talkContentTextMapHash": 1967700818,
      "talkAssetPath": "",
      "talkAssetPathAlter": "",
      "talkAudioName": "",
      "actionBefore": "",
      "actionWhile": "",
      "actionAfter": "",
      "optionIcon": "",
      "iconPath": ""
    },
    {
      "id": 631650306,
      "nextDialogs": [
        631650307
      ],
      "talkRole": {
        "type": "TALK_ROLE_NPC",
        "_id": "3165"
      },
      "talkContentTextMapHash": 3914051922,
      "talkAssetPath": "",
      "talkAssetPathAlter": "",
      "talkAudioName": "",
      "actionBefore": "",
      "actionWhile": "",
      "actionAfter": "",
      "optionIcon": "",
      "iconPath": ""
    },
    {
      "id": 631650307,
      "talkRole": {
        "type": "TALK_ROLE_NPC",
        "_id": "3165"
      },
      "talkContentTextMapHash": 2754526762,
      "talkAssetPath": "",
      "talkAssetPathAlter": "",
      "talkAudioName": "",
      "actionBefore": "",
      "actionWhile": "",
      "actionAfter": "",
      "optionIcon": "",
      "iconPath": ""
    }
  ]
}