{
  "talkId": 6316905,
  "KPGKDHAFHFE": "FREE",
  "dialogList": [
    {
      "id": 631690501,
      "nextDialogs": [
        631690502
      ],
      "talkShowType": "TALK_SHOW_FORCE_SELECT",
      "talkRole": {
        "type": "TALK_ROLE_PLAYER",
        "_id": ""
      },
      "talkContentTextMapHash": 2484157466,
      "talkAssetPath": "",
      "talkAssetPathAlter": "",
      "talkAudioName": "",
      "actionBefore": "",
      "actionWhile": "",
      "actionAfter": "",
      "optionIcon": "",
      "iconPath": ""
    },
    {
      "id": 631690502,
      "talkRole": {
        "type": "TALK_ROLE_NPC",
        "_id": "3169"
      },
      "talkContentTextMapHash": 1008579330,
      "talkAssetPath": "",
      "talkAssetPathAlter": "",
      "talkAudioName": "",
      "actionBefore": "",
      "actionWhile": "",
      "actionAfter": "",
      "optionIcon": "",
      "iconPath": ""
    }
  ]
}