{
  "talkId": 6316504,
  "KPGKDHAFHFE": "FREE",
  "dialogList": [
    {
      "id": 631650401,
      "nextDialogs": [
        631650402
      ],
      "talkShowType": "TALK_SHOW_FORCE_SELECT",
      "talkRole": {
        "type": "TALK_ROLE_PLAYER",
        "_id": ""
      },
      "talkContentTextMapHash": 3965667802,
      "talkAssetPath": "",
      "talkAssetPathAlter": "",
      "talkAudioName": "",
      "actionBefore": "",
      "actionWhile": "",
      "actionAfter": "",
      "optionIcon": "",
      "iconPath": ""
    },
    {
      "id": 631650402,
      "nextDialogs": [
        631650403
      ],
      "talkRole": {
        "type": "TALK_ROLE_NPC",
        "_id": "3165"
      },
      "talkContentTextMapHash": 3006993258,
      "talkAssetPath": "",
      "talkAssetPathAlter": "",
      "talkAudioName": "",
      "actionBefore": "",
      "actionWhile": "",
      "actionAfter": "",
      "optionIcon": "",
      "iconPath": ""
    },
    {
      "id": 631650403,
      "nextDialogs": [
        631650404
      ],
      "talkRole": {
        "type": "TALK_ROLE_NPC",
        "_id": "3165"
      },
      "talkContentTextMapHash": 3382245802,
      "talkAssetPath": "",
      "talkAssetPathAlter": "",
      "talkAudioName": "",
      "actionBefore": "",
      "actionWhile": "",
      "actionAfter": "",
      "optionIcon": "",
      "iconPath": ""
    },
    {
      "id": 631650404,
      "nextDialogs": [
        631650405
      ],
      "talkRole": {
        "type": "TALK_ROLE_NPC",
        "_id": "3165"
      },
      "talkContentTextMapHash": 3760667186,
      "talkAssetPath": "",
      "talkAssetPathAlter": "",
      "talkAudioName": "",
      "actionBefore": "",
      "actionWhile": "",
      "actionAfter": "",
      "optionIcon": "",
      "iconPath": ""
    },
    {
      "id": 631650405,
      "nextDialogs": [
        631650406
      ],
      "talkRole": {
        "type": "TALK_ROLE_NPC",
        "_id": "3165"
      },
      "talkContentTextMapHash": 749872802,
      "talkAssetPath": "",
      "talkAssetPathAlter": "",
      "talkAudioName": "",
      "actionBefore": "",
      "actionWhile": "",
      "actionAfter": "",
      "optionIcon": "",
      "iconPath": ""
    },
    {
      "id": 631650406,
      "talkRole": {
        "type": "TALK_ROLE_NPC",
        "_id": "3165"
      },
      "talkContentTextMapHash": 3110654594,
      "talkAssetPath": "",
      "talkAssetPathAlter": "",
      "talkAudioName": "",
      "actionBefore": "",
      "actionWhile": "",
      "actionAfter": "",
      "optionIcon": "",
      "iconPath": ""
    }
  ]
}