{
  "talkId": 6317703,
  "KPGKDHAFHFE": "FREE",
  "dialogList": [
    {
      "id": 631770301,
      "nextDialogs": [
        631770302
      ],
      "talkShowType": "TALK_SHOW_FORCE_SELECT",
      "talkRole": {
        "type": "TALK_ROLE_PLAYER",
        "_id": ""
      },
      "talkContentTextMapHash": 2613874042,
      "talkAssetPath": "",
      "talkAssetPathAlter": "",
      "talkAudioName": "",
      "actionBefore": "",
      "actionWhile": "",
      "actionAfter": "",
      "optionIcon": "",
      "iconPath": ""
    },
    {
      "id": 631770302,
      "talkRole": {
        "type": "TALK_ROLE_NPC",
        "_id": "3177"
      },
      "talkContentTextMapHash": 3898842394,
      "talkAssetPath": "",
      "talkAssetPathAlter": "",
      "talkAudioName": "",
      "actionBefore": "",
      "actionWhile": "",
      "actionAfter": "",
      "optionIcon": "",
      "iconPath": ""
    }
  ]
}