{
  "talkId": 6317105,
  "KPGKDHAFHFE": "FREE",
  "dialogList": [
    {
      "id": 631710501,
      "nextDialogs": [
        631710502
      ],
      "talkShowType": "TALK_SHOW_FORCE_SELECT",
      "talkRole": {
        "type": "TALK_ROLE_PLAYER",
        "_id": ""
      },
      "talkContentTextMapHash": 4107130370,
      "talkAssetPath": "",
      "talkAssetPathAlter": "",
      "talkAudioName": "",
      "actionBefore": "",
      "actionWhile": "",
      "actionAfter": "",
      "optionIcon": "",
      "iconPath": ""
    },
    {
      "id": 631710502,
      "talkRole": {
        "type": "TALK_ROLE_NPC",
        "_id": "3171"
      },
      "talkContentTextMapHash": 2328308658,
      "talkAssetPath": "",
      "talkAssetPathAlter": "",
      "talkAudioName": "",
      "actionBefore": "",
      "actionWhile": "",
      "actionAfter": "",
      "optionIcon": "",
      "iconPath": ""
    }
  ]
}