{
  "talkId": 6317701,
  "KPGKDHAFHFE": "FREE",
  "dialogList": [
    {
      "id": 631770101,
      "talkRole": {
        "type": "TALK_ROLE_NPC",
        "_id": "3177"
      },
      "talkContentTextMapHash": 1886987554,
      "talkAssetPath": "",
      "talkAssetPathAlter": "",
      "talkAudioName": "",
      "actionBefore": "",
      "actionWhile": "",
      "actionAfter": "",
      "optionIcon": "",
      "iconPath": ""
    }
  ]
}