{
  "talkId": 6317504,
  "KPGKDHAFHFE": "FREE",
  "dialogList": [
    {
      "id": 631750401,
      "nextDialogs": [
        631750402
      ],
      "talkShowType": "TALK_SHOW_FORCE_SELECT",
      "talkRole": {
        "type": "TALK_ROLE_PLAYER",
        "_id": ""
      },
      "talkContentTextMapHash": 1298093402,
      "talkAssetPath": "",
      "talkAssetPathAlter": "",
      "talkAudioName": "",
      "actionBefore": "",
      "actionWhile": "",
      "actionAfter": "",
      "optionIcon": "",
      "iconPath": ""
    },
    {
      "id": 631750402,
      "nextDialogs": [
        631750403
      ],
      "talkRole": {
        "type": "TALK_ROLE_NPC",
        "_id": "3175"
      },
      "talkContentTextMapHash": 906422042,
      "talkAssetPath": "",
      "talkAssetPathAlter": "",
      "talkAudioName": "",
      "actionBefore": "",
      "actionWhile": "",
      "actionAfter": "",
      "optionIcon": "",
      "iconPath": ""
    },
    {
      "id": 631750403,
      "nextDialogs": [
        631750404
      ],
      "talkRole": {
        "type": "TALK_ROLE_NPC",
        "_id": "3175"
      },
      "talkContentTextMapHash": 2654905450,
      "talkAssetPath": "",
      "talkAssetPathAlter": "",
      "talkAudioName": "",
      "actionBefore": "",
      "actionWhile": "",
      "actionAfter": "",
      "optionIcon": "",
      "iconPath": ""
    },
    {
      "id": 631750404,
      "nextDialogs": [
        631750405
      ],
      "talkRole": {
        "type": "TALK_ROLE_NPC",
        "_id": "3175"
      },
      "talkContentTextMapHash": 1000968562,
      "talkAssetPath": "",
      "talkAssetPathAlter": "",
      "talkAudioName": "",
      "actionBefore": "",
      "actionWhile": "",
      "actionAfter": "",
      "optionIcon": "",
      "iconPath": ""
    },
    {
      "id": 631750405,
      "nextDialogs": [
        631750406
      ],
      "talkRole": {
        "type": "TALK_ROLE_NPC",
        "_id": "3175"
      },
      "talkContentTextMapHash": 1755523970,
      "talkAssetPath": "",
      "talkAssetPathAlter": "",
      "talkAudioName": "",
      "actionBefore": "",
      "actionWhile": "",
      "actionAfter": "",
      "optionIcon": "",
      "iconPath": ""
    },
    {
      "id": 631750406,
      "nextDialogs": [
        631750407
      ],
      "talkRole": {
        "type": "TALK_ROLE_NPC",
        "_id": "3175"
      },
      "talkContentTextMapHash": 2391027386,
      "talkAssetPath": "",
      "talkAssetPathAlter": "",
      "talkAudioName": "",
      "actionBefore": "",
      "actionWhile": "",
      "actionAfter": "",
      "optionIcon": "",
      "iconPath": ""
    },
    {
      "id": 631750407,
      "talkRole": {
        "type": "TALK_ROLE_NPC",
        "_id": "3175"
      },
      "talkContentTextMapHash": 938321898,
      "talkAssetPath": "",
      "talkAssetPathAlter": "",
      "talkAudioName": "",
      "actionBefore": "",
      "actionWhile": "",
      "actionAfter": "",
      "optionIcon": "",
      "iconPath": ""
    }
  ]
}