{
  "talkId": 6318101,
  "KPGKDHAFHFE": "FREE",
  "dialogList": [
    {
      "id": 631810101,
      "talkRole": {
        "type": "TALK_ROLE_NPC",
        "_id": "3181"
      },
      "talkContentTextMapHash": 524561810,
      "talkAssetPath": "",
      "talkAssetPathAlter": "",
      "talkAudioName": "",
      "actionBefore": "",
      "actionWhile": "TEST/LerpInNpc",
      "actionAfter": "",
      "optionIcon": "",
      "iconPath": ""
    }
  ]
}