{
  "talkId": 6319504,
  "KPGKDHAFHFE": "FREE",
  "dialogList": [
    {
      "id": 631950401,
      "nextDialogs": [
        631950402
      ],
      "talkShowType": "TALK_SHOW_FORCE_SELECT",
      "talkRole": {
        "type": "TALK_ROLE_PLAYER",
        "_id": ""
      },
      "talkContentTextMapHash": 1263766722,
      "talkAssetPath": "",
      "talkAssetPathAlter": "",
      "talkAudioName": "",
      "actionBefore": "",
      "actionWhile": "",
      "actionAfter": "",
      "optionIcon": "",
      "iconPath": ""
    },
    {
      "id": 631950402,
      "talkRole": {
        "type": "TALK_ROLE_NPC",
        "_id": "3195"
      },
      "talkContentTextMapHash": 2919139602,
      "talkAssetPath": "",
      "talkAssetPathAlter": "",
      "talkAudioName": "",
      "actionBefore": "",
      "actionWhile": "",
      "actionAfter": "",
      "optionIcon": "",
      "iconPath": ""
    }
  ]
}