{
  "talkId": 6319402,
  "KPGKDHAFHFE": "FREE",
  "dialogList": [
    {
      "id": 631940201,
      "nextDialogs": [
        631940202
      ],
      "talkShowType": "TALK_SHOW_FORCE_SELECT",
      "talkRole": {
        "type": "TALK_ROLE_PLAYER",
        "_id": ""
      },
      "talkContentTextMapHash": 588484682,
      "talkAssetPath": "",
      "talkAssetPathAlter": "",
      "talkAudioName": "",
      "actionBefore": "",
      "actionWhile": "",
      "actionAfter": "",
      "optionIcon": "",
      "iconPath": ""
    },
    {
      "id": 631940202,
      "talkRole": {
        "type": "TALK_ROLE_NPC",
        "_id": "3194"
      },
      "talkContentTextMapHash": 1324719122,
      "talkAssetPath": "",
      "talkAssetPathAlter": "",
      "talkAudioName": "",
      "actionBefore": "",
      "actionWhile": "",
      "actionAfter": "",
      "optionIcon": "",
      "iconPath": ""
    }
  ]
}