{
  "talkId": 6322701,
  "KPGKDHAFHFE": "FREE",
  "dialogList": [
    {
      "id": 632270101,
      "talkRole": {
        "type": "TALK_ROLE_NPC",
        "_id": "3227"
      },
      "talkContentTextMapHash": 1826869170,
      "talkAssetPath": "",
      "talkAssetPathAlter": "",
      "talkAudioName": "",
      "actionBefore": "",
      "actionWhile": "",
      "actionAfter": "",
      "optionIcon": "",
      "iconPath": ""
    }
  ]
}