{
  "talkId": 6323005,
  "KPGKDHAFHFE": "FREE",
  "dialogList": [
    {
      "id": 632300501,
      "nextDialogs": [
        632300502
      ],
      "talkShowType": "TALK_SHOW_FORCE_SELECT",
      "talkRole": {
        "type": "TALK_ROLE_PLAYER",
        "_id": ""
      },
      "talkContentTextMapHash": 3203115970,
      "talkAssetPath": "",
      "talkAssetPathAlter": "",
      "talkAudioName": "",
      "actionBefore": "",
      "actionWhile": "",
      "actionAfter": "",
      "optionIcon": "",
      "iconPath": ""
    },
    {
      "id": 632300502,
      "nextDialogs": [
        632300503
      ],
      "talkRole": {
        "type": "TALK_ROLE_NPC",
        "_id": "3230"
      },
      "talkContentTextMapHash": 3986246962,
      "talkAssetPath": "",
      "talkAssetPathAlter": "",
      "talkAudioName": "",
      "actionBefore": "",
      "actionWhile": "",
      "actionAfter": "",
      "optionIcon": "",
      "iconPath": ""
    },
    {
      "id": 632300503,
      "nextDialogs": [
        632300504
      ],
      "talkRole": {
        "type": "TALK_ROLE_NPC",
        "_id": "3230"
      },
      "talkContentTextMapHash": 397758618,
      "talkAssetPath": "",
      "talkAssetPathAlter": "",
      "talkAudioName": "",
      "actionBefore": "",
      "actionWhile": "",
      "actionAfter": "",
      "optionIcon": "",
      "iconPath": ""
    },
    {
      "id": 632300504,
      "talkRole": {
        "type": "TALK_ROLE_NPC",
        "_id": "3230"
      },
      "talkContentTextMapHash": 3480701306,
      "talkAssetPath": "",
      "talkAssetPathAlter": "",
      "talkAudioName": "",
      "actionBefore": "",
      "actionWhile": "",
      "actionAfter": "",
      "optionIcon": "",
      "iconPath": ""
    }
  ]
}