{
  "talkId": 6390401,
  "KPGKDHAFHFE": "FREE",
  "dialogList": [
    {
      "id": 639040101,
      "talkRole": {
        "type": "TALK_ROLE_NPC",
        "_id": "3904"
      },
      "talkContentTextMapHash": 1801082559,
      "talkAssetPath": "",
      "talkAssetPathAlter": "",
      "talkAudioName": "",
      "actionBefore": "",
      "actionWhile": "",
      "actionAfter": "",
      "optionIcon": "",
      "iconPath": ""
    }
  ]
}