{
  "talkId": 6390301,
  "KPGKDHAFHFE": "FREE",
  "dialogList": [
    {
      "id": 639030101,
      "talkRole": {
        "type": "TALK_ROLE_NPC",
        "_id": "3903"
      },
      "talkContentTextMapHash": 156937415,
      "talkAssetPath": "",
      "talkAssetPathAlter": "",
      "talkAudioName": "",
      "actionBefore": "",
      "actionWhile": "",
      "actionAfter": "",
      "optionIcon": "",
      "iconPath": ""
    }
  ]
}