{
  "talkId": 6390003,
  "KPGKDHAFHFE": "FREE",
  "dialogList": [
    {
      "id": 639000301,
      "nextDialogs": [
        639000302
      ],
      "talkShowType": "TALK_SHOW_FORCE_SELECT",
      "talkRole": {
        "type": "TALK_ROLE_PLAYER",
        "_id": ""
      },
      "talkContentTextMapHash": 3746815279,
      "talkAssetPath": "",
      "talkAssetPathAlter": "",
      "talkAudioName": "",
      "actionBefore": "",
      "actionWhile": "",
      "actionAfter": "",
      "optionIcon": "",
      "iconPath": ""
    },
    {
      "id": 639000302,
      "nextDialogs": [
        639000303
      ],
      "talkRole": {
        "type": "TALK_ROLE_NPC",
        "_id": "3900"
      },
      "talkContentTextMapHash": 4019509151,
      "talkAssetPath": "",
      "talkAssetPathAlter": "",
      "talkAudioName": "",
      "actionBefore": "",
      "actionWhile": "",
      "actionAfter": "",
      "optionIcon": "",
      "iconPath": ""
    },
    {
      "id": 639000303,
      "nextDialogs": [
        639000304
      ],
      "talkRole": {
        "type": "TALK_ROLE_NPC",
        "_id": "3900"
      },
      "talkContentTextMapHash": 3764684543,
      "talkAssetPath": "",
      "talkAssetPathAlter": "",
      "talkAudioName": "",
      "actionBefore": "",
      "actionWhile": "SimpleTalk/HoldAram",
      "actionAfter": "",
      "optionIcon": "",
      "iconPath": ""
    },
    {
      "id": 639000304,
      "talkRole": {
        "type": "TALK_ROLE_NPC",
        "_id": "3900"
      },
      "talkContentTextMapHash": 4179361543,
      "talkAssetPath": "",
      "talkAssetPathAlter": "",
      "talkAudioName": "",
      "actionBefore": "",
      "actionWhile": "",
      "actionAfter": "",
      "optionIcon": "",
      "iconPath": ""
    }
  ]
}