{
  "talkId": 6400303,
  "KPGKDHAFHFE": "FREE",
  "dialogList": [
    {
      "id": 640030301,
      "nextDialogs": [
        640030302
      ],
      "talkShowType": "TALK_SHOW_FORCE_SELECT",
      "talkRole": {
        "type": "TALK_ROLE_PLAYER",
        "_id": ""
      },
      "talkContentTextMapHash": 1685711290,
      "talkAssetPath": "",
      "talkAssetPathAlter": "",
      "talkAudioName": "",
      "actionBefore": "",
      "actionWhile": "",
      "actionAfter": "",
      "optionIcon": "",
      "iconPath": ""
    },
    {
      "id": 640030302,
      "talkRole": {
        "type": "TALK_ROLE_NPC",
        "_id": "4003"
      },
      "talkContentTextMapHash": 1759495626,
      "talkAssetPath": "",
      "talkAssetPathAlter": "",
      "talkAudioName": "",
      "actionBefore": "",
      "actionWhile": "",
      "actionAfter": "",
      "optionIcon": "",
      "iconPath": ""
    }
  ]
}