{
  "talkId": 6400005,
  "KPGKDHAFHFE": "FREE",
  "dialogList": [
    {
      "id": 640000501,
      "nextDialogs": [
        640000502
      ],
      "talkShowType": "TALK_SHOW_FORCE_SELECT",
      "talkRole": {
        "type": "TALK_ROLE_PLAYER",
        "_id": ""
      },
      "talkContentTextMapHash": 1531309650,
      "talkAssetPath": "",
      "talkAssetPathAlter": "",
      "talkAudioName": "",
      "actionBefore": "",
      "actionWhile": "",
      "actionAfter": "",
      "optionIcon": "UI_Icon_Intee_Shop",
      "iconPath": ""
    },
    {
      "id": 640000502,
      "talkRole": {
        "type": "TALK_ROLE_NPC",
        "_id": "4000"
      },
      "talkContentTextMapHash": 331958066,
      "talkAssetPath": "",
      "talkAssetPathAlter": "",
      "talkAudioName": "",
      "actionBefore": "",
      "actionWhile": "",
      "actionAfter": "Shop/shop_open_1087",
      "optionIcon": "",
      "iconPath": ""
    }
  ]
}