{
  "talkId": 6402202,
  "KPGKDHAFHFE": "FREE",
  "dialogList": [
    {
      "id": 640220201,
      "nextDialogs": [
        640220202
      ],
      "talkShowType": "TALK_SHOW_FORCE_SELECT",
      "talkRole": {
        "type": "TALK_ROLE_PLAYER",
        "_id": ""
      },
      "talkContentTextMapHash": 2761720858,
      "talkAssetPath": "",
      "talkAssetPathAlter": "",
      "talkAudioName": "",
      "actionBefore": "",
      "actionWhile": "",
      "actionAfter": "",
      "optionIcon": "",
      "iconPath": ""
    },
    {
      "id": 640220202,
      "nextDialogs": [
        640220203
      ],
      "talkRole": {
        "type": "TALK_ROLE_NPC",
        "_id": "4022"
      },
      "talkContentTextMapHash": 1616992738,
      "talkAssetPath": "",
      "talkAssetPathAlter": "",
      "talkAudioName": "",
      "actionBefore": "",
      "actionWhile": "SimpleTalk/StrikeChest",
      "actionAfter": "",
      "optionIcon": "",
      "iconPath": ""
    },
    {
      "id": 640220203,
      "nextDialogs": [
        640220204
      ],
      "talkRole": {
        "type": "TALK_ROLE_NPC",
        "_id": "4022"
      },
      "talkContentTextMapHash": 3682866530,
      "talkAssetPath": "",
      "talkAssetPathAlter": "",
      "talkAudioName": "",
      "actionBefore": "",
      "actionWhile": "",
      "actionAfter": "SimpleTalk/Standby",
      "optionIcon": "",
      "iconPath": ""
    },
    {
      "id": 640220204,
      "talkRole": {
        "type": "TALK_ROLE_NPC",
        "_id": "4022"
      },
      "talkContentTextMapHash": 2117921682,
      "talkAssetPath": "",
      "talkAssetPathAlter": "",
      "talkAudioName": "",
      "actionBefore": "",
      "actionWhile": "SimpleTalk/RandomTalk",
      "actionAfter": "",
      "optionIcon": "",
      "iconPath": ""
    }
  ]
}