{
  "talkId": 6402705,
  "KPGKDHAFHFE": "FREE",
  "dialogList": [
    {
      "id": 640270501,
      "nextDialogs": [
        640270502
      ],
      "talkShowType": "TALK_SHOW_FORCE_SELECT",
      "talkRole": {
        "type": "TALK_ROLE_PLAYER",
        "_id": ""
      },
      "talkContentTextMapHash": 3557935690,
      "talkAssetPath": "",
      "talkAssetPathAlter": "",
      "talkAudioName": "",
      "actionBefore": "",
      "actionWhile": "",
      "actionAfter": "",
      "optionIcon": "",
      "iconPath": ""
    },
    {
      "id": 640270502,
      "nextDialogs": [
        640270503
      ],
      "talkRole": {
        "type": "TALK_ROLE_NPC",
        "_id": "4027"
      },
      "talkContentTextMapHash": 2067575946,
      "talkAssetPath": "",
      "talkAssetPathAlter": "",
      "talkAudioName": "",
      "actionBefore": "",
      "actionWhile": "SimpleTalk/RandomTalk",
      "actionAfter": "",
      "optionIcon": "",
      "iconPath": ""
    },
    {
      "id": 640270503,
      "nextDialogs": [
        640270504
      ],
      "talkRole": {
        "type": "TALK_ROLE_NPC",
        "_id": "4027"
      },
      "talkContentTextMapHash": 1782035882,
      "talkAssetPath": "",
      "talkAssetPathAlter": "",
      "talkAudioName": "",
      "actionBefore": "",
      "actionWhile": "SimpleTalk/StrikeChest",
      "actionAfter": "",
      "optionIcon": "",
      "iconPath": ""
    },
    {
      "id": 640270504,
      "nextDialogs": [
        640270505
      ],
      "talkRole": {
        "type": "TALK_ROLE_NPC",
        "_id": "4027"
      },
      "talkContentTextMapHash": 680046250,
      "talkAssetPath": "",
      "talkAssetPathAlter": "",
      "talkAudioName": "",
      "actionBefore": "",
      "actionWhile": "SimpleTalk/RandomTalkHold",
      "actionAfter": "",
      "optionIcon": "",
      "iconPath": ""
    },
    {
      "id": 640270505,
      "nextDialogs": [
        640270506
      ],
      "talkRole": {
        "type": "TALK_ROLE_NPC",
        "_id": "4027"
      },
      "talkContentTextMapHash": 2972701346,
      "talkAssetPath": "",
      "talkAssetPathAlter": "",
      "talkAudioName": "",
      "actionBefore": "",
      "actionWhile": "",
      "actionAfter": "",
      "optionIcon": "",
      "iconPath": ""
    },
    {
      "id": 640270506,
      "talkRole": {
        "type": "TALK_ROLE_NPC",
        "_id": "4027"
      },
      "talkContentTextMapHash": 1095649218,
      "talkAssetPath": "",
      "talkAssetPathAlter": "",
      "talkAudioName": "",
      "actionBefore": "",
      "actionWhile": "",
      "actionAfter": "SimpleTalk/Idle_End",
      "optionIcon": "",
      "iconPath": ""
    }
  ]
}