{
  "talkId": 6402308,
  "KPGKDHAFHFE": "FREE",
  "dialogList": [
    {
      "id": 640230801,
      "nextDialogs": [
        640230802
      ],
      "talkShowType": "TALK_SHOW_FORCE_SELECT",
      "talkRole": {
        "type": "TALK_ROLE_PLAYER",
        "_id": ""
      },
      "talkContentTextMapHash": 2277181978,
      "talkAssetPath": "",
      "talkAssetPathAlter": "",
      "talkAudioName": "",
      "actionBefore": "",
      "actionWhile": "",
      "actionAfter": "",
      "optionIcon": "",
      "iconPath": ""
    },
    {
      "id": 640230802,
      "nextDialogs": [
        640230803
      ],
      "talkRole": {
        "type": "TALK_ROLE_NPC",
        "_id": "4023"
      },
      "talkContentTextMapHash": 3895769290,
      "talkAssetPath": "",
      "talkAssetPathAlter": "",
      "talkAudioName": "",
      "actionBefore": "",
      "actionWhile": "",
      "actionAfter": "",
      "optionIcon": "",
      "iconPath": ""
    },
    {
      "id": 640230803,
      "nextDialogs": [
        640230804
      ],
      "talkRole": {
        "type": "TALK_ROLE_NPC",
        "_id": "4023"
      },
      "talkContentTextMapHash": 3253057394,
      "talkAssetPath": "",
      "talkAssetPathAlter": "",
      "talkAudioName": "",
      "actionBefore": "",
      "actionWhile": "",
      "actionAfter": "",
      "optionIcon": "",
      "iconPath": ""
    },
    {
      "id": 640230804,
      "nextDialogs": [
        640230805
      ],
      "talkRole": {
        "type": "TALK_ROLE_NPC",
        "_id": "4023"
      },
      "talkContentTextMapHash": 1200482074,
      "talkAssetPath": "",
      "talkAssetPathAlter": "",
      "talkAudioName": "",
      "actionBefore": "",
      "actionWhile": "",
      "actionAfter": "",
      "optionIcon": "",
      "iconPath": ""
    },
    {
      "id": 640230805,
      "nextDialogs": [
        640230806
      ],
      "talkRole": {
        "type": "TALK_ROLE_NPC",
        "_id": "4023"
      },
      "talkContentTextMapHash": 720410202,
      "talkAssetPath": "",
      "talkAssetPathAlter": "",
      "talkAudioName": "",
      "actionBefore": "",
      "actionWhile": "",
      "actionAfter": "",
      "optionIcon": "",
      "iconPath": ""
    },
    {
      "id": 640230806,
      "talkRole": {
        "type": "TALK_ROLE_NPC",
        "_id": "4023"
      },
      "talkContentTextMapHash": 3797341498,
      "talkAssetPath": "",
      "talkAssetPathAlter": "",
      "talkAudioName": "",
      "actionBefore": "",
      "actionWhile": "",
      "actionAfter": "",
      "optionIcon": "",
      "iconPath": ""
    }
  ]
}