{
  "talkId": 6402904,
  "KPGKDHAFHFE": "FREE",
  "dialogList": [
    {
      "id": 640290401,
      "nextDialogs": [
        640290402
      ],
      "talkShowType": "TALK_SHOW_FORCE_SELECT",
      "talkRole": {
        "type": "TALK_ROLE_PLAYER",
        "_id": ""
      },
      "talkContentTextMapHash": 47257738,
      "talkAssetPath": "",
      "talkAssetPathAlter": "",
      "talkAudioName": "",
      "actionBefore": "",
      "actionWhile": "",
      "actionAfter": "",
      "optionIcon": "",
      "iconPath": ""
    },
    {
      "id": 640290402,
      "nextDialogs": [
        640290403
      ],
      "talkRole": {
        "type": "TALK_ROLE_NPC",
        "_id": "4029"
      },
      "talkContentTextMapHash": 3680621506,
      "talkAssetPath": "",
      "talkAssetPathAlter": "",
      "talkAudioName": "",
      "actionBefore": "",
      "actionWhile": "",
      "actionAfter": "",
      "optionIcon": "",
      "iconPath": ""
    },
    {
      "id": 640290403,
      "nextDialogs": [
        640290404
      ],
      "talkRole": {
        "type": "TALK_ROLE_NPC",
        "_id": "4029"
      },
      "talkContentTextMapHash": 613950642,
      "talkAssetPath": "",
      "talkAssetPathAlter": "",
      "talkAudioName": "",
      "actionBefore": "",
      "actionWhile": "",
      "actionAfter": "",
      "optionIcon": "",
      "iconPath": ""
    },
    {
      "id": 640290404,
      "nextDialogs": [
        640290405
      ],
      "talkRole": {
        "type": "TALK_ROLE_NPC",
        "_id": "4029"
      },
      "talkContentTextMapHash": 805944538,
      "talkAssetPath": "",
      "talkAssetPathAlter": "",
      "talkAudioName": "",
      "actionBefore": "",
      "actionWhile": "",
      "actionAfter": "",
      "optionIcon": "",
      "iconPath": ""
    },
    {
      "id": 640290405,
      "talkRole": {
        "type": "TALK_ROLE_NPC",
        "_id": "4029"
      },
      "talkContentTextMapHash": 3412046370,
      "talkAssetPath": "",
      "talkAssetPathAlter": "",
      "talkAudioName": "",
      "actionBefore": "",
      "actionWhile": "",
      "actionAfter": "",
      "optionIcon": "",
      "iconPath": ""
    }
  ]
}