{
  "talkId": 6402206,
  "KPGKDHAFHFE": "FREE",
  "dialogList": [
    {
      "id": 640220601,
      "nextDialogs": [
        640220602
      ],
      "talkShowType": "TALK_SHOW_FORCE_SELECT",
      "talkRole": {
        "type": "TALK_ROLE_PLAYER",
        "_id": ""
      },
      "talkContentTextMapHash": 3731594386,
      "talkAssetPath": "",
      "talkAssetPathAlter": "",
      "talkAudioName": "",
      "actionBefore": "",
      "actionWhile": "",
      "actionAfter": "",
      "optionIcon": "",
      "iconPath": ""
    },
    {
      "id": 640220602,
      "nextDialogs": [
        640220603
      ],
      "talkRole": {
        "type": "TALK_ROLE_NPC",
        "_id": "4022"
      },
      "talkContentTextMapHash": 3029828994,
      "talkAssetPath": "",
      "talkAssetPathAlter": "",
      "talkAudioName": "",
      "actionBefore": "",
      "actionWhile": "SimpleTalk/RandomTalk",
      "actionAfter": "",
      "optionIcon": "",
      "iconPath": ""
    },
    {
      "id": 640220603,
      "nextDialogs": [
        640220604
      ],
      "talkRole": {
        "type": "TALK_ROLE_NPC",
        "_id": "4022"
      },
      "talkContentTextMapHash": 539525218,
      "talkAssetPath": "",
      "talkAssetPathAlter": "",
      "talkAudioName": "",
      "actionBefore": "",
      "actionWhile": "",
      "actionAfter": "",
      "optionIcon": "",
      "iconPath": ""
    },
    {
      "id": 640220604,
      "nextDialogs": [
        640220605
      ],
      "talkRole": {
        "type": "TALK_ROLE_NPC",
        "_id": "4022"
      },
      "talkContentTextMapHash": 165223538,
      "talkAssetPath": "",
      "talkAssetPathAlter": "",
      "talkAudioName": "",
      "actionBefore": "",
      "actionWhile": "SimpleTalk/Think",
      "actionAfter": "",
      "optionIcon": "",
      "iconPath": ""
    },
    {
      "id": 640220605,
      "nextDialogs": [
        640220606
      ],
      "talkRole": {
        "type": "TALK_ROLE_NPC",
        "_id": "4022"
      },
      "talkContentTextMapHash": 2670142026,
      "talkAssetPath": "",
      "talkAssetPathAlter": "",
      "talkAudioName": "",
      "actionBefore": "",
      "actionWhile": "",
      "actionAfter": "SimpleTalk/Standby",
      "optionIcon": "",
      "iconPath": ""
    },
    {
      "id": 640220606,
      "talkRole": {
        "type": "TALK_ROLE_NPC",
        "_id": "4022"
      },
      "talkContentTextMapHash": 2557658802,
      "talkAssetPath": "",
      "talkAssetPathAlter": "",
      "talkAudioName": "",
      "actionBefore": "",
      "actionWhile": "SimpleTalk/RandomTalk",
      "actionAfter": "SimpleTalk/Idle_End",
      "optionIcon": "",
      "iconPath": ""
    }
  ]
}