{
  "talkId": 6402805,
  "KPGKDHAFHFE": "FREE",
  "dialogList": [
    {
      "id": 640280501,
      "nextDialogs": [
        640280502
      ],
      "talkShowType": "TALK_SHOW_FORCE_SELECT",
      "talkRole": {
        "type": "TALK_ROLE_PLAYER",
        "_id": ""
      },
      "talkContentTextMapHash": 1838952090,
      "talkAssetPath": "",
      "talkAssetPathAlter": "",
      "talkAudioName": "",
      "actionBefore": "",
      "actionWhile": "",
      "actionAfter": "",
      "optionIcon": "",
      "iconPath": ""
    },
    {
      "id": 640280502,
      "nextDialogs": [
        640280503
      ],
      "talkRole": {
        "type": "TALK_ROLE_NPC",
        "_id": "4028"
      },
      "talkContentTextMapHash": 3135179386,
      "talkAssetPath": "",
      "talkAssetPathAlter": "",
      "talkAudioName": "",
      "actionBefore": "",
      "actionWhile": "",
      "actionAfter": "",
      "optionIcon": "",
      "iconPath": ""
    },
    {
      "id": 640280503,
      "nextDialogs": [
        640280504
      ],
      "talkRole": {
        "type": "TALK_ROLE_NPC",
        "_id": "4028"
      },
      "talkContentTextMapHash": 3416296170,
      "talkAssetPath": "",
      "talkAssetPathAlter": "",
      "talkAudioName": "",
      "actionBefore": "",
      "actionWhile": "SimpleTalk/RandomTalk",
      "actionAfter": "",
      "optionIcon": "",
      "iconPath": ""
    },
    {
      "id": 640280504,
      "nextDialogs": [
        640280505
      ],
      "talkRole": {
        "type": "TALK_ROLE_NPC",
        "_id": "4028"
      },
      "talkContentTextMapHash": 924875194,
      "talkAssetPath": "",
      "talkAssetPathAlter": "",
      "talkAudioName": "",
      "actionBefore": "",
      "actionWhile": "",
      "actionAfter": "",
      "optionIcon": "",
      "iconPath": ""
    },
    {
      "id": 640280505,
      "nextDialogs": [
        640280506
      ],
      "talkRole": {
        "type": "TALK_ROLE_NPC",
        "_id": "4028"
      },
      "talkContentTextMapHash": 2353672410,
      "talkAssetPath": "",
      "talkAssetPathAlter": "",
      "talkAudioName": "",
      "actionBefore": "",
      "actionWhile": "SimpleTalk/Think",
      "actionAfter": "",
      "optionIcon": "",
      "iconPath": ""
    },
    {
      "id": 640280506,
      "nextDialogs": [
        640280507
      ],
      "talkRole": {
        "type": "TALK_ROLE_NPC",
        "_id": "4028"
      },
      "talkContentTextMapHash": 3450940274,
      "talkAssetPath": "",
      "talkAssetPathAlter": "",
      "talkAudioName": "",
      "actionBefore": "",
      "actionWhile": "",
      "actionAfter": "",
      "optionIcon": "",
      "iconPath": ""
    },
    {
      "id": 640280507,
      "talkRole": {
        "type": "TALK_ROLE_NPC",
        "_id": "4028"
      },
      "talkContentTextMapHash": 3480611874,
      "talkAssetPath": "",
      "talkAssetPathAlter": "",
      "talkAudioName": "",
      "actionBefore": "",
      "actionWhile": "",
      "actionAfter": "SimpleTalk/Idle_End",
      "optionIcon": "",
      "iconPath": ""
    }
  ]
}