{
  "talkId": 6403301,
  "KPGKDHAFHFE": "FREE",
  "dialogList": [
    {
      "id": 640330101,
      "nextDialogs": [
        640330102
      ],
      "talkRole": {
        "type": "TALK_ROLE_NPC",
        "_id": "4033"
      },
      "talkContentTextMapHash": 4138149002,
      "talkAssetPath": "",
      "talkAssetPathAlter": "",
      "talkAudioName": "",
      "actionBefore": "",
      "actionWhile": "TEST/LerpInNpcNoSteer",
      "actionAfter": "",
      "optionIcon": "",
      "iconPath": ""
    },
    {
      "id": 640330102,
      "nextDialogs": [
        640330103
      ],
      "talkRole": {
        "type": "TALK_ROLE_NPC",
        "_id": "4033"
      },
      "talkContentTextMapHash": 3782671722,
      "talkAssetPath": "",
      "talkAssetPathAlter": "",
      "talkAudioName": "",
      "actionBefore": "",
      "actionWhile": "",
      "actionAfter": "",
      "optionIcon": "",
      "iconPath": ""
    },
    {
      "id": 640330103,
      "nextDialogs": [
        640330104
      ],
      "talkRole": {
        "type": "TALK_ROLE_NPC",
        "_id": "4034"
      },
      "talkContentTextMapHash": 279428082,
      "talkAssetPath": "",
      "talkAssetPathAlter": "",
      "talkAudioName": "",
      "actionBefore": "",
      "actionWhile": "",
      "actionAfter": "",
      "optionIcon": "",
      "iconPath": ""
    },
    {
      "id": 640330104,
      "nextDialogs": [
        640330105
      ],
      "talkRole": {
        "type": "TALK_ROLE_NPC",
        "_id": "4034"
      },
      "talkContentTextMapHash": 3370508066,
      "talkAssetPath": "",
      "talkAssetPathAlter": "",
      "talkAudioName": "",
      "actionBefore": "",
      "actionWhile": "",
      "actionAfter": "",
      "optionIcon": "",
      "iconPath": ""
    },
    {
      "id": 640330105,
      "nextDialogs": [
        640330106
      ],
      "talkRole": {
        "type": "TALK_ROLE_NPC",
        "_id": "4034"
      },
      "talkContentTextMapHash": 1060606442,
      "talkAssetPath": "",
      "talkAssetPathAlter": "",
      "talkAudioName": "",
      "actionBefore": "",
      "actionWhile": "",
      "actionAfter": "",
      "optionIcon": "",
      "iconPath": ""
    },
    {
      "id": 640330106,
      "nextDialogs": [
        640330107
      ],
      "talkRole": {
        "type": "TALK_ROLE_NPC",
        "_id": "4033"
      },
      "talkContentTextMapHash": 65757794,
      "talkAssetPath": "",
      "talkAssetPathAlter": "",
      "talkAudioName": "",
      "actionBefore": "",
      "actionWhile": "",
      "actionAfter": "",
      "optionIcon": "",
      "iconPath": ""
    },
    {
      "id": 640330107,
      "nextDialogs": [
        640330108
      ],
      "talkRole": {
        "type": "TALK_ROLE_NPC",
        "_id": "4033"
      },
      "talkContentTextMapHash": 805963314,
      "talkAssetPath": "",
      "talkAssetPathAlter": "",
      "talkAudioName": "",
      "actionBefore": "",
      "actionWhile": "",
      "actionAfter": "",
      "optionIcon": "",
      "iconPath": ""
    },
    {
      "id": 640330108,
      "nextDialogs": [
        640330109
      ],
      "talkRole": {
        "type": "TALK_ROLE_NPC",
        "_id": "4033"
      },
      "talkContentTextMapHash": 402323706,
      "talkAssetPath": "",
      "talkAssetPathAlter": "",
      "talkAudioName": "",
      "actionBefore": "",
      "actionWhile": "",
      "actionAfter": "",
      "optionIcon": "",
      "iconPath": ""
    },
    {
      "id": 640330109,
      "talkRole": {
        "type": "TALK_ROLE_NPC",
        "_id": "4034"
      },
      "talkContentTextMapHash": 3174591450,
      "talkAssetPath": "",
      "talkAssetPathAlter": "",
      "talkAudioName": "",
      "actionBefore": "",
      "actionWhile": "",
      "actionAfter": "TEST/LerpOutNpcNoSteer",
      "optionIcon": "",
      "iconPath": ""
    }
  ]
}