{
  "talkId": 6403101,
  "KPGKDHAFHFE": "FREE",
  "dialogList": [
    {
      "id": 640310101,
      "talkRole": {
        "type": "TALK_ROLE_NPC",
        "_id": "4031"
      },
      "talkContentTextMapHash": 1235782258,
      "talkAssetPath": "",
      "talkAssetPathAlter": "",
      "talkAudioName": "",
      "actionBefore": "",
      "actionWhile": "SimpleTalk/LerpInNpcDailyTalk_Start",
      "actionAfter": "",
      "optionIcon": "",
      "iconPath": ""
    }
  ]
}