{
  "talkId": 6403903,
  "KPGKDHAFHFE": "FREE",
  "dialogList": [
    {
      "id": 640390301,
      "nextDialogs": [
        640390302
      ],
      "talkShowType": "TALK_SHOW_FORCE_SELECT",
      "talkRole": {
        "type": "TALK_ROLE_PLAYER",
        "_id": ""
      },
      "talkContentTextMapHash": 677259754,
      "talkAssetPath": "",
      "talkAssetPathAlter": "",
      "talkAudioName": "",
      "actionBefore": "",
      "actionWhile": "",
      "actionAfter": "",
      "optionIcon": "",
      "iconPath": ""
    },
    {
      "id": 640390302,
      "nextDialogs": [
        640390303
      ],
      "talkRole": {
        "type": "TALK_ROLE_NPC",
        "_id": "4039"
      },
      "talkContentTextMapHash": 3081278834,
      "talkAssetPath": "",
      "talkAssetPathAlter": "",
      "talkAudioName": "",
      "actionBefore": "",
      "actionWhile": "",
      "actionAfter": "",
      "optionIcon": "",
      "iconPath": ""
    },
    {
      "id": 640390303,
      "nextDialogs": [
        640390304
      ],
      "talkRole": {
        "type": "TALK_ROLE_NPC",
        "_id": "4039"
      },
      "talkContentTextMapHash": 2105980466,
      "talkAssetPath": "",
      "talkAssetPathAlter": "",
      "talkAudioName": "",
      "actionBefore": "",
      "actionWhile": "",
      "actionAfter": "",
      "optionIcon": "",
      "iconPath": ""
    },
    {
      "id": 640390304,
      "nextDialogs": [
        640390305
      ],
      "talkRole": {
        "type": "TALK_ROLE_NPC",
        "_id": "4039"
      },
      "talkContentTextMapHash": 1072550610,
      "talkAssetPath": "",
      "talkAssetPathAlter": "",
      "talkAudioName": "",
      "actionBefore": "",
      "actionWhile": "",
      "actionAfter": "",
      "optionIcon": "",
      "iconPath": ""
    },
    {
      "id": 640390305,
      "talkRole": {
        "type": "TALK_ROLE_NPC",
        "_id": "4039"
      },
      "talkContentTextMapHash": 1158284898,
      "talkAssetPath": "",
      "talkAssetPathAlter": "",
      "talkAudioName": "",
      "actionBefore": "",
      "actionWhile": "",
      "actionAfter": "",
      "optionIcon": "",
      "iconPath": ""
    }
  ]
}