{
  "talkId": 6403004,
  "KPGKDHAFHFE": "FREE",
  "dialogList": [
    {
      "id": 640300401,
      "nextDialogs": [
        640300402
      ],
      "talkShowType": "TALK_SHOW_FORCE_SELECT",
      "talkRole": {
        "type": "TALK_ROLE_PLAYER",
        "_id": ""
      },
      "talkContentTextMapHash": 3887409490,
      "talkAssetPath": "",
      "talkAssetPathAlter": "",
      "talkAudioName": "",
      "actionBefore": "",
      "actionWhile": "",
      "actionAfter": "",
      "optionIcon": "",
      "iconPath": ""
    },
    {
      "id": 640300402,
      "nextDialogs": [
        640300403
      ],
      "talkRole": {
        "type": "TALK_ROLE_NPC",
        "_id": "4030"
      },
      "talkContentTextMapHash": 3394476922,
      "talkAssetPath": "",
      "talkAssetPathAlter": "",
      "talkAudioName": "",
      "actionBefore": "",
      "actionWhile": "SimpleTalk/HoldArm",
      "actionAfter": "",
      "optionIcon": "",
      "iconPath": ""
    },
    {
      "id": 640300403,
      "nextDialogs": [
        640300404
      ],
      "talkRole": {
        "type": "TALK_ROLE_NPC",
        "_id": "4030"
      },
      "talkContentTextMapHash": 1684206330,
      "talkAssetPath": "",
      "talkAssetPathAlter": "",
      "talkAudioName": "",
      "actionBefore": "",
      "actionWhile": "",
      "actionAfter": "",
      "optionIcon": "",
      "iconPath": ""
    },
    {
      "id": 640300404,
      "nextDialogs": [
        640300405
      ],
      "talkRole": {
        "type": "TALK_ROLE_NPC",
        "_id": "4030"
      },
      "talkContentTextMapHash": 4279405002,
      "talkAssetPath": "",
      "talkAssetPathAlter": "",
      "talkAudioName": "",
      "actionBefore": "",
      "actionWhile": "SimpleTalk/NodHead",
      "actionAfter": "",
      "optionIcon": "",
      "iconPath": ""
    },
    {
      "id": 640300405,
      "talkRole": {
        "type": "TALK_ROLE_NPC",
        "_id": "4030"
      },
      "talkContentTextMapHash": 2755464906,
      "talkAssetPath": "",
      "talkAssetPathAlter": "",
      "talkAudioName": "",
      "actionBefore": "",
      "actionWhile": "",
      "actionAfter": "",
      "optionIcon": "",
      "iconPath": ""
    }
  ]
}