{
  "talkId": 6403103,
  "KPGKDHAFHFE": "FREE",
  "dialogList": [
    {
      "id": 640310301,
      "nextDialogs": [
        640310302
      ],
      "talkShowType": "TALK_SHOW_FORCE_SELECT",
      "talkRole": {
        "type": "TALK_ROLE_PLAYER",
        "_id": ""
      },
      "talkContentTextMapHash": 648426898,
      "talkAssetPath": "",
      "talkAssetPathAlter": "",
      "talkAudioName": "",
      "actionBefore": "",
      "actionWhile": "",
      "actionAfter": "",
      "optionIcon": "",
      "iconPath": ""
    },
    {
      "id": 640310302,
      "talkRole": {
        "type": "TALK_ROLE_NPC",
        "_id": "4031"
      },
      "talkContentTextMapHash": 48249778,
      "talkAssetPath": "",
      "talkAssetPathAlter": "",
      "talkAudioName": "",
      "actionBefore": "",
      "actionWhile": "",
      "actionAfter": "",
      "optionIcon": "",
      "iconPath": ""
    }
  ]
}