{
  "talkId": 6403102,
  "KPGKDHAFHFE": "FREE",
  "dialogList": [
    {
      "id": 640310201,
      "nextDialogs": [
        640310202
      ],
      "talkShowType": "TALK_SHOW_FORCE_SELECT",
      "talkRole": {
        "type": "TALK_ROLE_PLAYER",
        "_id": ""
      },
      "talkContentTextMapHash": 302555090,
      "talkAssetPath": "",
      "talkAssetPathAlter": "",
      "talkAudioName": "",
      "actionBefore": "",
      "actionWhile": "",
      "actionAfter": "",
      "optionIcon": "",
      "iconPath": ""
    },
    {
      "id": 640310202,
      "nextDialogs": [
        640310203
      ],
      "talkRole": {
        "type": "TALK_ROLE_NPC",
        "_id": "4031"
      },
      "talkContentTextMapHash": 125286010,
      "talkAssetPath": "",
      "talkAssetPathAlter": "",
      "talkAudioName": "",
      "actionBefore": "",
      "actionWhile": "",
      "actionAfter": "",
      "optionIcon": "",
      "iconPath": ""
    },
    {
      "id": 640310203,
      "nextDialogs": [
        640310204
      ],
      "talkRole": {
        "type": "TALK_ROLE_NPC",
        "_id": "4031"
      },
      "talkContentTextMapHash": 3668608818,
      "talkAssetPath": "",
      "talkAssetPathAlter": "",
      "talkAudioName": "",
      "actionBefore": "",
      "actionWhile": "",
      "actionAfter": "",
      "optionIcon": "",
      "iconPath": ""
    },
    {
      "id": 640310204,
      "nextDialogs": [
        640310205
      ],
      "talkRole": {
        "type": "TALK_ROLE_NPC",
        "_id": "4031"
      },
      "talkContentTextMapHash": 233686098,
      "talkAssetPath": "",
      "talkAssetPathAlter": "",
      "talkAudioName": "",
      "actionBefore": "",
      "actionWhile": "",
      "actionAfter": "",
      "optionIcon": "",
      "iconPath": ""
    },
    {
      "id": 640310205,
      "nextDialogs": [
        640310206
      ],
      "talkRole": {
        "type": "TALK_ROLE_NPC",
        "_id": "4031"
      },
      "talkContentTextMapHash": 3843697338,
      "talkAssetPath": "",
      "talkAssetPathAlter": "",
      "talkAudioName": "",
      "actionBefore": "",
      "actionWhile": "",
      "actionAfter": "",
      "optionIcon": "",
      "iconPath": ""
    },
    {
      "id": 640310206,
      "nextDialogs": [
        640310207
      ],
      "talkRole": {
        "type": "TALK_ROLE_NPC",
        "_id": "4031"
      },
      "talkContentTextMapHash": 1998980450,
      "talkAssetPath": "",
      "talkAssetPathAlter": "",
      "talkAudioName": "",
      "actionBefore": "",
      "actionWhile": "",
      "actionAfter": "",
      "optionIcon": "",
      "iconPath": ""
    },
    {
      "id": 640310207,
      "talkRole": {
        "type": "TALK_ROLE_NPC",
        "_id": "4031"
      },
      "talkContentTextMapHash": 590148850,
      "talkAssetPath": "",
      "talkAssetPathAlter": "",
      "talkAudioName": "",
      "actionBefore": "",
      "actionWhile": "",
      "actionAfter": "",
      "optionIcon": "",
      "iconPath": ""
    }
  ]
}