{
  "talkId": 6404401,
  "KPGKDHAFHFE": "FREE",
  "dialogList": [
    {
      "id": 640440101,
      "talkRole": {
        "type": "TALK_ROLE_NPC",
        "_id": "4044"
      },
      "talkContentTextMapHash": 3150864810,
      "talkAssetPath": "",
      "talkAssetPathAlter": "",
      "talkAudioName": "",
      "actionBefore": "",
      "actionWhile": "SimpleTalk/LerpInNpcDailyTalk_Start",
      "actionAfter": "",
      "optionIcon": "",
      "iconPath": ""
    }
  ]
}