{
  "talkId": 6404003,
  "KPGKDHAFHFE": "FREE",
  "dialogList": [
    {
      "id": 640400301,
      "nextDialogs": [
        640400302
      ],
      "talkShowType": "TALK_SHOW_FORCE_SELECT",
      "talkRole": {
        "type": "TALK_ROLE_PLAYER",
        "_id": ""
      },
      "talkContentTextMapHash": 1957686258,
      "talkAssetPath": "",
      "talkAssetPathAlter": "",
      "talkAudioName": "",
      "actionBefore": "",
      "actionWhile": "",
      "actionAfter": "",
      "optionIcon": "",
      "iconPath": ""
    },
    {
      "id": 640400302,
      "talkRole": {
        "type": "TALK_ROLE_NPC",
        "_id": "4040"
      },
      "talkContentTextMapHash": 2869485226,
      "talkAssetPath": "",
      "talkAssetPathAlter": "",
      "talkAudioName": "",
      "actionBefore": "",
      "actionWhile": "",
      "actionAfter": "",
      "optionIcon": "",
      "iconPath": ""
    }
  ]
}