{
  "talkId": 6404606,
  "KPGKDHAFHFE": "FREE",
  "dialogList": [
    {
      "id": 640460601,
      "talkRole": {
        "type": "TALK_ROLE_NPC",
        "_id": "4046"
      },
      "talkContentTextMapHash": 1041768466,
      "talkAssetPath": "",
      "talkAssetPathAlter": "",
      "talkAudioName": "",
      "actionBefore": "GCG/ClearWorldChallengeTalk",
      "actionWhile": "",
      "actionAfter": "",
      "optionIcon": "",
      "iconPath": ""
    }
  ]
}