{
  "talkId": 6404101,
  "KPGKDHAFHFE": "FREE",
  "dialogList": [
    {
      "id": 640410101,
      "nextDialogs": [
        640410102
      ],
      "talkRole": {
        "type": "TALK_ROLE_NPC",
        "_id": "4041"
      },
      "talkContentTextMapHash": 3596750898,
      "talkAssetPath": "",
      "talkAssetPathAlter": "",
      "talkAudioName": "",
      "actionBefore": "",
      "actionWhile": "SimpleTalk/LerpInNpcDailyTalk_Start",
      "actionAfter": "",
      "optionIcon": "",
      "iconPath": ""
    },
    {
      "id": 640410102,
      "talkRole": {
        "type": "TALK_ROLE_NPC",
        "_id": "4041"
      },
      "talkContentTextMapHash": 2449280802,
      "talkAssetPath": "",
      "talkAssetPathAlter": "",
      "talkAudioName": "",
      "actionBefore": "",
      "actionWhile": "",
      "actionAfter": "",
      "optionIcon": "",
      "iconPath": ""
    }
  ]
}