{
  "talkId": 6404701,
  "KPGKDHAFHFE": "FREE",
  "dialogList": [
    {
      "id": 640470101,
      "talkRole": {
        "type": "TALK_ROLE_NPC",
        "_id": "4047"
      },
      "talkContentTextMapHash": 1821656250,
      "talkAssetPath": "",
      "talkAssetPathAlter": "",
      "talkAudioName": "",
      "actionBefore": "",
      "actionWhile": "SimpleTalk/RandomTalk_Start",
      "actionAfter": "",
      "optionIcon": "",
      "iconPath": ""
    }
  ]
}