{
  "talkId": 6404501,
  "KPGKDHAFHFE": "FREE",
  "dialogList": [
    {
      "id": 640450101,
      "talkRole": {
        "type": "TALK_ROLE_NPC",
        "_id": "4045"
      },
      "talkContentTextMapHash": 2714679754,
      "talkAssetPath": "",
      "talkAssetPathAlter": "",
      "talkAudioName": "",
      "actionBefore": "",
      "actionWhile": "SimpleTalk/LerpInNpcDailyTalk_Start",
      "actionAfter": "",
      "optionIcon": "",
      "iconPath": ""
    }
  ]
}