{
  "talkId": 6405405,
  "KPGKDHAFHFE": "FREE",
  "dialogList": [
    {
      "id": 640540501,
      "talkRole": {
        "type": "TALK_ROLE_NPC",
        "_id": "4054"
      },
      "talkContentTextMapHash": 296623258,
      "talkAssetPath": "",
      "talkAssetPathAlter": "",
      "talkAudioName": "",
      "actionBefore": "",
      "actionWhile": "TEST/LerpInNpc",
      "actionAfter": "",
      "optionIcon": "",
      "iconPath": ""
    }
  ]
}