{
  "talkId": 6405704,
  "KPGKDHAFHFE": "FREE",
  "dialogList": [
    {
      "id": 640570401,
      "talkShowType": "TALK_SHOW_FORCE_SELECT",
      "talkRole": {
        "type": "TALK_ROLE_PLAYER",
        "_id": ""
      },
      "talkContentTextMapHash": 130144194,
      "talkAssetPath": "",
      "talkAssetPathAlter": "",
      "talkAudioName": "",
      "actionBefore": "",
      "actionWhile": "",
      "actionAfter": "GCG/open_GcgLevelPage_Bigworld",
      "optionIcon": "UI_Icon_Intee_GcgZhanDou",
      "iconPath": ""
    }
  ]
}