{
  "talkId": 6406006,
  "KPGKDHAFHFE": "FREE",
  "dialogList": [
    {
      "id": 640600601,
      "nextDialogs": [
        640600602
      ],
      "talkShowType": "TALK_SHOW_FORCE_SELECT",
      "talkRole": {
        "type": "TALK_ROLE_PLAYER",
        "_id": ""
      },
      "talkContentTextMapHash": 2108074706,
      "talkAssetPath": "",
      "talkAssetPathAlter": "",
      "talkAudioName": "",
      "actionBefore": "",
      "actionWhile": "",
      "actionAfter": "",
      "optionIcon": "",
      "iconPath": ""
    },
    {
      "id": 640600602,
      "nextDialogs": [
        640600603
      ],
      "talkRole": {
        "type": "TALK_ROLE_NPC",
        "_id": "4060"
      },
      "talkContentTextMapHash": 767195866,
      "talkAssetPath": "",
      "talkAssetPathAlter": "",
      "talkAudioName": "",
      "actionBefore": "",
      "actionWhile": "",
      "actionAfter": "",
      "optionIcon": "",
      "iconPath": ""
    },
    {
      "id": 640600603,
      "nextDialogs": [
        640600604
      ],
      "talkRole": {
        "type": "TALK_ROLE_NPC",
        "_id": "4060"
      },
      "talkContentTextMapHash": 1061524842,
      "talkAssetPath": "",
      "talkAssetPathAlter": "",
      "talkAudioName": "",
      "actionBefore": "",
      "actionWhile": "",
      "actionAfter": "",
      "optionIcon": "",
      "iconPath": ""
    },
    {
      "id": 640600604,
      "talkRole": {
        "type": "TALK_ROLE_NPC",
        "_id": "4060"
      },
      "talkContentTextMapHash": 3932527826,
      "talkAssetPath": "",
      "talkAssetPathAlter": "",
      "talkAudioName": "",
      "actionBefore": "",
      "actionWhile": "",
      "actionAfter": "",
      "optionIcon": "",
      "iconPath": ""
    }
  ]
}