{
  "talkId": 6406604,
  "KPGKDHAFHFE": "FREE",
  "dialogList": [
    {
      "id": 640660401,
      "nextDialogs": [
        640660402
      ],
      "talkShowType": "TALK_SHOW_FORCE_SELECT",
      "talkRole": {
        "type": "TALK_ROLE_PLAYER",
        "_id": ""
      },
      "talkContentTextMapHash": 426965898,
      "talkAssetPath": "",
      "talkAssetPathAlter": "",
      "talkAudioName": "",
      "actionBefore": "",
      "actionWhile": "",
      "actionAfter": "",
      "optionIcon": "",
      "iconPath": ""
    },
    {
      "id": 640660402,
      "nextDialogs": [
        640660403
      ],
      "talkRole": {
        "type": "TALK_ROLE_NPC",
        "_id": "4066"
      },
      "talkContentTextMapHash": 4159562858,
      "talkAssetPath": "",
      "talkAssetPathAlter": "",
      "talkAudioName": "",
      "actionBefore": "",
      "actionWhile": "SimpleTalk/RandomTalk",
      "actionAfter": "",
      "optionIcon": "",
      "iconPath": ""
    },
    {
      "id": 640660403,
      "nextDialogs": [
        640660404
      ],
      "talkRole": {
        "type": "TALK_ROLE_NPC",
        "_id": "4066"
      },
      "talkContentTextMapHash": 3979060914,
      "talkAssetPath": "",
      "talkAssetPathAlter": "",
      "talkAudioName": "",
      "actionBefore": "",
      "actionWhile": "SimpleTalk/Think",
      "actionAfter": "",
      "optionIcon": "",
      "iconPath": ""
    },
    {
      "id": 640660404,
      "nextDialogs": [
        640660405
      ],
      "talkRole": {
        "type": "TALK_ROLE_NPC",
        "_id": "4066"
      },
      "talkContentTextMapHash": 1450814314,
      "talkAssetPath": "",
      "talkAssetPathAlter": "",
      "talkAudioName": "",
      "actionBefore": "",
      "actionWhile": "",
      "actionAfter": "",
      "optionIcon": "",
      "iconPath": ""
    },
    {
      "id": 640660405,
      "talkRole": {
        "type": "TALK_ROLE_NPC",
        "_id": "4066"
      },
      "talkContentTextMapHash": 3655315746,
      "talkAssetPath": "",
      "talkAssetPathAlter": "",
      "talkAudioName": "",
      "actionBefore": "",
      "actionWhile": "SimpleTalk/RandomTalk",
      "actionAfter": "SimpleTalk/Idle_End",
      "optionIcon": "",
      "iconPath": ""
    }
  ]
}