{
  "talkId": 6406203,
  "KPGKDHAFHFE": "FREE",
  "dialogList": [
    {
      "id": 640620301,
      "nextDialogs": [
        640620302
      ],
      "talkShowType": "TALK_SHOW_FORCE_SELECT",
      "talkRole": {
        "type": "TALK_ROLE_PLAYER",
        "_id": ""
      },
      "talkContentTextMapHash": 2268088666,
      "talkAssetPath": "",
      "talkAssetPathAlter": "",
      "talkAudioName": "",
      "actionBefore": "",
      "actionWhile": "",
      "actionAfter": "",
      "optionIcon": "",
      "iconPath": ""
    },
    {
      "id": 640620302,
      "talkRole": {
        "type": "TALK_ROLE_NPC",
        "_id": "4062"
      },
      "talkContentTextMapHash": 1161935194,
      "talkAssetPath": "",
      "talkAssetPathAlter": "",
      "talkAudioName": "",
      "actionBefore": "",
      "actionWhile": "",
      "actionAfter": "",
      "optionIcon": "",
      "iconPath": ""
    }
  ]
}