{
  "talkId": 6406401,
  "KPGKDHAFHFE": "FREE",
  "dialogList": [
    {
      "id": 640640101,
      "talkRole": {
        "type": "TALK_ROLE_NPC",
        "_id": "4064"
      },
      "talkContentTextMapHash": 4087101290,
      "talkAssetPath": "",
      "talkAssetPathAlter": "",
      "talkAudioName": "",
      "actionBefore": "",
      "actionWhile": "",
      "actionAfter": "",
      "optionIcon": "",
      "iconPath": ""
    }
  ]
}