{
  "talkId": 6407502,
  "KPGKDHAFHFE": "FREE",
  "dialogList": [
    {
      "id": 640750201,
      "nextDialogs": [
        640750202
      ],
      "talkShowType": "TALK_SHOW_FORCE_SELECT",
      "talkRole": {
        "type": "TALK_ROLE_PLAYER",
        "_id": ""
      },
      "talkContentTextMapHash": 1036300106,
      "talkAssetPath": "",
      "talkAssetPathAlter": "",
      "talkAudioName": "",
      "actionBefore": "",
      "actionWhile": "",
      "actionAfter": "",
      "optionIcon": "",
      "iconPath": ""
    },
    {
      "id": 640750202,
      "nextDialogs": [
        640750203
      ],
      "talkRole": {
        "type": "TALK_ROLE_NPC",
        "_id": "4075"
      },
      "talkContentTextMapHash": 3512167274,
      "talkAssetPath": "",
      "talkAssetPathAlter": "",
      "talkAudioName": "",
      "actionBefore": "",
      "actionWhile": "",
      "actionAfter": "",
      "optionIcon": "",
      "iconPath": ""
    },
    {
      "id": 640750203,
      "nextDialogs": [
        640750204
      ],
      "talkRole": {
        "type": "TALK_ROLE_NPC",
        "_id": "4075"
      },
      "talkContentTextMapHash": 3607305682,
      "talkAssetPath": "",
      "talkAssetPathAlter": "",
      "talkAudioName": "",
      "actionBefore": "",
      "actionWhile": "",
      "actionAfter": "",
      "optionIcon": "",
      "iconPath": ""
    },
    {
      "id": 640750204,
      "talkRole": {
        "type": "TALK_ROLE_NPC",
        "_id": "4075"
      },
      "talkContentTextMapHash": 3371192810,
      "talkAssetPath": "",
      "talkAssetPathAlter": "",
      "talkAudioName": "",
      "actionBefore": "",
      "actionWhile": "",
      "actionAfter": "",
      "optionIcon": "",
      "iconPath": ""
    }
  ]
}