{
  "talkId": 6408906,
  "KPGKDHAFHFE": "FREE",
  "dialogList": [
    {
      "id": 640890601,
      "nextDialogs": [
        640890602
      ],
      "talkShowType": "TALK_SHOW_FORCE_SELECT",
      "talkRole": {
        "type": "TALK_ROLE_PLAYER",
        "_id": ""
      },
      "talkContentTextMapHash": 1021186330,
      "talkAssetPath": "",
      "talkAssetPathAlter": "",
      "talkAudioName": "",
      "actionBefore": "",
      "actionWhile": "",
      "actionAfter": "",
      "optionIcon": "",
      "iconPath": ""
    },
    {
      "id": 640890602,
      "nextDialogs": [
        640890603
      ],
      "talkRole": {
        "type": "TALK_ROLE_NPC",
        "_id": "4089"
      },
      "talkContentTextMapHash": 3194463938,
      "talkAssetPath": "",
      "talkAssetPathAlter": "",
      "talkAudioName": "",
      "actionBefore": "",
      "actionWhile": "",
      "actionAfter": "",
      "optionIcon": "",
      "iconPath": ""
    },
    {
      "id": 640890603,
      "nextDialogs": [
        640890604
      ],
      "talkRole": {
        "type": "TALK_ROLE_NPC",
        "_id": "4089"
      },
      "talkContentTextMapHash": 2282566458,
      "talkAssetPath": "",
      "talkAssetPathAlter": "",
      "talkAudioName": "",
      "actionBefore": "",
      "actionWhile": "",
      "actionAfter": "",
      "optionIcon": "",
      "iconPath": ""
    },
    {
      "id": 640890604,
      "nextDialogs": [
        640890605
      ],
      "talkRole": {
        "type": "TALK_ROLE_NPC",
        "_id": "4089"
      },
      "talkContentTextMapHash": 3187952962,
      "talkAssetPath": "",
      "talkAssetPathAlter": "",
      "talkAudioName": "",
      "actionBefore": "",
      "actionWhile": "",
      "actionAfter": "",
      "optionIcon": "",
      "iconPath": ""
    },
    {
      "id": 640890605,
      "talkRole": {
        "type": "TALK_ROLE_NPC",
        "_id": "4089"
      },
      "talkContentTextMapHash": 3426658674,
      "talkAssetPath": "",
      "talkAssetPathAlter": "",
      "talkAudioName": "",
      "actionBefore": "",
      "actionWhile": "",
      "actionAfter": "",
      "optionIcon": "",
      "iconPath": ""
    }
  ]
}