{
  "talkId": 6408304,
  "KPGKDHAFHFE": "FREE",
  "dialogList": [
    {
      "id": 640830401,
      "nextDialogs": [
        640830402
      ],
      "talkShowType": "TALK_SHOW_FORCE_SELECT",
      "talkRole": {
        "type": "TALK_ROLE_PLAYER",
        "_id": ""
      },
      "talkContentTextMapHash": 1229002626,
      "talkAssetPath": "",
      "talkAssetPathAlter": "",
      "talkAudioName": "",
      "actionBefore": "",
      "actionWhile": "",
      "actionAfter": "",
      "optionIcon": "",
      "iconPath": ""
    },
    {
      "id": 640830402,
      "nextDialogs": [
        640830403
      ],
      "talkRole": {
        "type": "TALK_ROLE_NPC",
        "_id": "4083"
      },
      "talkContentTextMapHash": 2899265714,
      "talkAssetPath": "",
      "talkAssetPathAlter": "",
      "talkAudioName": "",
      "actionBefore": "",
      "actionWhile": "",
      "actionAfter": "",
      "optionIcon": "",
      "iconPath": ""
    },
    {
      "id": 640830403,
      "nextDialogs": [
        640830404
      ],
      "talkRole": {
        "type": "TALK_ROLE_NPC",
        "_id": "4083"
      },
      "talkContentTextMapHash": 1062915634,
      "talkAssetPath": "",
      "talkAssetPathAlter": "",
      "talkAudioName": "",
      "actionBefore": "",
      "actionWhile": "",
      "actionAfter": "",
      "optionIcon": "",
      "iconPath": ""
    },
    {
      "id": 640830404,
      "nextDialogs": [
        640830405
      ],
      "talkRole": {
        "type": "TALK_ROLE_NPC",
        "_id": "4083"
      },
      "talkContentTextMapHash": 516556602,
      "talkAssetPath": "",
      "talkAssetPathAlter": "",
      "talkAudioName": "",
      "actionBefore": "",
      "actionWhile": "",
      "actionAfter": "",
      "optionIcon": "",
      "iconPath": ""
    },
    {
      "id": 640830405,
      "nextDialogs": [
        640830406
      ],
      "talkRole": {
        "type": "TALK_ROLE_NPC",
        "_id": "4083"
      },
      "talkContentTextMapHash": 4286995034,
      "talkAssetPath": "",
      "talkAssetPathAlter": "",
      "talkAudioName": "",
      "actionBefore": "",
      "actionWhile": "",
      "actionAfter": "",
      "optionIcon": "",
      "iconPath": ""
    },
    {
      "id": 640830406,
      "talkRole": {
        "type": "TALK_ROLE_NPC",
        "_id": "4083"
      },
      "talkContentTextMapHash": 2749282450,
      "talkAssetPath": "",
      "talkAssetPathAlter": "",
      "talkAudioName": "",
      "actionBefore": "",
      "actionWhile": "",
      "actionAfter": "",
      "optionIcon": "",
      "iconPath": ""
    }
  ]
}