{
  "talkId": 6408803,
  "KPGKDHAFHFE": "FREE",
  "dialogList": [
    {
      "id": 640880301,
      "nextDialogs": [
        640880302
      ],
      "talkShowType": "TALK_SHOW_FORCE_SELECT",
      "talkRole": {
        "type": "TALK_ROLE_PLAYER",
        "_id": ""
      },
      "talkContentTextMapHash": 2815130642,
      "talkAssetPath": "",
      "talkAssetPathAlter": "",
      "talkAudioName": "",
      "actionBefore": "",
      "actionWhile": "",
      "actionAfter": "",
      "optionIcon": "",
      "iconPath": ""
    },
    {
      "id": 640880302,
      "talkRole": {
        "type": "TALK_ROLE_NPC",
        "_id": "4088"
      },
      "talkContentTextMapHash": 353958346,
      "talkAssetPath": "",
      "talkAssetPathAlter": "",
      "talkAudioName": "",
      "actionBefore": "",
      "actionWhile": "SimpleTalk/RandomTalk",
      "actionAfter": "SimpleTalk/Idle_End",
      "optionIcon": "",
      "iconPath": ""
    }
  ]
}