{
  "talkId": 6408802,
  "KPGKDHAFHFE": "FREE",
  "dialogList": [
    {
      "id": 640880201,
      "nextDialogs": [
        640880202
      ],
      "talkShowType": "TALK_SHOW_FORCE_SELECT",
      "talkRole": {
        "type": "TALK_ROLE_PLAYER",
        "_id": ""
      },
      "talkContentTextMapHash": 567012754,
      "talkAssetPath": "",
      "talkAssetPathAlter": "",
      "talkAudioName": "",
      "actionBefore": "",
      "actionWhile": "",
      "actionAfter": "",
      "optionIcon": "",
      "iconPath": ""
    },
    {
      "id": 640880202,
      "nextDialogs": [
        640880203
      ],
      "talkRole": {
        "type": "TALK_ROLE_NPC",
        "_id": "4088"
      },
      "talkContentTextMapHash": 2964781978,
      "talkAssetPath": "",
      "talkAssetPathAlter": "",
      "talkAudioName": "",
      "actionBefore": "",
      "actionWhile": "",
      "actionAfter": "",
      "optionIcon": "",
      "iconPath": ""
    },
    {
      "id": 640880203,
      "nextDialogs": [
        640880204
      ],
      "talkRole": {
        "type": "TALK_ROLE_NPC",
        "_id": "4088"
      },
      "talkContentTextMapHash": 3882150122,
      "talkAssetPath": "",
      "talkAssetPathAlter": "",
      "talkAudioName": "",
      "actionBefore": "",
      "actionWhile": "SimpleTalk/RandomTalk",
      "actionAfter": "",
      "optionIcon": "",
      "iconPath": ""
    },
    {
      "id": 640880204,
      "nextDialogs": [
        640880205
      ],
      "talkRole": {
        "type": "TALK_ROLE_NPC",
        "_id": "4088"
      },
      "talkContentTextMapHash": 4085720226,
      "talkAssetPath": "",
      "talkAssetPathAlter": "",
      "talkAudioName": "",
      "actionBefore": "",
      "actionWhile": "",
      "actionAfter": "",
      "optionIcon": "",
      "iconPath": ""
    },
    {
      "id": 640880205,
      "nextDialogs": [
        640880206
      ],
      "talkRole": {
        "type": "TALK_ROLE_NPC",
        "_id": "4088"
      },
      "talkContentTextMapHash": 853096274,
      "talkAssetPath": "",
      "talkAssetPathAlter": "",
      "talkAudioName": "",
      "actionBefore": "",
      "actionWhile": "SimpleTalk/ShakeHead",
      "actionAfter": "",
      "optionIcon": "",
      "iconPath": ""
    },
    {
      "id": 640880206,
      "talkRole": {
        "type": "TALK_ROLE_NPC",
        "_id": "4088"
      },
      "talkContentTextMapHash": 2414779794,
      "talkAssetPath": "",
      "talkAssetPathAlter": "",
      "talkAudioName": "",
      "actionBefore": "",
      "actionWhile": "",
      "actionAfter": "SimpleTalk/RandomTalk",
      "optionIcon": "",
      "iconPath": ""
    }
  ]
}