{
  "talkId": 6409610,
  "KPGKDHAFHFE": "FREE",
  "dialogList": [
    {
      "id": 640961001,
      "nextDialogs": [
        640961002
      ],
      "talkShowType": "TALK_SHOW_FORCE_SELECT",
      "talkRole": {
        "type": "TALK_ROLE_PLAYER",
        "_id": ""
      },
      "talkContentTextMapHash": 303478330,
      "talkAssetPath": "",
      "talkAssetPathAlter": "",
      "talkAudioName": "",
      "actionBefore": "",
      "actionWhile": "",
      "actionAfter": "",
      "optionIcon": "",
      "iconPath": ""
    },
    {
      "id": 640961002,
      "nextDialogs": [
        640961003
      ],
      "talkRole": {
        "type": "TALK_ROLE_NPC",
        "_id": "4096"
      },
      "talkContentTextMapHash": 3012081474,
      "talkAssetPath": "",
      "talkAssetPathAlter": "",
      "talkAudioName": "",
      "actionBefore": "",
      "actionWhile": "",
      "actionAfter": "",
      "optionIcon": "",
      "iconPath": ""
    },
    {
      "id": 640961003,
      "nextDialogs": [
        640961004
      ],
      "talkRole": {
        "type": "TALK_ROLE_NPC",
        "_id": "4096"
      },
      "talkContentTextMapHash": 2010500674,
      "talkAssetPath": "",
      "talkAssetPathAlter": "",
      "talkAudioName": "",
      "actionBefore": "",
      "actionWhile": "",
      "actionAfter": "",
      "optionIcon": "",
      "iconPath": ""
    },
    {
      "id": 640961004,
      "nextDialogs": [
        640961005
      ],
      "talkRole": {
        "type": "TALK_ROLE_NPC",
        "_id": "4096"
      },
      "talkContentTextMapHash": 1671808178,
      "talkAssetPath": "",
      "talkAssetPathAlter": "",
      "talkAudioName": "",
      "actionBefore": "",
      "actionWhile": "",
      "actionAfter": "",
      "optionIcon": "",
      "iconPath": ""
    },
    {
      "id": 640961005,
      "talkRole": {
        "type": "TALK_ROLE_NPC",
        "_id": "4096"
      },
      "talkContentTextMapHash": 1002205498,
      "talkAssetPath": "",
      "talkAssetPathAlter": "",
      "talkAudioName": "",
      "actionBefore": "",
      "actionWhile": "",
      "actionAfter": "",
      "optionIcon": "",
      "iconPath": ""
    }
  ]
}