{
  "talkId": 6409101,
  "KPGKDHAFHFE": "FREE",
  "dialogList": [
    {
      "id": 640910101,
      "talkRole": {
        "type": "TALK_ROLE_NPC",
        "_id": "4091"
      },
      "talkContentTextMapHash": 1942839602,
      "talkAssetPath": "",
      "talkAssetPathAlter": "",
      "talkAudioName": "",
      "actionBefore": "",
      "actionWhile": "SimpleTalk/LerpInNpcDailyTalk_Start",
      "actionAfter": "",
      "optionIcon": "",
      "iconPath": ""
    }
  ]
}