{
  "talkId": 6409103,
  "KPGKDHAFHFE": "FREE",
  "dialogList": [
    {
      "id": 640910301,
      "nextDialogs": [
        640910302
      ],
      "talkShowType": "TALK_SHOW_FORCE_SELECT",
      "talkRole": {
        "type": "TALK_ROLE_PLAYER",
        "_id": ""
      },
      "talkContentTextMapHash": 886051898,
      "talkAssetPath": "",
      "talkAssetPathAlter": "",
      "talkAudioName": "",
      "actionBefore": "",
      "actionWhile": "",
      "actionAfter": "",
      "optionIcon": "",
      "iconPath": ""
    },
    {
      "id": 640910302,
      "talkRole": {
        "type": "TALK_ROLE_NPC",
        "_id": "4091"
      },
      "talkContentTextMapHash": 1377228450,
      "talkAssetPath": "",
      "talkAssetPathAlter": "",
      "talkAudioName": "",
      "actionBefore": "",
      "actionWhile": "",
      "actionAfter": "",
      "optionIcon": "",
      "iconPath": ""
    }
  ]
}