{
  "talkId": 6409902,
  "KPGKDHAFHFE": "FREE",
  "dialogList": [
    {
      "id": 640990201,
      "nextDialogs": [
        640990202
      ],
      "talkShowType": "TALK_SHOW_FORCE_SELECT",
      "talkRole": {
        "type": "TALK_ROLE_PLAYER",
        "_id": ""
      },
      "talkContentTextMapHash": 2940420834,
      "talkAssetPath": "",
      "talkAssetPathAlter": "",
      "talkAudioName": "",
      "actionBefore": "",
      "actionWhile": "",
      "actionAfter": "",
      "optionIcon": "",
      "iconPath": ""
    },
    {
      "id": 640990202,
      "nextDialogs": [
        640990203
      ],
      "talkRole": {
        "type": "TALK_ROLE_NPC",
        "_id": "4099"
      },
      "talkContentTextMapHash": 1968829458,
      "talkAssetPath": "",
      "talkAssetPathAlter": "",
      "talkAudioName": "",
      "actionBefore": "",
      "actionWhile": "",
      "actionAfter": "",
      "optionIcon": "",
      "iconPath": ""
    },
    {
      "id": 640990203,
      "nextDialogs": [
        640990204
      ],
      "talkRole": {
        "type": "TALK_ROLE_NPC",
        "_id": "4099"
      },
      "talkContentTextMapHash": 4066637682,
      "talkAssetPath": "",
      "talkAssetPathAlter": "",
      "talkAudioName": "",
      "actionBefore": "",
      "actionWhile": "",
      "actionAfter": "",
      "optionIcon": "",
      "iconPath": ""
    },
    {
      "id": 640990204,
      "talkRole": {
        "type": "TALK_ROLE_NPC",
        "_id": "4099"
      },
      "talkContentTextMapHash": 2336660202,
      "talkAssetPath": "",
      "talkAssetPathAlter": "",
      "talkAudioName": "",
      "actionBefore": "",
      "actionWhile": "",
      "actionAfter": "",
      "optionIcon": "",
      "iconPath": ""
    }
  ]
}