{
  "talkId": 6410704,
  "KPGKDHAFHFE": "FREE",
  "dialogList": [
    {
      "id": 641070401,
      "nextDialogs": [
        641070402
      ],
      "talkShowType": "TALK_SHOW_FORCE_SELECT",
      "talkRole": {
        "type": "TALK_ROLE_PLAYER",
        "_id": ""
      },
      "talkContentTextMapHash": 4065399954,
      "talkAssetPath": "",
      "talkAssetPathAlter": "",
      "talkAudioName": "",
      "actionBefore": "",
      "actionWhile": "",
      "actionAfter": "",
      "optionIcon": "",
      "iconPath": ""
    },
    {
      "id": 641070402,
      "talkRole": {
        "type": "TALK_ROLE_NPC",
        "_id": "4107"
      },
      "talkContentTextMapHash": 3240862178,
      "talkAssetPath": "",
      "talkAssetPathAlter": "",
      "talkAudioName": "",
      "actionBefore": "",
      "actionWhile": "",
      "actionAfter": "",
      "optionIcon": "",
      "iconPath": ""
    }
  ]
}