{
  "talkId": 6410203,
  "KPGKDHAFHFE": "FREE",
  "dialogList": [
    {
      "id": 641020301,
      "nextDialogs": [
        641020302
      ],
      "talkShowType": "TALK_SHOW_FORCE_SELECT",
      "talkRole": {
        "type": "TALK_ROLE_PLAYER",
        "_id": ""
      },
      "talkContentTextMapHash": 1014160578,
      "talkAssetPath": "",
      "talkAssetPathAlter": "",
      "talkAudioName": "",
      "actionBefore": "",
      "actionWhile": "",
      "actionAfter": "",
      "optionIcon": "",
      "iconPath": ""
    },
    {
      "id": 641020302,
      "talkRole": {
        "type": "TALK_ROLE_NPC",
        "_id": "4102"
      },
      "talkContentTextMapHash": 3230932810,
      "talkAssetPath": "",
      "talkAssetPathAlter": "",
      "talkAudioName": "",
      "actionBefore": "",
      "actionWhile": "",
      "actionAfter": "",
      "optionIcon": "",
      "iconPath": ""
    }
  ]
}