{
  "talkId": 6410201,
  "KPGKDHAFHFE": "FREE",
  "dialogList": [
    {
      "id": 641020101,
      "talkRole": {
        "type": "TALK_ROLE_NPC",
        "_id": "4102"
      },
      "talkContentTextMapHash": 995402666,
      "talkAssetPath": "",
      "talkAssetPathAlter": "",
      "talkAudioName": "",
      "actionBefore": "",
      "actionWhile": "SimpleTalk/LerpInNpcDailyTalk_Start",
      "actionAfter": "",
      "optionIcon": "",
      "iconPath": ""
    }
  ]
}