{
  "talkId": 6410404,
  "KPGKDHAFHFE": "FREE",
  "dialogList": [
    {
      "id": 641040401,
      "nextDialogs": [
        641040402
      ],
      "talkShowType": "TALK_SHOW_FORCE_SELECT",
      "talkRole": {
        "type": "TALK_ROLE_PLAYER",
        "_id": ""
      },
      "talkContentTextMapHash": 838660874,
      "talkAssetPath": "",
      "talkAssetPathAlter": "",
      "talkAudioName": "",
      "actionBefore": "",
      "actionWhile": "",
      "actionAfter": "",
      "optionIcon": "",
      "iconPath": ""
    },
    {
      "id": 641040402,
      "nextDialogs": [
        641040403
      ],
      "talkRole": {
        "type": "TALK_ROLE_NPC",
        "_id": "4104"
      },
      "talkContentTextMapHash": 3897260266,
      "talkAssetPath": "",
      "talkAssetPathAlter": "",
      "talkAudioName": "",
      "actionBefore": "",
      "actionWhile": "SimpleTalk/Think",
      "actionAfter": "",
      "optionIcon": "",
      "iconPath": ""
    },
    {
      "id": 641040403,
      "nextDialogs": [
        641040404
      ],
      "talkRole": {
        "type": "TALK_ROLE_NPC",
        "_id": "4104"
      },
      "talkContentTextMapHash": 3908623330,
      "talkAssetPath": "",
      "talkAssetPathAlter": "",
      "talkAudioName": "",
      "actionBefore": "",
      "actionWhile": "",
      "actionAfter": "",
      "optionIcon": "",
      "iconPath": ""
    },
    {
      "id": 641040404,
      "nextDialogs": [
        641040405
      ],
      "talkRole": {
        "type": "TALK_ROLE_NPC",
        "_id": "4104"
      },
      "talkContentTextMapHash": 1815612210,
      "talkAssetPath": "",
      "talkAssetPathAlter": "",
      "talkAudioName": "",
      "actionBefore": "",
      "actionWhile": "SimpleTalk/RandomTalk",
      "actionAfter": "",
      "optionIcon": "",
      "iconPath": ""
    },
    {
      "id": 641040405,
      "nextDialogs": [
        641040406
      ],
      "talkRole": {
        "type": "TALK_ROLE_NPC",
        "_id": "4104"
      },
      "talkContentTextMapHash": 1148829698,
      "talkAssetPath": "",
      "talkAssetPathAlter": "",
      "talkAudioName": "",
      "actionBefore": "",
      "actionWhile": "SimpleTalk/ChildCoverEye",
      "actionAfter": "",
      "optionIcon": "",
      "iconPath": ""
    },
    {
      "id": 641040406,
      "nextDialogs": [
        641040407
      ],
      "talkRole": {
        "type": "TALK_ROLE_NPC",
        "_id": "4104"
      },
      "talkContentTextMapHash": 2717781722,
      "talkAssetPath": "",
      "talkAssetPathAlter": "",
      "talkAudioName": "",
      "actionBefore": "",
      "actionWhile": "SimpleTalk/Standby",
      "actionAfter": "",
      "optionIcon": "",
      "iconPath": ""
    },
    {
      "id": 641040407,
      "talkRole": {
        "type": "TALK_ROLE_NPC",
        "_id": "4104"
      },
      "talkContentTextMapHash": 2731658938,
      "talkAssetPath": "",
      "talkAssetPathAlter": "",
      "talkAudioName": "",
      "actionBefore": "",
      "actionWhile": "SimpleTalk/ChildCoverEye",
      "actionAfter": "SimpleTalk/Idle_End",
      "optionIcon": "",
      "iconPath": ""
    }
  ]
}