{
  "talkId": 6410603,
  "KPGKDHAFHFE": "FREE",
  "dialogList": [
    {
      "id": 641060301,
      "nextDialogs": [
        641060302
      ],
      "talkShowType": "TALK_SHOW_FORCE_SELECT",
      "talkRole": {
        "type": "TALK_ROLE_PLAYER",
        "_id": ""
      },
      "talkContentTextMapHash": 4288493194,
      "talkAssetPath": "",
      "talkAssetPathAlter": "",
      "talkAudioName": "",
      "actionBefore": "",
      "actionWhile": "",
      "actionAfter": "",
      "optionIcon": "",
      "iconPath": ""
    },
    {
      "id": 641060302,
      "talkRole": {
        "type": "TALK_ROLE_NPC",
        "_id": "4106"
      },
      "talkContentTextMapHash": 2463422122,
      "talkAssetPath": "",
      "talkAssetPathAlter": "",
      "talkAudioName": "",
      "actionBefore": "",
      "actionWhile": "",
      "actionAfter": "",
      "optionIcon": "",
      "iconPath": ""
    }
  ]
}