{
  "talkId": 6411902,
  "KPGKDHAFHFE": "FREE",
  "dialogList": [
    {
      "id": 641190201,
      "nextDialogs": [
        641190202
      ],
      "talkShowType": "TALK_SHOW_FORCE_SELECT",
      "talkRole": {
        "type": "TALK_ROLE_PLAYER",
        "_id": ""
      },
      "talkContentTextMapHash": 763867818,
      "talkAssetPath": "",
      "talkAssetPathAlter": "",
      "talkAudioName": "",
      "actionBefore": "",
      "actionWhile": "",
      "actionAfter": "",
      "optionIcon": "",
      "iconPath": ""
    },
    {
      "id": 641190202,
      "nextDialogs": [
        641190203
      ],
      "talkRole": {
        "type": "TALK_ROLE_NPC",
        "_id": "4119"
      },
      "talkContentTextMapHash": 2500520034,
      "talkAssetPath": "",
      "talkAssetPathAlter": "",
      "talkAudioName": "",
      "actionBefore": "",
      "actionWhile": "",
      "actionAfter": "",
      "optionIcon": "",
      "iconPath": ""
    },
    {
      "id": 641190203,
      "nextDialogs": [
        641190204
      ],
      "talkRole": {
        "type": "TALK_ROLE_NPC",
        "_id": "4119"
      },
      "talkContentTextMapHash": 2304092474,
      "talkAssetPath": "",
      "talkAssetPathAlter": "",
      "talkAudioName": "",
      "actionBefore": "",
      "actionWhile": "",
      "actionAfter": "",
      "optionIcon": "",
      "iconPath": ""
    },
    {
      "id": 641190204,
      "nextDialogs": [
        641190205
      ],
      "talkRole": {
        "type": "TALK_ROLE_NPC",
        "_id": "4119"
      },
      "talkContentTextMapHash": 1974527858,
      "talkAssetPath": "",
      "talkAssetPathAlter": "",
      "talkAudioName": "",
      "actionBefore": "",
      "actionWhile": "",
      "actionAfter": "",
      "optionIcon": "",
      "iconPath": ""
    },
    {
      "id": 641190205,
      "nextDialogs": [
        641190206
      ],
      "talkRole": {
        "type": "TALK_ROLE_NPC",
        "_id": "4119"
      },
      "talkContentTextMapHash": 3906518930,
      "talkAssetPath": "",
      "talkAssetPathAlter": "",
      "talkAudioName": "",
      "actionBefore": "",
      "actionWhile": "",
      "actionAfter": "",
      "optionIcon": "",
      "iconPath": ""
    },
    {
      "id": 641190206,
      "talkRole": {
        "type": "TALK_ROLE_NPC",
        "_id": "4119"
      },
      "talkContentTextMapHash": 3900182546,
      "talkAssetPath": "",
      "talkAssetPathAlter": "",
      "talkAudioName": "",
      "actionBefore": "",
      "actionWhile": "",
      "actionAfter": "",
      "optionIcon": "",
      "iconPath": ""
    }
  ]
}