{
  "talkId": 6411103,
  "KPGKDHAFHFE": "FREE",
  "dialogList": [
    {
      "id": 641110301,
      "nextDialogs": [
        641110302
      ],
      "talkShowType": "TALK_SHOW_FORCE_SELECT",
      "talkRole": {
        "type": "TALK_ROLE_PLAYER",
        "_id": ""
      },
      "talkContentTextMapHash": 400787418,
      "talkAssetPath": "",
      "talkAssetPathAlter": "",
      "talkAudioName": "",
      "actionBefore": "",
      "actionWhile": "",
      "actionAfter": "",
      "optionIcon": "",
      "iconPath": ""
    },
    {
      "id": 641110302,
      "talkRole": {
        "type": "TALK_ROLE_NPC",
        "_id": "4111"
      },
      "talkContentTextMapHash": 3306157650,
      "talkAssetPath": "",
      "talkAssetPathAlter": "",
      "talkAudioName": "",
      "actionBefore": "",
      "actionWhile": "",
      "actionAfter": "",
      "optionIcon": "",
      "iconPath": ""
    }
  ]
}