{
  "talkId": 6411603,
  "KPGKDHAFHFE": "FREE",
  "dialogList": [
    {
      "id": 641160301,
      "nextDialogs": [
        641160302
      ],
      "talkShowType": "TALK_SHOW_FORCE_SELECT",
      "talkRole": {
        "type": "TALK_ROLE_PLAYER",
        "_id": ""
      },
      "talkContentTextMapHash": 2065842450,
      "talkAssetPath": "",
      "talkAssetPathAlter": "",
      "talkAudioName": "",
      "actionBefore": "",
      "actionWhile": "",
      "actionAfter": "",
      "optionIcon": "",
      "iconPath": ""
    },
    {
      "id": 641160302,
      "talkRole": {
        "type": "TALK_ROLE_NPC",
        "_id": "4116"
      },
      "talkContentTextMapHash": 3356713738,
      "talkAssetPath": "",
      "talkAssetPathAlter": "",
      "talkAudioName": "",
      "actionBefore": "",
      "actionWhile": "",
      "actionAfter": "",
      "optionIcon": "",
      "iconPath": ""
    }
  ]
}