{
  "talkId": 6411803,
  "KPGKDHAFHFE": "FREE",
  "dialogList": [
    {
      "id": 641180301,
      "nextDialogs": [
        641180302
      ],
      "talkShowType": "TALK_SHOW_FORCE_SELECT",
      "talkRole": {
        "type": "TALK_ROLE_PLAYER",
        "_id": ""
      },
      "talkContentTextMapHash": 2147845482,
      "talkAssetPath": "",
      "talkAssetPathAlter": "",
      "talkAudioName": "",
      "actionBefore": "",
      "actionWhile": "",
      "actionAfter": "",
      "optionIcon": "",
      "iconPath": ""
    },
    {
      "id": 641180302,
      "talkRole": {
        "type": "TALK_ROLE_NPC",
        "_id": "4118"
      },
      "talkContentTextMapHash": 2811463378,
      "talkAssetPath": "",
      "talkAssetPathAlter": "",
      "talkAudioName": "",
      "actionBefore": "",
      "actionWhile": "",
      "actionAfter": "",
      "optionIcon": "",
      "iconPath": ""
    }
  ]
}