{
  "talkId": 6412902,
  "KPGKDHAFHFE": "FREE",
  "dialogList": [
    {
      "id": 641290201,
      "nextDialogs": [
        641290202
      ],
      "talkShowType": "TALK_SHOW_FORCE_SELECT",
      "talkRole": {
        "type": "TALK_ROLE_PLAYER",
        "_id": ""
      },
      "talkContentTextMapHash": 3081269922,
      "talkAssetPath": "",
      "talkAssetPathAlter": "",
      "talkAudioName": "",
      "actionBefore": "",
      "actionWhile": "",
      "actionAfter": "",
      "optionIcon": "",
      "iconPath": ""
    },
    {
      "id": 641290202,
      "nextDialogs": [
        641290203
      ],
      "talkRole": {
        "type": "TALK_ROLE_NPC",
        "_id": "4129"
      },
      "talkContentTextMapHash": 3495489098,
      "talkAssetPath": "",
      "talkAssetPathAlter": "",
      "talkAudioName": "",
      "actionBefore": "",
      "actionWhile": "SimpleTalk/Standby",
      "actionAfter": "",
      "optionIcon": "",
      "iconPath": ""
    },
    {
      "id": 641290203,
      "nextDialogs": [
        641290204
      ],
      "talkRole": {
        "type": "TALK_ROLE_NPC",
        "_id": "4129"
      },
      "talkContentTextMapHash": 2782139994,
      "talkAssetPath": "",
      "talkAssetPathAlter": "",
      "talkAudioName": "",
      "actionBefore": "",
      "actionWhile": "SimpleTalk/SitHoldArm",
      "actionAfter": "",
      "optionIcon": "",
      "iconPath": ""
    },
    {
      "id": 641290204,
      "nextDialogs": [
        641290205
      ],
      "talkRole": {
        "type": "TALK_ROLE_NPC",
        "_id": "4129"
      },
      "talkContentTextMapHash": 3809441458,
      "talkAssetPath": "",
      "talkAssetPathAlter": "",
      "talkAudioName": "",
      "actionBefore": "",
      "actionWhile": "SimpleTalk/SitHoldArmHand",
      "actionAfter": "",
      "optionIcon": "",
      "iconPath": ""
    },
    {
      "id": 641290205,
      "talkRole": {
        "type": "TALK_ROLE_NPC",
        "_id": "4129"
      },
      "talkContentTextMapHash": 3087657394,
      "talkAssetPath": "",
      "talkAssetPathAlter": "",
      "talkAudioName": "",
      "actionBefore": "",
      "actionWhile": "SimpleTalk/Standby",
      "actionAfter": "",
      "optionIcon": "",
      "iconPath": ""
    }
  ]
}