{
  "talkId": 6412201,
  "KPGKDHAFHFE": "FREE",
  "dialogList": [
    {
      "id": 641220101,
      "nextDialogs": [
        641220102
      ],
      "talkRole": {
        "type": "TALK_ROLE_NPC",
        "_id": "4122"
      },
      "talkContentTextMapHash": 3499040178,
      "talkAssetPath": "",
      "talkAssetPathAlter": "",
      "talkAudioName": "",
      "actionBefore": "",
      "actionWhile": "TEST/LerpInNpcNoSteer",
      "actionAfter": "",
      "optionIcon": "",
      "iconPath": ""
    },
    {
      "id": 641220102,
      "nextDialogs": [
        641220103
      ],
      "talkRole": {
        "type": "TALK_ROLE_NPC",
        "_id": "4123"
      },
      "talkContentTextMapHash": 1802787066,
      "talkAssetPath": "",
      "talkAssetPathAlter": "",
      "talkAudioName": "",
      "actionBefore": "",
      "actionWhile": "",
      "actionAfter": "",
      "optionIcon": "",
      "iconPath": ""
    },
    {
      "id": 641220103,
      "nextDialogs": [
        641220104
      ],
      "talkRole": {
        "type": "TALK_ROLE_NPC",
        "_id": "4122"
      },
      "talkContentTextMapHash": 2367996186,
      "talkAssetPath": "",
      "talkAssetPathAlter": "",
      "talkAudioName": "",
      "actionBefore": "",
      "actionWhile": "",
      "actionAfter": "",
      "optionIcon": "",
      "iconPath": ""
    },
    {
      "id": 641220104,
      "nextDialogs": [
        641220105
      ],
      "talkRole": {
        "type": "TALK_ROLE_NPC",
        "_id": "4122"
      },
      "talkContentTextMapHash": 3934878002,
      "talkAssetPath": "",
      "talkAssetPathAlter": "",
      "talkAudioName": "",
      "actionBefore": "",
      "actionWhile": "",
      "actionAfter": "",
      "optionIcon": "",
      "iconPath": ""
    },
    {
      "id": 641220105,
      "nextDialogs": [
        641220106
      ],
      "talkRole": {
        "type": "TALK_ROLE_NPC",
        "_id": "4123"
      },
      "talkContentTextMapHash": 4177816138,
      "talkAssetPath": "",
      "talkAssetPathAlter": "",
      "talkAudioName": "",
      "actionBefore": "",
      "actionWhile": "",
      "actionAfter": "",
      "optionIcon": "",
      "iconPath": ""
    },
    {
      "id": 641220106,
      "nextDialogs": [
        641220107
      ],
      "talkRole": {
        "type": "TALK_ROLE_NPC",
        "_id": "4122"
      },
      "talkContentTextMapHash": 3631028058,
      "talkAssetPath": "",
      "talkAssetPathAlter": "",
      "talkAudioName": "",
      "actionBefore": "",
      "actionWhile": "",
      "actionAfter": "",
      "optionIcon": "",
      "iconPath": ""
    },
    {
      "id": 641220107,
      "talkRole": {
        "type": "TALK_ROLE_NPC",
        "_id": "4123"
      },
      "talkContentTextMapHash": 1362407538,
      "talkAssetPath": "",
      "talkAssetPathAlter": "",
      "talkAudioName": "",
      "actionBefore": "",
      "actionWhile": "",
      "actionAfter": "TEST/LerpOutNpcNoSteer",
      "optionIcon": "",
      "iconPath": ""
    }
  ]
}