{
  "talkId": 6413101,
  "KPGKDHAFHFE": "FREE",
  "dialogList": [
    {
      "id": 641310101,
      "nextDialogs": [
        641310102
      ],
      "talkRole": {
        "type": "TALK_ROLE_NPC",
        "_id": "4131"
      },
      "talkContentTextMapHash": 3438032834,
      "talkAssetPath": "",
      "talkAssetPathAlter": "",
      "talkAudioName": "",
      "actionBefore": "",
      "actionWhile": "TEST/LerpInNpcNoSteer",
      "actionAfter": "",
      "optionIcon": "",
      "iconPath": ""
    },
    {
      "id": 641310102,
      "talkRole": {
        "type": "TALK_ROLE_NPC",
        "_id": "4131"
      },
      "talkContentTextMapHash": 4083160874,
      "talkAssetPath": "",
      "talkAssetPathAlter": "",
      "talkAudioName": "",
      "actionBefore": "",
      "actionWhile": "",
      "actionAfter": "TEST/LerpOutNpcNoSteer",
      "optionIcon": "",
      "iconPath": ""
    }
  ]
}