{
  "talkId": 6413002,
  "KPGKDHAFHFE": "FREE",
  "dialogList": [
    {
      "id": 641300201,
      "nextDialogs": [
        641300202
      ],
      "talkShowType": "TALK_SHOW_FORCE_SELECT",
      "talkRole": {
        "type": "TALK_ROLE_PLAYER",
        "_id": ""
      },
      "talkContentTextMapHash": 3734593306,
      "talkAssetPath": "",
      "talkAssetPathAlter": "",
      "talkAudioName": "",
      "actionBefore": "",
      "actionWhile": "",
      "actionAfter": "",
      "optionIcon": "UI_Icon_Intee_Shop",
      "iconPath": ""
    },
    {
      "id": 641300202,
      "talkRole": {
        "type": "TALK_ROLE_NPC",
        "_id": "4130"
      },
      "talkContentTextMapHash": 4165250034,
      "talkAssetPath": "",
      "talkAssetPathAlter": "",
      "talkAudioName": "",
      "actionBefore": "",
      "actionWhile": "",
      "actionAfter": "Shop/shop_open_1079",
      "optionIcon": "",
      "iconPath": ""
    }
  ]
}