{
  "talkId": 6414802,
  "KPGKDHAFHFE": "FREE",
  "dialogList": [
    {
      "id": 641480201,
      "nextDialogs": [
        641480202
      ],
      "talkShowType": "TALK_SHOW_FORCE_SELECT",
      "talkRole": {
        "type": "TALK_ROLE_PLAYER",
        "_id": ""
      },
      "talkContentTextMapHash": 4202620186,
      "talkAssetPath": "",
      "talkAssetPathAlter": "",
      "talkAudioName": "",
      "actionBefore": "",
      "actionWhile": "",
      "actionAfter": "",
      "optionIcon": "",
      "iconPath": ""
    },
    {
      "id": 641480202,
      "nextDialogs": [
        641480203
      ],
      "talkRole": {
        "type": "TALK_ROLE_NPC",
        "_id": "4148"
      },
      "talkContentTextMapHash": 3956429138,
      "talkAssetPath": "",
      "talkAssetPathAlter": "",
      "talkAudioName": "",
      "actionBefore": "",
      "actionWhile": "",
      "actionAfter": "",
      "optionIcon": "",
      "iconPath": ""
    },
    {
      "id": 641480203,
      "nextDialogs": [
        641480204
      ],
      "talkRole": {
        "type": "TALK_ROLE_NPC",
        "_id": "4148"
      },
      "talkContentTextMapHash": 1496778146,
      "talkAssetPath": "",
      "talkAssetPathAlter": "",
      "talkAudioName": "",
      "actionBefore": "",
      "actionWhile": "",
      "actionAfter": "",
      "optionIcon": "",
      "iconPath": ""
    },
    {
      "id": 641480204,
      "nextDialogs": [
        641480205
      ],
      "talkRole": {
        "type": "TALK_ROLE_NPC",
        "_id": "4148"
      },
      "talkContentTextMapHash": 1438970890,
      "talkAssetPath": "",
      "talkAssetPathAlter": "",
      "talkAudioName": "",
      "actionBefore": "",
      "actionWhile": "",
      "actionAfter": "",
      "optionIcon": "",
      "iconPath": ""
    },
    {
      "id": 641480205,
      "nextDialogs": [
        641480206
      ],
      "talkRole": {
        "type": "TALK_ROLE_NPC",
        "_id": "4148"
      },
      "talkContentTextMapHash": 3236322250,
      "talkAssetPath": "",
      "talkAssetPathAlter": "",
      "talkAudioName": "",
      "actionBefore": "",
      "actionWhile": "",
      "actionAfter": "",
      "optionIcon": "",
      "iconPath": ""
    },
    {
      "id": 641480206,
      "nextDialogs": [
        641480207
      ],
      "talkRole": {
        "type": "TALK_ROLE_NPC",
        "_id": "4148"
      },
      "talkContentTextMapHash": 1994632914,
      "talkAssetPath": "",
      "talkAssetPathAlter": "",
      "talkAudioName": "",
      "actionBefore": "",
      "actionWhile": "",
      "actionAfter": "",
      "optionIcon": "",
      "iconPath": ""
    },
    {
      "id": 641480207,
      "nextDialogs": [
        641480208
      ],
      "talkRole": {
        "type": "TALK_ROLE_NPC",
        "_id": "4148"
      },
      "talkContentTextMapHash": 3742099458,
      "talkAssetPath": "",
      "talkAssetPathAlter": "",
      "talkAudioName": "",
      "actionBefore": "",
      "actionWhile": "",
      "actionAfter": "",
      "optionIcon": "",
      "iconPath": ""
    },
    {
      "id": 641480208,
      "talkRole": {
        "type": "TALK_ROLE_NPC",
        "_id": "4148"
      },
      "talkContentTextMapHash": 2989954722,
      "talkAssetPath": "",
      "talkAssetPathAlter": "",
      "talkAudioName": "",
      "actionBefore": "",
      "actionWhile": "",
      "actionAfter": "",
      "optionIcon": "",
      "iconPath": ""
    }
  ]
}