{
  "talkId": 6416703,
  "KPGKDHAFHFE": "FREE",
  "dialogList": [
    {
      "id": 641670301,
      "nextDialogs": [
        641670302
      ],
      "talkShowType": "TALK_SHOW_FORCE_SELECT",
      "talkRole": {
        "type": "TALK_ROLE_PLAYER",
        "_id": ""
      },
      "talkContentTextMapHash": 3821330642,
      "talkAssetPath": "",
      "talkAssetPathAlter": "",
      "talkAudioName": "",
      "actionBefore": "",
      "actionWhile": "",
      "actionAfter": "",
      "optionIcon": "",
      "iconPath": ""
    },
    {
      "id": 641670302,
      "nextDialogs": [
        641670303
      ],
      "talkRole": {
        "type": "TALK_ROLE_NPC",
        "_id": "4167"
      },
      "talkContentTextMapHash": 3476596890,
      "talkAssetPath": "",
      "talkAssetPathAlter": "",
      "talkAudioName": "",
      "actionBefore": "",
      "actionWhile": "",
      "actionAfter": "",
      "optionIcon": "",
      "iconPath": ""
    },
    {
      "id": 641670303,
      "nextDialogs": [
        641670304
      ],
      "talkRole": {
        "type": "TALK_ROLE_NPC",
        "_id": "4167"
      },
      "talkContentTextMapHash": 2322635250,
      "talkAssetPath": "",
      "talkAssetPathAlter": "",
      "talkAudioName": "",
      "actionBefore": "",
      "actionWhile": "",
      "actionAfter": "",
      "optionIcon": "",
      "iconPath": ""
    },
    {
      "id": 641670304,
      "nextDialogs": [
        641670305
      ],
      "talkRole": {
        "type": "TALK_ROLE_NPC",
        "_id": "4167"
      },
      "talkContentTextMapHash": 826989322,
      "talkAssetPath": "",
      "talkAssetPathAlter": "",
      "talkAudioName": "",
      "actionBefore": "",
      "actionWhile": "",
      "actionAfter": "",
      "optionIcon": "",
      "iconPath": ""
    },
    {
      "id": 641670305,
      "talkRole": {
        "type": "TALK_ROLE_NPC",
        "_id": "4167"
      },
      "talkContentTextMapHash": 3846329602,
      "talkAssetPath": "",
      "talkAssetPathAlter": "",
      "talkAudioName": "",
      "actionBefore": "",
      "actionWhile": "",
      "actionAfter": "",
      "optionIcon": "",
      "iconPath": ""
    }
  ]
}