{
  "talkId": 6416704,
  "KPGKDHAFHFE": "FREE",
  "dialogList": [
    {
      "id": 641670401,
      "nextDialogs": [
        641670402
      ],
      "talkShowType": "TALK_SHOW_FORCE_SELECT",
      "talkRole": {
        "type": "TALK_ROLE_PLAYER",
        "_id": ""
      },
      "talkContentTextMapHash": 3944279442,
      "talkAssetPath": "",
      "talkAssetPathAlter": "",
      "talkAudioName": "",
      "actionBefore": "",
      "actionWhile": "",
      "actionAfter": "",
      "optionIcon": "",
      "iconPath": ""
    },
    {
      "id": 641670402,
      "talkRole": {
        "type": "TALK_ROLE_NPC",
        "_id": "4167"
      },
      "talkContentTextMapHash": 3385690362,
      "talkAssetPath": "",
      "talkAssetPathAlter": "",
      "talkAudioName": "",
      "actionBefore": "",
      "actionWhile": "",
      "actionAfter": "",
      "optionIcon": "",
      "iconPath": ""
    }
  ]
}