{
  "talkId": 6417201,
  "KPGKDHAFHFE": "FREE",
  "dialogList": [
    {
      "id": 641720101,
      "nextDialogs": [
        641720102
      ],
      "talkRole": {
        "type": "TALK_ROLE_NPC",
        "_id": "4172"
      },
      "talkContentTextMapHash": 3991478866,
      "talkAssetPath": "",
      "talkAssetPathAlter": "",
      "talkAudioName": "",
      "actionBefore": "",
      "actionWhile": "TEST/LerpInNpcNoSteer",
      "actionAfter": "",
      "optionIcon": "",
      "iconPath": ""
    },
    {
      "id": 641720102,
      "nextDialogs": [
        641720103
      ],
      "talkRole": {
        "type": "TALK_ROLE_NPC",
        "_id": "4173"
      },
      "talkContentTextMapHash": 3743125898,
      "talkAssetPath": "",
      "talkAssetPathAlter": "",
      "talkAudioName": "",
      "actionBefore": "",
      "actionWhile": "",
      "actionAfter": "",
      "optionIcon": "",
      "iconPath": ""
    },
    {
      "id": 641720103,
      "nextDialogs": [
        641720104
      ],
      "talkRole": {
        "type": "TALK_ROLE_NPC",
        "_id": "4172"
      },
      "talkContentTextMapHash": 2865462682,
      "talkAssetPath": "",
      "talkAssetPathAlter": "",
      "talkAudioName": "",
      "actionBefore": "",
      "actionWhile": "",
      "actionAfter": "",
      "optionIcon": "",
      "iconPath": ""
    },
    {
      "id": 641720104,
      "nextDialogs": [
        641720105
      ],
      "talkRole": {
        "type": "TALK_ROLE_NPC",
        "_id": "4173"
      },
      "talkContentTextMapHash": 1426973114,
      "talkAssetPath": "",
      "talkAssetPathAlter": "",
      "talkAudioName": "",
      "actionBefore": "",
      "actionWhile": "",
      "actionAfter": "",
      "optionIcon": "",
      "iconPath": ""
    },
    {
      "id": 641720105,
      "nextDialogs": [
        641720106
      ],
      "talkRole": {
        "type": "TALK_ROLE_NPC",
        "_id": "4172"
      },
      "talkContentTextMapHash": 423389506,
      "talkAssetPath": "",
      "talkAssetPathAlter": "",
      "talkAudioName": "",
      "actionBefore": "",
      "actionWhile": "",
      "actionAfter": "",
      "optionIcon": "",
      "iconPath": ""
    },
    {
      "id": 641720106,
      "nextDialogs": [
        641720107
      ],
      "talkRole": {
        "type": "TALK_ROLE_NPC",
        "_id": "4173"
      },
      "talkContentTextMapHash": 2227709258,
      "talkAssetPath": "",
      "talkAssetPathAlter": "",
      "talkAudioName": "",
      "actionBefore": "",
      "actionWhile": "",
      "actionAfter": "",
      "optionIcon": "",
      "iconPath": ""
    },
    {
      "id": 641720107,
      "nextDialogs": [
        641720108
      ],
      "talkRole": {
        "type": "TALK_ROLE_NPC",
        "_id": "4172"
      },
      "talkContentTextMapHash": 2814731914,
      "talkAssetPath": "",
      "talkAssetPathAlter": "",
      "talkAudioName": "",
      "actionBefore": "",
      "actionWhile": "",
      "actionAfter": "",
      "optionIcon": "",
      "iconPath": ""
    },
    {
      "id": 641720108,
      "nextDialogs": [
        641720109
      ],
      "talkRole": {
        "type": "TALK_ROLE_NPC",
        "_id": "4173"
      },
      "talkContentTextMapHash": 3518976386,
      "talkAssetPath": "",
      "talkAssetPathAlter": "",
      "talkAudioName": "",
      "actionBefore": "",
      "actionWhile": "",
      "actionAfter": "",
      "optionIcon": "",
      "iconPath": ""
    },
    {
      "id": 641720109,
      "nextDialogs": [
        641720110
      ],
      "talkRole": {
        "type": "TALK_ROLE_NPC",
        "_id": "4172"
      },
      "talkContentTextMapHash": 3907543362,
      "talkAssetPath": "",
      "talkAssetPathAlter": "",
      "talkAudioName": "",
      "actionBefore": "",
      "actionWhile": "",
      "actionAfter": "",
      "optionIcon": "",
      "iconPath": ""
    },
    {
      "id": 641720110,
      "nextDialogs": [
        641720111
      ],
      "talkRole": {
        "type": "TALK_ROLE_NPC",
        "_id": "4173"
      },
      "talkContentTextMapHash": 4281025722,
      "talkAssetPath": "",
      "talkAssetPathAlter": "",
      "talkAudioName": "",
      "actionBefore": "",
      "actionWhile": "",
      "actionAfter": "",
      "optionIcon": "",
      "iconPath": ""
    },
    {
      "id": 641720111,
      "nextDialogs": [
        641720112
      ],
      "talkRole": {
        "type": "TALK_ROLE_NPC",
        "_id": "4172"
      },
      "talkContentTextMapHash": 2904972506,
      "talkAssetPath": "",
      "talkAssetPathAlter": "",
      "talkAudioName": "",
      "actionBefore": "",
      "actionWhile": "",
      "actionAfter": "",
      "optionIcon": "",
      "iconPath": ""
    },
    {
      "id": 641720112,
      "nextDialogs": [
        641720113
      ],
      "talkRole": {
        "type": "TALK_ROLE_NPC",
        "_id": "4172"
      },
      "talkContentTextMapHash": 3864069578,
      "talkAssetPath": "",
      "talkAssetPathAlter": "",
      "talkAudioName": "",
      "actionBefore": "",
      "actionWhile": "",
      "actionAfter": "",
      "optionIcon": "",
      "iconPath": ""
    },
    {
      "id": 641720113,
      "nextDialogs": [
        641720114
      ],
      "talkRole": {
        "type": "TALK_ROLE_NPC",
        "_id": "4172"
      },
      "talkContentTextMapHash": 1540459954,
      "talkAssetPath": "",
      "talkAssetPathAlter": "",
      "talkAudioName": "",
      "actionBefore": "",
      "actionWhile": "",
      "actionAfter": "",
      "optionIcon": "",
      "iconPath": ""
    },
    {
      "id": 641720114,
      "talkRole": {
        "type": "TALK_ROLE_NPC",
        "_id": "4173"
      },
      "talkContentTextMapHash": 185750850,
      "talkAssetPath": "",
      "talkAssetPathAlter": "",
      "talkAudioName": "",
      "actionBefore": "",
      "actionWhile": "",
      "actionAfter": "TEST/LerpOutNpcNoSteer",
      "optionIcon": "",
      "iconPath": ""
    }
  ]
}