{
  "talkId": 6417005,
  "KPGKDHAFHFE": "FREE",
  "dialogList": [
    {
      "id": 641700501,
      "talkRole": {
        "type": "TALK_ROLE_NPC",
        "_id": "4170"
      },
      "talkContentTextMapHash": 1503644850,
      "talkAssetPath": "",
      "talkAssetPathAlter": "",
      "talkAudioName": "",
      "actionBefore": "GCG/ClearWorldChallengeTalk",
      "actionWhile": "",
      "actionAfter": "",
      "optionIcon": "",
      "iconPath": ""
    }
  ]
}