{
  "talkId": 6417103,
  "KPGKDHAFHFE": "FREE",
  "dialogList": [
    {
      "id": 641710301,
      "nextDialogs": [
        641710302
      ],
      "talkShowType": "TALK_SHOW_FORCE_SELECT",
      "talkRole": {
        "type": "TALK_ROLE_PLAYER",
        "_id": ""
      },
      "talkContentTextMapHash": 239746442,
      "talkAssetPath": "",
      "talkAssetPathAlter": "",
      "talkAudioName": "",
      "actionBefore": "",
      "actionWhile": "",
      "actionAfter": "",
      "optionIcon": "",
      "iconPath": ""
    },
    {
      "id": 641710302,
      "nextDialogs": [
        641710303
      ],
      "talkRole": {
        "type": "TALK_ROLE_NPC",
        "_id": "4171"
      },
      "talkContentTextMapHash": 3931934146,
      "talkAssetPath": "",
      "talkAssetPathAlter": "",
      "talkAudioName": "",
      "actionBefore": "",
      "actionWhile": "",
      "actionAfter": "",
      "optionIcon": "",
      "iconPath": ""
    },
    {
      "id": 641710303,
      "nextDialogs": [
        641710304
      ],
      "talkRole": {
        "type": "TALK_ROLE_NPC",
        "_id": "4171"
      },
      "talkContentTextMapHash": 756346,
      "talkAssetPath": "",
      "talkAssetPathAlter": "",
      "talkAudioName": "",
      "actionBefore": "",
      "actionWhile": "",
      "actionAfter": "",
      "optionIcon": "",
      "iconPath": ""
    },
    {
      "id": 641710304,
      "nextDialogs": [
        641710305
      ],
      "talkRole": {
        "type": "TALK_ROLE_NPC",
        "_id": "4171"
      },
      "talkContentTextMapHash": 1938803770,
      "talkAssetPath": "",
      "talkAssetPathAlter": "",
      "talkAudioName": "",
      "actionBefore": "",
      "actionWhile": "",
      "actionAfter": "",
      "optionIcon": "",
      "iconPath": ""
    },
    {
      "id": 641710305,
      "nextDialogs": [
        641710306
      ],
      "talkRole": {
        "type": "TALK_ROLE_NPC",
        "_id": "4171"
      },
      "talkContentTextMapHash": 497444586,
      "talkAssetPath": "",
      "talkAssetPathAlter": "",
      "talkAudioName": "",
      "actionBefore": "",
      "actionWhile": "",
      "actionAfter": "",
      "optionIcon": "",
      "iconPath": ""
    },
    {
      "id": 641710306,
      "talkRole": {
        "type": "TALK_ROLE_NPC",
        "_id": "4171"
      },
      "talkContentTextMapHash": 581818946,
      "talkAssetPath": "",
      "talkAssetPathAlter": "",
      "talkAudioName": "",
      "actionBefore": "",
      "actionWhile": "",
      "actionAfter": "TEST/LerpOutNpcNoSteer",
      "optionIcon": "",
      "iconPath": ""
    }
  ]
}