{
  "talkId": 6417602,
  "KPGKDHAFHFE": "FREE",
  "dialogList": [
    {
      "id": 641760201,
      "nextDialogs": [
        641760202
      ],
      "talkShowType": "TALK_SHOW_FORCE_SELECT",
      "talkRole": {
        "type": "TALK_ROLE_PLAYER",
        "_id": ""
      },
      "talkContentTextMapHash": 501974658,
      "talkAssetPath": "",
      "talkAssetPathAlter": "",
      "talkAudioName": "",
      "actionBefore": "",
      "actionWhile": "",
      "actionAfter": "",
      "optionIcon": "UI_Icon_Intee_Fishes",
      "iconPath": ""
    },
    {
      "id": 641760202,
      "talkRole": {
        "type": "TALK_ROLE_NPC",
        "_id": "4176"
      },
      "talkContentTextMapHash": 773830242,
      "talkAssetPath": "",
      "talkAssetPathAlter": "",
      "talkAudioName": "",
      "actionBefore": "",
      "actionWhile": "",
      "actionAfter": "Shop/shop_open_1071",
      "optionIcon": "",
      "iconPath": ""
    }
  ]
}