{
  "talkId": 6417601,
  "KPGKDHAFHFE": "FREE",
  "dialogList": [
    {
      "id": 641760101,
      "talkRole": {
        "type": "TALK_ROLE_NPC",
        "_id": "4176"
      },
      "talkContentTextMapHash": 2441766330,
      "talkAssetPath": "",
      "talkAssetPathAlter": "",
      "talkAudioName": "",
      "actionBefore": "",
      "actionWhile": "TEST/LerpInNpc",
      "actionAfter": "",
      "optionIcon": "",
      "iconPath": ""
    }
  ]
}