{
  "talkId": 6418804,
  "KPGKDHAFHFE": "FREE",
  "dialogList": [
    {
      "id": 641880401,
      "nextDialogs": [
        641880402
      ],
      "talkShowType": "TALK_SHOW_FORCE_SELECT",
      "talkRole": {
        "type": "TALK_ROLE_PLAYER",
        "_id": ""
      },
      "talkContentTextMapHash": 355104994,
      "talkAssetPath": "",
      "talkAssetPathAlter": "",
      "talkAudioName": "",
      "actionBefore": "",
      "actionWhile": "",
      "actionAfter": "",
      "optionIcon": "",
      "iconPath": ""
    },
    {
      "id": 641880402,
      "talkRole": {
        "type": "TALK_ROLE_NPC",
        "_id": "4188"
      },
      "talkContentTextMapHash": 4135610210,
      "talkAssetPath": "",
      "talkAssetPathAlter": "",
      "talkAudioName": "",
      "actionBefore": "",
      "actionWhile": "",
      "actionAfter": "",
      "optionIcon": "",
      "iconPath": ""
    }
  ]
}