{
  "talkId": 6418506,
  "KPGKDHAFHFE": "FREE",
  "dialogList": [
    {
      "id": 641850601,
      "nextDialogs": [
        641850602
      ],
      "talkShowType": "TALK_SHOW_FORCE_SELECT",
      "talkRole": {
        "type": "TALK_ROLE_PLAYER",
        "_id": ""
      },
      "talkContentTextMapHash": 1044522026,
      "talkAssetPath": "",
      "talkAssetPathAlter": "",
      "talkAudioName": "",
      "actionBefore": "",
      "actionWhile": "",
      "actionAfter": "",
      "optionIcon": "",
      "iconPath": ""
    },
    {
      "id": 641850602,
      "nextDialogs": [
        641850603
      ],
      "talkRole": {
        "type": "TALK_ROLE_NPC",
        "_id": "4185"
      },
      "talkContentTextMapHash": 214960866,
      "talkAssetPath": "",
      "talkAssetPathAlter": "",
      "talkAudioName": "",
      "actionBefore": "",
      "actionWhile": "",
      "actionAfter": "",
      "optionIcon": "",
      "iconPath": ""
    },
    {
      "id": 641850603,
      "nextDialogs": [
        641850604
      ],
      "talkRole": {
        "type": "TALK_ROLE_NPC",
        "_id": "4185"
      },
      "talkContentTextMapHash": 2770500394,
      "talkAssetPath": "",
      "talkAssetPathAlter": "",
      "talkAudioName": "",
      "actionBefore": "",
      "actionWhile": "",
      "actionAfter": "",
      "optionIcon": "",
      "iconPath": ""
    },
    {
      "id": 641850604,
      "talkRole": {
        "type": "TALK_ROLE_NPC",
        "_id": "4185"
      },
      "talkContentTextMapHash": 4242367642,
      "talkAssetPath": "",
      "talkAssetPathAlter": "",
      "talkAudioName": "",
      "actionBefore": "",
      "actionWhile": "",
      "actionAfter": "",
      "optionIcon": "",
      "iconPath": ""
    }
  ]
}