{
  "talkId": 6418803,
  "KPGKDHAFHFE": "FREE",
  "dialogList": [
    {
      "id": 641880301,
      "nextDialogs": [
        641880302
      ],
      "talkShowType": "TALK_SHOW_FORCE_SELECT",
      "talkRole": {
        "type": "TALK_ROLE_PLAYER",
        "_id": ""
      },
      "talkContentTextMapHash": 3771892210,
      "talkAssetPath": "",
      "talkAssetPathAlter": "",
      "talkAudioName": "",
      "actionBefore": "",
      "actionWhile": "",
      "actionAfter": "",
      "optionIcon": "",
      "iconPath": ""
    },
    {
      "id": 641880302,
      "nextDialogs": [
        641880303
      ],
      "talkRole": {
        "type": "TALK_ROLE_NPC",
        "_id": "4188"
      },
      "talkContentTextMapHash": 1911978018,
      "talkAssetPath": "",
      "talkAssetPathAlter": "",
      "talkAudioName": "",
      "actionBefore": "",
      "actionWhile": "",
      "actionAfter": "",
      "optionIcon": "",
      "iconPath": ""
    },
    {
      "id": 641880303,
      "nextDialogs": [
        641880304
      ],
      "talkRole": {
        "type": "TALK_ROLE_NPC",
        "_id": "4188"
      },
      "talkContentTextMapHash": 1809762458,
      "talkAssetPath": "",
      "talkAssetPathAlter": "",
      "talkAudioName": "",
      "actionBefore": "",
      "actionWhile": "",
      "actionAfter": "",
      "optionIcon": "",
      "iconPath": ""
    },
    {
      "id": 641880304,
      "nextDialogs": [
        641880305
      ],
      "talkRole": {
        "type": "TALK_ROLE_NPC",
        "_id": "4188"
      },
      "talkContentTextMapHash": 2576795370,
      "talkAssetPath": "",
      "talkAssetPathAlter": "",
      "talkAudioName": "",
      "actionBefore": "",
      "actionWhile": "",
      "actionAfter": "",
      "optionIcon": "",
      "iconPath": ""
    },
    {
      "id": 641880305,
      "talkRole": {
        "type": "TALK_ROLE_NPC",
        "_id": "4188"
      },
      "talkContentTextMapHash": 2590463578,
      "talkAssetPath": "",
      "talkAssetPathAlter": "",
      "talkAudioName": "",
      "actionBefore": "",
      "actionWhile": "",
      "actionAfter": "",
      "optionIcon": "",
      "iconPath": ""
    }
  ]
}