{
  "talkId": 6419409,
  "KPGKDHAFHFE": "FREE",
  "dialogList": [
    {
      "id": 641940901,
      "talkRole": {
        "type": "TALK_ROLE_NPC",
        "_id": "4194"
      },
      "talkContentTextMapHash": 4100868066,
      "talkAssetPath": "",
      "talkAssetPathAlter": "",
      "talkAudioName": "",
      "actionBefore": "",
      "actionWhile": "",
      "actionAfter": "",
      "optionIcon": "",
      "iconPath": ""
    }
  ]
}