{
  "talkId": 6419601,
  "KPGKDHAFHFE": "FREE",
  "dialogList": [
    {
      "id": 641960101,
      "talkRole": {
        "type": "TALK_ROLE_NPC",
        "_id": "4196"
      },
      "talkContentTextMapHash": 1605260626,
      "talkAssetPath": "",
      "talkAssetPathAlter": "",
      "talkAudioName": "",
      "actionBefore": "",
      "actionWhile": "",
      "actionAfter": "",
      "optionIcon": "",
      "iconPath": ""
    }
  ]
}