{
  "talkId": 6419702,
  "KPGKDHAFHFE": "FREE",
  "dialogList": [
    {
      "id": 641970201,
      "nextDialogs": [
        641970202
      ],
      "talkShowType": "TALK_SHOW_FORCE_SELECT",
      "talkRole": {
        "type": "TALK_ROLE_PLAYER",
        "_id": ""
      },
      "talkContentTextMapHash": 727947610,
      "talkAssetPath": "",
      "talkAssetPathAlter": "",
      "talkAudioName": "",
      "actionBefore": "",
      "actionWhile": "",
      "actionAfter": "",
      "optionIcon": "",
      "iconPath": ""
    },
    {
      "id": 641970202,
      "talkRole": {
        "type": "TALK_ROLE_NPC",
        "_id": "4197"
      },
      "talkContentTextMapHash": 160858762,
      "talkAssetPath": "",
      "talkAssetPathAlter": "",
      "talkAudioName": "",
      "actionBefore": "",
      "actionWhile": "",
      "actionAfter": "",
      "optionIcon": "",
      "iconPath": ""
    }
  ]
}