{
  "talkId": 6419703,
  "KPGKDHAFHFE": "FREE",
  "dialogList": [
    {
      "id": 641970301,
      "nextDialogs": [
        641970302
      ],
      "talkShowType": "TALK_SHOW_FORCE_SELECT",
      "talkRole": {
        "type": "TALK_ROLE_PLAYER",
        "_id": ""
      },
      "talkContentTextMapHash": 1100007914,
      "talkAssetPath": "",
      "talkAssetPathAlter": "",
      "talkAudioName": "",
      "actionBefore": "",
      "actionWhile": "",
      "actionAfter": "",
      "optionIcon": "",
      "iconPath": ""
    },
    {
      "id": 641970302,
      "nextDialogs": [
        641970303
      ],
      "talkRole": {
        "type": "TALK_ROLE_NPC",
        "_id": "4197"
      },
      "talkContentTextMapHash": 2743606122,
      "talkAssetPath": "",
      "talkAssetPathAlter": "",
      "talkAudioName": "",
      "actionBefore": "",
      "actionWhile": "",
      "actionAfter": "",
      "optionIcon": "",
      "iconPath": ""
    },
    {
      "id": 641970303,
      "nextDialogs": [
        641970304
      ],
      "talkRole": {
        "type": "TALK_ROLE_NPC",
        "_id": "4197"
      },
      "talkContentTextMapHash": 108084154,
      "talkAssetPath": "",
      "talkAssetPathAlter": "",
      "talkAudioName": "",
      "actionBefore": "",
      "actionWhile": "",
      "actionAfter": "",
      "optionIcon": "",
      "iconPath": ""
    },
    {
      "id": 641970304,
      "talkRole": {
        "type": "TALK_ROLE_NPC",
        "_id": "4197"
      },
      "talkContentTextMapHash": 2151661426,
      "talkAssetPath": "",
      "talkAssetPathAlter": "",
      "talkAudioName": "",
      "actionBefore": "",
      "actionWhile": "",
      "actionAfter": "",
      "optionIcon": "",
      "iconPath": ""
    }
  ]
}