{
  "talkId": 6419106,
  "KPGKDHAFHFE": "FREE",
  "dialogList": [
    {
      "id": 641910601,
      "talkRole": {
        "type": "TALK_ROLE_NPC",
        "_id": "4191"
      },
      "talkContentTextMapHash": 4018434226,
      "talkAssetPath": "",
      "talkAssetPathAlter": "",
      "talkAudioName": "",
      "actionBefore": "",
      "actionWhile": "",
      "actionAfter": "",
      "optionIcon": "",
      "iconPath": ""
    }
  ]
}