{
  "talkId": 6419206,
  "KPGKDHAFHFE": "FREE",
  "dialogList": [
    {
      "id": 641920601,
      "nextDialogs": [
        641920602
      ],
      "talkShowType": "TALK_SHOW_FORCE_SELECT",
      "talkRole": {
        "type": "TALK_ROLE_PLAYER",
        "_id": ""
      },
      "talkContentTextMapHash": 3305977450,
      "talkAssetPath": "",
      "talkAssetPathAlter": "",
      "talkAudioName": "",
      "actionBefore": "",
      "actionWhile": "",
      "actionAfter": "",
      "optionIcon": "",
      "iconPath": ""
    },
    {
      "id": 641920602,
      "nextDialogs": [
        641920603
      ],
      "talkRole": {
        "type": "TALK_ROLE_NPC",
        "_id": "4192"
      },
      "talkContentTextMapHash": 1374503386,
      "talkAssetPath": "",
      "talkAssetPathAlter": "",
      "talkAudioName": "",
      "actionBefore": "",
      "actionWhile": "",
      "actionAfter": "",
      "optionIcon": "",
      "iconPath": ""
    },
    {
      "id": 641920603,
      "nextDialogs": [
        641920604
      ],
      "talkRole": {
        "type": "TALK_ROLE_NPC",
        "_id": "4192"
      },
      "talkContentTextMapHash": 3227363738,
      "talkAssetPath": "",
      "talkAssetPathAlter": "",
      "talkAudioName": "",
      "actionBefore": "",
      "actionWhile": "",
      "actionAfter": "",
      "optionIcon": "",
      "iconPath": ""
    },
    {
      "id": 641920604,
      "talkRole": {
        "type": "TALK_ROLE_NPC",
        "_id": "4192"
      },
      "talkContentTextMapHash": 3179536826,
      "talkAssetPath": "",
      "talkAssetPathAlter": "",
      "talkAudioName": "",
      "actionBefore": "",
      "actionWhile": "",
      "actionAfter": "",
      "optionIcon": "",
      "iconPath": ""
    }
  ]
}