{
  "talkId": 6419107,
  "KPGKDHAFHFE": "FREE",
  "dialogList": [
    {
      "id": 641910701,
      "nextDialogs": [
        641910702
      ],
      "talkShowType": "TALK_SHOW_FORCE_SELECT",
      "talkRole": {
        "type": "TALK_ROLE_PLAYER",
        "_id": ""
      },
      "talkContentTextMapHash": 3290006074,
      "talkAssetPath": "",
      "talkAssetPathAlter": "",
      "talkAudioName": "",
      "actionBefore": "",
      "actionWhile": "",
      "actionAfter": "",
      "optionIcon": "",
      "iconPath": ""
    },
    {
      "id": 641910702,
      "nextDialogs": [
        641910703
      ],
      "talkRole": {
        "type": "TALK_ROLE_NPC",
        "_id": "4191"
      },
      "talkContentTextMapHash": 1354889930,
      "talkAssetPath": "",
      "talkAssetPathAlter": "",
      "talkAudioName": "",
      "actionBefore": "",
      "actionWhile": "",
      "actionAfter": "",
      "optionIcon": "",
      "iconPath": ""
    },
    {
      "id": 641910703,
      "nextDialogs": [
        641910704
      ],
      "talkRole": {
        "type": "TALK_ROLE_NPC",
        "_id": "4191"
      },
      "talkContentTextMapHash": 620757586,
      "talkAssetPath": "",
      "talkAssetPathAlter": "",
      "talkAudioName": "",
      "actionBefore": "",
      "actionWhile": "",
      "actionAfter": "",
      "optionIcon": "",
      "iconPath": ""
    },
    {
      "id": 641910704,
      "talkRole": {
        "type": "TALK_ROLE_NPC",
        "_id": "4191"
      },
      "talkContentTextMapHash": 1187481298,
      "talkAssetPath": "",
      "talkAssetPathAlter": "",
      "talkAudioName": "",
      "actionBefore": "",
      "actionWhile": "",
      "actionAfter": "",
      "optionIcon": "",
      "iconPath": ""
    }
  ]
}