{
  "talkId": 6419101,
  "KPGKDHAFHFE": "FREE",
  "dialogList": [
    {
      "id": 641910101,
      "talkRole": {
        "type": "TALK_ROLE_NPC",
        "_id": "4191"
      },
      "talkContentTextMapHash": 3082527114,
      "talkAssetPath": "",
      "talkAssetPathAlter": "",
      "talkAudioName": "",
      "actionBefore": "",
      "actionWhile": "",
      "actionAfter": "",
      "optionIcon": "",
      "iconPath": ""
    }
  ]
}