{
  "talkId": 6421002,
  "KPGKDHAFHFE": "FREE",
  "dialogList": [
    {
      "id": 642100201,
      "nextDialogs": [
        642100202
      ],
      "talkShowType": "TALK_SHOW_FORCE_SELECT",
      "talkRole": {
        "type": "TALK_ROLE_PLAYER",
        "_id": ""
      },
      "talkContentTextMapHash": 1472585498,
      "talkAssetPath": "",
      "talkAssetPathAlter": "",
      "talkAudioName": "",
      "actionBefore": "",
      "actionWhile": "",
      "actionAfter": "",
      "optionIcon": "UI_Icon_Intee_Shop",
      "iconPath": ""
    },
    {
      "id": 642100202,
      "talkRole": {
        "type": "TALK_ROLE_NPC",
        "_id": "4210"
      },
      "talkContentTextMapHash": 239324042,
      "talkAssetPath": "",
      "talkAssetPathAlter": "",
      "talkAudioName": "",
      "actionBefore": "",
      "actionWhile": "",
      "actionAfter": "Shop/shop_open_1086",
      "optionIcon": "",
      "iconPath": ""
    }
  ]
}