{
  "talkId": 6421104,
  "KPGKDHAFHFE": "FREE",
  "dialogList": [
    {
      "id": 642110401,
      "nextDialogs": [
        642110402
      ],
      "talkShowType": "TALK_SHOW_FORCE_SELECT",
      "talkRole": {
        "type": "TALK_ROLE_PLAYER",
        "_id": ""
      },
      "talkContentTextMapHash": 3194790810,
      "talkAssetPath": "",
      "talkAssetPathAlter": "",
      "talkAudioName": "",
      "actionBefore": "",
      "actionWhile": "",
      "actionAfter": "",
      "optionIcon": "",
      "iconPath": ""
    },
    {
      "id": 642110402,
      "talkRole": {
        "type": "TALK_ROLE_NPC",
        "_id": "4211"
      },
      "talkContentTextMapHash": 3246489114,
      "talkAssetPath": "",
      "talkAssetPathAlter": "",
      "talkAudioName": "",
      "actionBefore": "",
      "actionWhile": "",
      "actionAfter": "",
      "optionIcon": "",
      "iconPath": ""
    }
  ]
}