{
  "talkId": 6422401,
  "KPGKDHAFHFE": "FREE",
  "dialogList": [
    {
      "id": 642240101,
      "talkRole": {
        "type": "TALK_ROLE_NPC",
        "_id": "4224"
      },
      "talkContentTextMapHash": 2555408506,
      "talkAssetPath": "",
      "talkAssetPathAlter": "",
      "talkAudioName": "",
      "actionBefore": "",
      "actionWhile": "",
      "actionAfter": "",
      "optionIcon": "",
      "iconPath": ""
    }
  ]
}