{
  "talkId": 6423806,
  "KPGKDHAFHFE": "FREE",
  "dialogList": [
    {
      "id": 642380601,
      "talkRole": {
        "type": "TALK_ROLE_NPC",
        "_id": "4238"
      },
      "talkContentTextMapHash": 2786228250,
      "talkAssetPath": "",
      "talkAssetPathAlter": "",
      "talkAudioName": "",
      "actionBefore": "",
      "actionWhile": "",
      "actionAfter": "",
      "optionIcon": "",
      "iconPath": ""
    }
  ]
}