{
  "talkId": 6423101,
  "KPGKDHAFHFE": "FREE",
  "dialogList": [
    {
      "id": 642310101,
      "talkRole": {
        "type": "TALK_ROLE_NPC",
        "_id": "4231"
      },
      "talkContentTextMapHash": 1367365858,
      "talkAssetPath": "",
      "talkAssetPathAlter": "",
      "talkAudioName": "",
      "actionBefore": "",
      "actionWhile": "",
      "actionAfter": "",
      "optionIcon": "",
      "iconPath": ""
    }
  ]
}