{
  "talkId": 6423706,
  "KPGKDHAFHFE": "FREE",
  "dialogList": [
    {
      "id": 642370601,
      "talkRole": {
        "type": "TALK_ROLE_NPC",
        "_id": "4237"
      },
      "talkContentTextMapHash": 2224037010,
      "talkAssetPath": "",
      "talkAssetPathAlter": "",
      "talkAudioName": "",
      "actionBefore": "",
      "actionWhile": "",
      "actionAfter": "",
      "optionIcon": "",
      "iconPath": ""
    }
  ]
}