{
  "talkId": 6423205,
  "KPGKDHAFHFE": "FREE",
  "dialogList": [
    {
      "id": 642320501,
      "nextDialogs": [
        642320502
      ],
      "talkShowType": "TALK_SHOW_FORCE_SELECT",
      "talkRole": {
        "type": "TALK_ROLE_PLAYER",
        "_id": ""
      },
      "talkContentTextMapHash": 2605551634,
      "talkAssetPath": "",
      "talkAssetPathAlter": "",
      "talkAudioName": "",
      "actionBefore": "",
      "actionWhile": "",
      "actionAfter": "",
      "optionIcon": "",
      "iconPath": ""
    },
    {
      "id": 642320502,
      "talkRole": {
        "type": "TALK_ROLE_NPC",
        "_id": "4232"
      },
      "talkContentTextMapHash": 3536972018,
      "talkAssetPath": "",
      "talkAssetPathAlter": "",
      "talkAudioName": "",
      "actionBefore": "",
      "actionWhile": "",
      "actionAfter": "",
      "optionIcon": "",
      "iconPath": ""
    }
  ]
}