{
  "talkId": 6423506,
  "KPGKDHAFHFE": "FREE",
  "dialogList": [
    {
      "id": 642350601,
      "nextDialogs": [
        642350602
      ],
      "talkShowType": "TALK_SHOW_FORCE_SELECT",
      "talkRole": {
        "type": "TALK_ROLE_PLAYER",
        "_id": ""
      },
      "talkContentTextMapHash": 2997457274,
      "talkAssetPath": "",
      "talkAssetPathAlter": "",
      "talkAudioName": "",
      "actionBefore": "",
      "actionWhile": "",
      "actionAfter": "",
      "optionIcon": "",
      "iconPath": ""
    },
    {
      "id": 642350602,
      "talkRole": {
        "type": "TALK_ROLE_NPC",
        "_id": "4235"
      },
      "talkContentTextMapHash": 2421290514,
      "talkAssetPath": "",
      "talkAssetPathAlter": "",
      "talkAudioName": "",
      "actionBefore": "",
      "actionWhile": "",
      "actionAfter": "",
      "optionIcon": "",
      "iconPath": ""
    }
  ]
}