{
  "talkId": 6423012,
  "KPGKDHAFHFE": "FREE",
  "dialogList": [
    {
      "id": 642301201,
      "nextDialogs": [
        642301202
      ],
      "talkShowType": "TALK_SHOW_FORCE_SELECT",
      "talkRole": {
        "type": "TALK_ROLE_PLAYER",
        "_id": ""
      },
      "talkContentTextMapHash": 1271559146,
      "talkAssetPath": "",
      "talkAssetPathAlter": "",
      "talkAudioName": "",
      "actionBefore": "",
      "actionWhile": "",
      "actionAfter": "",
      "optionIcon": "",
      "iconPath": ""
    },
    {
      "id": 642301202,
      "talkRole": {
        "type": "TALK_ROLE_NPC",
        "_id": "4230"
      },
      "talkContentTextMapHash": 3437047522,
      "talkAssetPath": "",
      "talkAssetPathAlter": "",
      "talkAudioName": "",
      "actionBefore": "",
      "actionWhile": "",
      "actionAfter": "",
      "optionIcon": "",
      "iconPath": ""
    }
  ]
}