{
  "talkId": 6423003,
  "KPGKDHAFHFE": "FREE",
  "dialogList": [
    {
      "id": 642300301,
      "nextDialogs": [
        642300302
      ],
      "talkShowType": "TALK_SHOW_FORCE_SELECT",
      "talkRole": {
        "type": "TALK_ROLE_PLAYER",
        "_id": ""
      },
      "talkContentTextMapHash": 1008307706,
      "talkAssetPath": "",
      "talkAssetPathAlter": "",
      "talkAudioName": "",
      "actionBefore": "",
      "actionWhile": "",
      "actionAfter": "",
      "optionIcon": "",
      "iconPath": ""
    },
    {
      "id": 642300302,
      "nextDialogs": [
        642300303
      ],
      "talkRole": {
        "type": "TALK_ROLE_NPC",
        "_id": "4230"
      },
      "talkContentTextMapHash": 2443507978,
      "talkAssetPath": "",
      "talkAssetPathAlter": "",
      "talkAudioName": "",
      "actionBefore": "",
      "actionWhile": "",
      "actionAfter": "",
      "optionIcon": "",
      "iconPath": ""
    },
    {
      "id": 642300303,
      "nextDialogs": [
        642300304
      ],
      "talkRole": {
        "type": "TALK_ROLE_NPC",
        "_id": "4230"
      },
      "talkContentTextMapHash": 3360813202,
      "talkAssetPath": "",
      "talkAssetPathAlter": "",
      "talkAudioName": "",
      "actionBefore": "",
      "actionWhile": "",
      "actionAfter": "",
      "optionIcon": "",
      "iconPath": ""
    },
    {
      "id": 642300304,
      "nextDialogs": [
        642300305
      ],
      "talkRole": {
        "type": "TALK_ROLE_NPC",
        "_id": "4230"
      },
      "talkContentTextMapHash": 876325106,
      "talkAssetPath": "",
      "talkAssetPathAlter": "",
      "talkAudioName": "",
      "actionBefore": "",
      "actionWhile": "",
      "actionAfter": "",
      "optionIcon": "",
      "iconPath": ""
    },
    {
      "id": 642300305,
      "talkRole": {
        "type": "TALK_ROLE_NPC",
        "_id": "4230"
      },
      "talkContentTextMapHash": 3799396914,
      "talkAssetPath": "",
      "talkAssetPathAlter": "",
      "talkAudioName": "",
      "actionBefore": "",
      "actionWhile": "",
      "actionAfter": "",
      "optionIcon": "",
      "iconPath": ""
    }
  ]
}