{
  "talkId": 6424701,
  "KPGKDHAFHFE": "FREE",
  "dialogList": [
    {
      "id": 642470101,
      "nextDialogs": [
        642470102
      ],
      "talkRole": {
        "type": "TALK_ROLE_NPC",
        "_id": "4247"
      },
      "talkContentTextMapHash": 627764242,
      "talkAssetPath": "",
      "talkAssetPathAlter": "",
      "talkAudioName": "",
      "actionBefore": "",
      "actionWhile": "SimpleTalk/LerpInNpcNoSteer_Start",
      "actionAfter": "",
      "optionIcon": "",
      "iconPath": ""
    },
    {
      "id": 642470102,
      "nextDialogs": [
        642470103
      ],
      "talkRole": {
        "type": "TALK_ROLE_NPC",
        "_id": "1702"
      },
      "talkContentTextMapHash": 1726678170,
      "talkAssetPath": "",
      "talkAssetPathAlter": "",
      "talkAudioName": "",
      "actionBefore": "",
      "actionWhile": "",
      "actionAfter": "",
      "optionIcon": "",
      "iconPath": ""
    },
    {
      "id": 642470103,
      "nextDialogs": [
        642470104
      ],
      "talkRole": {
        "type": "TALK_ROLE_NPC",
        "_id": "4247"
      },
      "talkContentTextMapHash": 1773111794,
      "talkAssetPath": "",
      "talkAssetPathAlter": "",
      "talkAudioName": "",
      "actionBefore": "",
      "actionWhile": "",
      "actionAfter": "",
      "optionIcon": "",
      "iconPath": ""
    },
    {
      "id": 642470104,
      "nextDialogs": [
        642470105
      ],
      "talkRole": {
        "type": "TALK_ROLE_NPC",
        "_id": "4247"
      },
      "talkContentTextMapHash": 3551000042,
      "talkAssetPath": "",
      "talkAssetPathAlter": "",
      "talkAudioName": "",
      "actionBefore": "",
      "actionWhile": "",
      "actionAfter": "",
      "optionIcon": "",
      "iconPath": ""
    },
    {
      "id": 642470105,
      "nextDialogs": [
        642470106
      ],
      "talkRole": {
        "type": "TALK_ROLE_NPC",
        "_id": "4247"
      },
      "talkContentTextMapHash": 3961651114,
      "talkAssetPath": "",
      "talkAssetPathAlter": "",
      "talkAudioName": "",
      "actionBefore": "",
      "actionWhile": "",
      "actionAfter": "",
      "optionIcon": "",
      "iconPath": ""
    },
    {
      "id": 642470106,
      "nextDialogs": [
        642470107
      ],
      "talkRole": {
        "type": "TALK_ROLE_NPC",
        "_id": "1702"
      },
      "talkContentTextMapHash": 2456682938,
      "talkAssetPath": "",
      "talkAssetPathAlter": "",
      "talkAudioName": "",
      "actionBefore": "",
      "actionWhile": "",
      "actionAfter": "",
      "optionIcon": "",
      "iconPath": ""
    },
    {
      "id": 642470107,
      "nextDialogs": [
        642470108
      ],
      "talkRole": {
        "type": "TALK_ROLE_NPC",
        "_id": "1702"
      },
      "talkContentTextMapHash": 1804263970,
      "talkAssetPath": "",
      "talkAssetPathAlter": "",
      "talkAudioName": "",
      "actionBefore": "",
      "actionWhile": "",
      "actionAfter": "",
      "optionIcon": "",
      "iconPath": ""
    },
    {
      "id": 642470108,
      "nextDialogs": [
        642470109
      ],
      "talkRole": {
        "type": "TALK_ROLE_NPC",
        "_id": "4247"
      },
      "talkContentTextMapHash": 2317714658,
      "talkAssetPath": "",
      "talkAssetPathAlter": "",
      "talkAudioName": "",
      "actionBefore": "",
      "actionWhile": "",
      "actionAfter": "",
      "optionIcon": "",
      "iconPath": ""
    },
    {
      "id": 642470109,
      "talkRole": {
        "type": "TALK_ROLE_NPC",
        "_id": "1702"
      },
      "talkContentTextMapHash": 1093332346,
      "talkAssetPath": "",
      "talkAssetPathAlter": "",
      "talkAudioName": "",
      "actionBefore": "",
      "actionWhile": "",
      "actionAfter": "SimpleTalk/LerpOutNpcNoSteer_End",
      "optionIcon": "",
      "iconPath": ""
    }
  ]
}