{
  "talkId": 6424102,
  "KPGKDHAFHFE": "FREE",
  "dialogList": [
    {
      "id": 642410201,
      "nextDialogs": [
        642410202
      ],
      "talkShowType": "TALK_SHOW_FORCE_SELECT",
      "talkRole": {
        "type": "TALK_ROLE_PLAYER",
        "_id": ""
      },
      "talkContentTextMapHash": 2679282866,
      "talkAssetPath": "",
      "talkAssetPathAlter": "",
      "talkAudioName": "",
      "actionBefore": "",
      "actionWhile": "",
      "actionAfter": "",
      "optionIcon": "",
      "iconPath": ""
    },
    {
      "id": 642410202,
      "nextDialogs": [
        642410203
      ],
      "talkRole": {
        "type": "TALK_ROLE_NPC",
        "_id": "4241"
      },
      "talkContentTextMapHash": 4266026986,
      "talkAssetPath": "",
      "talkAssetPathAlter": "",
      "talkAudioName": "",
      "actionBefore": "",
      "actionWhile": "",
      "actionAfter": "",
      "optionIcon": "",
      "iconPath": ""
    },
    {
      "id": 642410203,
      "talkRole": {
        "type": "TALK_ROLE_NPC",
        "_id": "4241"
      },
      "talkContentTextMapHash": 3570598970,
      "talkAssetPath": "",
      "talkAssetPathAlter": "",
      "talkAudioName": "",
      "actionBefore": "",
      "actionWhile": "",
      "actionAfter": "",
      "optionIcon": "",
      "iconPath": ""
    }
  ]
}