{
  "talkId": 6428402,
  "KPGKDHAFHFE": "FREE",
  "dialogList": [
    {
      "id": 642840201,
      "talkRole": {
        "type": "TALK_ROLE_NPC",
        "_id": "4284"
      },
      "talkContentTextMapHash": 1057889250,
      "talkAssetPath": "",
      "talkAssetPathAlter": "",
      "talkAudioName": "",
      "actionBefore": "",
      "actionWhile": "",
      "actionAfter": "",
      "optionIcon": "",
      "iconPath": ""
    }
  ]
}