{
  "talkId": 6429201,
  "KPGKDHAFHFE": "FREE",
  "dialogList": [
    {
      "id": 642920101,
      "talkRole": {
        "type": "TALK_ROLE_NPC",
        "_id": "4292"
      },
      "talkContentTextMapHash": 1042996642,
      "talkAssetPath": "",
      "talkAssetPathAlter": "",
      "talkAudioName": "",
      "actionBefore": "",
      "actionWhile": "",
      "actionAfter": "",
      "optionIcon": "",
      "iconPath": ""
    }
  ]
}