{
  "talkId": 6430201,
  "KPGKDHAFHFE": "FREE",
  "dialogList": [
    {
      "id": 643020101,
      "talkRole": {
        "type": "TALK_ROLE_NPC",
        "_id": "4302"
      },
      "talkContentTextMapHash": 3656024586,
      "talkAssetPath": "",
      "talkAssetPathAlter": "",
      "talkAudioName": "",
      "actionBefore": "",
      "actionWhile": "SimpleTalk/LerpInNpcDailyTalk_Start",
      "actionAfter": "",
      "optionIcon": "",
      "iconPath": ""
    }
  ]
}