{
  "talkId": 6430108,
  "KPGKDHAFHFE": "FREE",
  "dialogList": [
    {
      "id": 643010801,
      "talkRole": {
        "type": "TALK_ROLE_NPC",
        "_id": "4301"
      },
      "talkContentTextMapHash": 1165124442,
      "talkAssetPath": "",
      "talkAssetPathAlter": "",
      "talkAudioName": "",
      "actionBefore": "GCG/ClearWorldChallengeTalk",
      "actionWhile": "",
      "actionAfter": "",
      "optionIcon": "",
      "iconPath": ""
    }
  ]
}