{
  "talkId": 6430704,
  "KPGKDHAFHFE": "FREE",
  "dialogList": [
    {
      "id": 643070401,
      "nextDialogs": [
        643070402
      ],
      "talkShowType": "TALK_SHOW_FORCE_SELECT",
      "talkRole": {
        "type": "TALK_ROLE_PLAYER",
        "_id": ""
      },
      "talkContentTextMapHash": 2968839594,
      "talkAssetPath": "",
      "talkAssetPathAlter": "",
      "talkAudioName": "",
      "actionBefore": "",
      "actionWhile": "",
      "actionAfter": "",
      "optionIcon": "",
      "iconPath": ""
    },
    {
      "id": 643070402,
      "nextDialogs": [
        643070403
      ],
      "talkRole": {
        "type": "TALK_ROLE_NPC",
        "_id": "4307"
      },
      "talkContentTextMapHash": 2634216802,
      "talkAssetPath": "",
      "talkAssetPathAlter": "",
      "talkAudioName": "",
      "actionBefore": "",
      "actionWhile": "",
      "actionAfter": "",
      "optionIcon": "",
      "iconPath": ""
    },
    {
      "id": 643070403,
      "nextDialogs": [
        643070404
      ],
      "talkRole": {
        "type": "TALK_ROLE_NPC",
        "_id": "4307"
      },
      "talkContentTextMapHash": 2111692658,
      "talkAssetPath": "",
      "talkAssetPathAlter": "",
      "talkAudioName": "",
      "actionBefore": "",
      "actionWhile": "",
      "actionAfter": "",
      "optionIcon": "",
      "iconPath": ""
    },
    {
      "id": 643070404,
      "nextDialogs": [
        643070405
      ],
      "talkRole": {
        "type": "TALK_ROLE_NPC",
        "_id": "4307"
      },
      "talkContentTextMapHash": 3748909626,
      "talkAssetPath": "",
      "talkAssetPathAlter": "",
      "talkAudioName": "",
      "actionBefore": "",
      "actionWhile": "",
      "actionAfter": "",
      "optionIcon": "",
      "iconPath": ""
    },
    {
      "id": 643070405,
      "nextDialogs": [
        643070406
      ],
      "talkRole": {
        "type": "TALK_ROLE_NPC",
        "_id": "4307"
      },
      "talkContentTextMapHash": 3604754138,
      "talkAssetPath": "",
      "talkAssetPathAlter": "",
      "talkAudioName": "",
      "actionBefore": "",
      "actionWhile": "",
      "actionAfter": "",
      "optionIcon": "",
      "iconPath": ""
    },
    {
      "id": 643070406,
      "talkRole": {
        "type": "TALK_ROLE_NPC",
        "_id": "4307"
      },
      "talkContentTextMapHash": 37932818,
      "talkAssetPath": "",
      "talkAssetPathAlter": "",
      "talkAudioName": "",
      "actionBefore": "",
      "actionWhile": "",
      "actionAfter": "",
      "optionIcon": "",
      "iconPath": ""
    }
  ]
}