{
  "talkId": 6430101,
  "KPGKDHAFHFE": "FREE",
  "dialogList": [
    {
      "id": 643010101,
      "nextDialogs": [
        643010102
      ],
      "talkShowType": "TALK_SHOW_FORCE_SELECT",
      "talkRole": {
        "type": "TALK_ROLE_NPC",
        "_id": "4301"
      },
      "talkContentTextMapHash": 396776666,
      "talkAssetPath": "",
      "talkAssetPathAlter": "",
      "talkAudioName": "",
      "actionBefore": "",
      "actionWhile": "SimpleTalk/LerpInNpcDailyTalk_Start",
      "actionAfter": "",
      "optionIcon": "",
      "iconPath": ""
    },
    {
      "id": 643010102,
      "talkRole": {
        "type": "TALK_ROLE_NPC",
        "_id": "4301"
      },
      "talkContentTextMapHash": 3401012874,
      "talkAssetPath": "",
      "talkAssetPathAlter": "",
      "talkAudioName": "",
      "actionBefore": "",
      "actionWhile": "",
      "actionAfter": "",
      "optionIcon": "",
      "iconPath": ""
    }
  ]
}