{
  "talkId": 6430602,
  "KPGKDHAFHFE": "FREE",
  "dialogList": [
    {
      "id": 643060201,
      "nextDialogs": [
        643060202
      ],
      "talkShowType": "TALK_SHOW_FORCE_SELECT",
      "talkRole": {
        "type": "TALK_ROLE_PLAYER",
        "_id": ""
      },
      "talkContentTextMapHash": 2649332114,
      "talkAssetPath": "",
      "talkAssetPathAlter": "",
      "talkAudioName": "",
      "actionBefore": "",
      "actionWhile": "",
      "actionAfter": "",
      "optionIcon": "",
      "iconPath": ""
    },
    {
      "id": 643060202,
      "nextDialogs": [
        643060203
      ],
      "talkRole": {
        "type": "TALK_ROLE_NPC",
        "_id": "4306"
      },
      "talkContentTextMapHash": 2716551802,
      "talkAssetPath": "",
      "talkAssetPathAlter": "",
      "talkAudioName": "",
      "actionBefore": "",
      "actionWhile": "",
      "actionAfter": "",
      "optionIcon": "",
      "iconPath": ""
    },
    {
      "id": 643060203,
      "nextDialogs": [
        643060204
      ],
      "talkRole": {
        "type": "TALK_ROLE_NPC",
        "_id": "4306"
      },
      "talkContentTextMapHash": 806681442,
      "talkAssetPath": "",
      "talkAssetPathAlter": "",
      "talkAudioName": "",
      "actionBefore": "",
      "actionWhile": "",
      "actionAfter": "",
      "optionIcon": "",
      "iconPath": ""
    },
    {
      "id": 643060204,
      "talkRole": {
        "type": "TALK_ROLE_NPC",
        "_id": "4306"
      },
      "talkContentTextMapHash": 2866392106,
      "talkAssetPath": "",
      "talkAssetPathAlter": "",
      "talkAudioName": "",
      "actionBefore": "",
      "actionWhile": "",
      "actionAfter": "",
      "optionIcon": "",
      "iconPath": ""
    }
  ]
}