{
  "talkId": 6431902,
  "KPGKDHAFHFE": "FREE",
  "dialogList": [
    {
      "id": 643190201,
      "nextDialogs": [
        643190202
      ],
      "talkShowType": "TALK_SHOW_FORCE_SELECT",
      "talkRole": {
        "type": "TALK_ROLE_PLAYER",
        "_id": ""
      },
      "talkContentTextMapHash": 3781799674,
      "talkAssetPath": "",
      "talkAssetPathAlter": "",
      "talkAudioName": "",
      "actionBefore": "",
      "actionWhile": "",
      "actionAfter": "",
      "optionIcon": "",
      "iconPath": ""
    },
    {
      "id": 643190202,
      "nextDialogs": [
        643190203
      ],
      "talkRole": {
        "type": "TALK_ROLE_NPC",
        "_id": "4319"
      },
      "talkContentTextMapHash": 3756085386,
      "talkAssetPath": "",
      "talkAssetPathAlter": "",
      "talkAudioName": "",
      "actionBefore": "",
      "actionWhile": "",
      "actionAfter": "",
      "optionIcon": "",
      "iconPath": ""
    },
    {
      "id": 643190203,
      "nextDialogs": [
        643190204
      ],
      "talkRole": {
        "type": "TALK_ROLE_NPC",
        "_id": "4319"
      },
      "talkContentTextMapHash": 3644574498,
      "talkAssetPath": "",
      "talkAssetPathAlter": "",
      "talkAudioName": "",
      "actionBefore": "",
      "actionWhile": "",
      "actionAfter": "",
      "optionIcon": "",
      "iconPath": ""
    },
    {
      "id": 643190204,
      "nextDialogs": [
        643190205
      ],
      "talkRole": {
        "type": "TALK_ROLE_NPC",
        "_id": "4319"
      },
      "talkContentTextMapHash": 3079580746,
      "talkAssetPath": "",
      "talkAssetPathAlter": "",
      "talkAudioName": "",
      "actionBefore": "",
      "actionWhile": "",
      "actionAfter": "",
      "optionIcon": "",
      "iconPath": ""
    },
    {
      "id": 643190205,
      "nextDialogs": [
        643190206
      ],
      "talkRole": {
        "type": "TALK_ROLE_NPC",
        "_id": "4319"
      },
      "talkContentTextMapHash": 1661455210,
      "talkAssetPath": "",
      "talkAssetPathAlter": "",
      "talkAudioName": "",
      "actionBefore": "",
      "actionWhile": "",
      "actionAfter": "",
      "optionIcon": "",
      "iconPath": ""
    },
    {
      "id": 643190206,
      "talkRole": {
        "type": "TALK_ROLE_NPC",
        "_id": "4319"
      },
      "talkContentTextMapHash": 1727966434,
      "talkAssetPath": "",
      "talkAssetPathAlter": "",
      "talkAudioName": "",
      "actionBefore": "",
      "actionWhile": "",
      "actionAfter": "",
      "optionIcon": "",
      "iconPath": ""
    }
  ]
}