{
  "talkId": 6431704,
  "KPGKDHAFHFE": "FREE",
  "dialogList": [
    {
      "id": 643170401,
      "nextDialogs": [
        643170402
      ],
      "talkShowType": "TALK_SHOW_FORCE_SELECT",
      "talkRole": {
        "type": "TALK_ROLE_PLAYER",
        "_id": ""
      },
      "talkContentTextMapHash": 1204536834,
      "talkAssetPath": "",
      "talkAssetPathAlter": "",
      "talkAudioName": "",
      "actionBefore": "",
      "actionWhile": "",
      "actionAfter": "",
      "optionIcon": "",
      "iconPath": ""
    },
    {
      "id": 643170402,
      "talkRole": {
        "type": "TALK_ROLE_NPC",
        "_id": "4317"
      },
      "talkContentTextMapHash": 3892549034,
      "talkAssetPath": "",
      "talkAssetPathAlter": "",
      "talkAudioName": "",
      "actionBefore": "",
      "actionWhile": "",
      "actionAfter": "",
      "optionIcon": "",
      "iconPath": ""
    }
  ]
}