{
  "talkId": 6431105,
  "KPGKDHAFHFE": "FREE",
  "dialogList": [
    {
      "id": 643110501,
      "nextDialogs": [
        643110502
      ],
      "talkShowType": "TALK_SHOW_FORCE_SELECT",
      "talkRole": {
        "type": "TALK_ROLE_PLAYER",
        "_id": ""
      },
      "talkContentTextMapHash": 2678138890,
      "talkAssetPath": "",
      "talkAssetPathAlter": "",
      "talkAudioName": "",
      "actionBefore": "",
      "actionWhile": "",
      "actionAfter": "",
      "optionIcon": "",
      "iconPath": ""
    },
    {
      "id": 643110502,
      "nextDialogs": [
        643110503
      ],
      "talkRole": {
        "type": "TALK_ROLE_NPC",
        "_id": "4311"
      },
      "talkContentTextMapHash": 2364451274,
      "talkAssetPath": "",
      "talkAssetPathAlter": "",
      "talkAudioName": "",
      "actionBefore": "",
      "actionWhile": "SimpleTalk/NodHead",
      "actionAfter": "",
      "optionIcon": "",
      "iconPath": ""
    },
    {
      "id": 643110503,
      "nextDialogs": [
        643110504
      ],
      "talkRole": {
        "type": "TALK_ROLE_NPC",
        "_id": "4311"
      },
      "talkContentTextMapHash": 2261062266,
      "talkAssetPath": "",
      "talkAssetPathAlter": "",
      "talkAudioName": "",
      "actionBefore": "",
      "actionWhile": "",
      "actionAfter": "",
      "optionIcon": "",
      "iconPath": ""
    },
    {
      "id": 643110504,
      "nextDialogs": [
        643110505
      ],
      "talkRole": {
        "type": "TALK_ROLE_NPC",
        "_id": "4311"
      },
      "talkContentTextMapHash": 3196710514,
      "talkAssetPath": "",
      "talkAssetPathAlter": "",
      "talkAudioName": "",
      "actionBefore": "",
      "actionWhile": "",
      "actionAfter": "",
      "optionIcon": "",
      "iconPath": ""
    },
    {
      "id": 643110505,
      "talkRole": {
        "type": "TALK_ROLE_NPC",
        "_id": "4311"
      },
      "talkContentTextMapHash": 655016602,
      "talkAssetPath": "",
      "talkAssetPathAlter": "",
      "talkAudioName": "",
      "actionBefore": "",
      "actionWhile": "",
      "actionAfter": "SimpleTalk/LerpOutNpcNoSteer_End",
      "optionIcon": "",
      "iconPath": ""
    }
  ]
}