{
  "talkId": 6432202,
  "KPGKDHAFHFE": "FREE",
  "dialogList": [
    {
      "id": 643220201,
      "nextDialogs": [
        643220202
      ],
      "talkShowType": "TALK_SHOW_FORCE_SELECT",
      "talkRole": {
        "type": "TALK_ROLE_PLAYER",
        "_id": ""
      },
      "talkContentTextMapHash": 3998105490,
      "talkAssetPath": "",
      "talkAssetPathAlter": "",
      "talkAudioName": "",
      "actionBefore": "",
      "actionWhile": "",
      "actionAfter": "",
      "optionIcon": "",
      "iconPath": ""
    },
    {
      "id": 643220202,
      "nextDialogs": [
        643220203
      ],
      "talkRole": {
        "type": "TALK_ROLE_NPC",
        "_id": "4322"
      },
      "talkContentTextMapHash": 1475110818,
      "talkAssetPath": "",
      "talkAssetPathAlter": "",
      "talkAudioName": "",
      "actionBefore": "",
      "actionWhile": "",
      "actionAfter": "",
      "optionIcon": "",
      "iconPath": ""
    },
    {
      "id": 643220203,
      "talkRole": {
        "type": "TALK_ROLE_NPC",
        "_id": "4322"
      },
      "talkContentTextMapHash": 1850826530,
      "talkAssetPath": "",
      "talkAssetPathAlter": "",
      "talkAudioName": "",
      "actionBefore": "",
      "actionWhile": "",
      "actionAfter": "",
      "optionIcon": "",
      "iconPath": ""
    }
  ]
}