{
  "talkId": 6432405,
  "KPGKDHAFHFE": "FREE",
  "dialogList": [
    {
      "id": 643240501,
      "nextDialogs": [
        643240502
      ],
      "talkShowType": "TALK_SHOW_FORCE_SELECT",
      "talkRole": {
        "type": "TALK_ROLE_PLAYER",
        "_id": ""
      },
      "talkContentTextMapHash": 245055658,
      "talkAssetPath": "",
      "talkAssetPathAlter": "",
      "talkAudioName": "",
      "actionBefore": "",
      "actionWhile": "",
      "actionAfter": "",
      "optionIcon": "",
      "iconPath": ""
    },
    {
      "id": 643240502,
      "talkRole": {
        "type": "TALK_ROLE_NPC",
        "_id": "4324"
      },
      "talkContentTextMapHash": 832227778,
      "talkAssetPath": "",
      "talkAssetPathAlter": "",
      "talkAudioName": "",
      "actionBefore": "",
      "actionWhile": "SimpleTalk/Standby",
      "actionAfter": "",
      "optionIcon": "",
      "iconPath": ""
    }
  ]
}