{
  "talkId": 6432701,
  "KPGKDHAFHFE": "FREE",
  "dialogList": [
    {
      "id": 643270101,
      "talkRole": {
        "type": "TALK_ROLE_NPC",
        "_id": "4327"
      },
      "talkContentTextMapHash": 1906165778,
      "talkAssetPath": "",
      "talkAssetPathAlter": "",
      "talkAudioName": "",
      "actionBefore": "SimpleTalk/LerpInNpcNoSteer_Start",
      "actionWhile": "SimpleTalk/Think",
      "actionAfter": "",
      "optionIcon": "",
      "iconPath": ""
    }
  ]
}