{
  "talkId": 6432101,
  "KPGKDHAFHFE": "FREE",
  "dialogList": [
    {
      "id": 643210101,
      "talkRole": {
        "type": "TALK_ROLE_NPC",
        "_id": "4321"
      },
      "talkContentTextMapHash": 2909615826,
      "talkAssetPath": "",
      "talkAssetPathAlter": "",
      "talkAudioName": "",
      "actionBefore": "",
      "actionWhile": "",
      "actionAfter": "",
      "optionIcon": "",
      "iconPath": ""
    }
  ]
}