{
  "talkId": 6432802,
  "KPGKDHAFHFE": "FREE",
  "dialogList": [
    {
      "id": 643280201,
      "nextDialogs": [
        643280202
      ],
      "talkShowType": "TALK_SHOW_FORCE_SELECT",
      "talkRole": {
        "type": "TALK_ROLE_PLAYER",
        "_id": ""
      },
      "talkContentTextMapHash": 670320890,
      "talkAssetPath": "",
      "talkAssetPathAlter": "",
      "talkAudioName": "",
      "actionBefore": "",
      "actionWhile": "",
      "actionAfter": "",
      "optionIcon": "",
      "iconPath": ""
    },
    {
      "id": 643280202,
      "nextDialogs": [
        643280203
      ],
      "talkRole": {
        "type": "TALK_ROLE_NPC",
        "_id": "4328"
      },
      "talkContentTextMapHash": 49700578,
      "talkAssetPath": "",
      "talkAssetPathAlter": "",
      "talkAudioName": "",
      "actionBefore": "",
      "actionWhile": "",
      "actionAfter": "",
      "optionIcon": "",
      "iconPath": ""
    },
    {
      "id": 643280203,
      "nextDialogs": [
        643280204
      ],
      "talkRole": {
        "type": "TALK_ROLE_NPC",
        "_id": "4328"
      },
      "talkContentTextMapHash": 1412000034,
      "talkAssetPath": "",
      "talkAssetPathAlter": "",
      "talkAudioName": "",
      "actionBefore": "",
      "actionWhile": "",
      "actionAfter": "",
      "optionIcon": "",
      "iconPath": ""
    },
    {
      "id": 643280204,
      "nextDialogs": [
        643280205
      ],
      "talkRole": {
        "type": "TALK_ROLE_NPC",
        "_id": "4328"
      },
      "talkContentTextMapHash": 46347570,
      "talkAssetPath": "",
      "talkAssetPathAlter": "",
      "talkAudioName": "",
      "actionBefore": "",
      "actionWhile": "",
      "actionAfter": "",
      "optionIcon": "",
      "iconPath": ""
    },
    {
      "id": 643280205,
      "talkRole": {
        "type": "TALK_ROLE_NPC",
        "_id": "4328"
      },
      "talkContentTextMapHash": 1564993226,
      "talkAssetPath": "",
      "talkAssetPathAlter": "",
      "talkAudioName": "",
      "actionBefore": "",
      "actionWhile": "",
      "actionAfter": "",
      "optionIcon": "",
      "iconPath": ""
    }
  ]
}