{
  "talkId": 6432902,
  "KPGKDHAFHFE": "FREE",
  "dialogList": [
    {
      "id": 643290201,
      "nextDialogs": [
        643290202
      ],
      "talkShowType": "TALK_SHOW_FORCE_SELECT",
      "talkRole": {
        "type": "TALK_ROLE_PLAYER",
        "_id": ""
      },
      "talkContentTextMapHash": 43917602,
      "talkAssetPath": "",
      "talkAssetPathAlter": "",
      "talkAudioName": "",
      "actionBefore": "",
      "actionWhile": "",
      "actionAfter": "",
      "optionIcon": "",
      "iconPath": ""
    },
    {
      "id": 643290202,
      "nextDialogs": [
        643290203
      ],
      "talkRole": {
        "type": "TALK_ROLE_NPC",
        "_id": "4329"
      },
      "talkContentTextMapHash": 3144614330,
      "talkAssetPath": "",
      "talkAssetPathAlter": "",
      "talkAudioName": "",
      "actionBefore": "",
      "actionWhile": "",
      "actionAfter": "",
      "optionIcon": "",
      "iconPath": ""
    },
    {
      "id": 643290203,
      "nextDialogs": [
        643290204
      ],
      "talkRole": {
        "type": "TALK_ROLE_NPC",
        "_id": "4329"
      },
      "talkContentTextMapHash": 3038617610,
      "talkAssetPath": "",
      "talkAssetPathAlter": "",
      "talkAudioName": "",
      "actionBefore": "",
      "actionWhile": "",
      "actionAfter": "",
      "optionIcon": "",
      "iconPath": ""
    },
    {
      "id": 643290204,
      "nextDialogs": [
        643290205
      ],
      "talkRole": {
        "type": "TALK_ROLE_NPC",
        "_id": "4329"
      },
      "talkContentTextMapHash": 2450987834,
      "talkAssetPath": "",
      "talkAssetPathAlter": "",
      "talkAudioName": "",
      "actionBefore": "",
      "actionWhile": "",
      "actionAfter": "",
      "optionIcon": "",
      "iconPath": ""
    },
    {
      "id": 643290205,
      "talkRole": {
        "type": "TALK_ROLE_NPC",
        "_id": "4329"
      },
      "talkContentTextMapHash": 4120578882,
      "talkAssetPath": "",
      "talkAssetPathAlter": "",
      "talkAudioName": "",
      "actionBefore": "",
      "actionWhile": "",
      "actionAfter": "",
      "optionIcon": "",
      "iconPath": ""
    }
  ]
}