{
  "talkId": 6433304,
  "KPGKDHAFHFE": "FREE",
  "dialogList": [
    {
      "id": 643330401,
      "talkRole": {
        "type": "TALK_ROLE_NPC",
        "_id": "4333"
      },
      "talkContentTextMapHash": 437177530,
      "talkAssetPath": "",
      "talkAssetPathAlter": "",
      "talkAudioName": "",
      "actionBefore": "",
      "actionWhile": "SimpleTalk/LerpInNpcDailyTalk_Start",
      "actionAfter": "",
      "optionIcon": "",
      "iconPath": ""
    }
  ]
}