{
  "talkId": 6433403,
  "KPGKDHAFHFE": "FREE",
  "dialogList": [
    {
      "id": 643340301,
      "nextDialogs": [
        643340302
      ],
      "talkShowType": "TALK_SHOW_FORCE_SELECT",
      "talkRole": {
        "type": "TALK_ROLE_PLAYER",
        "_id": ""
      },
      "talkContentTextMapHash": 3176356146,
      "talkAssetPath": "",
      "talkAssetPathAlter": "",
      "talkAudioName": "",
      "actionBefore": "",
      "actionWhile": "",
      "actionAfter": "",
      "optionIcon": "",
      "iconPath": ""
    },
    {
      "id": 643340302,
      "talkRole": {
        "type": "TALK_ROLE_NPC",
        "_id": "4334"
      },
      "talkContentTextMapHash": 1098287114,
      "talkAssetPath": "",
      "talkAssetPathAlter": "",
      "talkAudioName": "",
      "actionBefore": "",
      "actionWhile": "",
      "actionAfter": "",
      "optionIcon": "",
      "iconPath": ""
    }
  ]
}