{
  "talkId": 6434302,
  "KPGKDHAFHFE": "FREE",
  "dialogList": [
    {
      "id": 643430201,
      "nextDialogs": [
        643430202
      ],
      "talkShowType": "TALK_SHOW_FORCE_SELECT",
      "talkRole": {
        "type": "TALK_ROLE_PLAYER",
        "_id": ""
      },
      "talkContentTextMapHash": 3519387834,
      "talkAssetPath": "",
      "talkAssetPathAlter": "",
      "talkAudioName": "",
      "actionBefore": "",
      "actionWhile": "",
      "actionAfter": "",
      "optionIcon": "",
      "iconPath": ""
    },
    {
      "id": 643430202,
      "nextDialogs": [
        643430203
      ],
      "talkRole": {
        "type": "TALK_ROLE_NPC",
        "_id": "4343"
      },
      "talkContentTextMapHash": 3708236954,
      "talkAssetPath": "",
      "talkAssetPathAlter": "",
      "talkAudioName": "",
      "actionBefore": "",
      "actionWhile": "",
      "actionAfter": "",
      "optionIcon": "",
      "iconPath": ""
    },
    {
      "id": 643430203,
      "nextDialogs": [
        643430204
      ],
      "talkRole": {
        "type": "TALK_ROLE_NPC",
        "_id": "4343"
      },
      "talkContentTextMapHash": 4269425090,
      "talkAssetPath": "",
      "talkAssetPathAlter": "",
      "talkAudioName": "",
      "actionBefore": "",
      "actionWhile": "",
      "actionAfter": "",
      "optionIcon": "",
      "iconPath": ""
    },
    {
      "id": 643430204,
      "nextDialogs": [
        643430205
      ],
      "talkRole": {
        "type": "TALK_ROLE_NPC",
        "_id": "4343"
      },
      "talkContentTextMapHash": 2837233282,
      "talkAssetPath": "",
      "talkAssetPathAlter": "",
      "talkAudioName": "",
      "actionBefore": "",
      "actionWhile": "",
      "actionAfter": "",
      "optionIcon": "",
      "iconPath": ""
    },
    {
      "id": 643430205,
      "nextDialogs": [
        643430206
      ],
      "talkRole": {
        "type": "TALK_ROLE_NPC",
        "_id": "4343"
      },
      "talkContentTextMapHash": 738294762,
      "talkAssetPath": "",
      "talkAssetPathAlter": "",
      "talkAudioName": "",
      "actionBefore": "",
      "actionWhile": "",
      "actionAfter": "",
      "optionIcon": "",
      "iconPath": ""
    },
    {
      "id": 643430206,
      "nextDialogs": [
        643430207
      ],
      "talkRole": {
        "type": "TALK_ROLE_NPC",
        "_id": "4343"
      },
      "talkContentTextMapHash": 2520772594,
      "talkAssetPath": "",
      "talkAssetPathAlter": "",
      "talkAudioName": "",
      "actionBefore": "",
      "actionWhile": "",
      "actionAfter": "",
      "optionIcon": "",
      "iconPath": ""
    },
    {
      "id": 643430207,
      "talkRole": {
        "type": "TALK_ROLE_NPC",
        "_id": "4343"
      },
      "talkContentTextMapHash": 1987479602,
      "talkAssetPath": "",
      "talkAssetPathAlter": "",
      "talkAudioName": "",
      "actionBefore": "",
      "actionWhile": "",
      "actionAfter": "",
      "optionIcon": "",
      "iconPath": ""
    }
  ]
}