{
  "talkId": 6434901,
  "KPGKDHAFHFE": "FREE",
  "dialogList": [
    {
      "id": 643490101,
      "talkRole": {
        "type": "TALK_ROLE_NPC",
        "_id": "4349"
      },
      "talkContentTextMapHash": 4198820002,
      "talkAssetPath": "",
      "talkAssetPathAlter": "",
      "talkAudioName": "",
      "actionBefore": "",
      "actionWhile": "SimpleTalk/LerpInNpcDailyTalk_Start",
      "actionAfter": "",
      "optionIcon": "",
      "iconPath": ""
    }
  ]
}