{
  "talkId": 6434803,
  "KPGKDHAFHFE": "FREE",
  "dialogList": [
    {
      "id": 643480301,
      "nextDialogs": [
        643480302
      ],
      "talkShowType": "TALK_SHOW_FORCE_SELECT",
      "talkRole": {
        "type": "TALK_ROLE_PLAYER",
        "_id": ""
      },
      "talkContentTextMapHash": 2754812706,
      "talkAssetPath": "",
      "talkAssetPathAlter": "",
      "talkAudioName": "",
      "actionBefore": "",
      "actionWhile": "",
      "actionAfter": "",
      "optionIcon": "",
      "iconPath": ""
    },
    {
      "id": 643480302,
      "talkRole": {
        "type": "TALK_ROLE_NPC",
        "_id": "4348"
      },
      "talkContentTextMapHash": 4262228210,
      "talkAssetPath": "",
      "talkAssetPathAlter": "",
      "talkAudioName": "",
      "actionBefore": "",
      "actionWhile": "",
      "actionAfter": "",
      "optionIcon": "",
      "iconPath": ""
    }
  ]
}