{
  "talkId": 6435504,
  "KPGKDHAFHFE": "FREE",
  "dialogList": [
    {
      "id": 643550401,
      "nextDialogs": [
        643550402
      ],
      "talkShowType": "TALK_SHOW_FORCE_SELECT",
      "talkRole": {
        "type": "TALK_ROLE_PLAYER",
        "_id": ""
      },
      "talkContentTextMapHash": 664198834,
      "talkAssetPath": "",
      "talkAssetPathAlter": "",
      "talkAudioName": "",
      "actionBefore": "",
      "actionWhile": "",
      "actionAfter": "",
      "optionIcon": "",
      "iconPath": ""
    },
    {
      "id": 643550402,
      "nextDialogs": [
        643550403
      ],
      "talkRole": {
        "type": "TALK_ROLE_NPC",
        "_id": "4355"
      },
      "talkContentTextMapHash": 1117494898,
      "talkAssetPath": "",
      "talkAssetPathAlter": "",
      "talkAudioName": "",
      "actionBefore": "",
      "actionWhile": "",
      "actionAfter": "",
      "optionIcon": "",
      "iconPath": ""
    },
    {
      "id": 643550403,
      "nextDialogs": [
        643550404
      ],
      "talkRole": {
        "type": "TALK_ROLE_NPC",
        "_id": "4355"
      },
      "talkContentTextMapHash": 1932864530,
      "talkAssetPath": "",
      "talkAssetPathAlter": "",
      "talkAudioName": "",
      "actionBefore": "",
      "actionWhile": "",
      "actionAfter": "",
      "optionIcon": "",
      "iconPath": ""
    },
    {
      "id": 643550404,
      "nextDialogs": [
        643550405
      ],
      "talkRole": {
        "type": "TALK_ROLE_NPC",
        "_id": "4355"
      },
      "talkContentTextMapHash": 3742538106,
      "talkAssetPath": "",
      "talkAssetPathAlter": "",
      "talkAudioName": "",
      "actionBefore": "",
      "actionWhile": "",
      "actionAfter": "",
      "optionIcon": "",
      "iconPath": ""
    },
    {
      "id": 643550405,
      "talkRole": {
        "type": "TALK_ROLE_NPC",
        "_id": "4355"
      },
      "talkContentTextMapHash": 2633674322,
      "talkAssetPath": "",
      "talkAssetPathAlter": "",
      "talkAudioName": "",
      "actionBefore": "",
      "actionWhile": "",
      "actionAfter": "",
      "optionIcon": "",
      "iconPath": ""
    }
  ]
}