{
  "talkId": 6435505,
  "KPGKDHAFHFE": "FREE",
  "dialogList": [
    {
      "id": 643550501,
      "nextDialogs": [
        643550502
      ],
      "talkShowType": "TALK_SHOW_FORCE_SELECT",
      "talkRole": {
        "type": "TALK_ROLE_PLAYER",
        "_id": ""
      },
      "talkContentTextMapHash": 4065161642,
      "talkAssetPath": "",
      "talkAssetPathAlter": "",
      "talkAudioName": "",
      "actionBefore": "",
      "actionWhile": "",
      "actionAfter": "",
      "optionIcon": "",
      "iconPath": ""
    },
    {
      "id": 643550502,
      "nextDialogs": [
        643550503
      ],
      "talkRole": {
        "type": "TALK_ROLE_NPC",
        "_id": "4355"
      },
      "talkContentTextMapHash": 3148415170,
      "talkAssetPath": "",
      "talkAssetPathAlter": "",
      "talkAudioName": "",
      "actionBefore": "",
      "actionWhile": "",
      "actionAfter": "",
      "optionIcon": "",
      "iconPath": ""
    },
    {
      "id": 643550503,
      "nextDialogs": [
        643550504
      ],
      "talkRole": {
        "type": "TALK_ROLE_NPC",
        "_id": "4355"
      },
      "talkContentTextMapHash": 950723746,
      "talkAssetPath": "",
      "talkAssetPathAlter": "",
      "talkAudioName": "",
      "actionBefore": "",
      "actionWhile": "",
      "actionAfter": "",
      "optionIcon": "",
      "iconPath": ""
    },
    {
      "id": 643550504,
      "nextDialogs": [
        643550505
      ],
      "talkRole": {
        "type": "TALK_ROLE_NPC",
        "_id": "4355"
      },
      "talkContentTextMapHash": 1164406482,
      "talkAssetPath": "",
      "talkAssetPathAlter": "",
      "talkAudioName": "",
      "actionBefore": "",
      "actionWhile": "",
      "actionAfter": "",
      "optionIcon": "",
      "iconPath": ""
    },
    {
      "id": 643550505,
      "talkRole": {
        "type": "TALK_ROLE_NPC",
        "_id": "4355"
      },
      "talkContentTextMapHash": 2116268266,
      "talkAssetPath": "",
      "talkAssetPathAlter": "",
      "talkAudioName": "",
      "actionBefore": "",
      "actionWhile": "",
      "actionAfter": "",
      "optionIcon": "",
      "iconPath": ""
    }
  ]
}