{
  "talkId": 6435803,
  "KPGKDHAFHFE": "FREE",
  "dialogList": [
    {
      "id": 643580301,
      "nextDialogs": [
        643580302
      ],
      "talkShowType": "TALK_SHOW_FORCE_SELECT",
      "talkRole": {
        "type": "TALK_ROLE_PLAYER",
        "_id": ""
      },
      "talkContentTextMapHash": 3159619762,
      "talkAssetPath": "",
      "talkAssetPathAlter": "",
      "talkAudioName": "",
      "actionBefore": "",
      "actionWhile": "",
      "actionAfter": "",
      "optionIcon": "",
      "iconPath": ""
    },
    {
      "id": 643580302,
      "talkRole": {
        "type": "TALK_ROLE_NPC",
        "_id": "4358"
      },
      "talkContentTextMapHash": 2145069866,
      "talkAssetPath": "",
      "talkAssetPathAlter": "",
      "talkAudioName": "",
      "actionBefore": "",
      "actionWhile": "",
      "actionAfter": "",
      "optionIcon": "",
      "iconPath": ""
    }
  ]
}