{
  "talkId": 6436509,
  "KPGKDHAFHFE": "FREE",
  "dialogList": [
    {
      "id": 643650901,
      "talkRole": {
        "type": "TALK_ROLE_NPC",
        "_id": "4365"
      },
      "talkContentTextMapHash": 2280081474,
      "talkAssetPath": "",
      "talkAssetPathAlter": "",
      "talkAudioName": "",
      "actionBefore": "GCG/ClearWorldChallengeTalk",
      "actionWhile": "",
      "actionAfter": "",
      "optionIcon": "",
      "iconPath": ""
    }
  ]
}