{
  "talkId": 6436804,
  "KPGKDHAFHFE": "FREE",
  "dialogList": [
    {
      "id": 643680401,
      "nextDialogs": [
        643680402
      ],
      "talkShowType": "TALK_SHOW_FORCE_SELECT",
      "talkRole": {
        "type": "TALK_ROLE_PLAYER",
        "_id": ""
      },
      "talkContentTextMapHash": 4124585234,
      "talkAssetPath": "",
      "talkAssetPathAlter": "",
      "talkAudioName": "",
      "actionBefore": "",
      "actionWhile": "",
      "actionAfter": "",
      "optionIcon": "",
      "iconPath": ""
    },
    {
      "id": 643680402,
      "nextDialogs": [
        643680403
      ],
      "talkRole": {
        "type": "TALK_ROLE_NPC",
        "_id": "4368"
      },
      "talkContentTextMapHash": 2434671890,
      "talkAssetPath": "",
      "talkAssetPathAlter": "",
      "talkAudioName": "",
      "actionBefore": "",
      "actionWhile": "",
      "actionAfter": "",
      "optionIcon": "",
      "iconPath": ""
    },
    {
      "id": 643680403,
      "nextDialogs": [
        643680404
      ],
      "talkRole": {
        "type": "TALK_ROLE_NPC",
        "_id": "4368"
      },
      "talkContentTextMapHash": 98533154,
      "talkAssetPath": "",
      "talkAssetPathAlter": "",
      "talkAudioName": "",
      "actionBefore": "",
      "actionWhile": "",
      "actionAfter": "",
      "optionIcon": "",
      "iconPath": ""
    },
    {
      "id": 643680404,
      "nextDialogs": [
        643680405
      ],
      "talkRole": {
        "type": "TALK_ROLE_NPC",
        "_id": "4368"
      },
      "talkContentTextMapHash": 707156034,
      "talkAssetPath": "",
      "talkAssetPathAlter": "",
      "talkAudioName": "",
      "actionBefore": "",
      "actionWhile": "",
      "actionAfter": "",
      "optionIcon": "",
      "iconPath": ""
    },
    {
      "id": 643680405,
      "talkRole": {
        "type": "TALK_ROLE_NPC",
        "_id": "4368"
      },
      "talkContentTextMapHash": 1442302114,
      "talkAssetPath": "",
      "talkAssetPathAlter": "",
      "talkAudioName": "",
      "actionBefore": "",
      "actionWhile": "",
      "actionAfter": "",
      "optionIcon": "",
      "iconPath": ""
    }
  ]
}