{
  "talkId": 6437302,
  "KPGKDHAFHFE": "FREE",
  "dialogList": [
    {
      "id": 643730201,
      "nextDialogs": [
        643730202
      ],
      "talkShowType": "TALK_SHOW_FORCE_SELECT",
      "talkRole": {
        "type": "TALK_ROLE_PLAYER",
        "_id": ""
      },
      "talkContentTextMapHash": 1759234794,
      "talkAssetPath": "",
      "talkAssetPathAlter": "",
      "talkAudioName": "",
      "actionBefore": "",
      "actionWhile": "",
      "actionAfter": "",
      "optionIcon": "",
      "iconPath": ""
    },
    {
      "id": 643730202,
      "nextDialogs": [
        643730203
      ],
      "talkRole": {
        "type": "TALK_ROLE_NPC",
        "_id": "4373"
      },
      "talkContentTextMapHash": 79225842,
      "talkAssetPath": "",
      "talkAssetPathAlter": "",
      "talkAudioName": "",
      "actionBefore": "",
      "actionWhile": "",
      "actionAfter": "",
      "optionIcon": "",
      "iconPath": ""
    },
    {
      "id": 643730203,
      "nextDialogs": [
        643730204
      ],
      "talkRole": {
        "type": "TALK_ROLE_NPC",
        "_id": "4373"
      },
      "talkContentTextMapHash": 3479143378,
      "talkAssetPath": "",
      "talkAssetPathAlter": "",
      "talkAudioName": "",
      "actionBefore": "",
      "actionWhile": "",
      "actionAfter": "",
      "optionIcon": "",
      "iconPath": ""
    },
    {
      "id": 643730204,
      "nextDialogs": [
        643730205
      ],
      "talkRole": {
        "type": "TALK_ROLE_NPC",
        "_id": "4373"
      },
      "talkContentTextMapHash": 2844214258,
      "talkAssetPath": "",
      "talkAssetPathAlter": "",
      "talkAudioName": "",
      "actionBefore": "",
      "actionWhile": "",
      "actionAfter": "",
      "optionIcon": "",
      "iconPath": ""
    },
    {
      "id": 643730205,
      "nextDialogs": [
        643730206
      ],
      "talkRole": {
        "type": "TALK_ROLE_NPC",
        "_id": "4373"
      },
      "talkContentTextMapHash": 2256918802,
      "talkAssetPath": "",
      "talkAssetPathAlter": "",
      "talkAudioName": "",
      "actionBefore": "",
      "actionWhile": "",
      "actionAfter": "",
      "optionIcon": "",
      "iconPath": ""
    },
    {
      "id": 643730206,
      "talkRole": {
        "type": "TALK_ROLE_NPC",
        "_id": "4373"
      },
      "talkContentTextMapHash": 1313883482,
      "talkAssetPath": "",
      "talkAssetPathAlter": "",
      "talkAudioName": "",
      "actionBefore": "",
      "actionWhile": "",
      "actionAfter": "",
      "optionIcon": "",
      "iconPath": ""
    }
  ]
}