{
  "talkId": 6437101,
  "KPGKDHAFHFE": "FREE",
  "dialogList": [
    {
      "id": 643710101,
      "talkRole": {
        "type": "TALK_ROLE_NPC",
        "_id": "4371"
      },
      "talkContentTextMapHash": 910265786,
      "talkAssetPath": "",
      "talkAssetPathAlter": "",
      "talkAudioName": "",
      "actionBefore": "",
      "actionWhile": "SimpleTalk/LerpInNpcDailyTalk_Start",
      "actionAfter": "",
      "optionIcon": "",
      "iconPath": ""
    }
  ]
}