{
  "talkId": 6437001,
  "KPGKDHAFHFE": "FREE",
  "dialogList": [
    {
      "id": 643700101,
      "talkRole": {
        "type": "TALK_ROLE_NPC",
        "_id": "4370"
      },
      "talkContentTextMapHash": 3081541266,
      "talkAssetPath": "",
      "talkAssetPathAlter": "",
      "talkAudioName": "",
      "actionBefore": "",
      "actionWhile": "TEST/LerpInNpcNoSteer",
      "actionAfter": "",
      "optionIcon": "",
      "iconPath": ""
    }
  ]
}