{
  "talkId": 6438403,
  "KPGKDHAFHFE": "FREE",
  "dialogList": [
    {
      "id": 643840301,
      "nextDialogs": [
        643840302
      ],
      "talkShowType": "TALK_SHOW_FORCE_SELECT",
      "talkRole": {
        "type": "TALK_ROLE_PLAYER",
        "_id": ""
      },
      "talkContentTextMapHash": 1290712146,
      "talkAssetPath": "",
      "talkAssetPathAlter": "",
      "talkAudioName": "",
      "actionBefore": "",
      "actionWhile": "",
      "actionAfter": "",
      "optionIcon": "",
      "iconPath": ""
    },
    {
      "id": 643840302,
      "talkRole": {
        "type": "TALK_ROLE_NPC",
        "_id": "4384"
      },
      "talkContentTextMapHash": 3339211258,
      "talkAssetPath": "",
      "talkAssetPathAlter": "",
      "talkAudioName": "",
      "actionBefore": "",
      "actionWhile": "",
      "actionAfter": "",
      "optionIcon": "",
      "iconPath": ""
    }
  ]
}