{
  "talkId": 6438105,
  "KPGKDHAFHFE": "FREE",
  "dialogList": [
    {
      "id": 643810501,
      "nextDialogs": [
        643810502
      ],
      "talkRole": {
        "type": "TALK_ROLE_NPC",
        "_id": "4381"
      },
      "talkContentTextMapHash": 1340142626,
      "talkAssetPath": "",
      "talkAssetPathAlter": "",
      "talkAudioName": "",
      "actionBefore": "",
      "actionWhile": "TEST/LerpInNpcNoSteer",
      "actionAfter": "",
      "optionIcon": "",
      "iconPath": ""
    },
    {
      "id": 643810502,
      "nextDialogs": [
        643810503
      ],
      "talkRole": {
        "type": "TALK_ROLE_NPC",
        "_id": "4056"
      },
      "talkContentTextMapHash": 3634536122,
      "talkAssetPath": "",
      "talkAssetPathAlter": "",
      "talkAudioName": "",
      "actionBefore": "",
      "actionWhile": "",
      "actionAfter": "",
      "optionIcon": "",
      "iconPath": ""
    },
    {
      "id": 643810503,
      "nextDialogs": [
        643810504
      ],
      "talkRole": {
        "type": "TALK_ROLE_NPC",
        "_id": "4381"
      },
      "talkContentTextMapHash": 3248279794,
      "talkAssetPath": "",
      "talkAssetPathAlter": "",
      "talkAudioName": "",
      "actionBefore": "",
      "actionWhile": "",
      "actionAfter": "",
      "optionIcon": "",
      "iconPath": ""
    },
    {
      "id": 643810504,
      "nextDialogs": [
        643810505
      ],
      "talkRole": {
        "type": "TALK_ROLE_NPC",
        "_id": "4381"
      },
      "talkContentTextMapHash": 2152197826,
      "talkAssetPath": "",
      "talkAssetPathAlter": "",
      "talkAudioName": "",
      "actionBefore": "",
      "actionWhile": "",
      "actionAfter": "",
      "optionIcon": "",
      "iconPath": ""
    },
    {
      "id": 643810505,
      "nextDialogs": [
        643810506
      ],
      "talkRole": {
        "type": "TALK_ROLE_NPC",
        "_id": "4381"
      },
      "talkContentTextMapHash": 158026498,
      "talkAssetPath": "",
      "talkAssetPathAlter": "",
      "talkAudioName": "",
      "actionBefore": "",
      "actionWhile": "",
      "actionAfter": "",
      "optionIcon": "",
      "iconPath": ""
    },
    {
      "id": 643810506,
      "nextDialogs": [
        643810507
      ],
      "talkRole": {
        "type": "TALK_ROLE_NPC",
        "_id": "4056"
      },
      "talkContentTextMapHash": 3860516154,
      "talkAssetPath": "",
      "talkAssetPathAlter": "",
      "talkAudioName": "",
      "actionBefore": "",
      "actionWhile": "",
      "actionAfter": "",
      "optionIcon": "",
      "iconPath": ""
    },
    {
      "id": 643810507,
      "nextDialogs": [
        643810508
      ],
      "talkRole": {
        "type": "TALK_ROLE_NPC",
        "_id": "4056"
      },
      "talkContentTextMapHash": 399875306,
      "talkAssetPath": "",
      "talkAssetPathAlter": "",
      "talkAudioName": "",
      "actionBefore": "",
      "actionWhile": "",
      "actionAfter": "",
      "optionIcon": "",
      "iconPath": ""
    },
    {
      "id": 643810508,
      "nextDialogs": [
        643810509
      ],
      "talkRole": {
        "type": "TALK_ROLE_NPC",
        "_id": "4056"
      },
      "talkContentTextMapHash": 3438359378,
      "talkAssetPath": "",
      "talkAssetPathAlter": "",
      "talkAudioName": "",
      "actionBefore": "",
      "actionWhile": "",
      "actionAfter": "",
      "optionIcon": "",
      "iconPath": ""
    },
    {
      "id": 643810509,
      "nextDialogs": [
        643810510
      ],
      "talkRole": {
        "type": "TALK_ROLE_NPC",
        "_id": "4381"
      },
      "talkContentTextMapHash": 2270579442,
      "talkAssetPath": "",
      "talkAssetPathAlter": "",
      "talkAudioName": "",
      "actionBefore": "",
      "actionWhile": "",
      "actionAfter": "",
      "optionIcon": "",
      "iconPath": ""
    },
    {
      "id": 643810510,
      "talkRole": {
        "type": "TALK_ROLE_NPC",
        "_id": "4381"
      },
      "talkContentTextMapHash": 4281591474,
      "talkAssetPath": "",
      "talkAssetPathAlter": "",
      "talkAudioName": "",
      "actionBefore": "",
      "actionWhile": "",
      "actionAfter": "TEST/LerpOutNpcNoSteer",
      "optionIcon": "",
      "iconPath": ""
    }
  ]
}