{
  "talkId": 6438303,
  "KPGKDHAFHFE": "FREE",
  "dialogList": [
    {
      "id": 643830301,
      "nextDialogs": [
        643830302
      ],
      "talkShowType": "TALK_SHOW_FORCE_SELECT",
      "talkRole": {
        "type": "TALK_ROLE_PLAYER",
        "_id": ""
      },
      "talkContentTextMapHash": 1358860002,
      "talkAssetPath": "",
      "talkAssetPathAlter": "",
      "talkAudioName": "",
      "actionBefore": "",
      "actionWhile": "",
      "actionAfter": "",
      "optionIcon": "",
      "iconPath": ""
    },
    {
      "id": 643830302,
      "talkRole": {
        "type": "TALK_ROLE_NPC",
        "_id": "4383"
      },
      "talkContentTextMapHash": 3398020890,
      "talkAssetPath": "",
      "talkAssetPathAlter": "",
      "talkAudioName": "",
      "actionBefore": "",
      "actionWhile": "",
      "actionAfter": "",
      "optionIcon": "",
      "iconPath": ""
    }
  ]
}