{
  "talkId": 6438404,
  "KPGKDHAFHFE": "FREE",
  "dialogList": [
    {
      "id": 643840401,
      "nextDialogs": [
        643840402
      ],
      "talkShowType": "TALK_SHOW_FORCE_SELECT",
      "talkRole": {
        "type": "TALK_ROLE_PLAYER",
        "_id": ""
      },
      "talkContentTextMapHash": 3444081554,
      "talkAssetPath": "",
      "talkAssetPathAlter": "",
      "talkAudioName": "",
      "actionBefore": "",
      "actionWhile": "",
      "actionAfter": "",
      "optionIcon": "",
      "iconPath": ""
    },
    {
      "id": 643840402,
      "nextDialogs": [
        643840403
      ],
      "talkRole": {
        "type": "TALK_ROLE_NPC",
        "_id": "4384"
      },
      "talkContentTextMapHash": 1955067186,
      "talkAssetPath": "",
      "talkAssetPathAlter": "",
      "talkAudioName": "",
      "actionBefore": "",
      "actionWhile": "SimpleTalk/Akimbo",
      "actionAfter": "",
      "optionIcon": "",
      "iconPath": ""
    },
    {
      "id": 643840403,
      "nextDialogs": [
        643840404
      ],
      "talkRole": {
        "type": "TALK_ROLE_NPC",
        "_id": "4384"
      },
      "talkContentTextMapHash": 1348299642,
      "talkAssetPath": "",
      "talkAssetPathAlter": "",
      "talkAudioName": "",
      "actionBefore": "",
      "actionWhile": "",
      "actionAfter": "",
      "optionIcon": "",
      "iconPath": ""
    },
    {
      "id": 643840404,
      "nextDialogs": [
        643840405
      ],
      "talkRole": {
        "type": "TALK_ROLE_NPC",
        "_id": "4384"
      },
      "talkContentTextMapHash": 155900882,
      "talkAssetPath": "",
      "talkAssetPathAlter": "",
      "talkAudioName": "",
      "actionBefore": "",
      "actionWhile": "SimpleTalk/Think",
      "actionAfter": "",
      "optionIcon": "",
      "iconPath": ""
    },
    {
      "id": 643840405,
      "nextDialogs": [
        643840406
      ],
      "talkRole": {
        "type": "TALK_ROLE_NPC",
        "_id": "4384"
      },
      "talkContentTextMapHash": 994244002,
      "talkAssetPath": "",
      "talkAssetPathAlter": "",
      "talkAudioName": "",
      "actionBefore": "",
      "actionWhile": "SimpleTalk/RandomTalk",
      "actionAfter": "",
      "optionIcon": "",
      "iconPath": ""
    },
    {
      "id": 643840406,
      "talkRole": {
        "type": "TALK_ROLE_NPC",
        "_id": "4384"
      },
      "talkContentTextMapHash": 1237113866,
      "talkAssetPath": "",
      "talkAssetPathAlter": "",
      "talkAudioName": "",
      "actionBefore": "",
      "actionWhile": "",
      "actionAfter": "",
      "optionIcon": "",
      "iconPath": ""
    }
  ]
}