{
  "talkId": 6438301,
  "KPGKDHAFHFE": "FREE",
  "dialogList": [
    {
      "id": 643830101,
      "talkRole": {
        "type": "TALK_ROLE_NPC",
        "_id": "4383"
      },
      "talkContentTextMapHash": 1098371986,
      "talkAssetPath": "",
      "talkAssetPathAlter": "",
      "talkAudioName": "",
      "actionBefore": "",
      "actionWhile": "TEST/LerpInNpc",
      "actionAfter": "",
      "optionIcon": "",
      "iconPath": ""
    }
  ]
}