{
  "talkId": 6438206,
  "KPGKDHAFHFE": "FREE",
  "dialogList": [
    {
      "id": 643820601,
      "nextDialogs": [
        643820602
      ],
      "talkShowType": "TALK_SHOW_FORCE_SELECT",
      "talkRole": {
        "type": "TALK_ROLE_PLAYER",
        "_id": ""
      },
      "talkContentTextMapHash": 1179135530,
      "talkAssetPath": "",
      "talkAssetPathAlter": "",
      "talkAudioName": "",
      "actionBefore": "",
      "actionWhile": "",
      "actionAfter": "",
      "optionIcon": "",
      "iconPath": ""
    },
    {
      "id": 643820602,
      "nextDialogs": [
        643820603
      ],
      "talkRole": {
        "type": "TALK_ROLE_NPC",
        "_id": "4382"
      },
      "talkContentTextMapHash": 872120450,
      "talkAssetPath": "",
      "talkAssetPathAlter": "",
      "talkAudioName": "",
      "actionBefore": "",
      "actionWhile": "",
      "actionAfter": "",
      "optionIcon": "",
      "iconPath": ""
    },
    {
      "id": 643820603,
      "nextDialogs": [
        643820604
      ],
      "talkRole": {
        "type": "TALK_ROLE_NPC",
        "_id": "4382"
      },
      "talkContentTextMapHash": 469813602,
      "talkAssetPath": "",
      "talkAssetPathAlter": "",
      "talkAudioName": "",
      "actionBefore": "",
      "actionWhile": "",
      "actionAfter": "",
      "optionIcon": "",
      "iconPath": ""
    },
    {
      "id": 643820604,
      "nextDialogs": [
        643820605
      ],
      "talkRole": {
        "type": "TALK_ROLE_NPC",
        "_id": "4382"
      },
      "talkContentTextMapHash": 3445135930,
      "talkAssetPath": "",
      "talkAssetPathAlter": "",
      "talkAudioName": "",
      "actionBefore": "",
      "actionWhile": "",
      "actionAfter": "",
      "optionIcon": "",
      "iconPath": ""
    },
    {
      "id": 643820605,
      "nextDialogs": [
        643820606
      ],
      "talkRole": {
        "type": "TALK_ROLE_NPC",
        "_id": "4382"
      },
      "talkContentTextMapHash": 3677434146,
      "talkAssetPath": "",
      "talkAssetPathAlter": "",
      "talkAudioName": "",
      "actionBefore": "",
      "actionWhile": "",
      "actionAfter": "",
      "optionIcon": "",
      "iconPath": ""
    },
    {
      "id": 643820606,
      "nextDialogs": [
        643820607
      ],
      "talkRole": {
        "type": "TALK_ROLE_NPC",
        "_id": "4382"
      },
      "talkContentTextMapHash": 3964391066,
      "talkAssetPath": "",
      "talkAssetPathAlter": "",
      "talkAudioName": "",
      "actionBefore": "",
      "actionWhile": "",
      "actionAfter": "",
      "optionIcon": "",
      "iconPath": ""
    },
    {
      "id": 643820607,
      "talkRole": {
        "type": "TALK_ROLE_NPC",
        "_id": "4382"
      },
      "talkContentTextMapHash": 507711210,
      "talkAssetPath": "",
      "talkAssetPathAlter": "",
      "talkAudioName": "",
      "actionBefore": "",
      "actionWhile": "",
      "actionAfter": "",
      "optionIcon": "",
      "iconPath": ""
    }
  ]
}