{
  "talkId": 6440204,
  "KPGKDHAFHFE": "FREE",
  "dialogList": [
    {
      "id": 644020401,
      "nextDialogs": [
        644020402
      ],
      "talkShowType": "TALK_SHOW_FORCE_SELECT",
      "talkRole": {
        "type": "TALK_ROLE_PLAYER",
        "_id": ""
      },
      "talkContentTextMapHash": 3406586970,
      "talkAssetPath": "",
      "talkAssetPathAlter": "",
      "talkAudioName": "",
      "actionBefore": "",
      "actionWhile": "",
      "actionAfter": "",
      "optionIcon": "",
      "iconPath": ""
    },
    {
      "id": 644020402,
      "nextDialogs": [
        644020403
      ],
      "talkRole": {
        "type": "TALK_ROLE_NPC",
        "_id": "4402"
      },
      "talkContentTextMapHash": 981035098,
      "talkAssetPath": "",
      "talkAssetPathAlter": "",
      "talkAudioName": "",
      "actionBefore": "",
      "actionWhile": "",
      "actionAfter": "",
      "optionIcon": "",
      "iconPath": ""
    },
    {
      "id": 644020403,
      "nextDialogs": [
        644020404
      ],
      "talkRole": {
        "type": "TALK_ROLE_NPC",
        "_id": "4402"
      },
      "talkContentTextMapHash": 2034037482,
      "talkAssetPath": "",
      "talkAssetPathAlter": "",
      "talkAudioName": "",
      "actionBefore": "",
      "actionWhile": "",
      "actionAfter": "",
      "optionIcon": "",
      "iconPath": ""
    },
    {
      "id": 644020404,
      "nextDialogs": [
        644020405
      ],
      "talkRole": {
        "type": "TALK_ROLE_NPC",
        "_id": "4402"
      },
      "talkContentTextMapHash": 205266786,
      "talkAssetPath": "",
      "talkAssetPathAlter": "",
      "talkAudioName": "",
      "actionBefore": "",
      "actionWhile": "",
      "actionAfter": "",
      "optionIcon": "",
      "iconPath": ""
    },
    {
      "id": 644020405,
      "nextDialogs": [
        644020406
      ],
      "talkRole": {
        "type": "TALK_ROLE_NPC",
        "_id": "4402"
      },
      "talkContentTextMapHash": 491865770,
      "talkAssetPath": "",
      "talkAssetPathAlter": "",
      "talkAudioName": "",
      "actionBefore": "",
      "actionWhile": "",
      "actionAfter": "",
      "optionIcon": "",
      "iconPath": ""
    },
    {
      "id": 644020406,
      "talkRole": {
        "type": "TALK_ROLE_NPC",
        "_id": "4402"
      },
      "talkContentTextMapHash": 1174161418,
      "talkAssetPath": "",
      "talkAssetPathAlter": "",
      "talkAudioName": "",
      "actionBefore": "",
      "actionWhile": "",
      "actionAfter": "",
      "optionIcon": "",
      "iconPath": ""
    }
  ]
}