{
  "talkId": 6440101,
  "KPGKDHAFHFE": "FREE",
  "dialogList": [
    {
      "id": 644010101,
      "nextDialogs": [
        644010102
      ],
      "talkRole": {
        "type": "TALK_ROLE_NPC",
        "_id": "4401"
      },
      "talkContentTextMapHash": 735039378,
      "talkAssetPath": "",
      "talkAssetPathAlter": "",
      "talkAudioName": "",
      "actionBefore": "",
      "actionWhile": "SimpleTalk/LerpInNpcDailyTalk_Start",
      "actionAfter": "",
      "optionIcon": "",
      "iconPath": ""
    },
    {
      "id": 644010102,
      "nextDialogs": [
        644010103
      ],
      "talkRole": {
        "type": "TALK_ROLE_NPC",
        "_id": "4401"
      },
      "talkContentTextMapHash": 808344506,
      "talkAssetPath": "",
      "talkAssetPathAlter": "",
      "talkAudioName": "",
      "actionBefore": "",
      "actionWhile": "",
      "actionAfter": "",
      "optionIcon": "",
      "iconPath": ""
    },
    {
      "id": 644010103,
      "talkRole": {
        "type": "TALK_ROLE_NPC",
        "_id": "4401"
      },
      "talkContentTextMapHash": 3687636370,
      "talkAssetPath": "",
      "talkAssetPathAlter": "",
      "talkAudioName": "",
      "actionBefore": "",
      "actionWhile": "",
      "actionAfter": "",
      "optionIcon": "",
      "iconPath": ""
    }
  ]
}