{
  "talkId": 6440605,
  "KPGKDHAFHFE": "FREE",
  "dialogList": [
    {
      "id": 644060501,
      "nextDialogs": [
        644060502
      ],
      "talkShowType": "TALK_SHOW_FORCE_SELECT",
      "talkRole": {
        "type": "TALK_ROLE_PLAYER",
        "_id": ""
      },
      "talkContentTextMapHash": 175616962,
      "talkAssetPath": "",
      "talkAssetPathAlter": "",
      "talkAudioName": "",
      "actionBefore": "",
      "actionWhile": "",
      "actionAfter": "",
      "optionIcon": "",
      "iconPath": ""
    },
    {
      "id": 644060502,
      "nextDialogs": [
        644060503
      ],
      "talkRole": {
        "type": "TALK_ROLE_NPC",
        "_id": "4406"
      },
      "talkContentTextMapHash": 2784646650,
      "talkAssetPath": "",
      "talkAssetPathAlter": "",
      "talkAudioName": "",
      "actionBefore": "",
      "actionWhile": "",
      "actionAfter": "",
      "optionIcon": "",
      "iconPath": ""
    },
    {
      "id": 644060503,
      "nextDialogs": [
        644060504
      ],
      "talkRole": {
        "type": "TALK_ROLE_NPC",
        "_id": "4406"
      },
      "talkContentTextMapHash": 3649910586,
      "talkAssetPath": "",
      "talkAssetPathAlter": "",
      "talkAudioName": "",
      "actionBefore": "",
      "actionWhile": "",
      "actionAfter": "",
      "optionIcon": "",
      "iconPath": ""
    },
    {
      "id": 644060504,
      "talkRole": {
        "type": "TALK_ROLE_NPC",
        "_id": "4406"
      },
      "talkContentTextMapHash": 3210941794,
      "talkAssetPath": "",
      "talkAssetPathAlter": "",
      "talkAudioName": "",
      "actionBefore": "",
      "actionWhile": "",
      "actionAfter": "",
      "optionIcon": "",
      "iconPath": ""
    }
  ]
}