{
  "talkId": 6440903,
  "KPGKDHAFHFE": "FREE",
  "dialogList": [
    {
      "id": 644090301,
      "nextDialogs": [
        644090302
      ],
      "talkShowType": "TALK_SHOW_FORCE_SELECT",
      "talkRole": {
        "type": "TALK_ROLE_PLAYER",
        "_id": ""
      },
      "talkContentTextMapHash": 190650410,
      "talkAssetPath": "",
      "talkAssetPathAlter": "",
      "talkAudioName": "",
      "actionBefore": "",
      "actionWhile": "",
      "actionAfter": "",
      "optionIcon": "",
      "iconPath": ""
    },
    {
      "id": 644090302,
      "talkRole": {
        "type": "TALK_ROLE_NPC",
        "_id": "4409"
      },
      "talkContentTextMapHash": 156148634,
      "talkAssetPath": "",
      "talkAssetPathAlter": "",
      "talkAudioName": "",
      "actionBefore": "",
      "actionWhile": "",
      "actionAfter": "",
      "optionIcon": "",
      "iconPath": ""
    }
  ]
}