{
  "talkId": 6440705,
  "KPGKDHAFHFE": "FREE",
  "dialogList": [
    {
      "id": 644070501,
      "nextDialogs": [
        644070502
      ],
      "talkShowType": "TALK_SHOW_FORCE_SELECT",
      "talkRole": {
        "type": "TALK_ROLE_PLAYER",
        "_id": ""
      },
      "talkContentTextMapHash": 3922157946,
      "talkAssetPath": "",
      "talkAssetPathAlter": "",
      "talkAudioName": "",
      "actionBefore": "",
      "actionWhile": "",
      "actionAfter": "",
      "optionIcon": "",
      "iconPath": ""
    },
    {
      "id": 644070502,
      "nextDialogs": [
        644070503
      ],
      "talkRole": {
        "type": "TALK_ROLE_NPC",
        "_id": "4407"
      },
      "talkContentTextMapHash": 1867422466,
      "talkAssetPath": "",
      "talkAssetPathAlter": "",
      "talkAudioName": "",
      "actionBefore": "",
      "actionWhile": "",
      "actionAfter": "",
      "optionIcon": "",
      "iconPath": ""
    },
    {
      "id": 644070503,
      "nextDialogs": [
        644070504
      ],
      "talkRole": {
        "type": "TALK_ROLE_NPC",
        "_id": "4407"
      },
      "talkContentTextMapHash": 1978421978,
      "talkAssetPath": "",
      "talkAssetPathAlter": "",
      "talkAudioName": "",
      "actionBefore": "",
      "actionWhile": "",
      "actionAfter": "",
      "optionIcon": "",
      "iconPath": ""
    },
    {
      "id": 644070504,
      "nextDialogs": [
        644070505
      ],
      "talkRole": {
        "type": "TALK_ROLE_NPC",
        "_id": "4407"
      },
      "talkContentTextMapHash": 2553307106,
      "talkAssetPath": "",
      "talkAssetPathAlter": "",
      "talkAudioName": "",
      "actionBefore": "",
      "actionWhile": "",
      "actionAfter": "",
      "optionIcon": "",
      "iconPath": ""
    },
    {
      "id": 644070505,
      "nextDialogs": [
        644070506
      ],
      "talkRole": {
        "type": "TALK_ROLE_NPC",
        "_id": "4407"
      },
      "talkContentTextMapHash": 186541154,
      "talkAssetPath": "",
      "talkAssetPathAlter": "",
      "talkAudioName": "",
      "actionBefore": "",
      "actionWhile": "",
      "actionAfter": "",
      "optionIcon": "",
      "iconPath": ""
    },
    {
      "id": 644070506,
      "talkRole": {
        "type": "TALK_ROLE_NPC",
        "_id": "4407"
      },
      "talkContentTextMapHash": 3999129130,
      "talkAssetPath": "",
      "talkAssetPathAlter": "",
      "talkAudioName": "",
      "actionBefore": "",
      "actionWhile": "",
      "actionAfter": "",
      "optionIcon": "",
      "iconPath": ""
    }
  ]
}