{
  "talkId": 6440702,
  "KPGKDHAFHFE": "FREE",
  "dialogList": [
    {
      "id": 644070201,
      "talkRole": {
        "type": "TALK_ROLE_NPC",
        "_id": "4407"
      },
      "talkContentTextMapHash": 4284812626,
      "talkAssetPath": "",
      "talkAssetPathAlter": "",
      "talkAudioName": "",
      "actionBefore": "",
      "actionWhile": "SimpleTalk/LerpInNpcDailyTalk_Start",
      "actionAfter": "",
      "optionIcon": "",
      "iconPath": ""
    }
  ]
}