{
  "talkId": 6441401,
  "KPGKDHAFHFE": "FREE",
  "dialogList": [
    {
      "id": 644140101,
      "nextDialogs": [
        644140102
      ],
      "talkRole": {
        "type": "TALK_ROLE_NPC",
        "_id": "4414"
      },
      "talkContentTextMapHash": 2600986258,
      "talkAssetPath": "",
      "talkAssetPathAlter": "",
      "talkAudioName": "",
      "actionBefore": "",
      "actionWhile": "SimpleTalk/LerpInNpcDailyTalk_Start",
      "actionAfter": "",
      "optionIcon": "",
      "iconPath": ""
    },
    {
      "id": 644140102,
      "talkRole": {
        "type": "TALK_ROLE_NPC",
        "_id": "4414"
      },
      "talkContentTextMapHash": 4178779730,
      "talkAssetPath": "",
      "talkAssetPathAlter": "",
      "talkAudioName": "",
      "actionBefore": "",
      "actionWhile": "",
      "actionAfter": "",
      "optionIcon": "",
      "iconPath": ""
    }
  ]
}