{
  "talkId": 6441301,
  "KPGKDHAFHFE": "FREE",
  "dialogList": [
    {
      "id": 644130101,
      "talkRole": {
        "type": "TALK_ROLE_NPC",
        "_id": "4413"
      },
      "talkContentTextMapHash": 967522650,
      "talkAssetPath": "",
      "talkAssetPathAlter": "",
      "talkAudioName": "",
      "actionBefore": "",
      "actionWhile": "SimpleTalk/LerpInNpcDailyTalk_Start",
      "actionAfter": "",
      "optionIcon": "",
      "iconPath": ""
    }
  ]
}