{
  "talkId": 6441503,
  "KPGKDHAFHFE": "FREE",
  "dialogList": [
    {
      "id": 644150301,
      "nextDialogs": [
        644150302
      ],
      "talkShowType": "TALK_SHOW_FORCE_SELECT",
      "talkRole": {
        "type": "TALK_ROLE_PLAYER",
        "_id": ""
      },
      "talkContentTextMapHash": 523338866,
      "talkAssetPath": "",
      "talkAssetPathAlter": "",
      "talkAudioName": "",
      "actionBefore": "",
      "actionWhile": "",
      "actionAfter": "",
      "optionIcon": "",
      "iconPath": ""
    },
    {
      "id": 644150302,
      "talkRole": {
        "type": "TALK_ROLE_NPC",
        "_id": "4415"
      },
      "talkContentTextMapHash": 1343233650,
      "talkAssetPath": "",
      "talkAssetPathAlter": "",
      "talkAudioName": "",
      "actionBefore": "",
      "actionWhile": "",
      "actionAfter": "",
      "optionIcon": "",
      "iconPath": ""
    }
  ]
}