{
  "talkId": 6441602,
  "KPGKDHAFHFE": "FREE",
  "dialogList": [
    {
      "id": 644160201,
      "nextDialogs": [
        644160202
      ],
      "talkShowType": "TALK_SHOW_FORCE_SELECT",
      "talkRole": {
        "type": "TALK_ROLE_PLAYER",
        "_id": ""
      },
      "talkContentTextMapHash": 3866675258,
      "talkAssetPath": "",
      "talkAssetPathAlter": "",
      "talkAudioName": "",
      "actionBefore": "",
      "actionWhile": "",
      "actionAfter": "",
      "optionIcon": "",
      "iconPath": ""
    },
    {
      "id": 644160202,
      "nextDialogs": [
        644160203
      ],
      "talkRole": {
        "type": "TALK_ROLE_NPC",
        "_id": "4416"
      },
      "talkContentTextMapHash": 2015104730,
      "talkAssetPath": "",
      "talkAssetPathAlter": "",
      "talkAudioName": "",
      "actionBefore": "",
      "actionWhile": "",
      "actionAfter": "",
      "optionIcon": "",
      "iconPath": ""
    },
    {
      "id": 644160203,
      "nextDialogs": [
        644160204
      ],
      "talkRole": {
        "type": "TALK_ROLE_NPC",
        "_id": "4416"
      },
      "talkContentTextMapHash": 2100597298,
      "talkAssetPath": "",
      "talkAssetPathAlter": "",
      "talkAudioName": "",
      "actionBefore": "",
      "actionWhile": "",
      "actionAfter": "",
      "optionIcon": "",
      "iconPath": ""
    },
    {
      "id": 644160204,
      "nextDialogs": [
        644160205
      ],
      "talkRole": {
        "type": "TALK_ROLE_NPC",
        "_id": "4416"
      },
      "talkContentTextMapHash": 1596507146,
      "talkAssetPath": "",
      "talkAssetPathAlter": "",
      "talkAudioName": "",
      "actionBefore": "",
      "actionWhile": "",
      "actionAfter": "",
      "optionIcon": "",
      "iconPath": ""
    },
    {
      "id": 644160205,
      "talkRole": {
        "type": "TALK_ROLE_NPC",
        "_id": "4416"
      },
      "talkContentTextMapHash": 1926104618,
      "talkAssetPath": "",
      "talkAssetPathAlter": "",
      "talkAudioName": "",
      "actionBefore": "",
      "actionWhile": "",
      "actionAfter": "",
      "optionIcon": "",
      "iconPath": ""
    }
  ]
}