{
  "talkId": 6442902,
  "KPGKDHAFHFE": "FREE",
  "dialogList": [
    {
      "id": 644290201,
      "nextDialogs": [
        644290202
      ],
      "talkShowType": "TALK_SHOW_FORCE_SELECT",
      "talkRole": {
        "type": "TALK_ROLE_PLAYER",
        "_id": ""
      },
      "talkContentTextMapHash": 170251802,
      "talkAssetPath": "",
      "talkAssetPathAlter": "",
      "talkAudioName": "",
      "actionBefore": "",
      "actionWhile": "",
      "actionAfter": "",
      "optionIcon": "",
      "iconPath": ""
    },
    {
      "id": 644290202,
      "nextDialogs": [
        644290203
      ],
      "talkRole": {
        "type": "TALK_ROLE_NPC",
        "_id": "4429"
      },
      "talkContentTextMapHash": 833198906,
      "talkAssetPath": "",
      "talkAssetPathAlter": "",
      "talkAudioName": "",
      "actionBefore": "",
      "actionWhile": "",
      "actionAfter": "",
      "optionIcon": "",
      "iconPath": ""
    },
    {
      "id": 644290203,
      "nextDialogs": [
        644290204
      ],
      "talkRole": {
        "type": "TALK_ROLE_NPC",
        "_id": "4429"
      },
      "talkContentTextMapHash": 2453165826,
      "talkAssetPath": "",
      "talkAssetPathAlter": "",
      "talkAudioName": "",
      "actionBefore": "",
      "actionWhile": "",
      "actionAfter": "",
      "optionIcon": "",
      "iconPath": ""
    },
    {
      "id": 644290204,
      "nextDialogs": [
        644290205
      ],
      "talkRole": {
        "type": "TALK_ROLE_NPC",
        "_id": "4429"
      },
      "talkContentTextMapHash": 108897762,
      "talkAssetPath": "",
      "talkAssetPathAlter": "",
      "talkAudioName": "",
      "actionBefore": "",
      "actionWhile": "",
      "actionAfter": "",
      "optionIcon": "",
      "iconPath": ""
    },
    {
      "id": 644290205,
      "talkRole": {
        "type": "TALK_ROLE_NPC",
        "_id": "4429"
      },
      "talkContentTextMapHash": 2386544218,
      "talkAssetPath": "",
      "talkAssetPathAlter": "",
      "talkAudioName": "",
      "actionBefore": "",
      "actionWhile": "",
      "actionAfter": "",
      "optionIcon": "",
      "iconPath": ""
    }
  ]
}