{
  "talkId": 6443701,
  "KPGKDHAFHFE": "FREE",
  "dialogList": [
    {
      "id": 644370101,
      "talkRole": {
        "type": "TALK_ROLE_NPC",
        "_id": "4437"
      },
      "talkContentTextMapHash": 2748956410,
      "talkAssetPath": "",
      "talkAssetPathAlter": "",
      "talkAudioName": "",
      "actionBefore": "",
      "actionWhile": "",
      "actionAfter": "",
      "optionIcon": "",
      "iconPath": ""
    }
  ]
}