{
  "talkId": 6443710,
  "KPGKDHAFHFE": "FREE",
  "dialogList": [
    {
      "id": 644371001,
      "nextDialogs": [
        644371002
      ],
      "talkShowType": "TALK_SHOW_FORCE_SELECT",
      "talkRole": {
        "type": "TALK_ROLE_PLAYER",
        "_id": ""
      },
      "talkContentTextMapHash": 4233438002,
      "talkAssetPath": "",
      "talkAssetPathAlter": "",
      "talkAudioName": "",
      "actionBefore": "",
      "actionWhile": "",
      "actionAfter": "",
      "optionIcon": "",
      "iconPath": ""
    },
    {
      "id": 644371002,
      "talkRole": {
        "type": "TALK_ROLE_NPC",
        "_id": "4437"
      },
      "talkContentTextMapHash": 39596178,
      "talkAssetPath": "",
      "talkAssetPathAlter": "",
      "talkAudioName": "",
      "actionBefore": "",
      "actionWhile": "",
      "actionAfter": "",
      "optionIcon": "",
      "iconPath": ""
    }
  ]
}