{
  "talkId": 6443705,
  "KPGKDHAFHFE": "FREE",
  "dialogList": [
    {
      "id": 644370501,
      "nextDialogs": [
        644370502
      ],
      "talkShowType": "TALK_SHOW_FORCE_SELECT",
      "talkRole": {
        "type": "TALK_ROLE_PLAYER",
        "_id": ""
      },
      "talkContentTextMapHash": 86267042,
      "talkAssetPath": "",
      "talkAssetPathAlter": "",
      "talkAudioName": "",
      "actionBefore": "",
      "actionWhile": "",
      "actionAfter": "",
      "optionIcon": "",
      "iconPath": ""
    },
    {
      "id": 644370502,
      "nextDialogs": [
        644370503
      ],
      "talkRole": {
        "type": "TALK_ROLE_NPC",
        "_id": "4437"
      },
      "talkContentTextMapHash": 2785267114,
      "talkAssetPath": "",
      "talkAssetPathAlter": "",
      "talkAudioName": "",
      "actionBefore": "",
      "actionWhile": "",
      "actionAfter": "",
      "optionIcon": "",
      "iconPath": ""
    },
    {
      "id": 644370503,
      "nextDialogs": [
        644370504
      ],
      "talkRole": {
        "type": "TALK_ROLE_NPC",
        "_id": "4437"
      },
      "talkContentTextMapHash": 116449178,
      "talkAssetPath": "",
      "talkAssetPathAlter": "",
      "talkAudioName": "",
      "actionBefore": "",
      "actionWhile": "",
      "actionAfter": "",
      "optionIcon": "",
      "iconPath": ""
    },
    {
      "id": 644370504,
      "nextDialogs": [
        644370505
      ],
      "talkRole": {
        "type": "TALK_ROLE_NPC",
        "_id": "4437"
      },
      "talkContentTextMapHash": 1459864482,
      "talkAssetPath": "",
      "talkAssetPathAlter": "",
      "talkAudioName": "",
      "actionBefore": "",
      "actionWhile": "",
      "actionAfter": "",
      "optionIcon": "",
      "iconPath": ""
    },
    {
      "id": 644370505,
      "nextDialogs": [
        644370506
      ],
      "talkRole": {
        "type": "TALK_ROLE_NPC",
        "_id": "4437"
      },
      "talkContentTextMapHash": 1507882994,
      "talkAssetPath": "",
      "talkAssetPathAlter": "",
      "talkAudioName": "",
      "actionBefore": "",
      "actionWhile": "",
      "actionAfter": "",
      "optionIcon": "",
      "iconPath": ""
    },
    {
      "id": 644370506,
      "talkRole": {
        "type": "TALK_ROLE_NPC",
        "_id": "4437"
      },
      "talkContentTextMapHash": 1533886042,
      "talkAssetPath": "",
      "talkAssetPathAlter": "",
      "talkAudioName": "",
      "actionBefore": "",
      "actionWhile": "",
      "actionAfter": "",
      "optionIcon": "",
      "iconPath": ""
    }
  ]
}