{
  "talkId": 6444305,
  "KPGKDHAFHFE": "FREE",
  "dialogList": [
    {
      "id": 644430501,
      "nextDialogs": [
        644430502
      ],
      "talkShowType": "TALK_SHOW_FORCE_SELECT",
      "talkRole": {
        "type": "TALK_ROLE_PLAYER",
        "_id": ""
      },
      "talkContentTextMapHash": 1191554530,
      "talkAssetPath": "",
      "talkAssetPathAlter": "",
      "talkAudioName": "",
      "actionBefore": "",
      "actionWhile": "",
      "actionAfter": "",
      "optionIcon": "",
      "iconPath": ""
    },
    {
      "id": 644430502,
      "nextDialogs": [
        644430503
      ],
      "talkRole": {
        "type": "TALK_ROLE_NPC",
        "_id": "4443"
      },
      "talkContentTextMapHash": 452971434,
      "talkAssetPath": "",
      "talkAssetPathAlter": "",
      "talkAudioName": "",
      "actionBefore": "",
      "actionWhile": "",
      "actionAfter": "",
      "optionIcon": "",
      "iconPath": ""
    },
    {
      "id": 644430503,
      "talkRole": {
        "type": "TALK_ROLE_NPC",
        "_id": "4443"
      },
      "talkContentTextMapHash": 3995824434,
      "talkAssetPath": "",
      "talkAssetPathAlter": "",
      "talkAudioName": "",
      "actionBefore": "",
      "actionWhile": "",
      "actionAfter": "",
      "optionIcon": "",
      "iconPath": ""
    }
  ]
}