{
  "talkId": 6445901,
  "KPGKDHAFHFE": "FREE",
  "dialogList": [
    {
      "id": 644590101,
      "talkRole": {
        "type": "TALK_ROLE_NPC",
        "_id": "4459"
      },
      "talkContentTextMapHash": 1851295954,
      "talkAssetPath": "",
      "talkAssetPathAlter": "",
      "talkAudioName": "",
      "actionBefore": "",
      "actionWhile": "TEST/LerpInNpc",
      "actionAfter": "",
      "optionIcon": "",
      "iconPath": ""
    }
  ]
}