{
  "talkId": 6446606,
  "KPGKDHAFHFE": "FREE",
  "dialogList": [
    {
      "id": 644660601,
      "nextDialogs": [
        644660602
      ],
      "talkShowType": "TALK_SHOW_FORCE_SELECT",
      "talkRole": {
        "type": "TALK_ROLE_PLAYER",
        "_id": ""
      },
      "talkContentTextMapHash": 3703637114,
      "talkAssetPath": "",
      "talkAssetPathAlter": "",
      "talkAudioName": "",
      "actionBefore": "",
      "actionWhile": "",
      "actionAfter": "",
      "optionIcon": "",
      "iconPath": ""
    },
    {
      "id": 644660602,
      "nextDialogs": [
        644660603
      ],
      "talkRole": {
        "type": "TALK_ROLE_NPC",
        "_id": "4466"
      },
      "talkContentTextMapHash": 3591257530,
      "talkAssetPath": "",
      "talkAssetPathAlter": "",
      "talkAudioName": "",
      "actionBefore": "",
      "actionWhile": "SimpleTalk/RandomTalk",
      "actionAfter": "",
      "optionIcon": "",
      "iconPath": ""
    },
    {
      "id": 644660603,
      "nextDialogs": [
        644660604
      ],
      "talkRole": {
        "type": "TALK_ROLE_NPC",
        "_id": "4466"
      },
      "talkContentTextMapHash": 1699794642,
      "talkAssetPath": "",
      "talkAssetPathAlter": "",
      "talkAudioName": "",
      "actionBefore": "",
      "actionWhile": "SimpleTalk/RandomTalk",
      "actionAfter": "",
      "optionIcon": "",
      "iconPath": ""
    },
    {
      "id": 644660604,
      "nextDialogs": [
        644660605
      ],
      "talkRole": {
        "type": "TALK_ROLE_NPC",
        "_id": "4466"
      },
      "talkContentTextMapHash": 1075769626,
      "talkAssetPath": "",
      "talkAssetPathAlter": "",
      "talkAudioName": "",
      "actionBefore": "",
      "actionWhile": "SimpleTalk/RandomTalk",
      "actionAfter": "",
      "optionIcon": "",
      "iconPath": ""
    },
    {
      "id": 644660605,
      "talkRole": {
        "type": "TALK_ROLE_NPC",
        "_id": "4466"
      },
      "talkContentTextMapHash": 2820088570,
      "talkAssetPath": "",
      "talkAssetPathAlter": "",
      "talkAudioName": "",
      "actionBefore": "",
      "actionWhile": "SimpleTalk/Think",
      "actionAfter": "",
      "optionIcon": "",
      "iconPath": ""
    }
  ]
}