{
  "talkId": 6446704,
  "KPGKDHAFHFE": "FREE",
  "dialogList": [
    {
      "id": 644670401,
      "nextDialogs": [
        644670402
      ],
      "talkShowType": "TALK_SHOW_FORCE_SELECT",
      "talkRole": {
        "type": "TALK_ROLE_PLAYER",
        "_id": ""
      },
      "talkContentTextMapHash": 3953996874,
      "talkAssetPath": "",
      "talkAssetPathAlter": "",
      "talkAudioName": "",
      "actionBefore": "",
      "actionWhile": "",
      "actionAfter": "SimpleTalk/SteerOnly",
      "optionIcon": "",
      "iconPath": ""
    },
    {
      "id": 644670402,
      "talkRole": {
        "type": "TALK_ROLE_NPC",
        "_id": "4467"
      },
      "talkContentTextMapHash": 3450331930,
      "talkAssetPath": "",
      "talkAssetPathAlter": "",
      "talkAudioName": "",
      "actionBefore": "",
      "actionWhile": "",
      "actionAfter": "",
      "optionIcon": "",
      "iconPath": ""
    }
  ]
}