{
  "talkId": 6446301,
  "KPGKDHAFHFE": "FREE",
  "dialogList": [
    {
      "id": 644630101,
      "nextDialogs": [
        644630102
      ],
      "talkRole": {
        "type": "TALK_ROLE_NPC",
        "_id": "4463"
      },
      "talkContentTextMapHash": 3926682010,
      "talkAssetPath": "",
      "talkAssetPathAlter": "",
      "talkAudioName": "",
      "actionBefore": "",
      "actionWhile": "TEST/LerpInNpc",
      "actionAfter": "",
      "optionIcon": "",
      "iconPath": ""
    },
    {
      "id": 644630102,
      "talkRole": {
        "type": "TALK_ROLE_NPC",
        "_id": "4463"
      },
      "talkContentTextMapHash": 333115890,
      "talkAssetPath": "",
      "talkAssetPathAlter": "",
      "talkAudioName": "",
      "actionBefore": "",
      "actionWhile": "",
      "actionAfter": "",
      "optionIcon": "",
      "iconPath": ""
    }
  ]
}