{
  "talkId": 6446703,
  "KPGKDHAFHFE": "FREE",
  "dialogList": [
    {
      "id": 644670301,
      "nextDialogs": [
        644670302
      ],
      "talkShowType": "TALK_SHOW_FORCE_SELECT",
      "talkRole": {
        "type": "TALK_ROLE_PLAYER",
        "_id": ""
      },
      "talkContentTextMapHash": 1055475074,
      "talkAssetPath": "",
      "talkAssetPathAlter": "",
      "talkAudioName": "",
      "actionBefore": "",
      "actionWhile": "",
      "actionAfter": "SimpleTalk/SteerOnly",
      "optionIcon": "",
      "iconPath": ""
    },
    {
      "id": 644670302,
      "nextDialogs": [
        644670303
      ],
      "talkRole": {
        "type": "TALK_ROLE_NPC",
        "_id": "4467"
      },
      "talkContentTextMapHash": 1679904834,
      "talkAssetPath": "",
      "talkAssetPathAlter": "",
      "talkAudioName": "",
      "actionBefore": "",
      "actionWhile": "SimpleTalk/NodHead",
      "actionAfter": "",
      "optionIcon": "",
      "iconPath": ""
    },
    {
      "id": 644670303,
      "talkRole": {
        "type": "TALK_ROLE_NPC",
        "_id": "4467"
      },
      "talkContentTextMapHash": 764955410,
      "talkAssetPath": "",
      "talkAssetPathAlter": "",
      "talkAudioName": "",
      "actionBefore": "",
      "actionWhile": "SimpleTalk/RandomTalk",
      "actionAfter": "",
      "optionIcon": "",
      "iconPath": ""
    }
  ]
}