{
  "talkId": 6446202,
  "KPGKDHAFHFE": "FREE",
  "dialogList": [
    {
      "id": 644620201,
      "nextDialogs": [
        644620202
      ],
      "talkShowType": "TALK_SHOW_FORCE_SELECT",
      "talkRole": {
        "type": "TALK_ROLE_PLAYER",
        "_id": ""
      },
      "talkContentTextMapHash": 27511162,
      "talkAssetPath": "",
      "talkAssetPathAlter": "",
      "talkAudioName": "",
      "actionBefore": "",
      "actionWhile": "",
      "actionAfter": "",
      "optionIcon": "",
      "iconPath": ""
    },
    {
      "id": 644620202,
      "nextDialogs": [
        644620203
      ],
      "talkRole": {
        "type": "TALK_ROLE_NPC",
        "_id": "4462"
      },
      "talkContentTextMapHash": 383090426,
      "talkAssetPath": "",
      "talkAssetPathAlter": "",
      "talkAudioName": "",
      "actionBefore": "",
      "actionWhile": "",
      "actionAfter": "",
      "optionIcon": "",
      "iconPath": ""
    },
    {
      "id": 644620203,
      "nextDialogs": [
        644620204
      ],
      "talkRole": {
        "type": "TALK_ROLE_NPC",
        "_id": "4462"
      },
      "talkContentTextMapHash": 3358538298,
      "talkAssetPath": "",
      "talkAssetPathAlter": "",
      "talkAudioName": "",
      "actionBefore": "",
      "actionWhile": "",
      "actionAfter": "",
      "optionIcon": "",
      "iconPath": ""
    },
    {
      "id": 644620204,
      "nextDialogs": [
        644620205
      ],
      "talkRole": {
        "type": "TALK_ROLE_NPC",
        "_id": "4462"
      },
      "talkContentTextMapHash": 1778617618,
      "talkAssetPath": "",
      "talkAssetPathAlter": "",
      "talkAudioName": "",
      "actionBefore": "",
      "actionWhile": "",
      "actionAfter": "",
      "optionIcon": "",
      "iconPath": ""
    },
    {
      "id": 644620205,
      "talkRole": {
        "type": "TALK_ROLE_NPC",
        "_id": "4462"
      },
      "talkContentTextMapHash": 1289558218,
      "talkAssetPath": "",
      "talkAssetPathAlter": "",
      "talkAudioName": "",
      "actionBefore": "",
      "actionWhile": "",
      "actionAfter": "",
      "optionIcon": "",
      "iconPath": ""
    }
  ]
}