{
  "talkId": 6447001,
  "KPGKDHAFHFE": "FREE",
  "dialogList": [
    {
      "id": 644700101,
      "talkRole": {
        "type": "TALK_ROLE_NPC",
        "_id": "4470"
      },
      "talkContentTextMapHash": 914611714,
      "talkAssetPath": "",
      "talkAssetPathAlter": "",
      "talkAudioName": "",
      "actionBefore": "",
      "actionWhile": "SimpleTalk/LerpInNpcNoSteer_Start",
      "actionAfter": "",
      "optionIcon": "",
      "iconPath": ""
    }
  ]
}