{
  "talkId": 6447005,
  "KPGKDHAFHFE": "FREE",
  "dialogList": [
    {
      "id": 644700501,
      "nextDialogs": [
        644700502
      ],
      "talkShowType": "TALK_SHOW_FORCE_SELECT",
      "talkRole": {
        "type": "TALK_ROLE_PLAYER",
        "_id": ""
      },
      "talkContentTextMapHash": 3537849578,
      "talkAssetPath": "",
      "talkAssetPathAlter": "",
      "talkAudioName": "",
      "actionBefore": "",
      "actionWhile": "",
      "actionAfter": "",
      "optionIcon": "",
      "iconPath": ""
    },
    {
      "id": 644700502,
      "nextDialogs": [
        644700503
      ],
      "talkRole": {
        "type": "TALK_ROLE_NPC",
        "_id": "4470"
      },
      "talkContentTextMapHash": 1863677306,
      "talkAssetPath": "",
      "talkAssetPathAlter": "",
      "talkAudioName": "",
      "actionBefore": "",
      "actionWhile": "SimpleTalk/NodHead",
      "actionAfter": "",
      "optionIcon": "",
      "iconPath": ""
    },
    {
      "id": 644700503,
      "nextDialogs": [
        644700504
      ],
      "talkRole": {
        "type": "TALK_ROLE_NPC",
        "_id": "4470"
      },
      "talkContentTextMapHash": 1888528786,
      "talkAssetPath": "",
      "talkAssetPathAlter": "",
      "talkAudioName": "",
      "actionBefore": "",
      "actionWhile": "SimpleTalk/RandomTalk",
      "actionAfter": "",
      "optionIcon": "",
      "iconPath": ""
    },
    {
      "id": 644700504,
      "nextDialogs": [
        644700505
      ],
      "talkRole": {
        "type": "TALK_ROLE_NPC",
        "_id": "4470"
      },
      "talkContentTextMapHash": 2363781466,
      "talkAssetPath": "",
      "talkAssetPathAlter": "",
      "talkAudioName": "",
      "actionBefore": "",
      "actionWhile": "",
      "actionAfter": "",
      "optionIcon": "",
      "iconPath": ""
    },
    {
      "id": 644700505,
      "talkRole": {
        "type": "TALK_ROLE_NPC",
        "_id": "4470"
      },
      "talkContentTextMapHash": 3809870842,
      "talkAssetPath": "",
      "talkAssetPathAlter": "",
      "talkAudioName": "",
      "actionBefore": "",
      "actionWhile": "SimpleTalk/Forerke",
      "actionAfter": "",
      "optionIcon": "",
      "iconPath": ""
    }
  ]
}