{
  "talkId": 6447703,
  "KPGKDHAFHFE": "FREE",
  "dialogList": [
    {
      "id": 644770301,
      "nextDialogs": [
        644770302
      ],
      "talkShowType": "TALK_SHOW_FORCE_SELECT",
      "talkRole": {
        "type": "TALK_ROLE_PLAYER",
        "_id": ""
      },
      "talkContentTextMapHash": 708365466,
      "talkAssetPath": "",
      "talkAssetPathAlter": "",
      "talkAudioName": "",
      "actionBefore": "",
      "actionWhile": "",
      "actionAfter": "",
      "optionIcon": "",
      "iconPath": ""
    },
    {
      "id": 644770302,
      "nextDialogs": [
        644770303
      ],
      "talkRole": {
        "type": "TALK_ROLE_NPC",
        "_id": "4477"
      },
      "talkContentTextMapHash": 808531306,
      "talkAssetPath": "",
      "talkAssetPathAlter": "",
      "talkAudioName": "",
      "actionBefore": "",
      "actionWhile": "",
      "actionAfter": "",
      "optionIcon": "",
      "iconPath": ""
    },
    {
      "id": 644770303,
      "nextDialogs": [
        644770304
      ],
      "talkRole": {
        "type": "TALK_ROLE_NPC",
        "_id": "4477"
      },
      "talkContentTextMapHash": 1531456386,
      "talkAssetPath": "",
      "talkAssetPathAlter": "",
      "talkAudioName": "",
      "actionBefore": "",
      "actionWhile": "",
      "actionAfter": "",
      "optionIcon": "",
      "iconPath": ""
    },
    {
      "id": 644770304,
      "nextDialogs": [
        644770305
      ],
      "talkRole": {
        "type": "TALK_ROLE_NPC",
        "_id": "4477"
      },
      "talkContentTextMapHash": 3073125778,
      "talkAssetPath": "",
      "talkAssetPathAlter": "",
      "talkAudioName": "",
      "actionBefore": "",
      "actionWhile": "",
      "actionAfter": "",
      "optionIcon": "",
      "iconPath": ""
    },
    {
      "id": 644770305,
      "nextDialogs": [
        644770306
      ],
      "talkRole": {
        "type": "TALK_ROLE_NPC",
        "_id": "4477"
      },
      "talkContentTextMapHash": 1610194162,
      "talkAssetPath": "",
      "talkAssetPathAlter": "",
      "talkAudioName": "",
      "actionBefore": "",
      "actionWhile": "",
      "actionAfter": "",
      "optionIcon": "",
      "iconPath": ""
    },
    {
      "id": 644770306,
      "talkRole": {
        "type": "TALK_ROLE_NPC",
        "_id": "4477"
      },
      "talkContentTextMapHash": 2503624042,
      "talkAssetPath": "",
      "talkAssetPathAlter": "",
      "talkAudioName": "",
      "actionBefore": "",
      "actionWhile": "",
      "actionAfter": "",
      "optionIcon": "",
      "iconPath": ""
    }
  ]
}