{
  "talkId": 6500201,
  "KPGKDHAFHFE": "FREE",
  "dialogList": [
    {
      "id": 650020101,
      "talkRole": {
        "type": "TALK_ROLE_NPC",
        "_id": "5002"
      },
      "talkContentTextMapHash": 3077628770,
      "talkAssetPath": "",
      "talkAssetPathAlter": "",
      "talkAudioName": "",
      "actionBefore": "",
      "actionWhile": "TEST/LerpInNpc",
      "actionAfter": "",
      "optionIcon": "",
      "iconPath": ""
    }
  ]
}