{
  "talkId": 6500102,
  "KPGKDHAFHFE": "FREE",
  "dialogList": [
    {
      "id": 650010201,
      "nextDialogs": [
        650010202
      ],
      "talkShowType": "TALK_SHOW_FORCE_SELECT",
      "talkRole": {
        "type": "TALK_ROLE_PLAYER",
        "_id": ""
      },
      "talkContentTextMapHash": 80730114,
      "talkAssetPath": "",
      "talkAssetPathAlter": "",
      "talkAudioName": "",
      "actionBefore": "",
      "actionWhile": "",
      "actionAfter": "",
      "optionIcon": "",
      "iconPath": ""
    },
    {
      "id": 650010202,
      "nextDialogs": [
        650010203
      ],
      "talkRole": {
        "type": "TALK_ROLE_NPC",
        "_id": "5001"
      },
      "talkContentTextMapHash": 4249695362,
      "talkAssetPath": "",
      "talkAssetPathAlter": "",
      "talkAudioName": "",
      "actionBefore": "",
      "actionWhile": "",
      "actionAfter": "",
      "optionIcon": "",
      "iconPath": ""
    },
    {
      "id": 650010203,
      "nextDialogs": [
        650010204
      ],
      "talkRole": {
        "type": "TALK_ROLE_NPC",
        "_id": "5001"
      },
      "talkContentTextMapHash": 2559165474,
      "talkAssetPath": "",
      "talkAssetPathAlter": "",
      "talkAudioName": "",
      "actionBefore": "",
      "actionWhile": "",
      "actionAfter": "",
      "optionIcon": "",
      "iconPath": ""
    },
    {
      "id": 650010204,
      "talkRole": {
        "type": "TALK_ROLE_NPC",
        "_id": "5001"
      },
      "talkContentTextMapHash": 3087201490,
      "talkAssetPath": "",
      "talkAssetPathAlter": "",
      "talkAudioName": "",
      "actionBefore": "",
      "actionWhile": "",
      "actionAfter": "",
      "optionIcon": "",
      "iconPath": ""
    }
  ]
}