{
  "talkId": 6500904,
  "KPGKDHAFHFE": "FREE",
  "dialogList": [
    {
      "id": 650090401,
      "nextDialogs": [
        650090402
      ],
      "talkShowType": "TALK_SHOW_FORCE_SELECT",
      "talkRole": {
        "type": "TALK_ROLE_PLAYER",
        "_id": ""
      },
      "talkContentTextMapHash": 4022055242,
      "talkAssetPath": "",
      "talkAssetPathAlter": "",
      "talkAudioName": "",
      "actionBefore": "",
      "actionWhile": "",
      "actionAfter": "",
      "optionIcon": "",
      "iconPath": ""
    },
    {
      "id": 650090402,
      "talkRole": {
        "type": "TALK_ROLE_NPC",
        "_id": "5009"
      },
      "talkContentTextMapHash": 2937079618,
      "talkAssetPath": "",
      "talkAssetPathAlter": "",
      "talkAudioName": "",
      "actionBefore": "",
      "actionWhile": "",
      "actionAfter": "",
      "optionIcon": "",
      "iconPath": ""
    }
  ]
}