{
  "talkId": 6501902,
  "KPGKDHAFHFE": "FREE",
  "dialogList": [
    {
      "id": 650190201,
      "nextDialogs": [
        650190202
      ],
      "talkShowType": "TALK_SHOW_FORCE_SELECT",
      "talkRole": {
        "type": "TALK_ROLE_PLAYER",
        "_id": ""
      },
      "talkContentTextMapHash": 1577285986,
      "talkAssetPath": "",
      "talkAssetPathAlter": "",
      "talkAudioName": "",
      "actionBefore": "",
      "actionWhile": "",
      "actionAfter": "SimpleTalk/SteerOnly",
      "optionIcon": "",
      "iconPath": ""
    },
    {
      "id": 650190202,
      "talkRole": {
        "type": "TALK_ROLE_NPC",
        "_id": "5019"
      },
      "talkContentTextMapHash": 2015309530,
      "talkAssetPath": "",
      "talkAssetPathAlter": "",
      "talkAudioName": "",
      "actionBefore": "",
      "actionWhile": "SimpleTalk/StrikeChest",
      "actionAfter": "",
      "optionIcon": "",
      "iconPath": ""
    }
  ]
}