{
  "talkId": 6502905,
  "KPGKDHAFHFE": "FREE",
  "dialogList": [
    {
      "id": 650290501,
      "nextDialogs": [
        650290502
      ],
      "talkShowType": "TALK_SHOW_FORCE_SELECT",
      "talkRole": {
        "type": "TALK_ROLE_PLAYER",
        "_id": ""
      },
      "talkContentTextMapHash": 335331122,
      "talkAssetPath": "",
      "talkAssetPathAlter": "",
      "talkAudioName": "",
      "actionBefore": "",
      "actionWhile": "",
      "actionAfter": "",
      "optionIcon": "",
      "iconPath": ""
    },
    {
      "id": 650290502,
      "talkRole": {
        "type": "TALK_ROLE_NPC",
        "_id": "5029"
      },
      "talkContentTextMapHash": 2496446818,
      "talkAssetPath": "",
      "talkAssetPathAlter": "",
      "talkAudioName": "",
      "actionBefore": "",
      "actionWhile": "",
      "actionAfter": "",
      "optionIcon": "",
      "iconPath": ""
    }
  ]
}