{
  "talkId": 6503308,
  "KPGKDHAFHFE": "FREE",
  "dialogList": [
    {
      "id": 650330801,
      "nextDialogs": [
        650330802
      ],
      "talkShowType": "TALK_SHOW_FORCE_SELECT",
      "talkRole": {
        "type": "TALK_ROLE_PLAYER",
        "_id": ""
      },
      "talkContentTextMapHash": 1345044426,
      "talkAssetPath": "",
      "talkAssetPathAlter": "",
      "talkAudioName": "",
      "actionBefore": "",
      "actionWhile": "",
      "actionAfter": "",
      "optionIcon": "",
      "iconPath": ""
    },
    {
      "id": 650330802,
      "nextDialogs": [
        650330803
      ],
      "talkRole": {
        "type": "TALK_ROLE_NPC",
        "_id": "5033"
      },
      "talkContentTextMapHash": 1038348722,
      "talkAssetPath": "",
      "talkAssetPathAlter": "",
      "talkAudioName": "",
      "actionBefore": "",
      "actionWhile": "",
      "actionAfter": "",
      "optionIcon": "",
      "iconPath": ""
    },
    {
      "id": 650330803,
      "nextDialogs": [
        650330804
      ],
      "talkRole": {
        "type": "TALK_ROLE_NPC",
        "_id": "5033"
      },
      "talkContentTextMapHash": 3598310082,
      "talkAssetPath": "",
      "talkAssetPathAlter": "",
      "talkAudioName": "",
      "actionBefore": "",
      "actionWhile": "",
      "actionAfter": "",
      "optionIcon": "",
      "iconPath": ""
    },
    {
      "id": 650330804,
      "nextDialogs": [
        650330805
      ],
      "talkRole": {
        "type": "TALK_ROLE_NPC",
        "_id": "5033"
      },
      "talkContentTextMapHash": 3374249602,
      "talkAssetPath": "",
      "talkAssetPathAlter": "",
      "talkAudioName": "",
      "actionBefore": "",
      "actionWhile": "",
      "actionAfter": "",
      "optionIcon": "",
      "iconPath": ""
    },
    {
      "id": 650330805,
      "talkRole": {
        "type": "TALK_ROLE_NPC",
        "_id": "5033"
      },
      "talkContentTextMapHash": 4171909426,
      "talkAssetPath": "",
      "talkAssetPathAlter": "",
      "talkAudioName": "",
      "actionBefore": "",
      "actionWhile": "",
      "actionAfter": "",
      "optionIcon": "",
      "iconPath": ""
    }
  ]
}