{
  "talkId": 6503303,
  "KPGKDHAFHFE": "FREE",
  "dialogList": [
    {
      "id": 650330301,
      "nextDialogs": [
        650330302
      ],
      "talkShowType": "TALK_SHOW_FORCE_SELECT",
      "talkRole": {
        "type": "TALK_ROLE_PLAYER",
        "_id": ""
      },
      "talkContentTextMapHash": 1113296810,
      "talkAssetPath": "",
      "talkAssetPathAlter": "",
      "talkAudioName": "",
      "actionBefore": "",
      "actionWhile": "",
      "actionAfter": "",
      "optionIcon": "UI_Icon_Intee_Shop",
      "iconPath": ""
    },
    {
      "id": 650330302,
      "talkRole": {
        "type": "TALK_ROLE_NPC",
        "_id": "5033"
      },
      "talkContentTextMapHash": 2669919738,
      "talkAssetPath": "",
      "talkAssetPathAlter": "",
      "talkAudioName": "",
      "actionBefore": "",
      "actionWhile": "",
      "actionAfter": "Shop/shop_open_1091",
      "optionIcon": "",
      "iconPath": ""
    }
  ]
}