{
  "talkId": 6503202,
  "KPGKDHAFHFE": "FREE",
  "dialogList": [
    {
      "id": 650320201,
      "nextDialogs": [
        650320202
      ],
      "talkShowType": "TALK_SHOW_FORCE_SELECT",
      "talkRole": {
        "type": "TALK_ROLE_PLAYER",
        "_id": ""
      },
      "talkContentTextMapHash": 1218819538,
      "talkAssetPath": "",
      "talkAssetPathAlter": "",
      "talkAudioName": "",
      "actionBefore": "",
      "actionWhile": "",
      "actionAfter": "",
      "optionIcon": "",
      "iconPath": ""
    },
    {
      "id": 650320202,
      "nextDialogs": [
        650320203
      ],
      "talkRole": {
        "type": "TALK_ROLE_NPC",
        "_id": "5032"
      },
      "talkContentTextMapHash": 4189015858,
      "talkAssetPath": "",
      "talkAssetPathAlter": "",
      "talkAudioName": "",
      "actionBefore": "",
      "actionWhile": "SimpleTalk/ShakeHead",
      "actionAfter": "",
      "optionIcon": "",
      "iconPath": ""
    },
    {
      "id": 650320203,
      "talkRole": {
        "type": "TALK_ROLE_NPC",
        "_id": "5032"
      },
      "talkContentTextMapHash": 1591252098,
      "talkAssetPath": "",
      "talkAssetPathAlter": "",
      "talkAudioName": "",
      "actionBefore": "",
      "actionWhile": "",
      "actionAfter": "",
      "optionIcon": "",
      "iconPath": ""
    }
  ]
}