{
  "talkId": 6504504,
  "KPGKDHAFHFE": "FREE",
  "dialogList": [
    {
      "id": 650450401,
      "nextDialogs": [
        650450402
      ],
      "talkShowType": "TALK_SHOW_FORCE_SELECT",
      "talkRole": {
        "type": "TALK_ROLE_PLAYER",
        "_id": ""
      },
      "talkContentTextMapHash": 2979930426,
      "talkAssetPath": "",
      "talkAssetPathAlter": "",
      "talkAudioName": "",
      "actionBefore": "",
      "actionWhile": "",
      "actionAfter": "",
      "optionIcon": "",
      "iconPath": ""
    },
    {
      "id": 650450402,
      "nextDialogs": [
        650450403
      ],
      "talkRole": {
        "type": "TALK_ROLE_NPC",
        "_id": "5045"
      },
      "talkContentTextMapHash": 163112874,
      "talkAssetPath": "",
      "talkAssetPathAlter": "",
      "talkAudioName": "",
      "actionBefore": "",
      "actionWhile": "SimpleTalk/PutHand",
      "actionAfter": "",
      "optionIcon": "",
      "iconPath": ""
    },
    {
      "id": 650450403,
      "nextDialogs": [
        650450404
      ],
      "talkRole": {
        "type": "TALK_ROLE_NPC",
        "_id": "5045"
      },
      "talkContentTextMapHash": 2569314234,
      "talkAssetPath": "",
      "talkAssetPathAlter": "",
      "talkAudioName": "",
      "actionBefore": "",
      "actionWhile": "",
      "actionAfter": "",
      "optionIcon": "",
      "iconPath": ""
    },
    {
      "id": 650450404,
      "nextDialogs": [
        650450405
      ],
      "talkRole": {
        "type": "TALK_ROLE_NPC",
        "_id": "5045"
      },
      "talkContentTextMapHash": 119606674,
      "talkAssetPath": "",
      "talkAssetPathAlter": "",
      "talkAudioName": "",
      "actionBefore": "",
      "actionWhile": "",
      "actionAfter": "",
      "optionIcon": "",
      "iconPath": ""
    },
    {
      "id": 650450405,
      "nextDialogs": [
        650450406
      ],
      "talkRole": {
        "type": "TALK_ROLE_NPC",
        "_id": "5045"
      },
      "talkContentTextMapHash": 1948132650,
      "talkAssetPath": "",
      "talkAssetPathAlter": "",
      "talkAudioName": "",
      "actionBefore": "",
      "actionWhile": "SimpleTalk/Forerke",
      "actionAfter": "SimpleTalk/Standby",
      "optionIcon": "",
      "iconPath": ""
    },
    {
      "id": 650450406,
      "nextDialogs": [
        650450407
      ],
      "talkRole": {
        "type": "TALK_ROLE_NPC",
        "_id": "5045"
      },
      "talkContentTextMapHash": 2415146442,
      "talkAssetPath": "",
      "talkAssetPathAlter": "",
      "talkAudioName": "",
      "actionBefore": "",
      "actionWhile": "SimpleTalk/NodHead",
      "actionAfter": "",
      "optionIcon": "",
      "iconPath": ""
    },
    {
      "id": 650450407,
      "talkRole": {
        "type": "TALK_ROLE_NPC",
        "_id": "5045"
      },
      "talkContentTextMapHash": 2965201602,
      "talkAssetPath": "",
      "talkAssetPathAlter": "",
      "talkAudioName": "",
      "actionBefore": "",
      "actionWhile": "SimpleTalk/PutHand",
      "actionAfter": "SimpleTalk/Idle_End",
      "optionIcon": "",
      "iconPath": ""
    }
  ]
}