{
  "talkId": 6504601,
  "KPGKDHAFHFE": "FREE",
  "dialogList": [
    {
      "id": 650460101,
      "talkRole": {
        "type": "TALK_ROLE_NPC",
        "_id": "5046"
      },
      "talkContentTextMapHash": 935730178,
      "talkAssetPath": "",
      "talkAssetPathAlter": "",
      "talkAudioName": "",
      "actionBefore": "",
      "actionWhile": "SimpleTalk/LerpInNpcNoSteer_Start",
      "actionAfter": "",
      "optionIcon": "",
      "iconPath": ""
    }
  ]
}