{
  "talkId": 6504903,
  "KPGKDHAFHFE": "FREE",
  "dialogList": [
    {
      "id": 650490301,
      "nextDialogs": [
        650490302
      ],
      "talkShowType": "TALK_SHOW_FORCE_SELECT",
      "talkRole": {
        "type": "TALK_ROLE_PLAYER",
        "_id": ""
      },
      "talkContentTextMapHash": 2371442018,
      "talkAssetPath": "",
      "talkAssetPathAlter": "",
      "talkAudioName": "",
      "actionBefore": "",
      "actionWhile": "",
      "actionAfter": "",
      "optionIcon": "",
      "iconPath": ""
    },
    {
      "id": 650490302,
      "nextDialogs": [
        650490303
      ],
      "talkRole": {
        "type": "TALK_ROLE_NPC",
        "_id": "5049"
      },
      "talkContentTextMapHash": 1714448826,
      "talkAssetPath": "",
      "talkAssetPathAlter": "",
      "talkAudioName": "",
      "actionBefore": "",
      "actionWhile": "",
      "actionAfter": "",
      "optionIcon": "",
      "iconPath": ""
    },
    {
      "id": 650490303,
      "nextDialogs": [
        650490304
      ],
      "talkRole": {
        "type": "TALK_ROLE_NPC",
        "_id": "5049"
      },
      "talkContentTextMapHash": 226650298,
      "talkAssetPath": "",
      "talkAssetPathAlter": "",
      "talkAudioName": "",
      "actionBefore": "",
      "actionWhile": "",
      "actionAfter": "",
      "optionIcon": "",
      "iconPath": ""
    },
    {
      "id": 650490304,
      "nextDialogs": [
        650490305
      ],
      "talkRole": {
        "type": "TALK_ROLE_NPC",
        "_id": "5049"
      },
      "talkContentTextMapHash": 2638447442,
      "talkAssetPath": "",
      "talkAssetPathAlter": "",
      "talkAudioName": "",
      "actionBefore": "",
      "actionWhile": "",
      "actionAfter": "",
      "optionIcon": "",
      "iconPath": ""
    },
    {
      "id": 650490305,
      "talkRole": {
        "type": "TALK_ROLE_NPC",
        "_id": "5049"
      },
      "talkContentTextMapHash": 1776796770,
      "talkAssetPath": "",
      "talkAssetPathAlter": "",
      "talkAudioName": "",
      "actionBefore": "",
      "actionWhile": "",
      "actionAfter": "",
      "optionIcon": "",
      "iconPath": ""
    }
  ]
}