{
  "talkId": 6504402,
  "KPGKDHAFHFE": "FREE",
  "dialogList": [
    {
      "id": 650440201,
      "nextDialogs": [
        650440202
      ],
      "talkShowType": "TALK_SHOW_FORCE_SELECT",
      "talkRole": {
        "type": "TALK_ROLE_PLAYER",
        "_id": ""
      },
      "talkContentTextMapHash": 4253447194,
      "talkAssetPath": "",
      "talkAssetPathAlter": "",
      "talkAudioName": "",
      "actionBefore": "",
      "actionWhile": "",
      "actionAfter": "",
      "optionIcon": "",
      "iconPath": ""
    },
    {
      "id": 650440202,
      "nextDialogs": [
        650440203
      ],
      "talkRole": {
        "type": "TALK_ROLE_NPC",
        "_id": "5044"
      },
      "talkContentTextMapHash": 3756580586,
      "talkAssetPath": "",
      "talkAssetPathAlter": "",
      "talkAudioName": "",
      "actionBefore": "",
      "actionWhile": "SimpleTalk/PutHand",
      "actionAfter": "",
      "optionIcon": "",
      "iconPath": ""
    },
    {
      "id": 650440203,
      "talkRole": {
        "type": "TALK_ROLE_NPC",
        "_id": "5044"
      },
      "talkContentTextMapHash": 906325850,
      "talkAssetPath": "",
      "talkAssetPathAlter": "",
      "talkAudioName": "",
      "actionBefore": "",
      "actionWhile": "",
      "actionAfter": "",
      "optionIcon": "",
      "iconPath": ""
    }
  ]
}