{
  "talkId": 6504103,
  "KPGKDHAFHFE": "FREE",
  "dialogList": [
    {
      "id": 650410301,
      "nextDialogs": [
        650410302
      ],
      "talkRole": {
        "type": "TALK_ROLE_NPC",
        "_id": "5041"
      },
      "talkContentTextMapHash": 3116389978,
      "talkAssetPath": "",
      "talkAssetPathAlter": "",
      "talkAudioName": "",
      "actionBefore": "",
      "actionWhile": "SimpleTalk/VapourBird_Talk01_Start",
      "actionAfter": "",
      "optionIcon": "",
      "iconPath": ""
    },
    {
      "id": 650410302,
      "talkRole": {
        "type": "TALK_ROLE_NPC",
        "_id": "5041"
      },
      "talkContentTextMapHash": 2784860610,
      "talkAssetPath": "",
      "talkAssetPathAlter": "",
      "talkAudioName": "",
      "actionBefore": "",
      "actionWhile": "",
      "actionAfter": "SimpleTalk/LerpOutNpcNoSteer_End",
      "optionIcon": "",
      "iconPath": ""
    }
  ]
}