{
  "talkId": 6504110,
  "KPGKDHAFHFE": "FREE",
  "dialogList": [
    {
      "id": 650411001,
      "nextDialogs": [
        650411002
      ],
      "talkRole": {
        "type": "TALK_ROLE_NPC",
        "_id": "5041"
      },
      "talkContentTextMapHash": 4110499202,
      "talkAssetPath": "",
      "talkAssetPathAlter": "",
      "talkAudioName": "",
      "actionBefore": "",
      "actionWhile": "SimpleTalk/VapourBird_Talk01_Start",
      "actionAfter": "",
      "optionIcon": "",
      "iconPath": ""
    },
    {
      "id": 650411002,
      "talkRole": {
        "type": "TALK_ROLE_NPC",
        "_id": "5041"
      },
      "talkContentTextMapHash": 3653368570,
      "talkAssetPath": "",
      "talkAssetPathAlter": "",
      "talkAudioName": "",
      "actionBefore": "",
      "actionWhile": "",
      "actionAfter": "SimpleTalk/LerpOutNpcNoSteer_End",
      "optionIcon": "",
      "iconPath": ""
    }
  ]
}