{
  "talkId": 6505502,
  "KPGKDHAFHFE": "FREE",
  "dialogList": [
    {
      "id": 650550201,
      "nextDialogs": [
        650550202
      ],
      "talkShowType": "TALK_SHOW_FORCE_SELECT",
      "talkRole": {
        "type": "TALK_ROLE_PLAYER",
        "_id": ""
      },
      "talkContentTextMapHash": 3372127690,
      "talkAssetPath": "",
      "talkAssetPathAlter": "",
      "talkAudioName": "",
      "actionBefore": "",
      "actionWhile": "",
      "actionAfter": "",
      "optionIcon": "",
      "iconPath": ""
    },
    {
      "id": 650550202,
      "talkRole": {
        "type": "TALK_ROLE_NPC",
        "_id": "5055"
      },
      "talkContentTextMapHash": 674317770,
      "talkAssetPath": "",
      "talkAssetPathAlter": "",
      "talkAudioName": "",
      "actionBefore": "",
      "actionWhile": "",
      "actionAfter": "",
      "optionIcon": "",
      "iconPath": ""
    }
  ]
}