{
  "talkId": 6505302,
  "KPGKDHAFHFE": "FREE",
  "dialogList": [
    {
      "id": 650530201,
      "nextDialogs": [
        650530202
      ],
      "talkShowType": "TALK_SHOW_FORCE_SELECT",
      "talkRole": {
        "type": "TALK_ROLE_PLAYER",
        "_id": ""
      },
      "talkContentTextMapHash": 3323231778,
      "talkAssetPath": "",
      "talkAssetPathAlter": "",
      "talkAudioName": "",
      "actionBefore": "",
      "actionWhile": "",
      "actionAfter": "",
      "optionIcon": "UI_Icon_Intee_Restaurant",
      "iconPath": ""
    },
    {
      "id": 650530202,
      "talkRole": {
        "type": "TALK_ROLE_NPC",
        "_id": "5053"
      },
      "talkContentTextMapHash": 2840678090,
      "talkAssetPath": "",
      "talkAssetPathAlter": "",
      "talkAudioName": "",
      "actionBefore": "",
      "actionWhile": "",
      "actionAfter": "Shop/shop_open_1099",
      "optionIcon": "",
      "iconPath": ""
    }
  ]
}