{
  "talkId": 6505404,
  "KPGKDHAFHFE": "FREE",
  "dialogList": [
    {
      "id": 650540401,
      "nextDialogs": [
        650540402
      ],
      "talkShowType": "TALK_SHOW_FORCE_SELECT",
      "talkRole": {
        "type": "TALK_ROLE_PLAYER",
        "_id": ""
      },
      "talkContentTextMapHash": 3574502354,
      "talkAssetPath": "",
      "talkAssetPathAlter": "",
      "talkAudioName": "",
      "actionBefore": "",
      "actionWhile": "",
      "actionAfter": "",
      "optionIcon": "",
      "iconPath": ""
    },
    {
      "id": 650540402,
      "talkRole": {
        "type": "TALK_ROLE_NPC",
        "_id": "5054"
      },
      "talkContentTextMapHash": 181706650,
      "talkAssetPath": "",
      "talkAssetPathAlter": "",
      "talkAudioName": "",
      "actionBefore": "",
      "actionWhile": "",
      "actionAfter": "",
      "optionIcon": "",
      "iconPath": ""
    }
  ]
}