{
  "talkId": 6505704,
  "KPGKDHAFHFE": "FREE",
  "dialogList": [
    {
      "id": 650570401,
      "nextDialogs": [
        650570402
      ],
      "talkShowType": "TALK_SHOW_FORCE_SELECT",
      "talkRole": {
        "type": "TALK_ROLE_PLAYER",
        "_id": ""
      },
      "talkContentTextMapHash": 3563136258,
      "talkAssetPath": "",
      "talkAssetPathAlter": "",
      "talkAudioName": "",
      "actionBefore": "",
      "actionWhile": "",
      "actionAfter": "",
      "optionIcon": "",
      "iconPath": ""
    },
    {
      "id": 650570402,
      "nextDialogs": [
        650570403
      ],
      "talkRole": {
        "type": "TALK_ROLE_NPC",
        "_id": "5057"
      },
      "talkContentTextMapHash": 1359208978,
      "talkAssetPath": "",
      "talkAssetPathAlter": "",
      "talkAudioName": "",
      "actionBefore": "",
      "actionWhile": "",
      "actionAfter": "",
      "optionIcon": "",
      "iconPath": ""
    },
    {
      "id": 650570403,
      "nextDialogs": [
        650570404
      ],
      "talkRole": {
        "type": "TALK_ROLE_NPC",
        "_id": "5057"
      },
      "talkContentTextMapHash": 1565944434,
      "talkAssetPath": "",
      "talkAssetPathAlter": "",
      "talkAudioName": "",
      "actionBefore": "",
      "actionWhile": "",
      "actionAfter": "",
      "optionIcon": "",
      "iconPath": ""
    },
    {
      "id": 650570404,
      "nextDialogs": [
        650570405
      ],
      "talkRole": {
        "type": "TALK_ROLE_NPC",
        "_id": "5057"
      },
      "talkContentTextMapHash": 555618482,
      "talkAssetPath": "",
      "talkAssetPathAlter": "",
      "talkAudioName": "",
      "actionBefore": "",
      "actionWhile": "",
      "actionAfter": "",
      "optionIcon": "",
      "iconPath": ""
    },
    {
      "id": 650570405,
      "talkRole": {
        "type": "TALK_ROLE_NPC",
        "_id": "5057"
      },
      "talkContentTextMapHash": 4217588738,
      "talkAssetPath": "",
      "talkAssetPathAlter": "",
      "talkAudioName": "",
      "actionBefore": "",
      "actionWhile": "",
      "actionAfter": "",
      "optionIcon": "",
      "iconPath": ""
    }
  ]
}