{
  "talkId": 6505501,
  "KPGKDHAFHFE": "FREE",
  "dialogList": [
    {
      "id": 650550101,
      "talkRole": {
        "type": "TALK_ROLE_NPC",
        "_id": "5055"
      },
      "talkContentTextMapHash": 4189850282,
      "talkAssetPath": "",
      "talkAssetPathAlter": "",
      "talkAudioName": "",
      "actionBefore": "",
      "actionWhile": "",
      "actionAfter": "",
      "optionIcon": "",
      "iconPath": ""
    }
  ]
}