{
  "talkId": 6506501,
  "KPGKDHAFHFE": "FREE",
  "dialogList": [
    {
      "id": 650650101,
      "talkRole": {
        "type": "TALK_ROLE_NPC",
        "_id": "5065"
      },
      "talkContentTextMapHash": 120877994,
      "talkAssetPath": "",
      "talkAssetPathAlter": "",
      "talkAudioName": "",
      "actionBefore": "",
      "actionWhile": "SimpleTalk/LerpInNpcNoSteer_Start",
      "actionAfter": "",
      "optionIcon": "",
      "iconPath": ""
    }
  ]
}