{
  "talkId": 6506603,
  "KPGKDHAFHFE": "FREE",
  "dialogList": [
    {
      "id": 650660301,
      "nextDialogs": [
        650660302
      ],
      "talkShowType": "TALK_SHOW_FORCE_SELECT",
      "talkRole": {
        "type": "TALK_ROLE_PLAYER",
        "_id": ""
      },
      "talkContentTextMapHash": 3745276922,
      "talkAssetPath": "",
      "talkAssetPathAlter": "",
      "talkAudioName": "",
      "actionBefore": "",
      "actionWhile": "",
      "actionAfter": "",
      "optionIcon": "",
      "iconPath": ""
    },
    {
      "id": 650660302,
      "talkRole": {
        "type": "TALK_ROLE_NPC",
        "_id": "5066"
      },
      "talkContentTextMapHash": 336286474,
      "talkAssetPath": "",
      "talkAssetPathAlter": "",
      "talkAudioName": "",
      "actionBefore": "",
      "actionWhile": "",
      "actionAfter": "",
      "optionIcon": "",
      "iconPath": ""
    }
  ]
}