{
  "talkId": 6506804,
  "KPGKDHAFHFE": "FREE",
  "dialogList": [
    {
      "id": 650680401,
      "nextDialogs": [
        650680402
      ],
      "talkShowType": "TALK_SHOW_FORCE_SELECT",
      "talkRole": {
        "type": "TALK_ROLE_PLAYER",
        "_id": ""
      },
      "talkContentTextMapHash": 434358634,
      "talkAssetPath": "",
      "talkAssetPathAlter": "",
      "talkAudioName": "",
      "actionBefore": "",
      "actionWhile": "",
      "actionAfter": "",
      "optionIcon": "",
      "iconPath": ""
    },
    {
      "id": 650680402,
      "nextDialogs": [
        650680403
      ],
      "talkRole": {
        "type": "TALK_ROLE_NPC",
        "_id": "5068"
      },
      "talkContentTextMapHash": 2811065946,
      "talkAssetPath": "",
      "talkAssetPathAlter": "",
      "talkAudioName": "",
      "actionBefore": "",
      "actionWhile": "SimpleTalk/Confuse",
      "actionAfter": "",
      "optionIcon": "",
      "iconPath": ""
    },
    {
      "id": 650680403,
      "talkRole": {
        "type": "TALK_ROLE_NPC",
        "_id": "5068"
      },
      "talkContentTextMapHash": 2312347922,
      "talkAssetPath": "",
      "talkAssetPathAlter": "",
      "talkAudioName": "",
      "actionBefore": "",
      "actionWhile": "SimpleTalk/RandomTalk",
      "actionAfter": "SimpleTalk/Idle_End",
      "optionIcon": "",
      "iconPath": ""
    }
  ]
}