{
  "talkId": 6506703,
  "KPGKDHAFHFE": "FREE",
  "dialogList": [
    {
      "id": 650670301,
      "nextDialogs": [
        650670302
      ],
      "talkShowType": "TALK_SHOW_FORCE_SELECT",
      "talkRole": {
        "type": "TALK_ROLE_PLAYER",
        "_id": ""
      },
      "talkContentTextMapHash": 1052651226,
      "talkAssetPath": "",
      "talkAssetPathAlter": "",
      "talkAudioName": "",
      "actionBefore": "",
      "actionWhile": "",
      "actionAfter": "SimpleTalk/SteerOnly",
      "optionIcon": "",
      "iconPath": ""
    },
    {
      "id": 650670302,
      "nextDialogs": [
        650670303
      ],
      "talkRole": {
        "type": "TALK_ROLE_NPC",
        "_id": "5067"
      },
      "talkContentTextMapHash": 3192889394,
      "talkAssetPath": "",
      "talkAssetPathAlter": "",
      "talkAudioName": "",
      "actionBefore": "",
      "actionWhile": "SimpleTalk/RandomTalk",
      "actionAfter": "",
      "optionIcon": "",
      "iconPath": ""
    },
    {
      "id": 650670303,
      "nextDialogs": [
        650670304
      ],
      "talkRole": {
        "type": "TALK_ROLE_NPC",
        "_id": "5067"
      },
      "talkContentTextMapHash": 934621618,
      "talkAssetPath": "",
      "talkAssetPathAlter": "",
      "talkAudioName": "",
      "actionBefore": "",
      "actionWhile": "",
      "actionAfter": "",
      "optionIcon": "",
      "iconPath": ""
    },
    {
      "id": 650670304,
      "talkRole": {
        "type": "TALK_ROLE_NPC",
        "_id": "5067"
      },
      "talkContentTextMapHash": 4238321466,
      "talkAssetPath": "",
      "talkAssetPathAlter": "",
      "talkAudioName": "",
      "actionBefore": "",
      "actionWhile": "",
      "actionAfter": "",
      "optionIcon": "",
      "iconPath": ""
    }
  ]
}