{
  "talkId": 6507203,
  "KPGKDHAFHFE": "FREE",
  "dialogList": [
    {
      "id": 650720301,
      "nextDialogs": [
        650720302
      ],
      "talkShowType": "TALK_SHOW_FORCE_SELECT",
      "talkRole": {
        "type": "TALK_ROLE_PLAYER",
        "_id": ""
      },
      "talkContentTextMapHash": 1492386842,
      "talkAssetPath": "",
      "talkAssetPathAlter": "",
      "talkAudioName": "",
      "actionBefore": "",
      "actionWhile": "",
      "actionAfter": "",
      "optionIcon": "",
      "iconPath": ""
    },
    {
      "id": 650720302,
      "talkRole": {
        "type": "TALK_ROLE_NPC",
        "_id": "5072"
      },
      "talkContentTextMapHash": 264417114,
      "talkAssetPath": "",
      "talkAssetPathAlter": "",
      "talkAudioName": "",
      "actionBefore": "",
      "actionWhile": "",
      "actionAfter": "",
      "optionIcon": "",
      "iconPath": ""
    }
  ]
}