{
  "talkId": 6507305,
  "KPGKDHAFHFE": "FREE",
  "dialogList": [
    {
      "id": 650730501,
      "nextDialogs": [
        650730502
      ],
      "talkShowType": "TALK_SHOW_FORCE_SELECT",
      "talkRole": {
        "type": "TALK_ROLE_PLAYER",
        "_id": ""
      },
      "talkContentTextMapHash": 1399898338,
      "talkAssetPath": "",
      "talkAssetPathAlter": "",
      "talkAudioName": "",
      "actionBefore": "",
      "actionWhile": "",
      "actionAfter": "SimpleTalk/Standby",
      "optionIcon": "",
      "iconPath": ""
    },
    {
      "id": 650730502,
      "talkRole": {
        "type": "TALK_ROLE_NPC",
        "_id": "5073"
      },
      "talkContentTextMapHash": 1301874242,
      "talkAssetPath": "",
      "talkAssetPathAlter": "",
      "talkAudioName": "",
      "actionBefore": "",
      "actionWhile": "TEST/LerpInNpc",
      "actionAfter": "",
      "optionIcon": "",
      "iconPath": ""
    }
  ]
}