{
  "talkId": 6507002,
  "KPGKDHAFHFE": "FREE",
  "dialogList": [
    {
      "id": 650700201,
      "nextDialogs": [
        650700202
      ],
      "talkShowType": "TALK_SHOW_FORCE_SELECT",
      "talkRole": {
        "type": "TALK_ROLE_PLAYER",
        "_id": ""
      },
      "talkContentTextMapHash": 1863069354,
      "talkAssetPath": "",
      "talkAssetPathAlter": "",
      "talkAudioName": "",
      "actionBefore": "",
      "actionWhile": "",
      "actionAfter": "",
      "optionIcon": "",
      "iconPath": ""
    },
    {
      "id": 650700202,
      "nextDialogs": [
        650700203
      ],
      "talkRole": {
        "type": "TALK_ROLE_NPC",
        "_id": "5070"
      },
      "talkContentTextMapHash": 1690183530,
      "talkAssetPath": "",
      "talkAssetPathAlter": "",
      "talkAudioName": "",
      "actionBefore": "",
      "actionWhile": "SimpleTalk/ShakeHead",
      "actionAfter": "",
      "optionIcon": "",
      "iconPath": ""
    },
    {
      "id": 650700203,
      "nextDialogs": [
        650700204
      ],
      "talkRole": {
        "type": "TALK_ROLE_NPC",
        "_id": "5070"
      },
      "talkContentTextMapHash": 2319551482,
      "talkAssetPath": "",
      "talkAssetPathAlter": "",
      "talkAudioName": "",
      "actionBefore": "",
      "actionWhile": "",
      "actionAfter": "",
      "optionIcon": "",
      "iconPath": ""
    },
    {
      "id": 650700204,
      "talkRole": {
        "type": "TALK_ROLE_NPC",
        "_id": "5070"
      },
      "talkContentTextMapHash": 3502404266,
      "talkAssetPath": "",
      "talkAssetPathAlter": "",
      "talkAudioName": "",
      "actionBefore": "",
      "actionWhile": "",
      "actionAfter": "",
      "optionIcon": "",
      "iconPath": ""
    }
  ]
}