{
  "talkId": 6508804,
  "KPGKDHAFHFE": "FREE",
  "dialogList": [
    {
      "id": 650880401,
      "nextDialogs": [
        650880402
      ],
      "talkShowType": "TALK_SHOW_FORCE_SELECT",
      "talkRole": {
        "type": "TALK_ROLE_PLAYER",
        "_id": ""
      },
      "talkContentTextMapHash": 1987999930,
      "talkAssetPath": "",
      "talkAssetPathAlter": "",
      "talkAudioName": "",
      "actionBefore": "",
      "actionWhile": "",
      "actionAfter": "",
      "optionIcon": "",
      "iconPath": ""
    },
    {
      "id": 650880402,
      "talkRole": {
        "type": "TALK_ROLE_NPC",
        "_id": "5088"
      },
      "talkContentTextMapHash": 2716014058,
      "talkAssetPath": "",
      "talkAssetPathAlter": "",
      "talkAudioName": "",
      "actionBefore": "",
      "actionWhile": "",
      "actionAfter": "",
      "optionIcon": "",
      "iconPath": ""
    }
  ]
}