{
  "talkId": 6508104,
  "KPGKDHAFHFE": "FREE",
  "dialogList": [
    {
      "id": 650810401,
      "nextDialogs": [
        650810402
      ],
      "talkShowType": "TALK_SHOW_FORCE_SELECT",
      "talkRole": {
        "type": "TALK_ROLE_PLAYER",
        "_id": ""
      },
      "talkContentTextMapHash": 781638162,
      "talkAssetPath": "",
      "talkAssetPathAlter": "",
      "talkAudioName": "",
      "actionBefore": "",
      "actionWhile": "",
      "actionAfter": "",
      "optionIcon": "",
      "iconPath": ""
    },
    {
      "id": 650810402,
      "nextDialogs": [
        650810403
      ],
      "talkRole": {
        "type": "TALK_ROLE_NPC",
        "_id": "5081"
      },
      "talkContentTextMapHash": 2325707770,
      "talkAssetPath": "",
      "talkAssetPathAlter": "",
      "talkAudioName": "",
      "actionBefore": "",
      "actionWhile": "",
      "actionAfter": "",
      "optionIcon": "",
      "iconPath": ""
    },
    {
      "id": 650810403,
      "nextDialogs": [
        650810404
      ],
      "talkRole": {
        "type": "TALK_ROLE_NPC",
        "_id": "5081"
      },
      "talkContentTextMapHash": 1222422626,
      "talkAssetPath": "",
      "talkAssetPathAlter": "",
      "talkAudioName": "",
      "actionBefore": "",
      "actionWhile": "",
      "actionAfter": "",
      "optionIcon": "",
      "iconPath": ""
    },
    {
      "id": 650810404,
      "talkRole": {
        "type": "TALK_ROLE_NPC",
        "_id": "5081"
      },
      "talkContentTextMapHash": 2587299178,
      "talkAssetPath": "",
      "talkAssetPathAlter": "",
      "talkAudioName": "",
      "actionBefore": "",
      "actionWhile": "",
      "actionAfter": "",
      "optionIcon": "",
      "iconPath": ""
    }
  ]
}