{
  "talkId": 6508304,
  "KPGKDHAFHFE": "FREE",
  "dialogList": [
    {
      "id": 650830401,
      "talkRole": {
        "type": "TALK_ROLE_NPC",
        "_id": "5083"
      },
      "talkContentTextMapHash": 2093990610,
      "talkAssetPath": "",
      "talkAssetPathAlter": "",
      "talkAudioName": "",
      "actionBefore": "",
      "actionWhile": "SimpleTalk/LerpInNpcDailyTalk_Start",
      "actionAfter": "",
      "optionIcon": "",
      "iconPath": ""
    }
  ]
}