{
  "talkId": 6508502,
  "KPGKDHAFHFE": "FREE",
  "dialogList": [
    {
      "id": 650850201,
      "nextDialogs": [
        650850202
      ],
      "talkShowType": "TALK_SHOW_FORCE_SELECT",
      "talkRole": {
        "type": "TALK_ROLE_PLAYER",
        "_id": ""
      },
      "talkContentTextMapHash": 1383210162,
      "talkAssetPath": "",
      "talkAssetPathAlter": "",
      "talkAudioName": "",
      "actionBefore": "",
      "actionWhile": "",
      "actionAfter": "",
      "optionIcon": "",
      "iconPath": ""
    },
    {
      "id": 650850202,
      "nextDialogs": [
        650850203
      ],
      "talkRole": {
        "type": "TALK_ROLE_NPC",
        "_id": "5085"
      },
      "talkContentTextMapHash": 2016958178,
      "talkAssetPath": "",
      "talkAssetPathAlter": "",
      "talkAudioName": "",
      "actionBefore": "",
      "actionWhile": "",
      "actionAfter": "",
      "optionIcon": "",
      "iconPath": ""
    },
    {
      "id": 650850203,
      "nextDialogs": [
        650850204
      ],
      "talkRole": {
        "type": "TALK_ROLE_NPC",
        "_id": "5085"
      },
      "talkContentTextMapHash": 1186494658,
      "talkAssetPath": "",
      "talkAssetPathAlter": "",
      "talkAudioName": "",
      "actionBefore": "",
      "actionWhile": "",
      "actionAfter": "",
      "optionIcon": "",
      "iconPath": ""
    },
    {
      "id": 650850204,
      "talkRole": {
        "type": "TALK_ROLE_NPC",
        "_id": "5085"
      },
      "talkContentTextMapHash": 563450274,
      "talkAssetPath": "",
      "talkAssetPathAlter": "",
      "talkAudioName": "",
      "actionBefore": "",
      "actionWhile": "",
      "actionAfter": "",
      "optionIcon": "",
      "iconPath": ""
    }
  ]
}