{
  "talkId": 6509003,
  "KPGKDHAFHFE": "FREE",
  "dialogList": [
    {
      "id": 650900301,
      "nextDialogs": [
        650900302
      ],
      "talkShowType": "TALK_SHOW_FORCE_SELECT",
      "talkRole": {
        "type": "TALK_ROLE_PLAYER",
        "_id": ""
      },
      "talkContentTextMapHash": 86375810,
      "talkAssetPath": "",
      "talkAssetPathAlter": "",
      "talkAudioName": "",
      "actionBefore": "",
      "actionWhile": "",
      "actionAfter": "",
      "optionIcon": "",
      "iconPath": ""
    },
    {
      "id": 650900302,
      "nextDialogs": [
        650900303
      ],
      "talkRole": {
        "type": "TALK_ROLE_NPC",
        "_id": "5090"
      },
      "talkContentTextMapHash": 215727650,
      "talkAssetPath": "",
      "talkAssetPathAlter": "",
      "talkAudioName": "",
      "actionBefore": "",
      "actionWhile": "SimpleTalk/PutHand",
      "actionAfter": "",
      "optionIcon": "",
      "iconPath": ""
    },
    {
      "id": 650900303,
      "nextDialogs": [
        650900304
      ],
      "talkRole": {
        "type": "TALK_ROLE_NPC",
        "_id": "5090"
      },
      "talkContentTextMapHash": 3804961090,
      "talkAssetPath": "",
      "talkAssetPathAlter": "",
      "talkAudioName": "",
      "actionBefore": "",
      "actionWhile": "SimpleTalk/NodHead",
      "actionAfter": "",
      "optionIcon": "",
      "iconPath": ""
    },
    {
      "id": 650900304,
      "nextDialogs": [
        650900305
      ],
      "talkRole": {
        "type": "TALK_ROLE_NPC",
        "_id": "5090"
      },
      "talkContentTextMapHash": 2317086482,
      "talkAssetPath": "",
      "talkAssetPathAlter": "",
      "talkAudioName": "",
      "actionBefore": "",
      "actionWhile": "SimpleTalk/StrikeChest",
      "actionAfter": "",
      "optionIcon": "",
      "iconPath": ""
    },
    {
      "id": 650900305,
      "talkRole": {
        "type": "TALK_ROLE_NPC",
        "_id": "5090"
      },
      "talkContentTextMapHash": 1731255602,
      "talkAssetPath": "",
      "talkAssetPathAlter": "",
      "talkAudioName": "",
      "actionBefore": "",
      "actionWhile": "SimpleTalk/ShakeHead",
      "actionAfter": "SimpleTalk/Idle_End",
      "optionIcon": "",
      "iconPath": ""
    }
  ]
}