{
  "talkId": 6510303,
  "KPGKDHAFHFE": "FREE",
  "dialogList": [
    {
      "id": 651030301,
      "nextDialogs": [
        651030302
      ],
      "talkShowType": "TALK_SHOW_FORCE_SELECT",
      "talkRole": {
        "type": "TALK_ROLE_PLAYER",
        "_id": ""
      },
      "talkContentTextMapHash": 3849358986,
      "talkAssetPath": "",
      "talkAssetPathAlter": "",
      "talkAudioName": "",
      "actionBefore": "",
      "actionWhile": "",
      "actionAfter": "",
      "optionIcon": "",
      "iconPath": ""
    },
    {
      "id": 651030302,
      "nextDialogs": [
        651030303
      ],
      "talkRole": {
        "type": "TALK_ROLE_NPC",
        "_id": "5103"
      },
      "talkContentTextMapHash": 2578495362,
      "talkAssetPath": "",
      "talkAssetPathAlter": "",
      "talkAudioName": "",
      "actionBefore": "",
      "actionWhile": "SimpleTalk/PutHand",
      "actionAfter": "",
      "optionIcon": "",
      "iconPath": ""
    },
    {
      "id": 651030303,
      "nextDialogs": [
        651030304
      ],
      "talkRole": {
        "type": "TALK_ROLE_NPC",
        "_id": "5103"
      },
      "talkContentTextMapHash": 228464354,
      "talkAssetPath": "",
      "talkAssetPathAlter": "",
      "talkAudioName": "",
      "actionBefore": "",
      "actionWhile": "SimpleTalk/Think",
      "actionAfter": "",
      "optionIcon": "",
      "iconPath": ""
    },
    {
      "id": 651030304,
      "talkRole": {
        "type": "TALK_ROLE_NPC",
        "_id": "5103"
      },
      "talkContentTextMapHash": 3430742746,
      "talkAssetPath": "",
      "talkAssetPathAlter": "",
      "talkAudioName": "",
      "actionBefore": "",
      "actionWhile": "",
      "actionAfter": "SimpleTalk/Idle_End",
      "optionIcon": "",
      "iconPath": ""
    }
  ]
}