{
  "talkId": 6510307,
  "KPGKDHAFHFE": "FREE",
  "dialogList": [
    {
      "id": 651030701,
      "nextDialogs": [
        651030702
      ],
      "talkShowType": "TALK_SHOW_FORCE_SELECT",
      "talkRole": {
        "type": "TALK_ROLE_PLAYER",
        "_id": ""
      },
      "talkContentTextMapHash": 2787521914,
      "talkAssetPath": "",
      "talkAssetPathAlter": "",
      "talkAudioName": "",
      "actionBefore": "",
      "actionWhile": "",
      "actionAfter": "",
      "optionIcon": "",
      "iconPath": ""
    },
    {
      "id": 651030702,
      "nextDialogs": [
        651030703
      ],
      "talkRole": {
        "type": "TALK_ROLE_NPC",
        "_id": "5103"
      },
      "talkContentTextMapHash": 1971676850,
      "talkAssetPath": "",
      "talkAssetPathAlter": "",
      "talkAudioName": "",
      "actionBefore": "",
      "actionWhile": "SimpleTalk/PutHand",
      "actionAfter": "",
      "optionIcon": "",
      "iconPath": ""
    },
    {
      "id": 651030703,
      "nextDialogs": [
        651030704
      ],
      "talkRole": {
        "type": "TALK_ROLE_NPC",
        "_id": "5103"
      },
      "talkContentTextMapHash": 2496876818,
      "talkAssetPath": "",
      "talkAssetPathAlter": "",
      "talkAudioName": "",
      "actionBefore": "",
      "actionWhile": "",
      "actionAfter": "SimpleTalk/Standby",
      "optionIcon": "",
      "iconPath": ""
    },
    {
      "id": 651030704,
      "nextDialogs": [
        651030705
      ],
      "talkRole": {
        "type": "TALK_ROLE_NPC",
        "_id": "5103"
      },
      "talkContentTextMapHash": 1766832906,
      "talkAssetPath": "",
      "talkAssetPathAlter": "",
      "talkAudioName": "",
      "actionBefore": "",
      "actionWhile": "SimpleTalk/ShakeHead",
      "actionAfter": "",
      "optionIcon": "",
      "iconPath": ""
    },
    {
      "id": 651030705,
      "talkRole": {
        "type": "TALK_ROLE_NPC",
        "_id": "5103"
      },
      "talkContentTextMapHash": 3062098386,
      "talkAssetPath": "",
      "talkAssetPathAlter": "",
      "talkAudioName": "",
      "actionBefore": "",
      "actionWhile": "SimpleTalk/Forerke",
      "actionAfter": "",
      "optionIcon": "",
      "iconPath": ""
    }
  ]
}