{
  "talkId": 6511503,
  "KPGKDHAFHFE": "FREE",
  "dialogList": [
    {
      "id": 651150301,
      "nextDialogs": [
        651150302
      ],
      "talkShowType": "TALK_SHOW_FORCE_SELECT",
      "talkRole": {
        "type": "TALK_ROLE_PLAYER",
        "_id": ""
      },
      "talkContentTextMapHash": 4148652074,
      "talkAssetPath": "",
      "talkAssetPathAlter": "",
      "talkAudioName": "",
      "actionBefore": "",
      "actionWhile": "",
      "actionAfter": "",
      "optionIcon": "",
      "iconPath": ""
    },
    {
      "id": 651150302,
      "talkRole": {
        "type": "TALK_ROLE_NPC",
        "_id": "5115"
      },
      "talkContentTextMapHash": 3340964690,
      "talkAssetPath": "",
      "talkAssetPathAlter": "",
      "talkAudioName": "",
      "actionBefore": "",
      "actionWhile": "",
      "actionAfter": "",
      "optionIcon": "",
      "iconPath": ""
    }
  ]
}