{
  "talkId": 6512301,
  "KPGKDHAFHFE": "FREE",
  "dialogList": [
    {
      "id": 651230101,
      "talkRole": {
        "type": "TALK_ROLE_NPC",
        "_id": "5123"
      },
      "talkContentTextMapHash": 2374201522,
      "talkAssetPath": "",
      "talkAssetPathAlter": "",
      "talkAudioName": "",
      "actionBefore": "",
      "actionWhile": "",
      "actionAfter": "",
      "optionIcon": "",
      "iconPath": ""
    }
  ]
}