{
  "talkId": 6512117,
  "KPGKDHAFHFE": "FREE",
  "dialogList": [
    {
      "id": 651211701,
      "nextDialogs": [
        651211702
      ],
      "talkShowType": "TALK_SHOW_FORCE_SELECT",
      "talkRole": {
        "type": "TALK_ROLE_PLAYER",
        "_id": ""
      },
      "talkContentTextMapHash": 1899225738,
      "talkAssetPath": "",
      "talkAssetPathAlter": "",
      "talkAudioName": "",
      "actionBefore": "",
      "actionWhile": "",
      "actionAfter": "",
      "optionIcon": "",
      "iconPath": ""
    },
    {
      "id": 651211702,
      "nextDialogs": [
        651211703
      ],
      "talkRole": {
        "type": "TALK_ROLE_NPC",
        "_id": "5121"
      },
      "talkContentTextMapHash": 4057256674,
      "talkAssetPath": "",
      "talkAssetPathAlter": "",
      "talkAudioName": "",
      "actionBefore": "",
      "actionWhile": "",
      "actionAfter": "",
      "optionIcon": "",
      "iconPath": ""
    },
    {
      "id": 651211703,
      "talkRole": {
        "type": "TALK_ROLE_NPC",
        "_id": "5121"
      },
      "talkContentTextMapHash": 3242609474,
      "talkAssetPath": "",
      "talkAssetPathAlter": "",
      "talkAudioName": "",
      "actionBefore": "",
      "actionWhile": "",
      "actionAfter": "",
      "optionIcon": "",
      "iconPath": ""
    }
  ]
}