{
  "talkId": 6512202,
  "KPGKDHAFHFE": "FREE",
  "dialogList": [
    {
      "id": 651220201,
      "nextDialogs": [
        651220202
      ],
      "talkShowType": "TALK_SHOW_FORCE_SELECT",
      "talkRole": {
        "type": "TALK_ROLE_PLAYER",
        "_id": ""
      },
      "talkContentTextMapHash": 1463533850,
      "talkAssetPath": "",
      "talkAssetPathAlter": "",
      "talkAudioName": "",
      "actionBefore": "",
      "actionWhile": "",
      "actionAfter": "",
      "optionIcon": "",
      "iconPath": ""
    },
    {
      "id": 651220202,
      "nextDialogs": [
        651220203
      ],
      "talkRole": {
        "type": "TALK_ROLE_NPC",
        "_id": "5122"
      },
      "talkContentTextMapHash": 3333020514,
      "talkAssetPath": "",
      "talkAssetPathAlter": "",
      "talkAudioName": "",
      "actionBefore": "",
      "actionWhile": "",
      "actionAfter": "",
      "optionIcon": "",
      "iconPath": ""
    },
    {
      "id": 651220203,
      "nextDialogs": [
        651220204
      ],
      "talkRole": {
        "type": "TALK_ROLE_NPC",
        "_id": "5122"
      },
      "talkContentTextMapHash": 3902726754,
      "talkAssetPath": "",
      "talkAssetPathAlter": "",
      "talkAudioName": "",
      "actionBefore": "",
      "actionWhile": "",
      "actionAfter": "",
      "optionIcon": "",
      "iconPath": ""
    },
    {
      "id": 651220204,
      "nextDialogs": [
        651220205
      ],
      "talkRole": {
        "type": "TALK_ROLE_NPC",
        "_id": "5122"
      },
      "talkContentTextMapHash": 2572135290,
      "talkAssetPath": "",
      "talkAssetPathAlter": "",
      "talkAudioName": "",
      "actionBefore": "",
      "actionWhile": "",
      "actionAfter": "",
      "optionIcon": "",
      "iconPath": ""
    },
    {
      "id": 651220205,
      "talkRole": {
        "type": "TALK_ROLE_NPC",
        "_id": "5122"
      },
      "talkContentTextMapHash": 1135965978,
      "talkAssetPath": "",
      "talkAssetPathAlter": "",
      "talkAudioName": "",
      "actionBefore": "",
      "actionWhile": "",
      "actionAfter": "",
      "optionIcon": "",
      "iconPath": ""
    }
  ]
}