{
  "talkId": 6513305,
  "KPGKDHAFHFE": "FREE",
  "dialogList": [
    {
      "id": 651330501,
      "nextDialogs": [
        651330502
      ],
      "talkShowType": "TALK_SHOW_FORCE_SELECT",
      "talkRole": {
        "type": "TALK_ROLE_PLAYER",
        "_id": ""
      },
      "talkContentTextMapHash": 3755356426,
      "talkAssetPath": "",
      "talkAssetPathAlter": "",
      "talkAudioName": "",
      "actionBefore": "",
      "actionWhile": "",
      "actionAfter": "",
      "optionIcon": "",
      "iconPath": ""
    },
    {
      "id": 651330502,
      "nextDialogs": [
        651330503
      ],
      "talkRole": {
        "type": "TALK_ROLE_NPC",
        "_id": "5133"
      },
      "talkContentTextMapHash": 1021629322,
      "talkAssetPath": "",
      "talkAssetPathAlter": "",
      "talkAudioName": "",
      "actionBefore": "",
      "actionWhile": "",
      "actionAfter": "",
      "optionIcon": "",
      "iconPath": ""
    },
    {
      "id": 651330503,
      "nextDialogs": [
        651330504
      ],
      "talkRole": {
        "type": "TALK_ROLE_NPC",
        "_id": "5133"
      },
      "talkContentTextMapHash": 1817805602,
      "talkAssetPath": "",
      "talkAssetPathAlter": "",
      "talkAudioName": "",
      "actionBefore": "",
      "actionWhile": "",
      "actionAfter": "",
      "optionIcon": "",
      "iconPath": ""
    },
    {
      "id": 651330504,
      "talkRole": {
        "type": "TALK_ROLE_NPC",
        "_id": "5133"
      },
      "talkContentTextMapHash": 431927258,
      "talkAssetPath": "",
      "talkAssetPathAlter": "",
      "talkAudioName": "",
      "actionBefore": "",
      "actionWhile": "",
      "actionAfter": "",
      "optionIcon": "",
      "iconPath": ""
    }
  ]
}