{
  "talkId": 6513504,
  "KPGKDHAFHFE": "FREE",
  "dialogList": [
    {
      "id": 651350401,
      "nextDialogs": [
        651350402
      ],
      "talkShowType": "TALK_SHOW_FORCE_SELECT",
      "talkRole": {
        "type": "TALK_ROLE_PLAYER",
        "_id": ""
      },
      "talkContentTextMapHash": 1826679498,
      "talkAssetPath": "",
      "talkAssetPathAlter": "",
      "talkAudioName": "",
      "actionBefore": "",
      "actionWhile": "",
      "actionAfter": "",
      "optionIcon": "",
      "iconPath": ""
    },
    {
      "id": 651350402,
      "talkRole": {
        "type": "TALK_ROLE_NPC",
        "_id": "5135"
      },
      "talkContentTextMapHash": 3359585954,
      "talkAssetPath": "",
      "talkAssetPathAlter": "",
      "talkAudioName": "",
      "actionBefore": "",
      "actionWhile": "",
      "actionAfter": "",
      "optionIcon": "",
      "iconPath": ""
    }
  ]
}