{
  "talkId": 6513007,
  "KPGKDHAFHFE": "FREE",
  "dialogList": [
    {
      "id": 651300701,
      "nextDialogs": [
        651300702
      ],
      "talkRole": {
        "type": "TALK_ROLE_NPC",
        "_id": "5130"
      },
      "talkContentTextMapHash": 4168823146,
      "talkAssetPath": "",
      "talkAssetPathAlter": "",
      "talkAudioName": "",
      "actionBefore": "",
      "actionWhile": "",
      "actionAfter": "",
      "optionIcon": "",
      "iconPath": ""
    },
    {
      "id": 651300702,
      "talkRole": {
        "type": "TALK_ROLE_NPC",
        "_id": "5130"
      },
      "talkContentTextMapHash": 4085529226,
      "talkAssetPath": "",
      "talkAssetPathAlter": "",
      "talkAudioName": "",
      "actionBefore": "",
      "actionWhile": "",
      "actionAfter": "",
      "optionIcon": "",
      "iconPath": ""
    }
  ]
}