{
  "talkId": 6513402,
  "KPGKDHAFHFE": "FREE",
  "dialogList": [
    {
      "id": 651340201,
      "nextDialogs": [
        651340202
      ],
      "talkShowType": "TALK_SHOW_FORCE_SELECT",
      "talkRole": {
        "type": "TALK_ROLE_PLAYER",
        "_id": ""
      },
      "talkContentTextMapHash": 2992217754,
      "talkAssetPath": "",
      "talkAssetPathAlter": "",
      "talkAudioName": "",
      "actionBefore": "",
      "actionWhile": "",
      "actionAfter": "",
      "optionIcon": "",
      "iconPath": ""
    },
    {
      "id": 651340202,
      "nextDialogs": [
        651340203
      ],
      "talkRole": {
        "type": "TALK_ROLE_NPC",
        "_id": "5134"
      },
      "talkContentTextMapHash": 2191697666,
      "talkAssetPath": "",
      "talkAssetPathAlter": "",
      "talkAudioName": "",
      "actionBefore": "",
      "actionWhile": "",
      "actionAfter": "",
      "optionIcon": "",
      "iconPath": ""
    },
    {
      "id": 651340203,
      "nextDialogs": [
        651340204
      ],
      "talkRole": {
        "type": "TALK_ROLE_NPC",
        "_id": "5134"
      },
      "talkContentTextMapHash": 518558882,
      "talkAssetPath": "",
      "talkAssetPathAlter": "",
      "talkAudioName": "",
      "actionBefore": "",
      "actionWhile": "",
      "actionAfter": "",
      "optionIcon": "",
      "iconPath": ""
    },
    {
      "id": 651340204,
      "nextDialogs": [
        651340205
      ],
      "talkRole": {
        "type": "TALK_ROLE_NPC",
        "_id": "5134"
      },
      "talkContentTextMapHash": 2163705514,
      "talkAssetPath": "",
      "talkAssetPathAlter": "",
      "talkAudioName": "",
      "actionBefore": "",
      "actionWhile": "SimpleTalk/PutHand",
      "actionAfter": "",
      "optionIcon": "",
      "iconPath": ""
    },
    {
      "id": 651340205,
      "talkRole": {
        "type": "TALK_ROLE_NPC",
        "_id": "5134"
      },
      "talkContentTextMapHash": 2498648122,
      "talkAssetPath": "",
      "talkAssetPathAlter": "",
      "talkAudioName": "",
      "actionBefore": "",
      "actionWhile": "",
      "actionAfter": "SimpleTalk/Idle_End",
      "optionIcon": "",
      "iconPath": ""
    }
  ]
}