{
  "talkId": 6518706,
  "KPGKDHAFHFE": "FREE",
  "dialogList": [
    {
      "id": 651870601,
      "nextDialogs": [
        651870602
      ],
      "talkShowType": "TALK_SHOW_FORCE_SELECT",
      "talkRole": {
        "type": "TALK_ROLE_PLAYER",
        "_id": ""
      },
      "talkContentTextMapHash": 749804076,
      "talkAssetPath": "",
      "talkAssetPathAlter": "",
      "talkAudioName": "",
      "actionBefore": "",
      "actionWhile": "",
      "actionAfter": "",
      "optionIcon": "",
      "iconPath": ""
    },
    {
      "id": 651870602,
      "nextDialogs": [
        651870603
      ],
      "talkRole": {
        "type": "TALK_ROLE_NPC",
        "_id": "5187"
      },
      "talkContentTextMapHash": 2338503178,
      "talkAssetPath": "",
      "talkAssetPathAlter": "",
      "talkAudioName": "",
      "actionBefore": "",
      "actionWhile": "",
      "actionAfter": "",
      "optionIcon": "",
      "iconPath": ""
    },
    {
      "id": 651870603,
      "nextDialogs": [
        651870604
      ],
      "talkRole": {
        "type": "TALK_ROLE_NPC",
        "_id": "5187"
      },
      "talkContentTextMapHash": 2054972986,
      "talkAssetPath": "",
      "talkAssetPathAlter": "",
      "talkAudioName": "",
      "actionBefore": "",
      "actionWhile": "",
      "actionAfter": "",
      "optionIcon": "",
      "iconPath": ""
    },
    {
      "id": 651870604,
      "talkRole": {
        "type": "TALK_ROLE_NPC",
        "_id": "5187"
      },
      "talkContentTextMapHash": 2671773114,
      "talkAssetPath": "",
      "talkAssetPathAlter": "",
      "talkAudioName": "",
      "actionBefore": "",
      "actionWhile": "",
      "actionAfter": "",
      "optionIcon": "",
      "iconPath": ""
    }
  ]
}