{
  "talkId": 6518703,
  "KPGKDHAFHFE": "FREE",
  "dialogList": [
    {
      "id": 651870301,
      "nextDialogs": [
        651870302
      ],
      "talkShowType": "TALK_SHOW_FORCE_SELECT",
      "talkRole": {
        "type": "TALK_ROLE_PLAYER",
        "_id": ""
      },
      "talkContentTextMapHash": 4158089250,
      "talkAssetPath": "",
      "talkAssetPathAlter": "",
      "talkAudioName": "",
      "actionBefore": "",
      "actionWhile": "",
      "actionAfter": "",
      "optionIcon": "",
      "iconPath": ""
    },
    {
      "id": 651870302,
      "talkRole": {
        "type": "TALK_ROLE_NPC",
        "_id": "5187"
      },
      "talkContentTextMapHash": 1811807442,
      "talkAssetPath": "",
      "talkAssetPathAlter": "",
      "talkAudioName": "",
      "actionBefore": "",
      "actionWhile": "",
      "actionAfter": "",
      "optionIcon": "",
      "iconPath": ""
    }
  ]
}