{
  "talkId": 6518601,
  "KPGKDHAFHFE": "FREE",
  "dialogList": [
    {
      "id": 651860101,
      "talkRole": {
        "type": "TALK_ROLE_NPC",
        "_id": "5186"
      },
      "talkContentTextMapHash": 2118077466,
      "talkAssetPath": "",
      "talkAssetPathAlter": "",
      "talkAudioName": "",
      "actionBefore": "",
      "actionWhile": "SimpleTalk/RandomTalk_Start",
      "actionAfter": "",
      "optionIcon": "",
      "iconPath": ""
    }
  ]
}