{
  "talkId": 6518502,
  "KPGKDHAFHFE": "FREE",
  "dialogList": [
    {
      "id": 651850201,
      "nextDialogs": [
        651850202
      ],
      "talkShowType": "TALK_SHOW_FORCE_SELECT",
      "talkRole": {
        "type": "TALK_ROLE_PLAYER",
        "_id": ""
      },
      "talkContentTextMapHash": 1014779226,
      "talkAssetPath": "",
      "talkAssetPathAlter": "",
      "talkAudioName": "",
      "actionBefore": "",
      "actionWhile": "",
      "actionAfter": "",
      "optionIcon": "",
      "iconPath": ""
    },
    {
      "id": 651850202,
      "nextDialogs": [
        651850203
      ],
      "talkRole": {
        "type": "TALK_ROLE_NPC",
        "_id": "5185"
      },
      "talkContentTextMapHash": 744921426,
      "talkAssetPath": "",
      "talkAssetPathAlter": "",
      "talkAudioName": "",
      "actionBefore": "",
      "actionWhile": "",
      "actionAfter": "",
      "optionIcon": "",
      "iconPath": ""
    },
    {
      "id": 651850203,
      "talkRole": {
        "type": "TALK_ROLE_NPC",
        "_id": "5185"
      },
      "talkContentTextMapHash": 2456870642,
      "talkAssetPath": "",
      "talkAssetPathAlter": "",
      "talkAudioName": "",
      "actionBefore": "",
      "actionWhile": "",
      "actionAfter": "",
      "optionIcon": "",
      "iconPath": ""
    }
  ]
}