{
  "talkId": 6519204,
  "KPGKDHAFHFE": "FREE",
  "dialogList": [
    {
      "id": 651920401,
      "nextDialogs": [
        651920402
      ],
      "talkShowType": "TALK_SHOW_FORCE_SELECT",
      "talkRole": {
        "type": "TALK_ROLE_PLAYER",
        "_id": ""
      },
      "talkContentTextMapHash": 656031018,
      "talkAssetPath": "",
      "talkAssetPathAlter": "",
      "talkAudioName": "",
      "actionBefore": "",
      "actionWhile": "",
      "actionAfter": "",
      "optionIcon": "",
      "iconPath": ""
    },
    {
      "id": 651920402,
      "nextDialogs": [
        651920403
      ],
      "talkRole": {
        "type": "TALK_ROLE_NPC",
        "_id": "5192"
      },
      "talkContentTextMapHash": 3210574890,
      "talkAssetPath": "",
      "talkAssetPathAlter": "",
      "talkAudioName": "",
      "actionBefore": "",
      "actionWhile": "",
      "actionAfter": "",
      "optionIcon": "",
      "iconPath": ""
    },
    {
      "id": 651920403,
      "nextDialogs": [
        651920404
      ],
      "talkRole": {
        "type": "TALK_ROLE_NPC",
        "_id": "5192"
      },
      "talkContentTextMapHash": 767815242,
      "talkAssetPath": "",
      "talkAssetPathAlter": "",
      "talkAudioName": "",
      "actionBefore": "",
      "actionWhile": "",
      "actionAfter": "",
      "optionIcon": "",
      "iconPath": ""
    },
    {
      "id": 651920404,
      "talkRole": {
        "type": "TALK_ROLE_NPC",
        "_id": "5192"
      },
      "talkContentTextMapHash": 579871986,
      "talkAssetPath": "",
      "talkAssetPathAlter": "",
      "talkAudioName": "",
      "actionBefore": "",
      "actionWhile": "",
      "actionAfter": "",
      "optionIcon": "",
      "iconPath": ""
    }
  ]
}