{
  "talkId": 6519002,
  "KPGKDHAFHFE": "FREE",
  "dialogList": [
    {
      "id": 651900201,
      "nextDialogs": [
        651900202
      ],
      "talkShowType": "TALK_SHOW_FORCE_SELECT",
      "talkRole": {
        "type": "TALK_ROLE_PLAYER",
        "_id": ""
      },
      "talkContentTextMapHash": 3858451234,
      "talkAssetPath": "",
      "talkAssetPathAlter": "",
      "talkAudioName": "",
      "actionBefore": "",
      "actionWhile": "",
      "actionAfter": "",
      "optionIcon": "",
      "iconPath": ""
    },
    {
      "id": 651900202,
      "nextDialogs": [
        651900203
      ],
      "talkRole": {
        "type": "TALK_ROLE_NPC",
        "_id": "5190"
      },
      "talkContentTextMapHash": 2730057578,
      "talkAssetPath": "",
      "talkAssetPathAlter": "",
      "talkAudioName": "",
      "actionBefore": "",
      "actionWhile": "",
      "actionAfter": "",
      "optionIcon": "",
      "iconPath": ""
    },
    {
      "id": 651900203,
      "talkRole": {
        "type": "TALK_ROLE_NPC",
        "_id": "5190"
      },
      "talkContentTextMapHash": 1696443218,
      "talkAssetPath": "",
      "talkAssetPathAlter": "",
      "talkAudioName": "",
      "actionBefore": "",
      "actionWhile": "",
      "actionAfter": "",
      "optionIcon": "",
      "iconPath": ""
    }
  ]
}