{
  "talkId": 6519902,
  "KPGKDHAFHFE": "FREE",
  "dialogList": [
    {
      "id": 651990201,
      "nextDialogs": [
        651990202
      ],
      "talkShowType": "TALK_SHOW_FORCE_SELECT",
      "talkRole": {
        "type": "TALK_ROLE_PLAYER",
        "_id": ""
      },
      "talkContentTextMapHash": 4162538274,
      "talkAssetPath": "",
      "talkAssetPathAlter": "",
      "talkAudioName": "",
      "actionBefore": "",
      "actionWhile": "",
      "actionAfter": "",
      "optionIcon": "",
      "iconPath": ""
    },
    {
      "id": 651990202,
      "nextDialogs": [
        651990203
      ],
      "talkRole": {
        "type": "TALK_ROLE_NPC",
        "_id": "5199"
      },
      "talkContentTextMapHash": 3649834362,
      "talkAssetPath": "",
      "talkAssetPathAlter": "",
      "talkAudioName": "",
      "actionBefore": "",
      "actionWhile": "",
      "actionAfter": "",
      "optionIcon": "",
      "iconPath": ""
    },
    {
      "id": 651990203,
      "nextDialogs": [
        651990204
      ],
      "talkRole": {
        "type": "TALK_ROLE_NPC",
        "_id": "5199"
      },
      "talkContentTextMapHash": 711736170,
      "talkAssetPath": "",
      "talkAssetPathAlter": "",
      "talkAudioName": "",
      "actionBefore": "",
      "actionWhile": "",
      "actionAfter": "",
      "optionIcon": "",
      "iconPath": ""
    },
    {
      "id": 651990204,
      "nextDialogs": [
        651990205
      ],
      "talkRole": {
        "type": "TALK_ROLE_NPC",
        "_id": "5199"
      },
      "talkContentTextMapHash": 964819946,
      "talkAssetPath": "",
      "talkAssetPathAlter": "",
      "talkAudioName": "",
      "actionBefore": "",
      "actionWhile": "",
      "actionAfter": "",
      "optionIcon": "",
      "iconPath": ""
    },
    {
      "id": 651990205,
      "talkRole": {
        "type": "TALK_ROLE_NPC",
        "_id": "5199"
      },
      "talkContentTextMapHash": 850454210,
      "talkAssetPath": "",
      "talkAssetPathAlter": "",
      "talkAudioName": "",
      "actionBefore": "",
      "actionWhile": "",
      "actionAfter": "",
      "optionIcon": "",
      "iconPath": ""
    }
  ]
}