{
  "talkId": 6519504,
  "KPGKDHAFHFE": "FREE",
  "dialogList": [
    {
      "id": 651950401,
      "nextDialogs": [
        651950402
      ],
      "talkShowType": "TALK_SHOW_FORCE_SELECT",
      "talkRole": {
        "type": "TALK_ROLE_PLAYER",
        "_id": ""
      },
      "talkContentTextMapHash": 2630268258,
      "talkAssetPath": "",
      "talkAssetPathAlter": "",
      "talkAudioName": "",
      "actionBefore": "",
      "actionWhile": "",
      "actionAfter": "",
      "optionIcon": "",
      "iconPath": ""
    },
    {
      "id": 651950402,
      "nextDialogs": [
        651950403
      ],
      "talkRole": {
        "type": "TALK_ROLE_NPC",
        "_id": "5195"
      },
      "talkContentTextMapHash": 1265996026,
      "talkAssetPath": "",
      "talkAssetPathAlter": "",
      "talkAudioName": "",
      "actionBefore": "",
      "actionWhile": "SimpleTalk/NodHead",
      "actionAfter": "",
      "optionIcon": "",
      "iconPath": ""
    },
    {
      "id": 651950403,
      "nextDialogs": [
        651950404
      ],
      "talkRole": {
        "type": "TALK_ROLE_NPC",
        "_id": "5195"
      },
      "talkContentTextMapHash": 1236487082,
      "talkAssetPath": "",
      "talkAssetPathAlter": "",
      "talkAudioName": "",
      "actionBefore": "",
      "actionWhile": "",
      "actionAfter": "",
      "optionIcon": "",
      "iconPath": ""
    },
    {
      "id": 651950404,
      "nextDialogs": [
        651950405
      ],
      "talkRole": {
        "type": "TALK_ROLE_NPC",
        "_id": "5195"
      },
      "talkContentTextMapHash": 3064313810,
      "talkAssetPath": "",
      "talkAssetPathAlter": "",
      "talkAudioName": "",
      "actionBefore": "",
      "actionWhile": "",
      "actionAfter": "",
      "optionIcon": "",
      "iconPath": ""
    },
    {
      "id": 651950405,
      "talkRole": {
        "type": "TALK_ROLE_NPC",
        "_id": "5195"
      },
      "talkContentTextMapHash": 1236964362,
      "talkAssetPath": "",
      "talkAssetPathAlter": "",
      "talkAudioName": "",
      "actionBefore": "",
      "actionWhile": "",
      "actionAfter": "",
      "optionIcon": "",
      "iconPath": ""
    }
  ]
}