{
  "talkId": 6520111,
  "KPGKDHAFHFE": "FREE",
  "dialogList": [
    {
      "id": 652011101,
      "nextDialogs": [
        652011102
      ],
      "talkShowType": "TALK_SHOW_FORCE_SELECT",
      "talkRole": {
        "type": "TALK_ROLE_PLAYER",
        "_id": ""
      },
      "talkContentTextMapHash": 4114883994,
      "talkAssetPath": "",
      "talkAssetPathAlter": "",
      "talkAudioName": "",
      "actionBefore": "",
      "actionWhile": "",
      "actionAfter": "",
      "optionIcon": "",
      "iconPath": ""
    },
    {
      "id": 652011102,
      "talkRole": {
        "type": "TALK_ROLE_NPC",
        "_id": "5201"
      },
      "talkContentTextMapHash": 871281442,
      "talkAssetPath": "",
      "talkAssetPathAlter": "",
      "talkAudioName": "",
      "actionBefore": "",
      "actionWhile": "",
      "actionAfter": "",
      "optionIcon": "",
      "iconPath": ""
    }
  ]
}