{
  "talkId": 6520205,
  "KPGKDHAFHFE": "FREE",
  "dialogList": [
    {
      "id": 652020501,
      "nextDialogs": [
        652020502
      ],
      "talkShowType": "TALK_SHOW_FORCE_SELECT",
      "talkRole": {
        "type": "TALK_ROLE_PLAYER",
        "_id": ""
      },
      "talkContentTextMapHash": 625002946,
      "talkAssetPath": "",
      "talkAssetPathAlter": "",
      "talkAudioName": "",
      "actionBefore": "",
      "actionWhile": "",
      "actionAfter": "",
      "optionIcon": "",
      "iconPath": ""
    },
    {
      "id": 652020502,
      "talkRole": {
        "type": "TALK_ROLE_NPC",
        "_id": "5202"
      },
      "talkContentTextMapHash": 2795642410,
      "talkAssetPath": "",
      "talkAssetPathAlter": "",
      "talkAudioName": "",
      "actionBefore": "",
      "actionWhile": "",
      "actionAfter": "",
      "optionIcon": "",
      "iconPath": ""
    }
  ]
}