{
  "talkId": 6520106,
  "KPGKDHAFHFE": "FREE",
  "dialogList": [
    {
      "id": 652010601,
      "nextDialogs": [
        652010602
      ],
      "talkShowType": "TALK_SHOW_FORCE_SELECT",
      "talkRole": {
        "type": "TALK_ROLE_PLAYER",
        "_id": ""
      },
      "talkContentTextMapHash": 4236946738,
      "talkAssetPath": "",
      "talkAssetPathAlter": "",
      "talkAudioName": "",
      "actionBefore": "",
      "actionWhile": "",
      "actionAfter": "",
      "optionIcon": "",
      "iconPath": ""
    },
    {
      "id": 652010602,
      "nextDialogs": [
        652010603
      ],
      "talkRole": {
        "type": "TALK_ROLE_NPC",
        "_id": "5201"
      },
      "talkContentTextMapHash": 3576181602,
      "talkAssetPath": "",
      "talkAssetPathAlter": "",
      "talkAudioName": "",
      "actionBefore": "",
      "actionWhile": "",
      "actionAfter": "",
      "optionIcon": "",
      "iconPath": ""
    },
    {
      "id": 652010603,
      "nextDialogs": [
        652010604
      ],
      "talkRole": {
        "type": "TALK_ROLE_NPC",
        "_id": "5201"
      },
      "talkContentTextMapHash": 274571770,
      "talkAssetPath": "",
      "talkAssetPathAlter": "",
      "talkAudioName": "",
      "actionBefore": "",
      "actionWhile": "",
      "actionAfter": "",
      "optionIcon": "",
      "iconPath": ""
    },
    {
      "id": 652010604,
      "talkRole": {
        "type": "TALK_ROLE_NPC",
        "_id": "5201"
      },
      "talkContentTextMapHash": 3444755738,
      "talkAssetPath": "",
      "talkAssetPathAlter": "",
      "talkAudioName": "",
      "actionBefore": "",
      "actionWhile": "",
      "actionAfter": "",
      "optionIcon": "",
      "iconPath": ""
    }
  ]
}