{
  "talkId": 6520905,
  "KPGKDHAFHFE": "FREE",
  "dialogList": [
    {
      "id": 652090501,
      "nextDialogs": [
        652090502
      ],
      "talkShowType": "TALK_SHOW_FORCE_SELECT",
      "talkRole": {
        "type": "TALK_ROLE_PLAYER",
        "_id": ""
      },
      "talkContentTextMapHash": 3169927906,
      "talkAssetPath": "",
      "talkAssetPathAlter": "",
      "talkAudioName": "",
      "actionBefore": "",
      "actionWhile": "",
      "actionAfter": "SimpleTalk/SteerOnly",
      "optionIcon": "",
      "iconPath": ""
    },
    {
      "id": 652090502,
      "nextDialogs": [
        652090503
      ],
      "talkRole": {
        "type": "TALK_ROLE_NPC",
        "_id": "5209"
      },
      "talkContentTextMapHash": 1153788674,
      "talkAssetPath": "",
      "talkAssetPathAlter": "",
      "talkAudioName": "",
      "actionBefore": "",
      "actionWhile": "SimpleTalk/RandomTalk",
      "actionAfter": "",
      "optionIcon": "",
      "iconPath": ""
    },
    {
      "id": 652090503,
      "talkRole": {
        "type": "TALK_ROLE_NPC",
        "_id": "5209"
      },
      "talkContentTextMapHash": 496722194,
      "talkAssetPath": "",
      "talkAssetPathAlter": "",
      "talkAudioName": "",
      "actionBefore": "",
      "actionWhile": "SimpleTalk/Think",
      "actionAfter": "SimpleTalk/Idle_End",
      "optionIcon": "",
      "iconPath": ""
    }
  ]
}