{
  "talkId": 6520501,
  "KPGKDHAFHFE": "FREE",
  "dialogList": [
    {
      "id": 652050101,
      "talkRole": {
        "type": "TALK_ROLE_NPC",
        "_id": "5205"
      },
      "talkContentTextMapHash": 3795097178,
      "talkAssetPath": "",
      "talkAssetPathAlter": "",
      "talkAudioName": "",
      "actionBefore": "",
      "actionWhile": "SimpleTalk/LerpInNpcDailyTalk_Start",
      "actionAfter": "",
      "optionIcon": "",
      "iconPath": ""
    }
  ]
}