{
  "talkId": 6521408,
  "KPGKDHAFHFE": "FREE",
  "dialogList": [
    {
      "id": 652140801,
      "nextDialogs": [
        652140802
      ],
      "talkShowType": "TALK_SHOW_FORCE_SELECT",
      "talkRole": {
        "type": "TALK_ROLE_PLAYER",
        "_id": ""
      },
      "talkContentTextMapHash": 3389775242,
      "talkAssetPath": "",
      "talkAssetPathAlter": "",
      "talkAudioName": "",
      "actionBefore": "",
      "actionWhile": "",
      "actionAfter": "",
      "optionIcon": "",
      "iconPath": ""
    },
    {
      "id": 652140802,
      "talkRole": {
        "type": "TALK_ROLE_NPC",
        "_id": "5214"
      },
      "talkContentTextMapHash": 1328740906,
      "talkAssetPath": "",
      "talkAssetPathAlter": "",
      "talkAudioName": "",
      "actionBefore": "",
      "actionWhile": "",
      "actionAfter": "",
      "optionIcon": "",
      "iconPath": ""
    }
  ]
}