{
  "talkId": 6521006,
  "KPGKDHAFHFE": "FREE",
  "dialogList": [
    {
      "id": 652100601,
      "talkRole": {
        "type": "TALK_ROLE_NPC",
        "_id": "5210"
      },
      "talkContentTextMapHash": 3652133594,
      "talkAssetPath": "",
      "talkAssetPathAlter": "",
      "talkAudioName": "",
      "actionBefore": "",
      "actionWhile": "SimpleTalk/LerpInNpcDailyTalk_Start",
      "actionAfter": "",
      "optionIcon": "",
      "iconPath": ""
    }
  ]
}