{
  "talkId": 6521405,
  "KPGKDHAFHFE": "FREE",
  "dialogList": [
    {
      "id": 652140501,
      "nextDialogs": [
        652140502
      ],
      "talkShowType": "TALK_SHOW_FORCE_SELECT",
      "talkRole": {
        "type": "TALK_ROLE_PLAYER",
        "_id": ""
      },
      "talkContentTextMapHash": 840402698,
      "talkAssetPath": "",
      "talkAssetPathAlter": "",
      "talkAudioName": "",
      "actionBefore": "",
      "actionWhile": "",
      "actionAfter": "",
      "optionIcon": "",
      "iconPath": ""
    },
    {
      "id": 652140502,
      "talkRole": {
        "type": "TALK_ROLE_NPC",
        "_id": "5214"
      },
      "talkContentTextMapHash": 2247365474,
      "talkAssetPath": "",
      "talkAssetPathAlter": "",
      "talkAudioName": "",
      "actionBefore": "",
      "actionWhile": "",
      "actionAfter": "",
      "optionIcon": "",
      "iconPath": ""
    }
  ]
}