{
  "talkId": 6521203,
  "KPGKDHAFHFE": "FREE",
  "dialogList": [
    {
      "id": 652120301,
      "nextDialogs": [
        652120302
      ],
      "talkShowType": "TALK_SHOW_FORCE_SELECT",
      "talkRole": {
        "type": "TALK_ROLE_PLAYER",
        "_id": ""
      },
      "talkContentTextMapHash": 1247988842,
      "talkAssetPath": "",
      "talkAssetPathAlter": "",
      "talkAudioName": "",
      "actionBefore": "",
      "actionWhile": "",
      "actionAfter": "",
      "optionIcon": "",
      "iconPath": ""
    },
    {
      "id": 652120302,
      "talkRole": {
        "type": "TALK_ROLE_NPC",
        "_id": "5212"
      },
      "talkContentTextMapHash": 3963960026,
      "talkAssetPath": "",
      "talkAssetPathAlter": "",
      "talkAudioName": "",
      "actionBefore": "",
      "actionWhile": "",
      "actionAfter": "",
      "optionIcon": "",
      "iconPath": ""
    }
  ]
}