{
  "talkId": 6521003,
  "KPGKDHAFHFE": "FREE",
  "dialogList": [
    {
      "id": 652100301,
      "nextDialogs": [
        652100302
      ],
      "talkShowType": "TALK_SHOW_FORCE_SELECT",
      "talkRole": {
        "type": "TALK_ROLE_PLAYER",
        "_id": ""
      },
      "talkContentTextMapHash": 186142914,
      "talkAssetPath": "",
      "talkAssetPathAlter": "",
      "talkAudioName": "",
      "actionBefore": "",
      "actionWhile": "",
      "actionAfter": "",
      "optionIcon": "",
      "iconPath": ""
    },
    {
      "id": 652100302,
      "talkRole": {
        "type": "TALK_ROLE_NPC",
        "_id": "5210"
      },
      "talkContentTextMapHash": 3025090770,
      "talkAssetPath": "",
      "talkAssetPathAlter": "",
      "talkAudioName": "",
      "actionBefore": "",
      "actionWhile": "",
      "actionAfter": "",
      "optionIcon": "",
      "iconPath": ""
    }
  ]
}