{
  "talkId": 6521209,
  "KPGKDHAFHFE": "FREE",
  "dialogList": [
    {
      "id": 652120901,
      "nextDialogs": [
        652120902
      ],
      "talkShowType": "TALK_SHOW_FORCE_SELECT",
      "talkRole": {
        "type": "TALK_ROLE_PLAYER",
        "_id": ""
      },
      "talkContentTextMapHash": 1286407674,
      "talkAssetPath": "",
      "talkAssetPathAlter": "",
      "talkAudioName": "",
      "actionBefore": "",
      "actionWhile": "",
      "actionAfter": "",
      "optionIcon": "",
      "iconPath": ""
    },
    {
      "id": 652120902,
      "nextDialogs": [
        652120903
      ],
      "talkRole": {
        "type": "TALK_ROLE_NPC",
        "_id": "5212"
      },
      "talkContentTextMapHash": 3937293858,
      "talkAssetPath": "",
      "talkAssetPathAlter": "",
      "talkAudioName": "",
      "actionBefore": "",
      "actionWhile": "",
      "actionAfter": "",
      "optionIcon": "",
      "iconPath": ""
    },
    {
      "id": 652120903,
      "talkRole": {
        "type": "TALK_ROLE_NPC",
        "_id": "5212"
      },
      "talkContentTextMapHash": 818185018,
      "talkAssetPath": "",
      "talkAssetPathAlter": "",
      "talkAudioName": "",
      "actionBefore": "",
      "actionWhile": "",
      "actionAfter": "",
      "optionIcon": "",
      "iconPath": ""
    }
  ]
}