{
  "talkId": 6522405,
  "KPGKDHAFHFE": "FREE",
  "dialogList": [
    {
      "id": 652240501,
      "nextDialogs": [
        652240502
      ],
      "talkShowType": "TALK_SHOW_FORCE_SELECT",
      "talkRole": {
        "type": "TALK_ROLE_PLAYER",
        "_id": ""
      },
      "talkContentTextMapHash": 619174106,
      "talkAssetPath": "",
      "talkAssetPathAlter": "",
      "talkAudioName": "",
      "actionBefore": "",
      "actionWhile": "",
      "actionAfter": "",
      "optionIcon": "",
      "iconPath": ""
    },
    {
      "id": 652240502,
      "nextDialogs": [
        652240503
      ],
      "talkRole": {
        "type": "TALK_ROLE_NPC",
        "_id": "5224"
      },
      "talkContentTextMapHash": 4166674610,
      "talkAssetPath": "",
      "talkAssetPathAlter": "",
      "talkAudioName": "",
      "actionBefore": "",
      "actionWhile": "",
      "actionAfter": "",
      "optionIcon": "",
      "iconPath": ""
    },
    {
      "id": 652240503,
      "nextDialogs": [
        652240504
      ],
      "talkRole": {
        "type": "TALK_ROLE_NPC",
        "_id": "5224"
      },
      "talkContentTextMapHash": 433729018,
      "talkAssetPath": "",
      "talkAssetPathAlter": "",
      "talkAudioName": "",
      "actionBefore": "",
      "actionWhile": "",
      "actionAfter": "",
      "optionIcon": "",
      "iconPath": ""
    },
    {
      "id": 652240504,
      "nextDialogs": [
        652240505
      ],
      "talkRole": {
        "type": "TALK_ROLE_NPC",
        "_id": "5224"
      },
      "talkContentTextMapHash": 10814322,
      "talkAssetPath": "",
      "talkAssetPathAlter": "",
      "talkAudioName": "",
      "actionBefore": "",
      "actionWhile": "",
      "actionAfter": "",
      "optionIcon": "",
      "iconPath": ""
    },
    {
      "id": 652240505,
      "nextDialogs": [
        652240506
      ],
      "talkRole": {
        "type": "TALK_ROLE_NPC",
        "_id": "5224"
      },
      "talkContentTextMapHash": 1743566026,
      "talkAssetPath": "",
      "talkAssetPathAlter": "",
      "talkAudioName": "",
      "actionBefore": "",
      "actionWhile": "",
      "actionAfter": "",
      "optionIcon": "",
      "iconPath": ""
    },
    {
      "id": 652240506,
      "talkRole": {
        "type": "TALK_ROLE_NPC",
        "_id": "5224"
      },
      "talkContentTextMapHash": 248565234,
      "talkAssetPath": "",
      "talkAssetPathAlter": "",
      "talkAudioName": "",
      "actionBefore": "",
      "actionWhile": "",
      "actionAfter": "",
      "optionIcon": "",
      "iconPath": ""
    }
  ]
}