{
  "talkId": 6522301,
  "KPGKDHAFHFE": "FREE",
  "dialogList": [
    {
      "id": 652230101,
      "talkRole": {
        "type": "TALK_ROLE_NPC",
        "_id": "5223"
      },
      "talkContentTextMapHash": 1788737218,
      "talkAssetPath": "",
      "talkAssetPathAlter": "",
      "talkAudioName": "",
      "actionBefore": "",
      "actionWhile": "",
      "actionAfter": "",
      "optionIcon": "",
      "iconPath": ""
    }
  ]
}