{
  "talkId": 6522703,
  "KPGKDHAFHFE": "FREE",
  "dialogList": [
    {
      "id": 652270301,
      "nextDialogs": [
        652270302
      ],
      "talkShowType": "TALK_SHOW_FORCE_SELECT",
      "talkRole": {
        "type": "TALK_ROLE_PLAYER",
        "_id": ""
      },
      "talkContentTextMapHash": 3765043370,
      "talkAssetPath": "",
      "talkAssetPathAlter": "",
      "talkAudioName": "",
      "actionBefore": "",
      "actionWhile": "",
      "actionAfter": "",
      "optionIcon": "",
      "iconPath": ""
    },
    {
      "id": 652270302,
      "talkRole": {
        "type": "TALK_ROLE_NPC",
        "_id": "5227"
      },
      "talkContentTextMapHash": 1290294714,
      "talkAssetPath": "",
      "talkAssetPathAlter": "",
      "talkAudioName": "",
      "actionBefore": "",
      "actionWhile": "",
      "actionAfter": "",
      "optionIcon": "",
      "iconPath": ""
    }
  ]
}