{
  "talkId": 6523801,
  "KPGKDHAFHFE": "FREE",
  "dialogList": [
    {
      "id": 652380101,
      "talkRole": {
        "type": "TALK_ROLE_NPC",
        "_id": "5238"
      },
      "talkContentTextMapHash": 723087970,
      "talkAssetPath": "",
      "talkAssetPathAlter": "",
      "talkAudioName": "",
      "actionBefore": "",
      "actionWhile": "SimpleTalk/RandomTalk_Start",
      "actionAfter": "",
      "optionIcon": "",
      "iconPath": ""
    }
  ]
}