{
  "talkId": 6523002,
  "KPGKDHAFHFE": "FREE",
  "dialogList": [
    {
      "id": 652300201,
      "nextDialogs": [
        652300202
      ],
      "talkShowType": "TALK_SHOW_FORCE_SELECT",
      "talkRole": {
        "type": "TALK_ROLE_PLAYER",
        "_id": ""
      },
      "talkContentTextMapHash": 2426543666,
      "talkAssetPath": "",
      "talkAssetPathAlter": "",
      "talkAudioName": "",
      "actionBefore": "",
      "actionWhile": "",
      "actionAfter": "",
      "optionIcon": "",
      "iconPath": ""
    },
    {
      "id": 652300202,
      "talkRole": {
        "type": "TALK_ROLE_NPC",
        "_id": "5230"
      },
      "talkContentTextMapHash": 3286304442,
      "talkAssetPath": "",
      "talkAssetPathAlter": "",
      "talkAudioName": "",
      "actionBefore": "",
      "actionWhile": "",
      "actionAfter": "",
      "optionIcon": "",
      "iconPath": ""
    }
  ]
}