{
  "talkId": 6523106,
  "KPGKDHAFHFE": "FREE",
  "dialogList": [
    {
      "id": 652310601,
      "nextDialogs": [
        652310602
      ],
      "talkShowType": "TALK_SHOW_FORCE_SELECT",
      "talkRole": {
        "type": "TALK_ROLE_PLAYER",
        "_id": ""
      },
      "talkContentTextMapHash": 2657150706,
      "talkAssetPath": "",
      "talkAssetPathAlter": "",
      "talkAudioName": "",
      "actionBefore": "",
      "actionWhile": "",
      "actionAfter": "SimpleTalk/SteerOnly",
      "optionIcon": "",
      "iconPath": ""
    },
    {
      "id": 652310602,
      "nextDialogs": [
        652310603
      ],
      "talkRole": {
        "type": "TALK_ROLE_NPC",
        "_id": "5231"
      },
      "talkContentTextMapHash": 2509025490,
      "talkAssetPath": "",
      "talkAssetPathAlter": "",
      "talkAudioName": "",
      "actionBefore": "",
      "actionWhile": "SimpleTalk/NodHead",
      "actionAfter": "",
      "optionIcon": "",
      "iconPath": ""
    },
    {
      "id": 652310603,
      "talkRole": {
        "type": "TALK_ROLE_NPC",
        "_id": "5231"
      },
      "talkContentTextMapHash": 833374370,
      "talkAssetPath": "",
      "talkAssetPathAlter": "",
      "talkAudioName": "",
      "actionBefore": "",
      "actionWhile": "",
      "actionAfter": "",
      "optionIcon": "",
      "iconPath": ""
    }
  ]
}