{
  "talkId": 6523107,
  "KPGKDHAFHFE": "FREE",
  "dialogList": [
    {
      "id": 652310701,
      "nextDialogs": [
        652310702
      ],
      "talkShowType": "TALK_SHOW_FORCE_SELECT",
      "talkRole": {
        "type": "TALK_ROLE_PLAYER",
        "_id": ""
      },
      "talkContentTextMapHash": 1368357210,
      "talkAssetPath": "",
      "talkAssetPathAlter": "",
      "talkAudioName": "",
      "actionBefore": "",
      "actionWhile": "",
      "actionAfter": "",
      "optionIcon": "",
      "iconPath": ""
    },
    {
      "id": 652310702,
      "nextDialogs": [
        652310703
      ],
      "talkRole": {
        "type": "TALK_ROLE_NPC",
        "_id": "5231"
      },
      "talkContentTextMapHash": 4217041722,
      "talkAssetPath": "",
      "talkAssetPathAlter": "",
      "talkAudioName": "",
      "actionBefore": "",
      "actionWhile": "SimpleTalk/Akimbo",
      "actionAfter": "",
      "optionIcon": "",
      "iconPath": ""
    },
    {
      "id": 652310703,
      "nextDialogs": [
        652310704
      ],
      "talkRole": {
        "type": "TALK_ROLE_NPC",
        "_id": "5231"
      },
      "talkContentTextMapHash": 3516267970,
      "talkAssetPath": "",
      "talkAssetPathAlter": "",
      "talkAudioName": "",
      "actionBefore": "",
      "actionWhile": "",
      "actionAfter": "",
      "optionIcon": "",
      "iconPath": ""
    },
    {
      "id": 652310704,
      "talkRole": {
        "type": "TALK_ROLE_NPC",
        "_id": "5231"
      },
      "talkContentTextMapHash": 461893994,
      "talkAssetPath": "",
      "talkAssetPathAlter": "",
      "talkAudioName": "",
      "actionBefore": "",
      "actionWhile": "SimpleTalk/NodHead",
      "actionAfter": "SimpleTalk/Idle_End",
      "optionIcon": "",
      "iconPath": ""
    }
  ]
}