{
  "talkId": 6523001,
  "KPGKDHAFHFE": "FREE",
  "dialogList": [
    {
      "id": 652300101,
      "talkRole": {
        "type": "TALK_ROLE_NPC",
        "_id": "5230"
      },
      "talkContentTextMapHash": 2689140690,
      "talkAssetPath": "",
      "talkAssetPathAlter": "",
      "talkAudioName": "",
      "actionBefore": "",
      "actionWhile": "SimpleTalk/LerpInNpcDailyTalk_Start",
      "actionAfter": "",
      "optionIcon": "",
      "iconPath": ""
    }
  ]
}