{
  "talkId": 6523603,
  "KPGKDHAFHFE": "FREE",
  "dialogList": [
    {
      "id": 652360301,
      "nextDialogs": [
        652360302
      ],
      "talkShowType": "TALK_SHOW_FORCE_SELECT",
      "talkRole": {
        "type": "TALK_ROLE_PLAYER",
        "_id": ""
      },
      "talkContentTextMapHash": 2042000634,
      "talkAssetPath": "",
      "talkAssetPathAlter": "",
      "talkAudioName": "",
      "actionBefore": "",
      "actionWhile": "",
      "actionAfter": "",
      "optionIcon": "",
      "iconPath": ""
    },
    {
      "id": 652360302,
      "nextDialogs": [
        652360303
      ],
      "talkRole": {
        "type": "TALK_ROLE_NPC",
        "_id": "5236"
      },
      "talkContentTextMapHash": 3873465650,
      "talkAssetPath": "",
      "talkAssetPathAlter": "",
      "talkAudioName": "",
      "actionBefore": "",
      "actionWhile": "",
      "actionAfter": "",
      "optionIcon": "",
      "iconPath": ""
    },
    {
      "id": 652360303,
      "talkRole": {
        "type": "TALK_ROLE_NPC",
        "_id": "5236"
      },
      "talkContentTextMapHash": 161570834,
      "talkAssetPath": "",
      "talkAssetPathAlter": "",
      "talkAudioName": "",
      "actionBefore": "",
      "actionWhile": "",
      "actionAfter": "",
      "optionIcon": "",
      "iconPath": ""
    }
  ]
}