{
  "talkId": 6524807,
  "KPGKDHAFHFE": "FREE",
  "dialogList": [
    {
      "id": 652480701,
      "nextDialogs": [
        652480702
      ],
      "talkShowType": "TALK_SHOW_FORCE_SELECT",
      "talkRole": {
        "type": "TALK_ROLE_PLAYER",
        "_id": ""
      },
      "talkContentTextMapHash": 3478476074,
      "talkAssetPath": "",
      "talkAssetPathAlter": "",
      "talkAudioName": "",
      "actionBefore": "",
      "actionWhile": "",
      "actionAfter": "",
      "optionIcon": "",
      "iconPath": ""
    },
    {
      "id": 652480702,
      "nextDialogs": [
        652480703
      ],
      "talkRole": {
        "type": "TALK_ROLE_NPC",
        "_id": "5248"
      },
      "talkContentTextMapHash": 3734627906,
      "talkAssetPath": "",
      "talkAssetPathAlter": "",
      "talkAudioName": "",
      "actionBefore": "",
      "actionWhile": "",
      "actionAfter": "",
      "optionIcon": "",
      "iconPath": ""
    },
    {
      "id": 652480703,
      "nextDialogs": [
        652480704
      ],
      "talkRole": {
        "type": "TALK_ROLE_NPC",
        "_id": "5248"
      },
      "talkContentTextMapHash": 710821562,
      "talkAssetPath": "",
      "talkAssetPathAlter": "",
      "talkAudioName": "",
      "actionBefore": "",
      "actionWhile": "",
      "actionAfter": "",
      "optionIcon": "",
      "iconPath": ""
    },
    {
      "id": 652480704,
      "talkRole": {
        "type": "TALK_ROLE_NPC",
        "_id": "5248"
      },
      "talkContentTextMapHash": 1622008466,
      "talkAssetPath": "",
      "talkAssetPathAlter": "",
      "talkAudioName": "",
      "actionBefore": "",
      "actionWhile": "",
      "actionAfter": "",
      "optionIcon": "",
      "iconPath": ""
    }
  ]
}