{
  "talkId": 6525102,
  "KPGKDHAFHFE": "FREE",
  "dialogList": [
    {
      "id": 652510201,
      "nextDialogs": [
        652510202
      ],
      "talkShowType": "TALK_SHOW_FORCE_SELECT",
      "talkRole": {
        "type": "TALK_ROLE_PLAYER",
        "_id": ""
      },
      "talkContentTextMapHash": 3945431154,
      "talkAssetPath": "",
      "talkAssetPathAlter": "",
      "talkAudioName": "",
      "actionBefore": "",
      "actionWhile": "",
      "actionAfter": "",
      "optionIcon": "",
      "iconPath": ""
    },
    {
      "id": 652510202,
      "nextDialogs": [
        652510203
      ],
      "talkRole": {
        "type": "TALK_ROLE_NPC",
        "_id": "5251"
      },
      "talkContentTextMapHash": 3084811530,
      "talkAssetPath": "",
      "talkAssetPathAlter": "",
      "talkAudioName": "",
      "actionBefore": "",
      "actionWhile": "SimpleTalk/RandomTalkHold",
      "actionAfter": "",
      "optionIcon": "",
      "iconPath": ""
    },
    {
      "id": 652510203,
      "talkRole": {
        "type": "TALK_ROLE_NPC",
        "_id": "5251"
      },
      "talkContentTextMapHash": 3587497434,
      "talkAssetPath": "",
      "talkAssetPathAlter": "",
      "talkAudioName": "",
      "actionBefore": "",
      "actionWhile": "SimpleTalk/ShakeHead",
      "actionAfter": "SimpleTalk/Idle_End",
      "optionIcon": "",
      "iconPath": ""
    }
  ]
}