{
  "talkId": 6525004,
  "KPGKDHAFHFE": "FREE",
  "dialogList": [
    {
      "id": 652500401,
      "nextDialogs": [
        652500402
      ],
      "talkShowType": "TALK_SHOW_FORCE_SELECT",
      "talkRole": {
        "type": "TALK_ROLE_PLAYER",
        "_id": ""
      },
      "talkContentTextMapHash": 2584787058,
      "talkAssetPath": "",
      "talkAssetPathAlter": "",
      "talkAudioName": "",
      "actionBefore": "",
      "actionWhile": "",
      "actionAfter": "",
      "optionIcon": "",
      "iconPath": ""
    },
    {
      "id": 652500402,
      "talkRole": {
        "type": "TALK_ROLE_NPC",
        "_id": "5250"
      },
      "talkContentTextMapHash": 4257144938,
      "talkAssetPath": "",
      "talkAssetPathAlter": "",
      "talkAudioName": "",
      "actionBefore": "",
      "actionWhile": "",
      "actionAfter": "",
      "optionIcon": "",
      "iconPath": ""
    }
  ]
}