{
  "talkId": 6527601,
  "KPGKDHAFHFE": "FREE",
  "dialogList": [
    {
      "id": 652760101,
      "talkRole": {
        "type": "TALK_ROLE_NPC",
        "_id": "5276"
      },
      "talkContentTextMapHash": 817725978,
      "talkAssetPath": "",
      "talkAssetPathAlter": "",
      "talkAudioName": "",
      "actionBefore": "",
      "actionWhile": "SimpleTalk/LerpInNpcNoSteer_Start",
      "actionAfter": "",
      "optionIcon": "",
      "iconPath": ""
    }
  ]
}