{
  "talkId": 6527105,
  "KPGKDHAFHFE": "FREE",
  "dialogList": [
    {
      "id": 652710501,
      "nextDialogs": [
        652710502
      ],
      "talkShowType": "TALK_SHOW_FORCE_SELECT",
      "talkRole": {
        "type": "TALK_ROLE_PLAYER",
        "_id": ""
      },
      "talkContentTextMapHash": 2023389282,
      "talkAssetPath": "",
      "talkAssetPathAlter": "",
      "talkAudioName": "",
      "actionBefore": "",
      "actionWhile": "",
      "actionAfter": "",
      "optionIcon": "",
      "iconPath": ""
    },
    {
      "id": 652710502,
      "nextDialogs": [
        652710503
      ],
      "talkRole": {
        "type": "TALK_ROLE_NPC",
        "_id": "5271"
      },
      "talkContentTextMapHash": 2175224474,
      "talkAssetPath": "",
      "talkAssetPathAlter": "",
      "talkAudioName": "",
      "actionBefore": "",
      "actionWhile": "",
      "actionAfter": "",
      "optionIcon": "",
      "iconPath": ""
    },
    {
      "id": 652710503,
      "talkRole": {
        "type": "TALK_ROLE_NPC",
        "_id": "5271"
      },
      "talkContentTextMapHash": 2556853578,
      "talkAssetPath": "",
      "talkAssetPathAlter": "",
      "talkAudioName": "",
      "actionBefore": "",
      "actionWhile": "",
      "actionAfter": "",
      "optionIcon": "",
      "iconPath": ""
    }
  ]
}