{
  "talkId": 6527604,
  "KPGKDHAFHFE": "FREE",
  "dialogList": [
    {
      "id": 652760401,
      "nextDialogs": [
        652760402
      ],
      "talkShowType": "TALK_SHOW_FORCE_SELECT",
      "talkRole": {
        "type": "TALK_ROLE_PLAYER",
        "_id": ""
      },
      "talkContentTextMapHash": 1137065170,
      "talkAssetPath": "",
      "talkAssetPathAlter": "",
      "talkAudioName": "",
      "actionBefore": "",
      "actionWhile": "",
      "actionAfter": "",
      "optionIcon": "",
      "iconPath": ""
    },
    {
      "id": 652760402,
      "nextDialogs": [
        652760403
      ],
      "talkRole": {
        "type": "TALK_ROLE_NPC",
        "_id": "5276"
      },
      "talkContentTextMapHash": 1790952578,
      "talkAssetPath": "",
      "talkAssetPathAlter": "",
      "talkAudioName": "",
      "actionBefore": "",
      "actionWhile": "SimpleTalk/StrikeChest",
      "actionAfter": "",
      "optionIcon": "",
      "iconPath": ""
    },
    {
      "id": 652760403,
      "nextDialogs": [
        652760404
      ],
      "talkRole": {
        "type": "TALK_ROLE_NPC",
        "_id": "5276"
      },
      "talkContentTextMapHash": 3918447098,
      "talkAssetPath": "",
      "talkAssetPathAlter": "",
      "talkAudioName": "",
      "actionBefore": "",
      "actionWhile": "SimpleTalk/Forerke",
      "actionAfter": "",
      "optionIcon": "",
      "iconPath": ""
    },
    {
      "id": 652760404,
      "talkRole": {
        "type": "TALK_ROLE_NPC",
        "_id": "5276"
      },
      "talkContentTextMapHash": 1481196370,
      "talkAssetPath": "",
      "talkAssetPathAlter": "",
      "talkAudioName": "",
      "actionBefore": "",
      "actionWhile": "",
      "actionAfter": "",
      "optionIcon": "",
      "iconPath": ""
    }
  ]
}