{
  "talkId": 6527505,
  "KPGKDHAFHFE": "FREE",
  "dialogList": [
    {
      "id": 652750501,
      "nextDialogs": [
        652750502
      ],
      "talkShowType": "TALK_SHOW_FORCE_SELECT",
      "talkRole": {
        "type": "TALK_ROLE_PLAYER",
        "_id": ""
      },
      "talkContentTextMapHash": 2298380882,
      "talkAssetPath": "",
      "talkAssetPathAlter": "",
      "talkAudioName": "",
      "actionBefore": "",
      "actionWhile": "",
      "actionAfter": "",
      "optionIcon": "",
      "iconPath": ""
    },
    {
      "id": 652750502,
      "nextDialogs": [
        652750503
      ],
      "talkRole": {
        "type": "TALK_ROLE_NPC",
        "_id": "5275"
      },
      "talkContentTextMapHash": 3824932018,
      "talkAssetPath": "",
      "talkAssetPathAlter": "",
      "talkAudioName": "",
      "actionBefore": "",
      "actionWhile": "SimpleTalk/RandomTalk",
      "actionAfter": "",
      "optionIcon": "",
      "iconPath": ""
    },
    {
      "id": 652750503,
      "nextDialogs": [
        652750504
      ],
      "talkRole": {
        "type": "TALK_ROLE_NPC",
        "_id": "5275"
      },
      "talkContentTextMapHash": 2063934154,
      "talkAssetPath": "",
      "talkAssetPathAlter": "",
      "talkAudioName": "",
      "actionBefore": "",
      "actionWhile": "SimpleTalk/Akimbo",
      "actionAfter": "",
      "optionIcon": "",
      "iconPath": ""
    },
    {
      "id": 652750504,
      "talkRole": {
        "type": "TALK_ROLE_NPC",
        "_id": "5275"
      },
      "talkContentTextMapHash": 3382678762,
      "talkAssetPath": "",
      "talkAssetPathAlter": "",
      "talkAudioName": "",
      "actionBefore": "",
      "actionWhile": "",
      "actionAfter": "SimpleTalk/Idle_End",
      "optionIcon": "",
      "iconPath": ""
    }
  ]
}