{
  "talkId": 6527301,
  "KPGKDHAFHFE": "FREE",
  "dialogList": [
    {
      "id": 652730101,
      "talkRole": {
        "type": "TALK_ROLE_NPC",
        "_id": "5273"
      },
      "talkContentTextMapHash": 3674777442,
      "talkAssetPath": "",
      "talkAssetPathAlter": "",
      "talkAudioName": "",
      "actionBefore": "",
      "actionWhile": "SimpleTalk/LerpInNpcNoSteer_Start",
      "actionAfter": "",
      "optionIcon": "",
      "iconPath": ""
    }
  ]
}