{
  "talkId": 6528607,
  "KPGKDHAFHFE": "FREE",
  "dialogList": [
    {
      "id": 652860701,
      "nextDialogs": [
        652860702
      ],
      "talkShowType": "TALK_SHOW_FORCE_SELECT",
      "talkRole": {
        "type": "TALK_ROLE_PLAYER",
        "_id": ""
      },
      "talkContentTextMapHash": 2547119370,
      "talkAssetPath": "",
      "talkAssetPathAlter": "",
      "talkAudioName": "",
      "actionBefore": "",
      "actionWhile": "",
      "actionAfter": "",
      "optionIcon": "",
      "iconPath": ""
    },
    {
      "id": 652860702,
      "nextDialogs": [
        652860703
      ],
      "talkRole": {
        "type": "TALK_ROLE_NPC",
        "_id": "5286"
      },
      "talkContentTextMapHash": 3821168362,
      "talkAssetPath": "",
      "talkAssetPathAlter": "",
      "talkAudioName": "",
      "actionBefore": "",
      "actionWhile": "",
      "actionAfter": "",
      "optionIcon": "",
      "iconPath": ""
    },
    {
      "id": 652860703,
      "nextDialogs": [
        652860704
      ],
      "talkRole": {
        "type": "TALK_ROLE_NPC",
        "_id": "5286"
      },
      "talkContentTextMapHash": 1579819722,
      "talkAssetPath": "",
      "talkAssetPathAlter": "",
      "talkAudioName": "",
      "actionBefore": "",
      "actionWhile": "",
      "actionAfter": "",
      "optionIcon": "",
      "iconPath": ""
    },
    {
      "id": 652860704,
      "nextDialogs": [
        652860705
      ],
      "talkRole": {
        "type": "TALK_ROLE_NPC",
        "_id": "5286"
      },
      "talkContentTextMapHash": 2744766082,
      "talkAssetPath": "",
      "talkAssetPathAlter": "",
      "talkAudioName": "",
      "actionBefore": "",
      "actionWhile": "",
      "actionAfter": "",
      "optionIcon": "",
      "iconPath": ""
    },
    {
      "id": 652860705,
      "nextDialogs": [
        652860706
      ],
      "talkRole": {
        "type": "TALK_ROLE_NPC",
        "_id": "5286"
      },
      "talkContentTextMapHash": 1836724314,
      "talkAssetPath": "",
      "talkAssetPathAlter": "",
      "talkAudioName": "",
      "actionBefore": "",
      "actionWhile": "",
      "actionAfter": "",
      "optionIcon": "",
      "iconPath": ""
    },
    {
      "id": 652860706,
      "nextDialogs": [
        652860707
      ],
      "talkRole": {
        "type": "TALK_ROLE_NPC",
        "_id": "5286"
      },
      "talkContentTextMapHash": 1229088386,
      "talkAssetPath": "",
      "talkAssetPathAlter": "",
      "talkAudioName": "",
      "actionBefore": "",
      "actionWhile": "",
      "actionAfter": "",
      "optionIcon": "",
      "iconPath": ""
    },
    {
      "id": 652860707,
      "talkRole": {
        "type": "TALK_ROLE_NPC",
        "_id": "5286"
      },
      "talkContentTextMapHash": 502896650,
      "talkAssetPath": "",
      "talkAssetPathAlter": "",
      "talkAudioName": "",
      "actionBefore": "",
      "actionWhile": "",
      "actionAfter": "",
      "optionIcon": "",
      "iconPath": ""
    }
  ]
}