{
  "talkId": 6528601,
  "KPGKDHAFHFE": "FREE",
  "dialogList": [
    {
      "id": 652860101,
      "talkRole": {
        "type": "TALK_ROLE_NPC",
        "_id": "5286"
      },
      "talkContentTextMapHash": 100816362,
      "talkAssetPath": "",
      "talkAssetPathAlter": "",
      "talkAudioName": "",
      "actionBefore": "",
      "actionWhile": "SimpleTalk/LerpInNpcDailyTalk_Start",
      "actionAfter": "",
      "optionIcon": "",
      "iconPath": ""
    }
  ]
}