{
  "talkId": 6530809,
  "KPGKDHAFHFE": "FREE",
  "dialogList": [
    {
      "id": 653080901,
      "nextDialogs": [
        653080902
      ],
      "talkShowType": "TALK_SHOW_FORCE_SELECT",
      "talkRole": {
        "type": "TALK_ROLE_PLAYER",
        "_id": ""
      },
      "talkContentTextMapHash": 45279930,
      "talkAssetPath": "",
      "talkAssetPathAlter": "",
      "talkAudioName": "",
      "actionBefore": "",
      "actionWhile": "",
      "actionAfter": "",
      "optionIcon": "",
      "iconPath": ""
    },
    {
      "id": 653080902,
      "nextDialogs": [
        653080903
      ],
      "talkRole": {
        "type": "TALK_ROLE_NPC",
        "_id": "5308"
      },
      "talkContentTextMapHash": 1983126874,
      "talkAssetPath": "",
      "talkAssetPathAlter": "",
      "talkAudioName": "",
      "actionBefore": "",
      "actionWhile": "",
      "actionAfter": "",
      "optionIcon": "",
      "iconPath": ""
    },
    {
      "id": 653080903,
      "nextDialogs": [
        653080904
      ],
      "talkRole": {
        "type": "TALK_ROLE_NPC",
        "_id": "5308"
      },
      "talkContentTextMapHash": 2965685866,
      "talkAssetPath": "",
      "talkAssetPathAlter": "",
      "talkAudioName": "",
      "actionBefore": "",
      "actionWhile": "",
      "actionAfter": "",
      "optionIcon": "",
      "iconPath": ""
    },
    {
      "id": 653080904,
      "talkRole": {
        "type": "TALK_ROLE_NPC",
        "_id": "5308"
      },
      "talkContentTextMapHash": 2981301850,
      "talkAssetPath": "",
      "talkAssetPathAlter": "",
      "talkAudioName": "",
      "actionBefore": "",
      "actionWhile": "",
      "actionAfter": "",
      "optionIcon": "",
      "iconPath": ""
    }
  ]
}