{
  "talkId": 6530908,
  "KPGKDHAFHFE": "FREE",
  "dialogList": [
    {
      "id": 653090801,
      "nextDialogs": [
        653090802
      ],
      "talkShowType": "TALK_SHOW_FORCE_SELECT",
      "talkRole": {
        "type": "TALK_ROLE_PLAYER",
        "_id": ""
      },
      "talkContentTextMapHash": 918209106,
      "talkAssetPath": "",
      "talkAssetPathAlter": "",
      "talkAudioName": "",
      "actionBefore": "",
      "actionWhile": "",
      "actionAfter": "",
      "optionIcon": "",
      "iconPath": ""
    },
    {
      "id": 653090802,
      "nextDialogs": [
        653090803
      ],
      "talkRole": {
        "type": "TALK_ROLE_NPC",
        "_id": "5309"
      },
      "talkContentTextMapHash": 1120422506,
      "talkAssetPath": "",
      "talkAssetPathAlter": "",
      "talkAudioName": "",
      "actionBefore": "",
      "actionWhile": "",
      "actionAfter": "",
      "optionIcon": "",
      "iconPath": ""
    },
    {
      "id": 653090803,
      "talkRole": {
        "type": "TALK_ROLE_NPC",
        "_id": "5309"
      },
      "talkContentTextMapHash": 1479671714,
      "talkAssetPath": "",
      "talkAssetPathAlter": "",
      "talkAudioName": "",
      "actionBefore": "",
      "actionWhile": "",
      "actionAfter": "",
      "optionIcon": "",
      "iconPath": ""
    }
  ]
}