{
  "talkId": 6530501,
  "KPGKDHAFHFE": "FREE",
  "dialogList": [
    {
      "id": 653050101,
      "talkRole": {
        "type": "TALK_ROLE_NPC",
        "_id": "5305"
      },
      "talkContentTextMapHash": 3621925794,
      "talkAssetPath": "",
      "talkAssetPathAlter": "",
      "talkAudioName": "",
      "actionBefore": "",
      "actionWhile": "",
      "actionAfter": "",
      "optionIcon": "",
      "iconPath": ""
    }
  ]
}