{
  "talkId": 6531107,
  "KPGKDHAFHFE": "FREE",
  "dialogList": [
    {
      "id": 653110701,
      "nextDialogs": [
        653110702
      ],
      "talkShowType": "TALK_SHOW_FORCE_SELECT",
      "talkRole": {
        "type": "TALK_ROLE_PLAYER",
        "_id": ""
      },
      "talkContentTextMapHash": 2221801786,
      "talkAssetPath": "",
      "talkAssetPathAlter": "",
      "talkAudioName": "",
      "actionBefore": "",
      "actionWhile": "",
      "actionAfter": "",
      "optionIcon": "",
      "iconPath": ""
    },
    {
      "id": 653110702,
      "nextDialogs": [
        653110703
      ],
      "talkRole": {
        "type": "TALK_ROLE_NPC",
        "_id": "5311"
      },
      "talkContentTextMapHash": 969933514,
      "talkAssetPath": "",
      "talkAssetPathAlter": "",
      "talkAudioName": "",
      "actionBefore": "",
      "actionWhile": "",
      "actionAfter": "",
      "optionIcon": "",
      "iconPath": ""
    },
    {
      "id": 653110703,
      "nextDialogs": [
        653110704
      ],
      "talkRole": {
        "type": "TALK_ROLE_NPC",
        "_id": "5311"
      },
      "talkContentTextMapHash": 1660205698,
      "talkAssetPath": "",
      "talkAssetPathAlter": "",
      "talkAudioName": "",
      "actionBefore": "",
      "actionWhile": "",
      "actionAfter": "",
      "optionIcon": "",
      "iconPath": ""
    },
    {
      "id": 653110704,
      "nextDialogs": [
        653110705
      ],
      "talkRole": {
        "type": "TALK_ROLE_NPC",
        "_id": "5311"
      },
      "talkContentTextMapHash": 364171658,
      "talkAssetPath": "",
      "talkAssetPathAlter": "",
      "talkAudioName": "",
      "actionBefore": "",
      "actionWhile": "",
      "actionAfter": "",
      "optionIcon": "",
      "iconPath": ""
    },
    {
      "id": 653110705,
      "talkRole": {
        "type": "TALK_ROLE_NPC",
        "_id": "5311"
      },
      "talkContentTextMapHash": 263443818,
      "talkAssetPath": "",
      "talkAssetPathAlter": "",
      "talkAudioName": "",
      "actionBefore": "",
      "actionWhile": "",
      "actionAfter": "",
      "optionIcon": "",
      "iconPath": ""
    }
  ]
}