{
  "talkId": 6531604,
  "KPGKDHAFHFE": "FREE",
  "dialogList": [
    {
      "id": 653160401,
      "nextDialogs": [
        653160402
      ],
      "talkShowType": "TALK_SHOW_FORCE_SELECT",
      "talkRole": {
        "type": "TALK_ROLE_PLAYER",
        "_id": ""
      },
      "talkContentTextMapHash": 1838800394,
      "talkAssetPath": "",
      "talkAssetPathAlter": "",
      "talkAudioName": "",
      "actionBefore": "",
      "actionWhile": "",
      "actionAfter": "",
      "optionIcon": "",
      "iconPath": ""
    },
    {
      "id": 653160402,
      "talkRole": {
        "type": "TALK_ROLE_NPC",
        "_id": "5316"
      },
      "talkContentTextMapHash": 3128543426,
      "talkAssetPath": "",
      "talkAssetPathAlter": "",
      "talkAudioName": "",
      "actionBefore": "",
      "actionWhile": "",
      "actionAfter": "",
      "optionIcon": "",
      "iconPath": ""
    }
  ]
}