{
  "talkId": 6531003,
  "KPGKDHAFHFE": "FREE",
  "dialogList": [
    {
      "id": 653100301,
      "nextDialogs": [
        653100302
      ],
      "talkShowType": "TALK_SHOW_FORCE_SELECT",
      "talkRole": {
        "type": "TALK_ROLE_PLAYER",
        "_id": ""
      },
      "talkContentTextMapHash": 108573394,
      "talkAssetPath": "",
      "talkAssetPathAlter": "",
      "talkAudioName": "",
      "actionBefore": "",
      "actionWhile": "",
      "actionAfter": "",
      "optionIcon": "",
      "iconPath": ""
    },
    {
      "id": 653100302,
      "nextDialogs": [
        653100303
      ],
      "talkRole": {
        "type": "TALK_ROLE_NPC",
        "_id": "5310"
      },
      "talkContentTextMapHash": 1889431386,
      "talkAssetPath": "",
      "talkAssetPathAlter": "",
      "talkAudioName": "",
      "actionBefore": "",
      "actionWhile": "",
      "actionAfter": "",
      "optionIcon": "",
      "iconPath": ""
    },
    {
      "id": 653100303,
      "nextDialogs": [
        653100304
      ],
      "talkRole": {
        "type": "TALK_ROLE_NPC",
        "_id": "5310"
      },
      "talkContentTextMapHash": 3758290530,
      "talkAssetPath": "",
      "talkAssetPathAlter": "",
      "talkAudioName": "",
      "actionBefore": "",
      "actionWhile": "",
      "actionAfter": "",
      "optionIcon": "",
      "iconPath": ""
    },
    {
      "id": 653100304,
      "nextDialogs": [
        653100305
      ],
      "talkRole": {
        "type": "TALK_ROLE_NPC",
        "_id": "5310"
      },
      "talkContentTextMapHash": 1872307186,
      "talkAssetPath": "",
      "talkAssetPathAlter": "",
      "talkAudioName": "",
      "actionBefore": "",
      "actionWhile": "",
      "actionAfter": "",
      "optionIcon": "",
      "iconPath": ""
    },
    {
      "id": 653100305,
      "talkRole": {
        "type": "TALK_ROLE_NPC",
        "_id": "5310"
      },
      "talkContentTextMapHash": 1417752290,
      "talkAssetPath": "",
      "talkAssetPathAlter": "",
      "talkAudioName": "",
      "actionBefore": "",
      "actionWhile": "",
      "actionAfter": "",
      "optionIcon": "",
      "iconPath": ""
    }
  ]
}