{
  "talkId": 6531311,
  "KPGKDHAFHFE": "FREE",
  "dialogList": [
    {
      "id": 653131101,
      "talkRole": {
        "type": "TALK_ROLE_NPC",
        "_id": "5313"
      },
      "talkContentTextMapHash": 265127514,
      "talkAssetPath": "",
      "talkAssetPathAlter": "",
      "talkAudioName": "",
      "actionBefore": "",
      "actionWhile": "",
      "actionAfter": "",
      "optionIcon": "",
      "iconPath": ""
    }
  ]
}