{
  "talkId": 6531302,
  "KPGKDHAFHFE": "FREE",
  "dialogList": [
    {
      "id": 653130201,
      "nextDialogs": [
        653130202
      ],
      "talkShowType": "TALK_SHOW_FORCE_SELECT",
      "talkRole": {
        "type": "TALK_ROLE_PLAYER",
        "_id": ""
      },
      "talkContentTextMapHash": 1309076234,
      "talkAssetPath": "",
      "talkAssetPathAlter": "",
      "talkAudioName": "",
      "actionBefore": "",
      "actionWhile": "",
      "actionAfter": "",
      "optionIcon": "",
      "iconPath": ""
    },
    {
      "id": 653130202,
      "nextDialogs": [
        653130203
      ],
      "talkRole": {
        "type": "TALK_ROLE_NPC",
        "_id": "5313"
      },
      "talkContentTextMapHash": 3577269698,
      "talkAssetPath": "",
      "talkAssetPathAlter": "",
      "talkAudioName": "",
      "actionBefore": "",
      "actionWhile": "",
      "actionAfter": "",
      "optionIcon": "",
      "iconPath": ""
    },
    {
      "id": 653130203,
      "nextDialogs": [
        653130204
      ],
      "talkRole": {
        "type": "TALK_ROLE_NPC",
        "_id": "5313"
      },
      "talkContentTextMapHash": 3684333090,
      "talkAssetPath": "",
      "talkAssetPathAlter": "",
      "talkAudioName": "",
      "actionBefore": "",
      "actionWhile": "",
      "actionAfter": "",
      "optionIcon": "",
      "iconPath": ""
    },
    {
      "id": 653130204,
      "talkRole": {
        "type": "TALK_ROLE_NPC",
        "_id": "5313"
      },
      "talkContentTextMapHash": 3363643914,
      "talkAssetPath": "",
      "talkAssetPathAlter": "",
      "talkAudioName": "",
      "actionBefore": "",
      "actionWhile": "",
      "actionAfter": "",
      "optionIcon": "",
      "iconPath": ""
    }
  ]
}