{
  "talkId": 6531704,
  "KPGKDHAFHFE": "FREE",
  "dialogList": [
    {
      "id": 653170401,
      "nextDialogs": [
        653170402
      ],
      "talkShowType": "TALK_SHOW_FORCE_SELECT",
      "talkRole": {
        "type": "TALK_ROLE_PLAYER",
        "_id": ""
      },
      "talkContentTextMapHash": 1218109954,
      "talkAssetPath": "",
      "talkAssetPathAlter": "",
      "talkAudioName": "",
      "actionBefore": "",
      "actionWhile": "",
      "actionAfter": "",
      "optionIcon": "",
      "iconPath": ""
    },
    {
      "id": 653170402,
      "nextDialogs": [
        653170403
      ],
      "talkRole": {
        "type": "TALK_ROLE_NPC",
        "_id": "5317"
      },
      "talkContentTextMapHash": 3197302842,
      "talkAssetPath": "",
      "talkAssetPathAlter": "",
      "talkAudioName": "",
      "actionBefore": "",
      "actionWhile": "",
      "actionAfter": "",
      "optionIcon": "",
      "iconPath": ""
    },
    {
      "id": 653170403,
      "talkRole": {
        "type": "TALK_ROLE_NPC",
        "_id": "5317"
      },
      "talkContentTextMapHash": 1123309354,
      "talkAssetPath": "",
      "talkAssetPathAlter": "",
      "talkAudioName": "",
      "actionBefore": "",
      "actionWhile": "",
      "actionAfter": "",
      "optionIcon": "",
      "iconPath": ""
    }
  ]
}