{
  "talkId": 6531326,
  "KPGKDHAFHFE": "FREE",
  "dialogList": [
    {
      "id": 653132601,
      "nextDialogs": [
        653132602
      ],
      "talkShowType": "TALK_SHOW_FORCE_SELECT",
      "talkRole": {
        "type": "TALK_ROLE_PLAYER",
        "_id": ""
      },
      "talkContentTextMapHash": 2242108538,
      "talkAssetPath": "",
      "talkAssetPathAlter": "",
      "talkAudioName": "",
      "actionBefore": "",
      "actionWhile": "",
      "actionAfter": "",
      "optionIcon": "",
      "iconPath": ""
    },
    {
      "id": 653132602,
      "nextDialogs": [
        653132603
      ],
      "talkRole": {
        "type": "TALK_ROLE_NPC",
        "_id": "5313"
      },
      "talkContentTextMapHash": 3809194858,
      "talkAssetPath": "",
      "talkAssetPathAlter": "",
      "talkAudioName": "",
      "actionBefore": "",
      "actionWhile": "",
      "actionAfter": "",
      "optionIcon": "",
      "iconPath": ""
    },
    {
      "id": 653132603,
      "nextDialogs": [
        653132604
      ],
      "talkRole": {
        "type": "TALK_ROLE_NPC",
        "_id": "5313"
      },
      "talkContentTextMapHash": 3119643010,
      "talkAssetPath": "",
      "talkAssetPathAlter": "",
      "talkAudioName": "",
      "actionBefore": "",
      "actionWhile": "",
      "actionAfter": "",
      "optionIcon": "",
      "iconPath": ""
    },
    {
      "id": 653132604,
      "talkRole": {
        "type": "TALK_ROLE_NPC",
        "_id": "5313"
      },
      "talkContentTextMapHash": 2590538962,
      "talkAssetPath": "",
      "talkAssetPathAlter": "",
      "talkAudioName": "",
      "actionBefore": "",
      "actionWhile": "",
      "actionAfter": "",
      "optionIcon": "",
      "iconPath": ""
    }
  ]
}