{
  "talkId": 6531703,
  "KPGKDHAFHFE": "FREE",
  "dialogList": [
    {
      "id": 653170301,
      "nextDialogs": [
        653170302
      ],
      "talkShowType": "TALK_SHOW_FORCE_SELECT",
      "talkRole": {
        "type": "TALK_ROLE_PLAYER",
        "_id": ""
      },
      "talkContentTextMapHash": 2155421426,
      "talkAssetPath": "",
      "talkAssetPathAlter": "",
      "talkAudioName": "",
      "actionBefore": "",
      "actionWhile": "",
      "actionAfter": "",
      "optionIcon": "",
      "iconPath": ""
    },
    {
      "id": 653170302,
      "talkRole": {
        "type": "TALK_ROLE_NPC",
        "_id": "5317"
      },
      "talkContentTextMapHash": 3575508194,
      "talkAssetPath": "",
      "talkAssetPathAlter": "",
      "talkAudioName": "",
      "actionBefore": "",
      "actionWhile": "",
      "actionAfter": "",
      "optionIcon": "",
      "iconPath": ""
    }
  ]
}