{
  "talkId": 6531201,
  "KPGKDHAFHFE": "FREE",
  "dialogList": [
    {
      "id": 653120101,
      "nextDialogs": [
        653120102
      ],
      "talkRole": {
        "type": "TALK_ROLE_NPC",
        "_id": "5312"
      },
      "talkContentTextMapHash": 2354032778,
      "talkAssetPath": "",
      "talkAssetPathAlter": "",
      "talkAudioName": "",
      "actionBefore": "",
      "actionWhile": "",
      "actionAfter": "",
      "optionIcon": "",
      "iconPath": ""
    },
    {
      "id": 653120102,
      "talkRole": {
        "type": "TALK_ROLE_NPC",
        "_id": "5312"
      },
      "talkContentTextMapHash": 2906049882,
      "talkAssetPath": "",
      "talkAssetPathAlter": "",
      "talkAudioName": "",
      "actionBefore": "",
      "actionWhile": "",
      "actionAfter": "",
      "optionIcon": "",
      "iconPath": ""
    }
  ]
}