{
  "talkId": 6531401,
  "KPGKDHAFHFE": "FREE",
  "dialogList": [
    {
      "id": 653140101,
      "talkRole": {
        "type": "TALK_ROLE_NPC",
        "_id": "5314"
      },
      "talkContentTextMapHash": 2121812786,
      "talkAssetPath": "",
      "talkAssetPathAlter": "",
      "talkAudioName": "",
      "actionBefore": "",
      "actionWhile": "",
      "actionAfter": "",
      "optionIcon": "",
      "iconPath": ""
    }
  ]
}