{
  "talkId": 6531324,
  "KPGKDHAFHFE": "FREE",
  "dialogList": [
    {
      "id": 653132401,
      "nextDialogs": [
        653132402
      ],
      "talkShowType": "TALK_SHOW_FORCE_SELECT",
      "talkRole": {
        "type": "TALK_ROLE_PLAYER",
        "_id": ""
      },
      "talkContentTextMapHash": 1383346986,
      "talkAssetPath": "",
      "talkAssetPathAlter": "",
      "talkAudioName": "",
      "actionBefore": "",
      "actionWhile": "",
      "actionAfter": "",
      "optionIcon": "",
      "iconPath": ""
    },
    {
      "id": 653132402,
      "talkRole": {
        "type": "TALK_ROLE_NPC",
        "_id": "5313"
      },
      "talkContentTextMapHash": 2266250202,
      "talkAssetPath": "",
      "talkAssetPathAlter": "",
      "talkAudioName": "",
      "actionBefore": "",
      "actionWhile": "",
      "actionAfter": "",
      "optionIcon": "",
      "iconPath": ""
    }
  ]
}