{
  "talkId": 6531336,
  "KPGKDHAFHFE": "FREE",
  "dialogList": [
    {
      "id": 653133601,
      "nextDialogs": [
        653133602
      ],
      "talkShowType": "TALK_SHOW_FORCE_SELECT",
      "talkRole": {
        "type": "TALK_ROLE_PLAYER",
        "_id": ""
      },
      "talkContentTextMapHash": 2214761530,
      "talkAssetPath": "",
      "talkAssetPathAlter": "",
      "talkAudioName": "",
      "actionBefore": "",
      "actionWhile": "",
      "actionAfter": "",
      "optionIcon": "",
      "iconPath": ""
    },
    {
      "id": 653133602,
      "talkRole": {
        "type": "TALK_ROLE_NPC",
        "_id": "5313"
      },
      "talkContentTextMapHash": 1010667250,
      "talkAssetPath": "",
      "talkAssetPathAlter": "",
      "talkAudioName": "",
      "actionBefore": "",
      "actionWhile": "",
      "actionAfter": "",
      "optionIcon": "",
      "iconPath": ""
    }
  ]
}