{
  "talkId": 6533709,
  "KPGKDHAFHFE": "FREE",
  "dialogList": [
    {
      "id": 653370901,
      "nextDialogs": [
        653370902
      ],
      "talkShowType": "TALK_SHOW_FORCE_SELECT",
      "talkRole": {
        "type": "TALK_ROLE_PLAYER",
        "_id": ""
      },
      "talkContentTextMapHash": 2860704194,
      "talkAssetPath": "",
      "talkAssetPathAlter": "",
      "talkAudioName": "",
      "actionBefore": "",
      "actionWhile": "",
      "actionAfter": "",
      "optionIcon": "",
      "iconPath": ""
    },
    {
      "id": 653370902,
      "talkRole": {
        "type": "TALK_ROLE_NPC",
        "_id": "5337"
      },
      "talkContentTextMapHash": 2451446314,
      "talkAssetPath": "",
      "talkAssetPathAlter": "",
      "talkAudioName": "",
      "actionBefore": "",
      "actionWhile": "",
      "actionAfter": "",
      "optionIcon": "",
      "iconPath": ""
    }
  ]
}