{
  "talkId": 6533708,
  "KPGKDHAFHFE": "FREE",
  "dialogList": [
    {
      "id": 653370801,
      "nextDialogs": [
        653370802
      ],
      "talkShowType": "TALK_SHOW_FORCE_SELECT",
      "talkRole": {
        "type": "TALK_ROLE_PLAYER",
        "_id": ""
      },
      "talkContentTextMapHash": 204168842,
      "talkAssetPath": "",
      "talkAssetPathAlter": "",
      "talkAudioName": "",
      "actionBefore": "",
      "actionWhile": "",
      "actionAfter": "",
      "optionIcon": "",
      "iconPath": ""
    },
    {
      "id": 653370802,
      "nextDialogs": [
        653370803
      ],
      "talkRole": {
        "type": "TALK_ROLE_NPC",
        "_id": "5337"
      },
      "talkContentTextMapHash": 3479589658,
      "talkAssetPath": "",
      "talkAssetPathAlter": "",
      "talkAudioName": "",
      "actionBefore": "",
      "actionWhile": "",
      "actionAfter": "",
      "optionIcon": "",
      "iconPath": ""
    },
    {
      "id": 653370803,
      "talkRole": {
        "type": "TALK_ROLE_NPC",
        "_id": "5337"
      },
      "talkContentTextMapHash": 2931151858,
      "talkAssetPath": "",
      "talkAssetPathAlter": "",
      "talkAudioName": "",
      "actionBefore": "",
      "actionWhile": "",
      "actionAfter": "",
      "optionIcon": "",
      "iconPath": ""
    }
  ]
}