{
  "talkId": 6534601,
  "KPGKDHAFHFE": "FREE",
  "dialogList": [
    {
      "id": 653460101,
      "talkRole": {
        "type": "TALK_ROLE_NPC",
        "_id": "5346"
      },
      "talkContentTextMapHash": 438852178,
      "talkAssetPath": "",
      "talkAssetPathAlter": "",
      "talkAudioName": "",
      "actionBefore": "SimpleTalk/Think_Start",
      "actionWhile": "",
      "actionAfter": "",
      "optionIcon": "",
      "iconPath": ""
    }
  ]
}