{
  "talkId": 6534304,
  "KPGKDHAFHFE": "FREE",
  "dialogList": [
    {
      "id": 653430401,
      "nextDialogs": [
        653430402
      ],
      "talkShowType": "TALK_SHOW_FORCE_SELECT",
      "talkRole": {
        "type": "TALK_ROLE_PLAYER",
        "_id": ""
      },
      "talkContentTextMapHash": 774347138,
      "talkAssetPath": "",
      "talkAssetPathAlter": "",
      "talkAudioName": "",
      "actionBefore": "",
      "actionWhile": "",
      "actionAfter": "",
      "optionIcon": "",
      "iconPath": ""
    },
    {
      "id": 653430402,
      "nextDialogs": [
        653430403
      ],
      "talkRole": {
        "type": "TALK_ROLE_NPC",
        "_id": "5343"
      },
      "talkContentTextMapHash": 3358647306,
      "talkAssetPath": "",
      "talkAssetPathAlter": "",
      "talkAudioName": "",
      "actionBefore": "",
      "actionWhile": "",
      "actionAfter": "",
      "optionIcon": "",
      "iconPath": ""
    },
    {
      "id": 653430403,
      "nextDialogs": [
        653430404
      ],
      "talkRole": {
        "type": "TALK_ROLE_NPC",
        "_id": "5343"
      },
      "talkContentTextMapHash": 4076156090,
      "talkAssetPath": "",
      "talkAssetPathAlter": "",
      "talkAudioName": "",
      "actionBefore": "",
      "actionWhile": "",
      "actionAfter": "",
      "optionIcon": "",
      "iconPath": ""
    },
    {
      "id": 653430404,
      "talkRole": {
        "type": "TALK_ROLE_NPC",
        "_id": "5343"
      },
      "talkContentTextMapHash": 704437306,
      "talkAssetPath": "",
      "talkAssetPathAlter": "",
      "talkAudioName": "",
      "actionBefore": "",
      "actionWhile": "",
      "actionAfter": "",
      "optionIcon": "",
      "iconPath": ""
    }
  ]
}