{
  "talkId": 6534705,
  "KPGKDHAFHFE": "FREE",
  "dialogList": [
    {
      "id": 653470501,
      "nextDialogs": [
        653470502
      ],
      "talkShowType": "TALK_SHOW_FORCE_SELECT",
      "talkRole": {
        "type": "TALK_ROLE_PLAYER",
        "_id": ""
      },
      "talkContentTextMapHash": 58066898,
      "talkAssetPath": "",
      "talkAssetPathAlter": "",
      "talkAudioName": "",
      "actionBefore": "",
      "actionWhile": "",
      "actionAfter": "",
      "optionIcon": "",
      "iconPath": ""
    },
    {
      "id": 653470502,
      "talkRole": {
        "type": "TALK_ROLE_NPC",
        "_id": "5347"
      },
      "talkContentTextMapHash": 3157382954,
      "talkAssetPath": "",
      "talkAssetPathAlter": "",
      "talkAudioName": "",
      "actionBefore": "",
      "actionWhile": "SimpleTalk/NodHead",
      "actionAfter": "",
      "optionIcon": "",
      "iconPath": ""
    }
  ]
}