{
  "talkId": 6534807,
  "KPGKDHAFHFE": "FREE",
  "dialogList": [
    {
      "id": 653480701,
      "nextDialogs": [
        653480702
      ],
      "talkShowType": "TALK_SHOW_FORCE_SELECT",
      "talkRole": {
        "type": "TALK_ROLE_PLAYER",
        "_id": ""
      },
      "talkContentTextMapHash": 3539709050,
      "talkAssetPath": "",
      "talkAssetPathAlter": "",
      "talkAudioName": "",
      "actionBefore": "",
      "actionWhile": "",
      "actionAfter": "SimpleTalk/SteerOnly",
      "optionIcon": "",
      "iconPath": ""
    },
    {
      "id": 653480702,
      "talkRole": {
        "type": "TALK_ROLE_NPC",
        "_id": "5348"
      },
      "talkContentTextMapHash": 3508029298,
      "talkAssetPath": "",
      "talkAssetPathAlter": "",
      "talkAudioName": "",
      "actionBefore": "",
      "actionWhile": "SimpleTalk/NodHead",
      "actionAfter": "",
      "optionIcon": "",
      "iconPath": ""
    }
  ]
}