{
  "talkId": 6534709,
  "KPGKDHAFHFE": "FREE",
  "dialogList": [
    {
      "id": 653470901,
      "nextDialogs": [
        653470902
      ],
      "talkShowType": "TALK_SHOW_FORCE_SELECT",
      "talkRole": {
        "type": "TALK_ROLE_PLAYER",
        "_id": ""
      },
      "talkContentTextMapHash": 3166528858,
      "talkAssetPath": "",
      "talkAssetPathAlter": "",
      "talkAudioName": "",
      "actionBefore": "",
      "actionWhile": "",
      "actionAfter": "",
      "optionIcon": "",
      "iconPath": ""
    },
    {
      "id": 653470902,
      "nextDialogs": [
        653470903
      ],
      "talkRole": {
        "type": "TALK_ROLE_NPC",
        "_id": "5347"
      },
      "talkContentTextMapHash": 1051491554,
      "talkAssetPath": "",
      "talkAssetPathAlter": "",
      "talkAudioName": "",
      "actionBefore": "",
      "actionWhile": "SimpleTalk/Forerke",
      "actionAfter": "",
      "optionIcon": "",
      "iconPath": ""
    },
    {
      "id": 653470903,
      "talkRole": {
        "type": "TALK_ROLE_NPC",
        "_id": "5347"
      },
      "talkContentTextMapHash": 2278131594,
      "talkAssetPath": "",
      "talkAssetPathAlter": "",
      "talkAudioName": "",
      "actionBefore": "",
      "actionWhile": "SimpleTalk/Refuse",
      "actionAfter": "",
      "optionIcon": "",
      "iconPath": ""
    }
  ]
}