{
  "talkId": 6534506,
  "KPGKDHAFHFE": "FREE",
  "dialogList": [
    {
      "id": 653450601,
      "nextDialogs": [
        653450602
      ],
      "talkShowType": "TALK_SHOW_FORCE_SELECT",
      "talkRole": {
        "type": "TALK_ROLE_PLAYER",
        "_id": ""
      },
      "talkContentTextMapHash": 57587250,
      "talkAssetPath": "",
      "talkAssetPathAlter": "",
      "talkAudioName": "",
      "actionBefore": "",
      "actionWhile": "",
      "actionAfter": "",
      "optionIcon": "",
      "iconPath": ""
    },
    {
      "id": 653450602,
      "nextDialogs": [
        653450603
      ],
      "talkRole": {
        "type": "TALK_ROLE_NPC",
        "_id": "5345"
      },
      "talkContentTextMapHash": 1241672106,
      "talkAssetPath": "",
      "talkAssetPathAlter": "",
      "talkAudioName": "",
      "actionBefore": "",
      "actionWhile": "SimpleTalk/NpcDailyTalkRandomFS",
      "actionAfter": "",
      "optionIcon": "",
      "iconPath": ""
    },
    {
      "id": 653450603,
      "nextDialogs": [
        653450604
      ],
      "talkRole": {
        "type": "TALK_ROLE_NPC",
        "_id": "5345"
      },
      "talkContentTextMapHash": 1233800034,
      "talkAssetPath": "",
      "talkAssetPathAlter": "",
      "talkAudioName": "",
      "actionBefore": "",
      "actionWhile": "",
      "actionAfter": "",
      "optionIcon": "",
      "iconPath": ""
    },
    {
      "id": 653450604,
      "nextDialogs": [
        653450605
      ],
      "talkRole": {
        "type": "TALK_ROLE_NPC",
        "_id": "5345"
      },
      "talkContentTextMapHash": 3607620482,
      "talkAssetPath": "",
      "talkAssetPathAlter": "",
      "talkAudioName": "",
      "actionBefore": "",
      "actionWhile": "",
      "actionAfter": "",
      "optionIcon": "",
      "iconPath": ""
    },
    {
      "id": 653450605,
      "talkRole": {
        "type": "TALK_ROLE_NPC",
        "_id": "5345"
      },
      "talkContentTextMapHash": 1727917730,
      "talkAssetPath": "",
      "talkAssetPathAlter": "",
      "talkAudioName": "",
      "actionBefore": "",
      "actionWhile": "",
      "actionAfter": "",
      "optionIcon": "",
      "iconPath": ""
    }
  ]
}