{
  "talkId": 6534803,
  "KPGKDHAFHFE": "FREE",
  "dialogList": [
    {
      "id": 653480301,
      "nextDialogs": [
        653480302
      ],
      "talkShowType": "TALK_SHOW_FORCE_SELECT",
      "talkRole": {
        "type": "TALK_ROLE_PLAYER",
        "_id": ""
      },
      "talkContentTextMapHash": 2626732762,
      "talkAssetPath": "",
      "talkAssetPathAlter": "",
      "talkAudioName": "",
      "actionBefore": "",
      "actionWhile": "",
      "actionAfter": "SimpleTalk/SteerOnly",
      "optionIcon": "",
      "iconPath": ""
    },
    {
      "id": 653480302,
      "nextDialogs": [
        653480303
      ],
      "talkRole": {
        "type": "TALK_ROLE_NPC",
        "_id": "5348"
      },
      "talkContentTextMapHash": 4001649826,
      "talkAssetPath": "",
      "talkAssetPathAlter": "",
      "talkAudioName": "",
      "actionBefore": "",
      "actionWhile": "SimpleTalk/Refuse",
      "actionAfter": "",
      "optionIcon": "",
      "iconPath": ""
    },
    {
      "id": 653480303,
      "nextDialogs": [
        653480304
      ],
      "talkRole": {
        "type": "TALK_ROLE_NPC",
        "_id": "5348"
      },
      "talkContentTextMapHash": 67369162,
      "talkAssetPath": "",
      "talkAssetPathAlter": "",
      "talkAudioName": "",
      "actionBefore": "",
      "actionWhile": "SimpleTalk/RandomTalk",
      "actionAfter": "",
      "optionIcon": "",
      "iconPath": ""
    },
    {
      "id": 653480304,
      "nextDialogs": [
        653480305
      ],
      "talkRole": {
        "type": "TALK_ROLE_NPC",
        "_id": "5348"
      },
      "talkContentTextMapHash": 2383583306,
      "talkAssetPath": "",
      "talkAssetPathAlter": "",
      "talkAudioName": "",
      "actionBefore": "",
      "actionWhile": "",
      "actionAfter": "",
      "optionIcon": "",
      "iconPath": ""
    },
    {
      "id": 653480305,
      "nextDialogs": [
        653480306
      ],
      "talkRole": {
        "type": "TALK_ROLE_NPC",
        "_id": "5348"
      },
      "talkContentTextMapHash": 1998034210,
      "talkAssetPath": "",
      "talkAssetPathAlter": "",
      "talkAudioName": "",
      "actionBefore": "",
      "actionWhile": "SimpleTalk/RandomTalk",
      "actionAfter": "",
      "optionIcon": "",
      "iconPath": ""
    },
    {
      "id": 653480306,
      "talkRole": {
        "type": "TALK_ROLE_NPC",
        "_id": "5348"
      },
      "talkContentTextMapHash": 2884076218,
      "talkAssetPath": "",
      "talkAssetPathAlter": "",
      "talkAudioName": "",
      "actionBefore": "",
      "actionWhile": "SimpleTalk/RandomTalk",
      "actionAfter": "",
      "optionIcon": "",
      "iconPath": ""
    }
  ]
}