{
  "talkId": 6534902,
  "KPGKDHAFHFE": "FREE",
  "dialogList": [
    {
      "id": 653490201,
      "nextDialogs": [
        653490202
      ],
      "talkShowType": "TALK_SHOW_FORCE_SELECT",
      "talkRole": {
        "type": "TALK_ROLE_PLAYER",
        "_id": ""
      },
      "talkContentTextMapHash": 1617088794,
      "talkAssetPath": "",
      "talkAssetPathAlter": "",
      "talkAudioName": "",
      "actionBefore": "",
      "actionWhile": "",
      "actionAfter": "SimpleTalk/SteerOnly",
      "optionIcon": "",
      "iconPath": ""
    },
    {
      "id": 653490202,
      "nextDialogs": [
        653490203
      ],
      "talkRole": {
        "type": "TALK_ROLE_NPC",
        "_id": "5349"
      },
      "talkContentTextMapHash": 3459592946,
      "talkAssetPath": "",
      "talkAssetPathAlter": "",
      "talkAudioName": "",
      "actionBefore": "",
      "actionWhile": "SimpleTalk/RandomTalk",
      "actionAfter": "",
      "optionIcon": "",
      "iconPath": ""
    },
    {
      "id": 653490203,
      "talkRole": {
        "type": "TALK_ROLE_NPC",
        "_id": "5349"
      },
      "talkContentTextMapHash": 1133166978,
      "talkAssetPath": "",
      "talkAssetPathAlter": "",
      "talkAudioName": "",
      "actionBefore": "",
      "actionWhile": "SimpleTalk/StrikeChest",
      "actionAfter": "",
      "optionIcon": "",
      "iconPath": ""
    }
  ]
}