{
  "talkId": 6534306,
  "KPGKDHAFHFE": "FREE",
  "dialogList": [
    {
      "id": 653430601,
      "nextDialogs": [
        653430602
      ],
      "talkShowType": "TALK_SHOW_FORCE_SELECT",
      "talkRole": {
        "type": "TALK_ROLE_PLAYER",
        "_id": ""
      },
      "talkContentTextMapHash": 1522187466,
      "talkAssetPath": "",
      "talkAssetPathAlter": "",
      "talkAudioName": "",
      "actionBefore": "",
      "actionWhile": "",
      "actionAfter": "",
      "optionIcon": "",
      "iconPath": ""
    },
    {
      "id": 653430602,
      "nextDialogs": [
        653430603
      ],
      "talkRole": {
        "type": "TALK_ROLE_NPC",
        "_id": "5343"
      },
      "talkContentTextMapHash": 3701618138,
      "talkAssetPath": "",
      "talkAssetPathAlter": "",
      "talkAudioName": "",
      "actionBefore": "",
      "actionWhile": "",
      "actionAfter": "",
      "optionIcon": "",
      "iconPath": ""
    },
    {
      "id": 653430603,
      "talkRole": {
        "type": "TALK_ROLE_NPC",
        "_id": "5343"
      },
      "talkContentTextMapHash": 1133512762,
      "talkAssetPath": "",
      "talkAssetPathAlter": "",
      "talkAudioName": "",
      "actionBefore": "",
      "actionWhile": "",
      "actionAfter": "",
      "optionIcon": "",
      "iconPath": ""
    }
  ]
}