{
  "talkId": 6535502,
  "KPGKDHAFHFE": "FREE",
  "dialogList": [
    {
      "id": 653550201,
      "nextDialogs": [
        653550202
      ],
      "talkShowType": "TALK_SHOW_FORCE_SELECT",
      "talkRole": {
        "type": "TALK_ROLE_PLAYER",
        "_id": ""
      },
      "talkContentTextMapHash": 2624028570,
      "talkAssetPath": "",
      "talkAssetPathAlter": "",
      "talkAudioName": "",
      "actionBefore": "",
      "actionWhile": "",
      "actionAfter": "",
      "optionIcon": "",
      "iconPath": ""
    },
    {
      "id": 653550202,
      "nextDialogs": [
        653550203
      ],
      "talkRole": {
        "type": "TALK_ROLE_NPC",
        "_id": "5355"
      },
      "talkContentTextMapHash": 2956415426,
      "talkAssetPath": "",
      "talkAssetPathAlter": "",
      "talkAudioName": "",
      "actionBefore": "",
      "actionWhile": "SimpleTalk/RandomTalk",
      "actionAfter": "",
      "optionIcon": "",
      "iconPath": ""
    },
    {
      "id": 653550203,
      "nextDialogs": [
        653550204
      ],
      "talkRole": {
        "type": "TALK_ROLE_NPC",
        "_id": "5355"
      },
      "talkContentTextMapHash": 3350248258,
      "talkAssetPath": "",
      "talkAssetPathAlter": "",
      "talkAudioName": "",
      "actionBefore": "",
      "actionWhile": "SimpleTalk/StrikeChest",
      "actionAfter": "",
      "optionIcon": "",
      "iconPath": ""
    },
    {
      "id": 653550204,
      "nextDialogs": [
        653550205
      ],
      "talkRole": {
        "type": "TALK_ROLE_NPC",
        "_id": "5355"
      },
      "talkContentTextMapHash": 1144346858,
      "talkAssetPath": "",
      "talkAssetPathAlter": "",
      "talkAudioName": "",
      "actionBefore": "",
      "actionWhile": "",
      "actionAfter": "",
      "optionIcon": "",
      "iconPath": ""
    },
    {
      "id": 653550205,
      "nextDialogs": [
        653550206
      ],
      "talkRole": {
        "type": "TALK_ROLE_NPC",
        "_id": "5355"
      },
      "talkContentTextMapHash": 2962061418,
      "talkAssetPath": "",
      "talkAssetPathAlter": "",
      "talkAudioName": "",
      "actionBefore": "",
      "actionWhile": "SimpleTalk/Forerke",
      "actionAfter": "",
      "optionIcon": "",
      "iconPath": ""
    },
    {
      "id": 653550206,
      "talkRole": {
        "type": "TALK_ROLE_NPC",
        "_id": "5355"
      },
      "talkContentTextMapHash": 3991868826,
      "talkAssetPath": "",
      "talkAssetPathAlter": "",
      "talkAudioName": "",
      "actionBefore": "",
      "actionWhile": "",
      "actionAfter": "",
      "optionIcon": "",
      "iconPath": ""
    }
  ]
}