{
  "talkId": 6535101,
  "KPGKDHAFHFE": "FREE",
  "dialogList": [
    {
      "id": 653510101,
      "talkRole": {
        "type": "TALK_ROLE_NPC",
        "_id": "5351"
      },
      "talkContentTextMapHash": 2692320258,
      "talkAssetPath": "",
      "talkAssetPathAlter": "",
      "talkAudioName": "",
      "actionBefore": "",
      "actionWhile": "SimpleTalk/LerpInNpcNoSteer_Start",
      "actionAfter": "",
      "optionIcon": "",
      "iconPath": ""
    }
  ]
}