{
  "talkId": 6801306,
  "KPGKDHAFHFE": "FREE",
  "dialogList": [
    {
      "id": 680130601,
      "talkRole": {
        "type": "TALK_ROLE_NPC",
        "_id": "20440"
      },
      "talkContentTextMapHash": 2417339466,
      "talkAssetPath": "",
      "talkAssetPathAlter": "",
      "talkAudioName": "",
      "actionBefore": "",
      "actionWhile": "",
      "actionAfter": "",
      "optionIcon": "",
      "iconPath": ""
    }
  ]
}