{
  "talkId": 6900316,
  "KPGKDHAFHFE": "FREE",
  "dialogList": [
    {
      "id": 690031601,
      "nextDialogs": [
        690030701
      ],
      "talkShowType": "TALK_SHOW_FORCE_SELECT",
      "talkRole": {
        "type": "TALK_ROLE_PLAYER",
        "_id": ""
      },
      "talkContentTextMapHash": 2138891458,
      "talkAssetPath": "",
      "talkAssetPathAlter": "",
      "talkAudioName": "",
      "actionBefore": "",
      "actionWhile": "",
      "actionAfter": "",
      "optionIcon": "",
      "iconPath": ""
    },
    {
      "id": 690030701,
      "nextDialogs": [
        690030702
      ],
      "talkRole": {
        "type": "TALK_ROLE_NPC",
        "_id": "9003"
      },
      "talkContentTextMapHash": 3682066818,
      "talkAssetPath": "",
      "talkAssetPathAlter": "",
      "talkAudioName": "",
      "actionBefore": "",
      "actionWhile": "",
      "actionAfter": "",
      "optionIcon": "",
      "iconPath": ""
    },
    {
      "id": 690030702,
      "nextDialogs": [
        690030703
      ],
      "talkRole": {
        "type": "TALK_ROLE_NPC",
        "_id": "9003"
      },
      "talkContentTextMapHash": 2912815386,
      "talkAssetPath": "",
      "talkAssetPathAlter": "",
      "talkAudioName": "",
      "actionBefore": "",
      "actionWhile": "",
      "actionAfter": "",
      "optionIcon": "",
      "iconPath": ""
    },
    {
      "id": 690030703,
      "nextDialogs": [
        690030704,
        690030707
      ],
      "talkRole": {
        "type": "TALK_ROLE_NPC",
        "_id": "9003"
      },
      "talkContentTextMapHash": 2249229282,
      "talkAssetPath": "",
      "talkAssetPathAlter": "",
      "talkAudioName": "",
      "actionBefore": "",
      "actionWhile": "",
      "actionAfter": "",
      "optionIcon": "",
      "iconPath": ""
    },
    {
      "id": 690030704,
      "nextDialogs": [
        690030705
      ],
      "talkShowType": "TALK_SHOW_FORCE_SELECT",
      "talkRole": {
        "type": "TALK_ROLE_PLAYER",
        "_id": ""
      },
      "talkContentTextMapHash": 1972773010,
      "talkAssetPath": "",
      "talkAssetPathAlter": "",
      "talkAudioName": "",
      "actionBefore": "",
      "actionWhile": "",
      "actionAfter": "",
      "optionIcon": "",
      "iconPath": ""
    },
    {
      "id": 690030705,
      "nextDialogs": [
        690030706
      ],
      "talkRole": {
        "type": "TALK_ROLE_NPC",
        "_id": "9003"
      },
      "talkContentTextMapHash": 2029092642,
      "talkAssetPath": "",
      "talkAssetPathAlter": "",
      "talkAudioName": "",
      "actionBefore": "",
      "actionWhile": "",
      "actionAfter": "",
      "optionIcon": "",
      "iconPath": ""
    },
    {
      "id": 690030706,
      "nextDialogs": [
        690030708
      ],
      "talkShowType": "TALK_SHOW_FORCE_SELECT",
      "talkRole": {
        "type": "TALK_ROLE_PLAYER",
        "_id": ""
      },
      "talkContentTextMapHash": 3814115946,
      "talkAssetPath": "",
      "talkAssetPathAlter": "",
      "talkAudioName": "",
      "actionBefore": "",
      "actionWhile": "",
      "actionAfter": "",
      "optionIcon": "",
      "iconPath": ""
    },
    {
      "id": 690030708,
      "nextDialogs": [
        690030709
      ],
      "talkRole": {
        "type": "TALK_ROLE_NPC",
        "_id": "9003"
      },
      "talkContentTextMapHash": 221146514,
      "talkAssetPath": "",
      "talkAssetPathAlter": "",
      "talkAudioName": "",
      "actionBefore": "",
      "actionWhile": "",
      "actionAfter": "",
      "optionIcon": "",
      "iconPath": ""
    },
    {
      "id": 690030709,
      "talkRole": {
        "type": "TALK_ROLE_NPC",
        "_id": "9003"
      },
      "talkContentTextMapHash": 488153738,
      "talkAssetPath": "",
      "talkAssetPathAlter": "",
      "talkAudioName": "",
      "actionBefore": "",
      "actionWhile": "",
      "actionAfter": "",
      "optionIcon": "",
      "iconPath": ""
    },
    {
      "id": 690030707,
      "nextDialogs": [
        690030708
      ],
      "talkShowType": "TALK_SHOW_FORCE_SELECT",
      "talkRole": {
        "type": "TALK_ROLE_PLAYER",
        "_id": ""
      },
      "talkContentTextMapHash": 4225846882,
      "talkAssetPath": "",
      "talkAssetPathAlter": "",
      "talkAudioName": "",
      "actionBefore": "",
      "actionWhile": "",
      "actionAfter": "",
      "optionIcon": "",
      "iconPath": ""
    }
  ]
}