{
  "talkId": 6900908,
  "KPGKDHAFHFE": "FREE",
  "dialogList": [
    {
      "id": 690090801,
      "nextDialogs": [
        690090802
      ],
      "talkRole": {
        "type": "TALK_ROLE_NPC",
        "_id": "9009"
      },
      "talkContentTextMapHash": 902551458,
      "talkAssetPath": "",
      "talkAssetPathAlter": "",
      "talkAudioName": "",
      "actionBefore": "",
      "actionWhile": "",
      "actionAfter": "",
      "optionIcon": "",
      "iconPath": ""
    },
    {
      "id": 690090802,
      "nextDialogs": [
        690090803
      ],
      "talkRole": {
        "type": "TALK_ROLE_NPC",
        "_id": "9009"
      },
      "talkContentTextMapHash": 2819551754,
      "talkAssetPath": "",
      "talkAssetPathAlter": "",
      "talkAudioName": "",
      "actionBefore": "",
      "actionWhile": "",
      "actionAfter": "",
      "optionIcon": "",
      "iconPath": ""
    },
    {
      "id": 690090803,
      "talkRole": {
        "type": "TALK_ROLE_NPC",
        "_id": "9009"
      },
      "talkContentTextMapHash": 469687482,
      "talkAssetPath": "",
      "talkAssetPathAlter": "",
      "talkAudioName": "",
      "actionBefore": "",
      "actionWhile": "",
      "actionAfter": "",
      "optionIcon": "",
      "iconPath": ""
    }
  ]
}