{
  "talkId": 6900204,
  "KPGKDHAFHFE": "FREE",
  "dialogList": [
    {
      "id": 690020401,
      "nextDialogs": [
        690020402
      ],
      "talkShowType": "TALK_SHOW_FORCE_SELECT",
      "talkRole": {
        "type": "TALK_ROLE_PLAYER",
        "_id": ""
      },
      "talkContentTextMapHash": 3001798754,
      "talkAssetPath": "",
      "talkAssetPathAlter": "",
      "talkAudioName": "",
      "actionBefore": "",
      "actionWhile": "",
      "actionAfter": "",
      "optionIcon": "",
      "iconPath": ""
    },
    {
      "id": 690020402,
      "nextDialogs": [
        690020403
      ],
      "talkRole": {
        "type": "TALK_ROLE_NPC",
        "_id": "9002"
      },
      "talkContentTextMapHash": 3628272786,
      "talkAssetPath": "",
      "talkAssetPathAlter": "",
      "talkAudioName": "",
      "actionBefore": "",
      "actionWhile": "",
      "actionAfter": "",
      "optionIcon": "",
      "iconPath": ""
    },
    {
      "id": 690020403,
      "nextDialogs": [
        690020404
      ],
      "talkRole": {
        "type": "TALK_ROLE_NPC",
        "_id": "9002"
      },
      "talkContentTextMapHash": 515141746,
      "talkAssetPath": "",
      "talkAssetPathAlter": "",
      "talkAudioName": "",
      "actionBefore": "",
      "actionWhile": "",
      "actionAfter": "",
      "optionIcon": "",
      "iconPath": ""
    },
    {
      "id": 690020404,
      "nextDialogs": [
        690020405
      ],
      "talkRole": {
        "type": "TALK_ROLE_NPC",
        "_id": "9002"
      },
      "talkContentTextMapHash": 2762371314,
      "talkAssetPath": "",
      "talkAssetPathAlter": "",
      "talkAudioName": "",
      "actionBefore": "",
      "actionWhile": "",
      "actionAfter": "",
      "optionIcon": "",
      "iconPath": ""
    },
    {
      "id": 690020405,
      "nextDialogs": [
        690020406
      ],
      "talkRole": {
        "type": "TALK_ROLE_NPC",
        "_id": "9002"
      },
      "talkContentTextMapHash": 12304322,
      "talkAssetPath": "",
      "talkAssetPathAlter": "",
      "talkAudioName": "",
      "actionBefore": "",
      "actionWhile": "",
      "actionAfter": "",
      "optionIcon": "",
      "iconPath": ""
    },
    {
      "id": 690020406,
      "nextDialogs": [
        690020407
      ],
      "talkRole": {
        "type": "TALK_ROLE_NPC",
        "_id": "9002"
      },
      "talkContentTextMapHash": 3959513050,
      "talkAssetPath": "",
      "talkAssetPathAlter": "",
      "talkAudioName": "",
      "actionBefore": "",
      "actionWhile": "",
      "actionAfter": "",
      "optionIcon": "",
      "iconPath": ""
    },
    {
      "id": 690020407,
      "nextDialogs": [
        690020408,
        690020414
      ],
      "talkRole": {
        "type": "TALK_ROLE_NPC",
        "_id": "9002"
      },
      "talkContentTextMapHash": 773218722,
      "talkAssetPath": "",
      "talkAssetPathAlter": "",
      "talkAudioName": "",
      "actionBefore": "",
      "actionWhile": "",
      "actionAfter": "",
      "optionIcon": "",
      "iconPath": ""
    },
    {
      "id": 690020408,
      "nextDialogs": [
        690020409
      ],
      "talkShowType": "TALK_SHOW_FORCE_SELECT",
      "talkRole": {
        "type": "TALK_ROLE_PLAYER",
        "_id": ""
      },
      "talkContentTextMapHash": 2088282434,
      "talkAssetPath": "",
      "talkAssetPathAlter": "",
      "talkAudioName": "",
      "actionBefore": "",
      "actionWhile": "",
      "actionAfter": "",
      "optionIcon": "",
      "iconPath": ""
    },
    {
      "id": 690020409,
      "nextDialogs": [
        690020410
      ],
      "talkRole": {
        "type": "TALK_ROLE_NPC",
        "_id": "9002"
      },
      "talkContentTextMapHash": 135320138,
      "talkAssetPath": "",
      "talkAssetPathAlter": "",
      "talkAudioName": "",
      "actionBefore": "",
      "actionWhile": "",
      "actionAfter": "",
      "optionIcon": "",
      "iconPath": ""
    },
    {
      "id": 690020410,
      "nextDialogs": [
        690020411
      ],
      "talkRole": {
        "type": "TALK_ROLE_NPC",
        "_id": "9002"
      },
      "talkContentTextMapHash": 246261522,
      "talkAssetPath": "",
      "talkAssetPathAlter": "",
      "talkAudioName": "",
      "actionBefore": "",
      "actionWhile": "",
      "actionAfter": "",
      "optionIcon": "",
      "iconPath": ""
    },
    {
      "id": 690020411,
      "nextDialogs": [
        690020412
      ],
      "talkRole": {
        "type": "TALK_ROLE_NPC",
        "_id": "9002"
      },
      "talkContentTextMapHash": 3111569298,
      "talkAssetPath": "",
      "talkAssetPathAlter": "",
      "talkAudioName": "",
      "actionBefore": "",
      "actionWhile": "",
      "actionAfter": "",
      "optionIcon": "",
      "iconPath": ""
    },
    {
      "id": 690020412,
      "nextDialogs": [
        690020413
      ],
      "talkRole": {
        "type": "TALK_ROLE_NPC",
        "_id": "9002"
      },
      "talkContentTextMapHash": 3592899386,
      "talkAssetPath": "",
      "talkAssetPathAlter": "",
      "talkAudioName": "",
      "actionBefore": "",
      "actionWhile": "",
      "actionAfter": "",
      "optionIcon": "",
      "iconPath": ""
    },
    {
      "id": 690020413,
      "nextDialogs": [
        690020418
      ],
      "talkRole": {
        "type": "TALK_ROLE_NPC",
        "_id": "9002"
      },
      "talkContentTextMapHash": 2758795914,
      "talkAssetPath": "",
      "talkAssetPathAlter": "",
      "talkAudioName": "",
      "actionBefore": "",
      "actionWhile": "",
      "actionAfter": "",
      "optionIcon": "",
      "iconPath": ""
    },
    {
      "id": 690020418,
      "nextDialogs": [
        690020419
      ],
      "talkShowType": "TALK_SHOW_FORCE_SELECT",
      "talkRole": {
        "type": "TALK_ROLE_PLAYER",
        "_id": ""
      },
      "talkContentTextMapHash": 2656656314,
      "talkAssetPath": "",
      "talkAssetPathAlter": "",
      "talkAudioName": "",
      "actionBefore": "",
      "actionWhile": "",
      "actionAfter": "",
      "optionIcon": "",
      "iconPath": ""
    },
    {
      "id": 690020419,
      "nextDialogs": [
        690020420
      ],
      "talkRole": {
        "type": "TALK_ROLE_NPC",
        "_id": "9002"
      },
      "talkContentTextMapHash": 1762504922,
      "talkAssetPath": "",
      "talkAssetPathAlter": "",
      "talkAudioName": "",
      "actionBefore": "",
      "actionWhile": "",
      "actionAfter": "",
      "optionIcon": "",
      "iconPath": ""
    },
    {
      "id": 690020420,
      "talkRole": {
        "type": "TALK_ROLE_NPC",
        "_id": "9002"
      },
      "talkContentTextMapHash": 608137338,
      "talkAssetPath": "",
      "talkAssetPathAlter": "",
      "talkAudioName": "",
      "actionBefore": "",
      "actionWhile": "",
      "actionAfter": "",
      "optionIcon": "",
      "iconPath": ""
    },
    {
      "id": 690020414,
      "nextDialogs": [
        690020415
      ],
      "talkShowType": "TALK_SHOW_FORCE_SELECT",
      "talkRole": {
        "type": "TALK_ROLE_PLAYER",
        "_id": ""
      },
      "talkContentTextMapHash": 2803354946,
      "talkAssetPath": "",
      "talkAssetPathAlter": "",
      "talkAudioName": "",
      "actionBefore": "",
      "actionWhile": "",
      "actionAfter": "",
      "optionIcon": "",
      "iconPath": ""
    },
    {
      "id": 690020415,
      "nextDialogs": [
        690020416
      ],
      "talkRole": {
        "type": "TALK_ROLE_NPC",
        "_id": "9002"
      },
      "talkContentTextMapHash": 3847343538,
      "talkAssetPath": "",
      "talkAssetPathAlter": "",
      "talkAudioName": "",
      "actionBefore": "",
      "actionWhile": "",
      "actionAfter": "",
      "optionIcon": "",
      "iconPath": ""
    },
    {
      "id": 690020416,
      "nextDialogs": [
        690020417
      ],
      "talkRole": {
        "type": "TALK_ROLE_NPC",
        "_id": "9002"
      },
      "talkContentTextMapHash": 780407634,
      "talkAssetPath": "",
      "talkAssetPathAlter": "",
      "talkAudioName": "",
      "actionBefore": "",
      "actionWhile": "",
      "actionAfter": "",
      "optionIcon": "",
      "iconPath": ""
    },
    {
      "id": 690020417,
      "nextDialogs": [
        690020418
      ],
      "talkRole": {
        "type": "TALK_ROLE_NPC",
        "_id": "9002"
      },
      "talkContentTextMapHash": 1234655242,
      "talkAssetPath": "",
      "talkAssetPathAlter": "",
      "talkAudioName": "",
      "actionBefore": "",
      "actionWhile": "",
      "actionAfter": "",
      "optionIcon": "",
      "iconPath": ""
    }
  ]
}