{
  "talkId": 6900607,
  "KPGKDHAFHFE": "FREE",
  "dialogList": [
    {
      "id": 690060701,
      "nextDialogs": [
        690060702
      ],
      "talkRole": {
        "type": "TALK_ROLE_NPC",
        "_id": "9006"
      },
      "talkContentTextMapHash": 1305813378,
      "talkAssetPath": "",
      "talkAssetPathAlter": "",
      "talkAudioName": "",
      "actionBefore": "",
      "actionWhile": "",
      "actionAfter": "",
      "optionIcon": "",
      "iconPath": ""
    },
    {
      "id": 690060702,
      "nextDialogs": [
        690060703
      ],
      "talkRole": {
        "type": "TALK_ROLE_NPC",
        "_id": "9006"
      },
      "talkContentTextMapHash": 1333708274,
      "talkAssetPath": "",
      "talkAssetPathAlter": "",
      "talkAudioName": "",
      "actionBefore": "",
      "actionWhile": "",
      "actionAfter": "",
      "optionIcon": "",
      "iconPath": ""
    },
    {
      "id": 690060703,
      "nextDialogs": [
        690060704,
        690060705
      ],
      "talkRole": {
        "type": "TALK_ROLE_NPC",
        "_id": "9006"
      },
      "talkContentTextMapHash": 557114746,
      "talkAssetPath": "",
      "talkAssetPathAlter": "",
      "talkAudioName": "",
      "actionBefore": "",
      "actionWhile": "",
      "actionAfter": "",
      "optionIcon": "",
      "iconPath": ""
    },
    {
      "id": 690060704,
      "nextDialogs": [
        690060706
      ],
      "talkShowType": "TALK_SHOW_FORCE_SELECT",
      "talkRole": {
        "type": "TALK_ROLE_PLAYER",
        "_id": ""
      },
      "talkContentTextMapHash": 2004235186,
      "talkAssetPath": "",
      "talkAssetPathAlter": "",
      "talkAudioName": "",
      "actionBefore": "",
      "actionWhile": "",
      "actionAfter": "",
      "optionIcon": "",
      "iconPath": ""
    },
    {
      "id": 690060706,
      "nextDialogs": [
        690060707
      ],
      "talkRole": {
        "type": "TALK_ROLE_NPC",
        "_id": "9006"
      },
      "talkContentTextMapHash": 1071919154,
      "talkAssetPath": "",
      "talkAssetPathAlter": "",
      "talkAudioName": "",
      "actionBefore": "",
      "actionWhile": "",
      "actionAfter": "",
      "optionIcon": "",
      "iconPath": ""
    },
    {
      "id": 690060707,
      "nextDialogs": [
        690060708
      ],
      "talkRole": {
        "type": "TALK_ROLE_NPC",
        "_id": "9006"
      },
      "talkContentTextMapHash": 536161634,
      "talkAssetPath": "",
      "talkAssetPathAlter": "",
      "talkAudioName": "",
      "actionBefore": "",
      "actionWhile": "",
      "actionAfter": "",
      "optionIcon": "",
      "iconPath": ""
    },
    {
      "id": 690060708,
      "nextDialogs": [
        690060709
      ],
      "talkRole": {
        "type": "TALK_ROLE_NPC",
        "_id": "9006"
      },
      "talkContentTextMapHash": 1319362882,
      "talkAssetPath": "",
      "talkAssetPathAlter": "",
      "talkAudioName": "",
      "actionBefore": "",
      "actionWhile": "",
      "actionAfter": "",
      "optionIcon": "",
      "iconPath": ""
    },
    {
      "id": 690060709,
      "talkRole": {
        "type": "TALK_ROLE_NPC",
        "_id": "9006"
      },
      "talkContentTextMapHash": 3281785546,
      "talkAssetPath": "",
      "talkAssetPathAlter": "",
      "talkAudioName": "",
      "actionBefore": "",
      "actionWhile": "",
      "actionAfter": "",
      "optionIcon": "",
      "iconPath": ""
    },
    {
      "id": 690060705,
      "nextDialogs": [
        690060706
      ],
      "talkShowType": "TALK_SHOW_FORCE_SELECT",
      "talkRole": {
        "type": "TALK_ROLE_PLAYER",
        "_id": ""
      },
      "talkContentTextMapHash": 3110681122,
      "talkAssetPath": "",
      "talkAssetPathAlter": "",
      "talkAudioName": "",
      "actionBefore": "",
      "actionWhile": "",
      "actionAfter": "",
      "optionIcon": "",
      "iconPath": ""
    }
  ]
}