{
  "talkId": 6900350,
  "KPGKDHAFHFE": "FREE",
  "dialogList": [
    {
      "id": 690035001,
      "nextDialogs": [
        690035002
      ],
      "talkRole": {
        "type": "TALK_ROLE_NPC",
        "_id": "9003"
      },
      "talkContentTextMapHash": 2271104874,
      "talkAssetPath": "",
      "talkAssetPathAlter": "",
      "talkAudioName": "",
      "actionBefore": "",
      "actionWhile": "",
      "actionAfter": "",
      "optionIcon": "",
      "iconPath": ""
    },
    {
      "id": 690035002,
      "nextDialogs": [
        690035003
      ],
      "talkRole": {
        "type": "TALK_ROLE_NPC",
        "_id": "9003"
      },
      "talkContentTextMapHash": 4062991970,
      "talkAssetPath": "",
      "talkAssetPathAlter": "",
      "talkAudioName": "",
      "actionBefore": "",
      "actionWhile": "",
      "actionAfter": "",
      "optionIcon": "",
      "iconPath": ""
    },
    {
      "id": 690035003,
      "talkRole": {
        "type": "TALK_ROLE_NPC",
        "_id": "9003"
      },
      "talkContentTextMapHash": 3119765050,
      "talkAssetPath": "",
      "talkAssetPathAlter": "",
      "talkAudioName": "",
      "actionBefore": "",
      "actionWhile": "",
      "actionAfter": "",
      "optionIcon": "",
      "iconPath": ""
    }
  ]
}