{
  "talkId": 6900211,
  "KPGKDHAFHFE": "FREE",
  "dialogList": [
    {
      "id": 690021101,
      "nextDialogs": [
        690021102
      ],
      "talkRole": {
        "type": "TALK_ROLE_NPC",
        "_id": "9002"
      },
      "talkContentTextMapHash": 365742786,
      "talkAssetPath": "",
      "talkAssetPathAlter": "",
      "talkAudioName": "",
      "actionBefore": "",
      "actionWhile": "",
      "actionAfter": "",
      "optionIcon": "",
      "iconPath": ""
    },
    {
      "id": 690021102,
      "nextDialogs": [
        690021103
      ],
      "talkRole": {
        "type": "TALK_ROLE_NPC",
        "_id": "9002"
      },
      "talkContentTextMapHash": 1911329898,
      "talkAssetPath": "",
      "talkAssetPathAlter": "",
      "talkAudioName": "",
      "actionBefore": "",
      "actionWhile": "",
      "actionAfter": "",
      "optionIcon": "",
      "iconPath": ""
    },
    {
      "id": 690021103,
      "talkRole": {
        "type": "TALK_ROLE_NPC",
        "_id": "9002"
      },
      "talkContentTextMapHash": 3263479306,
      "talkAssetPath": "",
      "talkAssetPathAlter": "",
      "talkAudioName": "",
      "actionBefore": "",
      "actionWhile": "",
      "actionAfter": "",
      "optionIcon": "",
      "iconPath": ""
    }
  ]
}