{
  "talkId": 6900207,
  "KPGKDHAFHFE": "FREE",
  "dialogList": [
    {
      "id": 690020701,
      "nextDialogs": [
        690020202
      ],
      "talkShowType": "TALK_SHOW_FORCE_SELECT",
      "talkRole": {
        "type": "TALK_ROLE_PLAYER",
        "_id": ""
      },
      "talkContentTextMapHash": 1927277890,
      "talkAssetPath": "",
      "talkAssetPathAlter": "",
      "talkAudioName": "",
      "actionBefore": "",
      "actionWhile": "",
      "actionAfter": "",
      "optionIcon": "",
      "iconPath": ""
    },
    {
      "id": 690020202,
      "nextDialogs": [
        690020203
      ],
      "talkRole": {
        "type": "TALK_ROLE_NPC",
        "_id": "9002"
      },
      "talkContentTextMapHash": 743666618,
      "talkAssetPath": "",
      "talkAssetPathAlter": "",
      "talkAudioName": "",
      "actionBefore": "",
      "actionWhile": "",
      "actionAfter": "",
      "optionIcon": "",
      "iconPath": ""
    },
    {
      "id": 690020203,
      "nextDialogs": [
        690020204
      ],
      "talkRole": {
        "type": "TALK_ROLE_NPC",
        "_id": "9002"
      },
      "talkContentTextMapHash": 4126920538,
      "talkAssetPath": "",
      "talkAssetPathAlter": "",
      "talkAudioName": "",
      "actionBefore": "",
      "actionWhile": "",
      "actionAfter": "",
      "optionIcon": "",
      "iconPath": ""
    },
    {
      "id": 690020204,
      "nextDialogs": [
        690020205,
        690020209
      ],
      "talkRole": {
        "type": "TALK_ROLE_NPC",
        "_id": "9002"
      },
      "talkContentTextMapHash": 2213940762,
      "talkAssetPath": "",
      "talkAssetPathAlter": "",
      "talkAudioName": "",
      "actionBefore": "",
      "actionWhile": "",
      "actionAfter": "",
      "optionIcon": "",
      "iconPath": ""
    },
    {
      "id": 690020205,
      "nextDialogs": [
        690020206
      ],
      "talkShowType": "TALK_SHOW_FORCE_SELECT",
      "talkRole": {
        "type": "TALK_ROLE_PLAYER",
        "_id": ""
      },
      "talkContentTextMapHash": 496621410,
      "talkAssetPath": "",
      "talkAssetPathAlter": "",
      "talkAudioName": "",
      "actionBefore": "",
      "actionWhile": "",
      "actionAfter": "",
      "optionIcon": "",
      "iconPath": ""
    },
    {
      "id": 690020206,
      "nextDialogs": [
        690020207
      ],
      "talkRole": {
        "type": "TALK_ROLE_NPC",
        "_id": "9002"
      },
      "talkContentTextMapHash": 2067940962,
      "talkAssetPath": "",
      "talkAssetPathAlter": "",
      "talkAudioName": "",
      "actionBefore": "",
      "actionWhile": "",
      "actionAfter": "",
      "optionIcon": "",
      "iconPath": ""
    },
    {
      "id": 690020207,
      "nextDialogs": [
        690020208
      ],
      "talkRole": {
        "type": "TALK_ROLE_NPC",
        "_id": "9002"
      },
      "talkContentTextMapHash": 1103102450,
      "talkAssetPath": "",
      "talkAssetPathAlter": "",
      "talkAudioName": "",
      "actionBefore": "",
      "actionWhile": "",
      "actionAfter": "",
      "optionIcon": "",
      "iconPath": ""
    },
    {
      "id": 690020208,
      "nextDialogs": [
        690020212
      ],
      "talkRole": {
        "type": "TALK_ROLE_NPC",
        "_id": "9002"
      },
      "talkContentTextMapHash": 2885144258,
      "talkAssetPath": "",
      "talkAssetPathAlter": "",
      "talkAudioName": "",
      "actionBefore": "",
      "actionWhile": "",
      "actionAfter": "",
      "optionIcon": "",
      "iconPath": ""
    },
    {
      "id": 690020212,
      "nextDialogs": [
        690020213
      ],
      "talkShowType": "TALK_SHOW_FORCE_SELECT",
      "talkRole": {
        "type": "TALK_ROLE_PLAYER",
        "_id": ""
      },
      "talkContentTextMapHash": 2403917586,
      "talkAssetPath": "",
      "talkAssetPathAlter": "",
      "talkAudioName": "",
      "actionBefore": "",
      "actionWhile": "",
      "actionAfter": "",
      "optionIcon": "",
      "iconPath": ""
    },
    {
      "id": 690020213,
      "nextDialogs": [
        690020214
      ],
      "talkRole": {
        "type": "TALK_ROLE_NPC",
        "_id": "9002"
      },
      "talkContentTextMapHash": 3716490394,
      "talkAssetPath": "",
      "talkAssetPathAlter": "",
      "talkAudioName": "",
      "actionBefore": "",
      "actionWhile": "",
      "actionAfter": "",
      "optionIcon": "",
      "iconPath": ""
    },
    {
      "id": 690020214,
      "talkRole": {
        "type": "TALK_ROLE_NPC",
        "_id": "9002"
      },
      "talkContentTextMapHash": 3509885922,
      "talkAssetPath": "",
      "talkAssetPathAlter": "",
      "talkAudioName": "",
      "actionBefore": "",
      "actionWhile": "",
      "actionAfter": "",
      "optionIcon": "",
      "iconPath": ""
    },
    {
      "id": 690020209,
      "nextDialogs": [
        690020210
      ],
      "talkShowType": "TALK_SHOW_FORCE_SELECT",
      "talkRole": {
        "type": "TALK_ROLE_PLAYER",
        "_id": ""
      },
      "talkContentTextMapHash": 3523235218,
      "talkAssetPath": "",
      "talkAssetPathAlter": "",
      "talkAudioName": "",
      "actionBefore": "",
      "actionWhile": "",
      "actionAfter": "",
      "optionIcon": "",
      "iconPath": ""
    },
    {
      "id": 690020210,
      "nextDialogs": [
        690020211
      ],
      "talkRole": {
        "type": "TALK_ROLE_NPC",
        "_id": "9002"
      },
      "talkContentTextMapHash": 3096593698,
      "talkAssetPath": "",
      "talkAssetPathAlter": "",
      "talkAudioName": "",
      "actionBefore": "",
      "actionWhile": "",
      "actionAfter": "",
      "optionIcon": "",
      "iconPath": ""
    },
    {
      "id": 690020211,
      "nextDialogs": [
        690020212
      ],
      "talkRole": {
        "type": "TALK_ROLE_NPC",
        "_id": "9002"
      },
      "talkContentTextMapHash": 257631994,
      "talkAssetPath": "",
      "talkAssetPathAlter": "",
      "talkAudioName": "",
      "actionBefore": "",
      "actionWhile": "",
      "actionAfter": "",
      "optionIcon": "",
      "iconPath": ""
    }
  ]
}