{
  "talkId": 6901608,
  "KPGKDHAFHFE": "FREE",
  "dialogList": [
    {
      "id": 690160801,
      "nextDialogs": [
        690160802,
        690160805,
        690160809
      ],
      "talkRole": {
        "type": "TALK_ROLE_NPC",
        "_id": "9016"
      },
      "talkContentTextMapHash": 525003818,
      "talkAssetPath": "",
      "talkAssetPathAlter": "",
      "talkAudioName": "",
      "actionBefore": "",
      "actionWhile": "",
      "actionAfter": "",
      "optionIcon": "",
      "iconPath": ""
    },
    {
      "id": 690160802,
      "nextDialogs": [
        690160803
      ],
      "talkShowType": "TALK_SHOW_FORCE_SELECT",
      "talkRole": {
        "type": "TALK_ROLE_PLAYER",
        "_id": ""
      },
      "talkContentTextMapHash": 2429106994,
      "talkAssetPath": "",
      "talkAssetPathAlter": "",
      "talkAudioName": "",
      "actionBefore": "",
      "actionWhile": "",
      "actionAfter": "",
      "optionIcon": "",
      "iconPath": ""
    },
    {
      "id": 690160803,
      "nextDialogs": [
        690160804
      ],
      "talkRole": {
        "type": "TALK_ROLE_NPC",
        "_id": "9016"
      },
      "talkContentTextMapHash": 2560769858,
      "talkAssetPath": "",
      "talkAssetPathAlter": "",
      "talkAudioName": "",
      "actionBefore": "",
      "actionWhile": "",
      "actionAfter": "",
      "optionIcon": "",
      "iconPath": ""
    },
    {
      "id": 690160804,
      "nextDialogs": [
        690160810
      ],
      "talkRole": {
        "type": "TALK_ROLE_NPC",
        "_id": "9016"
      },
      "talkContentTextMapHash": 1364405458,
      "talkAssetPath": "",
      "talkAssetPathAlter": "",
      "talkAudioName": "",
      "actionBefore": "",
      "actionWhile": "",
      "actionAfter": "",
      "optionIcon": "",
      "iconPath": ""
    },
    {
      "id": 690160810,
      "nextDialogs": [
        690160811
      ],
      "talkRole": {
        "type": "TALK_ROLE_NPC",
        "_id": "9016"
      },
      "talkContentTextMapHash": 4088117794,
      "talkAssetPath": "",
      "talkAssetPathAlter": "",
      "talkAudioName": "",
      "actionBefore": "",
      "actionWhile": "",
      "actionAfter": "",
      "optionIcon": "",
      "iconPath": ""
    },
    {
      "id": 690160811,
      "nextDialogs": [
        690160812
      ],
      "talkRole": {
        "type": "TALK_ROLE_NPC",
        "_id": "9016"
      },
      "talkContentTextMapHash": 129249554,
      "talkAssetPath": "",
      "talkAssetPathAlter": "",
      "talkAudioName": "",
      "actionBefore": "",
      "actionWhile": "",
      "actionAfter": "",
      "optionIcon": "",
      "iconPath": ""
    },
    {
      "id": 690160812,
      "nextDialogs": [
        690160813
      ],
      "talkRole": {
        "type": "TALK_ROLE_NPC",
        "_id": "9016"
      },
      "talkContentTextMapHash": 2238415826,
      "talkAssetPath": "",
      "talkAssetPathAlter": "",
      "talkAudioName": "",
      "actionBefore": "",
      "actionWhile": "",
      "actionAfter": "",
      "optionIcon": "",
      "iconPath": ""
    },
    {
      "id": 690160813,
      "nextDialogs": [
        690160814
      ],
      "talkRole": {
        "type": "TALK_ROLE_NPC",
        "_id": "9016"
      },
      "talkContentTextMapHash": 1916290850,
      "talkAssetPath": "",
      "talkAssetPathAlter": "",
      "talkAudioName": "",
      "actionBefore": "",
      "actionWhile": "",
      "actionAfter": "",
      "optionIcon": "",
      "iconPath": ""
    },
    {
      "id": 690160814,
      "nextDialogs": [
        690160815,
        690160818
      ],
      "talkRole": {
        "type": "TALK_ROLE_NPC",
        "_id": "9016"
      },
      "talkContentTextMapHash": 2883872442,
      "talkAssetPath": "",
      "talkAssetPathAlter": "",
      "talkAudioName": "",
      "actionBefore": "",
      "actionWhile": "",
      "actionAfter": "",
      "optionIcon": "",
      "iconPath": ""
    },
    {
      "id": 690160815,
      "nextDialogs": [
        690160816
      ],
      "talkShowType": "TALK_SHOW_FORCE_SELECT",
      "talkRole": {
        "type": "TALK_ROLE_PLAYER",
        "_id": ""
      },
      "talkContentTextMapHash": 4035702682,
      "talkAssetPath": "",
      "talkAssetPathAlter": "",
      "talkAudioName": "",
      "actionBefore": "",
      "actionWhile": "",
      "actionAfter": "",
      "optionIcon": "",
      "iconPath": ""
    },
    {
      "id": 690160816,
      "nextDialogs": [
        690160817
      ],
      "talkRole": {
        "type": "TALK_ROLE_NPC",
        "_id": "9016"
      },
      "talkContentTextMapHash": 1909705778,
      "talkAssetPath": "",
      "talkAssetPathAlter": "",
      "talkAudioName": "",
      "actionBefore": "",
      "actionWhile": "",
      "actionAfter": "",
      "optionIcon": "",
      "iconPath": ""
    },
    {
      "id": 690160817,
      "nextDialogs": [
        690160821
      ],
      "talkRole": {
        "type": "TALK_ROLE_NPC",
        "_id": "9016"
      },
      "talkContentTextMapHash": 4010925426,
      "talkAssetPath": "",
      "talkAssetPathAlter": "",
      "talkAudioName": "",
      "actionBefore": "",
      "actionWhile": "",
      "actionAfter": "",
      "optionIcon": "",
      "iconPath": ""
    },
    {
      "id": 690160821,
      "talkRole": {
        "type": "TALK_ROLE_NPC",
        "_id": "9016"
      },
      "talkContentTextMapHash": 1708982282,
      "talkAssetPath": "",
      "talkAssetPathAlter": "",
      "talkAudioName": "",
      "actionBefore": "",
      "actionWhile": "",
      "actionAfter": "",
      "optionIcon": "",
      "iconPath": ""
    },
    {
      "id": 690160818,
      "nextDialogs": [
        690160819
      ],
      "talkShowType": "TALK_SHOW_FORCE_SELECT",
      "talkRole": {
        "type": "TALK_ROLE_PLAYER",
        "_id": ""
      },
      "talkContentTextMapHash": 1221867474,
      "talkAssetPath": "",
      "talkAssetPathAlter": "",
      "talkAudioName": "",
      "actionBefore": "",
      "actionWhile": "",
      "actionAfter": "",
      "optionIcon": "",
      "iconPath": ""
    },
    {
      "id": 690160819,
      "nextDialogs": [
        690160820
      ],
      "talkRole": {
        "type": "TALK_ROLE_NPC",
        "_id": "9016"
      },
      "talkContentTextMapHash": 2744985770,
      "talkAssetPath": "",
      "talkAssetPathAlter": "",
      "talkAudioName": "",
      "actionBefore": "",
      "actionWhile": "",
      "actionAfter": "",
      "optionIcon": "",
      "iconPath": ""
    },
    {
      "id": 690160820,
      "nextDialogs": [
        690160821
      ],
      "talkRole": {
        "type": "TALK_ROLE_NPC",
        "_id": "9016"
      },
      "talkContentTextMapHash": 3282513962,
      "talkAssetPath": "",
      "talkAssetPathAlter": "",
      "talkAudioName": "",
      "actionBefore": "",
      "actionWhile": "",
      "actionAfter": "",
      "optionIcon": "",
      "iconPath": ""
    },
    {
      "id": 690160805,
      "nextDialogs": [
        690160806
      ],
      "talkShowType": "TALK_SHOW_FORCE_SELECT",
      "talkRole": {
        "type": "TALK_ROLE_PLAYER",
        "_id": ""
      },
      "talkContentTextMapHash": 3359043218,
      "talkAssetPath": "",
      "talkAssetPathAlter": "",
      "talkAudioName": "",
      "actionBefore": "",
      "actionWhile": "",
      "actionAfter": "",
      "optionIcon": "",
      "iconPath": ""
    },
    {
      "id": 690160806,
      "nextDialogs": [
        690160807
      ],
      "talkRole": {
        "type": "TALK_ROLE_NPC",
        "_id": "9016"
      },
      "talkContentTextMapHash": 3340618130,
      "talkAssetPath": "",
      "talkAssetPathAlter": "",
      "talkAudioName": "",
      "actionBefore": "",
      "actionWhile": "",
      "actionAfter": "",
      "optionIcon": "",
      "iconPath": ""
    },
    {
      "id": 690160807,
      "nextDialogs": [
        690160808
      ],
      "talkRole": {
        "type": "TALK_ROLE_NPC",
        "_id": "9016"
      },
      "talkContentTextMapHash": 1017158722,
      "talkAssetPath": "",
      "talkAssetPathAlter": "",
      "talkAudioName": "",
      "actionBefore": "",
      "actionWhile": "",
      "actionAfter": "",
      "optionIcon": "",
      "iconPath": ""
    },
    {
      "id": 690160808,
      "nextDialogs": [
        690160810
      ],
      "talkRole": {
        "type": "TALK_ROLE_NPC",
        "_id": "9016"
      },
      "talkContentTextMapHash": 2690522746,
      "talkAssetPath": "",
      "talkAssetPathAlter": "",
      "talkAudioName": "",
      "actionBefore": "",
      "actionWhile": "",
      "actionAfter": "",
      "optionIcon": "",
      "iconPath": ""
    },
    {
      "id": 690160809,
      "nextDialogs": [
        690160810
      ],
      "talkShowType": "TALK_SHOW_FORCE_SELECT",
      "talkRole": {
        "type": "TALK_ROLE_PLAYER",
        "_id": ""
      },
      "talkContentTextMapHash": 2309200578,
      "talkAssetPath": "",
      "talkAssetPathAlter": "",
      "talkAudioName": "",
      "actionBefore": "",
      "actionWhile": "",
      "actionAfter": "",
      "optionIcon": "",
      "iconPath": ""
    }
  ]
}