{
  "talkId": 6901613,
  "KPGKDHAFHFE": "FREE",
  "dialogList": [
    {
      "id": 690161301,
      "nextDialogs": [
        690160901
      ],
      "talkShowType": "TALK_SHOW_FORCE_SELECT",
      "talkRole": {
        "type": "TALK_ROLE_PLAYER",
        "_id": ""
      },
      "talkContentTextMapHash": 2397808450,
      "talkAssetPath": "",
      "talkAssetPathAlter": "",
      "talkAudioName": "",
      "actionBefore": "",
      "actionWhile": "",
      "actionAfter": "",
      "optionIcon": "",
      "iconPath": ""
    },
    {
      "id": 690160901,
      "nextDialogs": [
        690160902
      ],
      "talkRole": {
        "type": "TALK_ROLE_NPC",
        "_id": "9016"
      },
      "talkContentTextMapHash": 775584394,
      "talkAssetPath": "",
      "talkAssetPathAlter": "",
      "talkAudioName": "",
      "actionBefore": "",
      "actionWhile": "",
      "actionAfter": "",
      "optionIcon": "",
      "iconPath": ""
    },
    {
      "id": 690160902,
      "nextDialogs": [
        690160903,
        690160904
      ],
      "talkRole": {
        "type": "TALK_ROLE_NPC",
        "_id": "9016"
      },
      "talkContentTextMapHash": 74601618,
      "talkAssetPath": "",
      "talkAssetPathAlter": "",
      "talkAudioName": "",
      "actionBefore": "",
      "actionWhile": "",
      "actionAfter": "",
      "optionIcon": "",
      "iconPath": ""
    },
    {
      "id": 690160903,
      "nextDialogs": [
        690160905
      ],
      "talkShowType": "TALK_SHOW_FORCE_SELECT",
      "talkRole": {
        "type": "TALK_ROLE_PLAYER",
        "_id": ""
      },
      "talkContentTextMapHash": 63264490,
      "talkAssetPath": "",
      "talkAssetPathAlter": "",
      "talkAudioName": "",
      "actionBefore": "",
      "actionWhile": "",
      "actionAfter": "",
      "optionIcon": "",
      "iconPath": ""
    },
    {
      "id": 690160905,
      "nextDialogs": [
        690160906
      ],
      "talkRole": {
        "type": "TALK_ROLE_NPC",
        "_id": "9016"
      },
      "talkContentTextMapHash": 2482033106,
      "talkAssetPath": "",
      "talkAssetPathAlter": "",
      "talkAudioName": "",
      "actionBefore": "",
      "actionWhile": "",
      "actionAfter": "",
      "optionIcon": "",
      "iconPath": ""
    },
    {
      "id": 690160906,
      "nextDialogs": [
        690160907
      ],
      "talkRole": {
        "type": "TALK_ROLE_NPC",
        "_id": "9016"
      },
      "talkContentTextMapHash": 1154336986,
      "talkAssetPath": "",
      "talkAssetPathAlter": "",
      "talkAudioName": "",
      "actionBefore": "",
      "actionWhile": "",
      "actionAfter": "",
      "optionIcon": "",
      "iconPath": ""
    },
    {
      "id": 690160907,
      "nextDialogs": [
        690160908
      ],
      "talkRole": {
        "type": "TALK_ROLE_NPC",
        "_id": "9016"
      },
      "talkContentTextMapHash": 3348922610,
      "talkAssetPath": "",
      "talkAssetPathAlter": "",
      "talkAudioName": "",
      "actionBefore": "",
      "actionWhile": "",
      "actionAfter": "",
      "optionIcon": "",
      "iconPath": ""
    },
    {
      "id": 690160908,
      "nextDialogs": [
        690160909
      ],
      "talkRole": {
        "type": "TALK_ROLE_NPC",
        "_id": "9016"
      },
      "talkContentTextMapHash": 72091338,
      "talkAssetPath": "",
      "talkAssetPathAlter": "",
      "talkAudioName": "",
      "actionBefore": "",
      "actionWhile": "",
      "actionAfter": "",
      "optionIcon": "",
      "iconPath": ""
    },
    {
      "id": 690160909,
      "nextDialogs": [
        690160910
      ],
      "talkShowType": "TALK_SHOW_FORCE_SELECT",
      "talkRole": {
        "type": "TALK_ROLE_PLAYER",
        "_id": ""
      },
      "talkContentTextMapHash": 1467380754,
      "talkAssetPath": "",
      "talkAssetPathAlter": "",
      "talkAudioName": "",
      "actionBefore": "",
      "actionWhile": "",
      "actionAfter": "",
      "optionIcon": "",
      "iconPath": ""
    },
    {
      "id": 690160910,
      "nextDialogs": [
        690160911
      ],
      "talkRole": {
        "type": "TALK_ROLE_NPC",
        "_id": "9016"
      },
      "talkContentTextMapHash": 1287550810,
      "talkAssetPath": "",
      "talkAssetPathAlter": "",
      "talkAudioName": "",
      "actionBefore": "",
      "actionWhile": "",
      "actionAfter": "",
      "optionIcon": "",
      "iconPath": ""
    },
    {
      "id": 690160911,
      "nextDialogs": [
        690160912,
        690160913
      ],
      "talkRole": {
        "type": "TALK_ROLE_NPC",
        "_id": "9016"
      },
      "talkContentTextMapHash": 3486649490,
      "talkAssetPath": "",
      "talkAssetPathAlter": "",
      "talkAudioName": "",
      "actionBefore": "",
      "actionWhile": "",
      "actionAfter": "",
      "optionIcon": "",
      "iconPath": ""
    },
    {
      "id": 690160912,
      "nextDialogs": [
        690160914
      ],
      "talkShowType": "TALK_SHOW_FORCE_SELECT",
      "talkRole": {
        "type": "TALK_ROLE_PLAYER",
        "_id": ""
      },
      "talkContentTextMapHash": 862632938,
      "talkAssetPath": "",
      "talkAssetPathAlter": "",
      "talkAudioName": "",
      "actionBefore": "",
      "actionWhile": "",
      "actionAfter": "",
      "optionIcon": "",
      "iconPath": ""
    },
    {
      "id": 690160914,
      "nextDialogs": [
        690160915
      ],
      "talkRole": {
        "type": "TALK_ROLE_NPC",
        "_id": "9016"
      },
      "talkContentTextMapHash": 2609100186,
      "talkAssetPath": "",
      "talkAssetPathAlter": "",
      "talkAudioName": "",
      "actionBefore": "",
      "actionWhile": "",
      "actionAfter": "",
      "optionIcon": "",
      "iconPath": ""
    },
    {
      "id": 690160915,
      "nextDialogs": [
        690160916
      ],
      "talkRole": {
        "type": "TALK_ROLE_NPC",
        "_id": "9016"
      },
      "talkContentTextMapHash": 3272606770,
      "talkAssetPath": "",
      "talkAssetPathAlter": "",
      "talkAudioName": "",
      "actionBefore": "",
      "actionWhile": "",
      "actionAfter": "",
      "optionIcon": "",
      "iconPath": ""
    },
    {
      "id": 690160916,
      "talkRole": {
        "type": "TALK_ROLE_NPC",
        "_id": "9016"
      },
      "talkContentTextMapHash": 2266770386,
      "talkAssetPath": "",
      "talkAssetPathAlter": "",
      "talkAudioName": "",
      "actionBefore": "",
      "actionWhile": "",
      "actionAfter": "",
      "optionIcon": "",
      "iconPath": ""
    },
    {
      "id": 690160913,
      "nextDialogs": [
        690160914
      ],
      "talkShowType": "TALK_SHOW_FORCE_SELECT",
      "talkRole": {
        "type": "TALK_ROLE_PLAYER",
        "_id": ""
      },
      "talkContentTextMapHash": 3124194754,
      "talkAssetPath": "",
      "talkAssetPathAlter": "",
      "talkAudioName": "",
      "actionBefore": "",
      "actionWhile": "",
      "actionAfter": "",
      "optionIcon": "",
      "iconPath": ""
    },
    {
      "id": 690160904,
      "nextDialogs": [
        690160905
      ],
      "talkShowType": "TALK_SHOW_FORCE_SELECT",
      "talkRole": {
        "type": "TALK_ROLE_PLAYER",
        "_id": ""
      },
      "talkContentTextMapHash": 1019857138,
      "talkAssetPath": "",
      "talkAssetPathAlter": "",
      "talkAudioName": "",
      "actionBefore": "",
      "actionWhile": "",
      "actionAfter": "",
      "optionIcon": "",
      "iconPath": ""
    }
  ]
}