{
  "talkId": 6901551,
  "KPGKDHAFHFE": "FREE",
  "dialogList": [
    {
      "id": 690155101,
      "nextDialogs": [
        690155102
      ],
      "talkRole": {
        "type": "TALK_ROLE_NPC",
        "_id": "9015"
      },
      "talkContentTextMapHash": 3543458578,
      "talkAssetPath": "",
      "talkAssetPathAlter": "",
      "talkAudioName": "",
      "actionBefore": "",
      "actionWhile": "",
      "actionAfter": "",
      "optionIcon": "",
      "iconPath": ""
    },
    {
      "id": 690155102,
      "nextDialogs": [
        690155103
      ],
      "talkRole": {
        "type": "TALK_ROLE_NPC",
        "_id": "9015"
      },
      "talkContentTextMapHash": 62944266,
      "talkAssetPath": "",
      "talkAssetPathAlter": "",
      "talkAudioName": "",
      "actionBefore": "",
      "actionWhile": "",
      "actionAfter": "",
      "optionIcon": "",
      "iconPath": ""
    },
    {
      "id": 690155103,
      "talkRole": {
        "type": "TALK_ROLE_NPC",
        "_id": "9015"
      },
      "talkContentTextMapHash": 2654067026,
      "talkAssetPath": "",
      "talkAssetPathAlter": "",
      "talkAudioName": "",
      "actionBefore": "",
      "actionWhile": "",
      "actionAfter": "",
      "optionIcon": "",
      "iconPath": ""
    }
  ]
}