{
  "talkId": 6901410,
  "KPGKDHAFHFE": "FREE",
  "dialogList": [
    {
      "id": 690141001,
      "nextDialogs": [
        690141002
      ],
      "talkRole": {
        "type": "TALK_ROLE_NPC",
        "_id": "9014"
      },
      "talkContentTextMapHash": 3134789730,
      "talkAssetPath": "",
      "talkAssetPathAlter": "",
      "talkAudioName": "",
      "actionBefore": "",
      "actionWhile": "",
      "actionAfter": "",
      "optionIcon": "",
      "iconPath": ""
    },
    {
      "id": 690141002,
      "talkRole": {
        "type": "TALK_ROLE_NPC",
        "_id": "9014"
      },
      "talkContentTextMapHash": 2393492658,
      "talkAssetPath": "",
      "talkAssetPathAlter": "",
      "talkAudioName": "",
      "actionBefore": "",
      "actionWhile": "",
      "actionAfter": "",
      "optionIcon": "",
      "iconPath": ""
    }
  ]
}