{
  "talkId": 6901404,
  "KPGKDHAFHFE": "FREE",
  "dialogList": [
    {
      "id": 690140401,
      "nextDialogs": [
        690140901
      ],
      "talkShowType": "TALK_SHOW_FORCE_SELECT",
      "talkRole": {
        "type": "TALK_ROLE_PLAYER",
        "_id": ""
      },
      "talkContentTextMapHash": 3396496914,
      "talkAssetPath": "",
      "talkAssetPathAlter": "",
      "talkAudioName": "",
      "actionBefore": "",
      "actionWhile": "",
      "actionAfter": "",
      "optionIcon": "",
      "iconPath": ""
    },
    {
      "id": 690140901,
      "nextDialogs": [
        690140902
      ],
      "talkRole": {
        "type": "TALK_ROLE_NPC",
        "_id": "9014"
      },
      "talkContentTextMapHash": 1886501050,
      "talkAssetPath": "",
      "talkAssetPathAlter": "",
      "talkAudioName": "",
      "actionBefore": "",
      "actionWhile": "",
      "actionAfter": "",
      "optionIcon": "",
      "iconPath": ""
    },
    {
      "id": 690140902,
      "nextDialogs": [
        690140903
      ],
      "talkRole": {
        "type": "TALK_ROLE_NPC",
        "_id": "9014"
      },
      "talkContentTextMapHash": 1962096242,
      "talkAssetPath": "",
      "talkAssetPathAlter": "",
      "talkAudioName": "",
      "actionBefore": "",
      "actionWhile": "",
      "actionAfter": "",
      "optionIcon": "",
      "iconPath": ""
    },
    {
      "id": 690140903,
      "nextDialogs": [
        690140904
      ],
      "talkRole": {
        "type": "TALK_ROLE_NPC",
        "_id": "9014"
      },
      "talkContentTextMapHash": 984003026,
      "talkAssetPath": "",
      "talkAssetPathAlter": "",
      "talkAudioName": "",
      "actionBefore": "",
      "actionWhile": "",
      "actionAfter": "",
      "optionIcon": "",
      "iconPath": ""
    },
    {
      "id": 690140904,
      "nextDialogs": [
        690140905,
        690140906
      ],
      "talkRole": {
        "type": "TALK_ROLE_NPC",
        "_id": "9014"
      },
      "talkContentTextMapHash": 4052433354,
      "talkAssetPath": "",
      "talkAssetPathAlter": "",
      "talkAudioName": "",
      "actionBefore": "",
      "actionWhile": "",
      "actionAfter": "",
      "optionIcon": "",
      "iconPath": ""
    },
    {
      "id": 690140905,
      "nextDialogs": [
        690140907
      ],
      "talkShowType": "TALK_SHOW_FORCE_SELECT",
      "talkRole": {
        "type": "TALK_ROLE_PLAYER",
        "_id": ""
      },
      "talkContentTextMapHash": 2170531682,
      "talkAssetPath": "",
      "talkAssetPathAlter": "",
      "talkAudioName": "",
      "actionBefore": "",
      "actionWhile": "",
      "actionAfter": "",
      "optionIcon": "",
      "iconPath": ""
    },
    {
      "id": 690140907,
      "nextDialogs": [
        690140908
      ],
      "talkRole": {
        "type": "TALK_ROLE_NPC",
        "_id": "9014"
      },
      "talkContentTextMapHash": 3443404698,
      "talkAssetPath": "",
      "talkAssetPathAlter": "",
      "talkAudioName": "",
      "actionBefore": "",
      "actionWhile": "",
      "actionAfter": "",
      "optionIcon": "",
      "iconPath": ""
    },
    {
      "id": 690140908,
      "nextDialogs": [
        690140909
      ],
      "talkRole": {
        "type": "TALK_ROLE_NPC",
        "_id": "9014"
      },
      "talkContentTextMapHash": 3541082314,
      "talkAssetPath": "",
      "talkAssetPathAlter": "",
      "talkAudioName": "",
      "actionBefore": "",
      "actionWhile": "",
      "actionAfter": "",
      "optionIcon": "",
      "iconPath": ""
    },
    {
      "id": 690140909,
      "nextDialogs": [
        690140910
      ],
      "talkRole": {
        "type": "TALK_ROLE_NPC",
        "_id": "9014"
      },
      "talkContentTextMapHash": 473935010,
      "talkAssetPath": "",
      "talkAssetPathAlter": "",
      "talkAudioName": "",
      "actionBefore": "",
      "actionWhile": "",
      "actionAfter": "",
      "optionIcon": "",
      "iconPath": ""
    },
    {
      "id": 690140910,
      "nextDialogs": [
        690140911,
        690140912
      ],
      "talkRole": {
        "type": "TALK_ROLE_NPC",
        "_id": "9014"
      },
      "talkContentTextMapHash": 156970330,
      "talkAssetPath": "",
      "talkAssetPathAlter": "",
      "talkAudioName": "",
      "actionBefore": "",
      "actionWhile": "",
      "actionAfter": "",
      "optionIcon": "",
      "iconPath": ""
    },
    {
      "id": 690140911,
      "nextDialogs": [
        690140913
      ],
      "talkShowType": "TALK_SHOW_FORCE_SELECT",
      "talkRole": {
        "type": "TALK_ROLE_PLAYER",
        "_id": ""
      },
      "talkContentTextMapHash": 1999392634,
      "talkAssetPath": "",
      "talkAssetPathAlter": "",
      "talkAudioName": "",
      "actionBefore": "",
      "actionWhile": "",
      "actionAfter": "",
      "optionIcon": "",
      "iconPath": ""
    },
    {
      "id": 690140913,
      "nextDialogs": [
        690140914
      ],
      "talkRole": {
        "type": "TALK_ROLE_NPC",
        "_id": "9014"
      },
      "talkContentTextMapHash": 4215309010,
      "talkAssetPath": "",
      "talkAssetPathAlter": "",
      "talkAudioName": "",
      "actionBefore": "",
      "actionWhile": "",
      "actionAfter": "",
      "optionIcon": "",
      "iconPath": ""
    },
    {
      "id": 690140914,
      "nextDialogs": [
        690140915
      ],
      "talkRole": {
        "type": "TALK_ROLE_NPC",
        "_id": "9014"
      },
      "talkContentTextMapHash": 3437991570,
      "talkAssetPath": "",
      "talkAssetPathAlter": "",
      "talkAudioName": "",
      "actionBefore": "",
      "actionWhile": "",
      "actionAfter": "",
      "optionIcon": "",
      "iconPath": ""
    },
    {
      "id": 690140915,
      "talkRole": {
        "type": "TALK_ROLE_NPC",
        "_id": "9014"
      },
      "talkContentTextMapHash": 89541890,
      "talkAssetPath": "",
      "talkAssetPathAlter": "",
      "talkAudioName": "",
      "actionBefore": "",
      "actionWhile": "",
      "actionAfter": "",
      "optionIcon": "",
      "iconPath": ""
    },
    {
      "id": 690140912,
      "nextDialogs": [
        690140913
      ],
      "talkShowType": "TALK_SHOW_FORCE_SELECT",
      "talkRole": {
        "type": "TALK_ROLE_PLAYER",
        "_id": ""
      },
      "talkContentTextMapHash": 83459546,
      "talkAssetPath": "",
      "talkAssetPathAlter": "",
      "talkAudioName": "",
      "actionBefore": "",
      "actionWhile": "",
      "actionAfter": "",
      "optionIcon": "",
      "iconPath": ""
    },
    {
      "id": 690140906,
      "nextDialogs": [
        690140907
      ],
      "talkShowType": "TALK_SHOW_FORCE_SELECT",
      "talkRole": {
        "type": "TALK_ROLE_PLAYER",
        "_id": ""
      },
      "talkContentTextMapHash": 1385379274,
      "talkAssetPath": "",
      "talkAssetPathAlter": "",
      "talkAudioName": "",
      "actionBefore": "",
      "actionWhile": "",
      "actionAfter": "",
      "optionIcon": "",
      "iconPath": ""
    }
  ]
}