{
  "talkId": 6902405,
  "KPGKDHAFHFE": "FREE",
  "dialogList": [
    {
      "id": 690240501,
      "nextDialogs": [
        690240502
      ],
      "talkShowType": "TALK_SHOW_FORCE_SELECT",
      "talkRole": {
        "type": "TALK_ROLE_PLAYER",
        "_id": ""
      },
      "talkContentTextMapHash": 2048353218,
      "talkAssetPath": "",
      "talkAssetPathAlter": "",
      "talkAudioName": "",
      "actionBefore": "",
      "actionWhile": "",
      "actionAfter": "",
      "optionIcon": "",
      "iconPath": ""
    },
    {
      "id": 690240502,
      "nextDialogs": [
        690240503
      ],
      "talkRole": {
        "type": "TALK_ROLE_NPC",
        "_id": "9024"
      },
      "talkContentTextMapHash": 3489595386,
      "talkAssetPath": "",
      "talkAssetPathAlter": "",
      "talkAudioName": "",
      "actionBefore": "",
      "actionWhile": "",
      "actionAfter": "",
      "optionIcon": "",
      "iconPath": ""
    },
    {
      "id": 690240503,
      "talkRole": {
        "type": "TALK_ROLE_NPC",
        "_id": "9024"
      },
      "talkContentTextMapHash": 491219066,
      "talkAssetPath": "",
      "talkAssetPathAlter": "",
      "talkAudioName": "",
      "actionBefore": "",
      "actionWhile": "",
      "actionAfter": "",
      "optionIcon": "",
      "iconPath": ""
    }
  ]
}