{
  "talkId": 6902301,
  "KPGKDHAFHFE": "FREE",
  "dialogList": [
    {
      "id": 690230101,
      "nextDialogs": [
        690230102
      ],
      "talkRole": {
        "type": "TALK_ROLE_NPC",
        "_id": "9023"
      },
      "talkContentTextMapHash": 3199680490,
      "talkAssetPath": "",
      "talkAssetPathAlter": "",
      "talkAudioName": "",
      "actionBefore": "",
      "actionWhile": "",
      "actionAfter": "",
      "optionIcon": "",
      "iconPath": ""
    },
    {
      "id": 690230102,
      "talkRole": {
        "type": "TALK_ROLE_NPC",
        "_id": "9023"
      },
      "talkContentTextMapHash": 2583613834,
      "talkAssetPath": "",
      "talkAssetPathAlter": "",
      "talkAudioName": "",
      "actionBefore": "",
      "actionWhile": "",
      "actionAfter": "",
      "optionIcon": "",
      "iconPath": ""
    }
  ]
}