{
  "talkId": 6902308,
  "KPGKDHAFHFE": "FREE",
  "dialogList": [
    {
      "id": 690230801,
      "nextDialogs": [
        690230401
      ],
      "talkShowType": "TALK_SHOW_FORCE_SELECT",
      "talkRole": {
        "type": "TALK_ROLE_PLAYER",
        "_id": ""
      },
      "talkContentTextMapHash": 3329235922,
      "talkAssetPath": "",
      "talkAssetPathAlter": "",
      "talkAudioName": "",
      "actionBefore": "",
      "actionWhile": "",
      "actionAfter": "",
      "optionIcon": "",
      "iconPath": ""
    },
    {
      "id": 690230401,
      "nextDialogs": [
        690230402
      ],
      "talkShowType": "TALK_SHOW_FORCE_SELECT",
      "talkRole": {
        "type": "TALK_ROLE_PLAYER",
        "_id": ""
      },
      "talkContentTextMapHash": 637843866,
      "talkAssetPath": "",
      "talkAssetPathAlter": "",
      "talkAudioName": "",
      "actionBefore": "",
      "actionWhile": "",
      "actionAfter": "",
      "optionIcon": "",
      "iconPath": ""
    },
    {
      "id": 690230402,
      "nextDialogs": [
        690230403,
        690230406
      ],
      "talkRole": {
        "type": "TALK_ROLE_NPC",
        "_id": "9023"
      },
      "talkContentTextMapHash": 236320498,
      "talkAssetPath": "",
      "talkAssetPathAlter": "",
      "talkAudioName": "",
      "actionBefore": "",
      "actionWhile": "",
      "actionAfter": "",
      "optionIcon": "",
      "iconPath": ""
    },
    {
      "id": 690230403,
      "nextDialogs": [
        690230404
      ],
      "talkShowType": "TALK_SHOW_FORCE_SELECT",
      "talkRole": {
        "type": "TALK_ROLE_PLAYER",
        "_id": ""
      },
      "talkContentTextMapHash": 2231647410,
      "talkAssetPath": "",
      "talkAssetPathAlter": "",
      "talkAudioName": "",
      "actionBefore": "",
      "actionWhile": "",
      "actionAfter": "",
      "optionIcon": "",
      "iconPath": ""
    },
    {
      "id": 690230404,
      "nextDialogs": [
        690230405
      ],
      "talkRole": {
        "type": "TALK_ROLE_NPC",
        "_id": "9023"
      },
      "talkContentTextMapHash": 1779661762,
      "talkAssetPath": "",
      "talkAssetPathAlter": "",
      "talkAudioName": "",
      "actionBefore": "",
      "actionWhile": "",
      "actionAfter": "",
      "optionIcon": "",
      "iconPath": ""
    },
    {
      "id": 690230405,
      "nextDialogs": [
        690230408
      ],
      "talkRole": {
        "type": "TALK_ROLE_NPC",
        "_id": "9023"
      },
      "talkContentTextMapHash": 3530571162,
      "talkAssetPath": "",
      "talkAssetPathAlter": "",
      "talkAudioName": "",
      "actionBefore": "",
      "actionWhile": "",
      "actionAfter": "",
      "optionIcon": "",
      "iconPath": ""
    },
    {
      "id": 690230408,
      "nextDialogs": [
        690230409
      ],
      "talkRole": {
        "type": "TALK_ROLE_NPC",
        "_id": "9023"
      },
      "talkContentTextMapHash": 4140948586,
      "talkAssetPath": "",
      "talkAssetPathAlter": "",
      "talkAudioName": "",
      "actionBefore": "",
      "actionWhile": "",
      "actionAfter": "",
      "optionIcon": "",
      "iconPath": ""
    },
    {
      "id": 690230409,
      "nextDialogs": [
        690230410
      ],
      "talkRole": {
        "type": "TALK_ROLE_NPC",
        "_id": "9023"
      },
      "talkContentTextMapHash": 246253986,
      "talkAssetPath": "",
      "talkAssetPathAlter": "",
      "talkAudioName": "",
      "actionBefore": "",
      "actionWhile": "",
      "actionAfter": "",
      "optionIcon": "",
      "iconPath": ""
    },
    {
      "id": 690230410,
      "nextDialogs": [
        690230411
      ],
      "talkShowType": "TALK_SHOW_FORCE_SELECT",
      "talkRole": {
        "type": "TALK_ROLE_PLAYER",
        "_id": ""
      },
      "talkContentTextMapHash": 2600188194,
      "talkAssetPath": "",
      "talkAssetPathAlter": "",
      "talkAudioName": "",
      "actionBefore": "",
      "actionWhile": "",
      "actionAfter": "",
      "optionIcon": "",
      "iconPath": ""
    },
    {
      "id": 690230411,
      "nextDialogs": [
        690230412
      ],
      "talkRole": {
        "type": "TALK_ROLE_NPC",
        "_id": "9023"
      },
      "talkContentTextMapHash": 1675931722,
      "talkAssetPath": "",
      "talkAssetPathAlter": "",
      "talkAudioName": "",
      "actionBefore": "",
      "actionWhile": "",
      "actionAfter": "",
      "optionIcon": "",
      "iconPath": ""
    },
    {
      "id": 690230412,
      "nextDialogs": [
        690230413
      ],
      "talkRole": {
        "type": "TALK_ROLE_NPC",
        "_id": "9023"
      },
      "talkContentTextMapHash": 3397455978,
      "talkAssetPath": "",
      "talkAssetPathAlter": "",
      "talkAudioName": "",
      "actionBefore": "",
      "actionWhile": "",
      "actionAfter": "",
      "optionIcon": "",
      "iconPath": ""
    },
    {
      "id": 690230413,
      "nextDialogs": [
        690230414
      ],
      "talkRole": {
        "type": "TALK_ROLE_NPC",
        "_id": "9023"
      },
      "talkContentTextMapHash": 4183180546,
      "talkAssetPath": "",
      "talkAssetPathAlter": "",
      "talkAudioName": "",
      "actionBefore": "",
      "actionWhile": "",
      "actionAfter": "",
      "optionIcon": "",
      "iconPath": ""
    },
    {
      "id": 690230414,
      "nextDialogs": [
        690230415
      ],
      "talkRole": {
        "type": "TALK_ROLE_NPC",
        "_id": "9023"
      },
      "talkContentTextMapHash": 4242198114,
      "talkAssetPath": "",
      "talkAssetPathAlter": "",
      "talkAudioName": "",
      "actionBefore": "",
      "actionWhile": "",
      "actionAfter": "",
      "optionIcon": "",
      "iconPath": ""
    },
    {
      "id": 690230415,
      "nextDialogs": [
        690230416
      ],
      "talkRole": {
        "type": "TALK_ROLE_NPC",
        "_id": "9023"
      },
      "talkContentTextMapHash": 2769150970,
      "talkAssetPath": "",
      "talkAssetPathAlter": "",
      "talkAudioName": "",
      "actionBefore": "",
      "actionWhile": "",
      "actionAfter": "",
      "optionIcon": "",
      "iconPath": ""
    },
    {
      "id": 690230416,
      "nextDialogs": [
        690230417,
        690230419
      ],
      "talkRole": {
        "type": "TALK_ROLE_NPC",
        "_id": "9023"
      },
      "talkContentTextMapHash": 3364129962,
      "talkAssetPath": "",
      "talkAssetPathAlter": "",
      "talkAudioName": "",
      "actionBefore": "",
      "actionWhile": "",
      "actionAfter": "",
      "optionIcon": "",
      "iconPath": ""
    },
    {
      "id": 690230417,
      "nextDialogs": [
        690230418
      ],
      "talkShowType": "TALK_SHOW_FORCE_SELECT",
      "talkRole": {
        "type": "TALK_ROLE_PLAYER",
        "_id": ""
      },
      "talkContentTextMapHash": 1690102138,
      "talkAssetPath": "",
      "talkAssetPathAlter": "",
      "talkAudioName": "",
      "actionBefore": "",
      "actionWhile": "",
      "actionAfter": "",
      "optionIcon": "",
      "iconPath": ""
    },
    {
      "id": 690230418,
      "nextDialogs": [
        690230421
      ],
      "talkRole": {
        "type": "TALK_ROLE_NPC",
        "_id": "9023"
      },
      "talkContentTextMapHash": 3811772362,
      "talkAssetPath": "",
      "talkAssetPathAlter": "",
      "talkAudioName": "",
      "actionBefore": "",
      "actionWhile": "",
      "actionAfter": "",
      "optionIcon": "",
      "iconPath": ""
    },
    {
      "id": 690230421,
      "nextDialogs": [
        690230422
      ],
      "talkRole": {
        "type": "TALK_ROLE_NPC",
        "_id": "9023"
      },
      "talkContentTextMapHash": 2537680362,
      "talkAssetPath": "",
      "talkAssetPathAlter": "",
      "talkAudioName": "",
      "actionBefore": "",
      "actionWhile": "",
      "actionAfter": "",
      "optionIcon": "",
      "iconPath": ""
    },
    {
      "id": 690230422,
      "nextDialogs": [
        690230423
      ],
      "talkRole": {
        "type": "TALK_ROLE_NPC",
        "_id": "9023"
      },
      "talkContentTextMapHash": 7726298,
      "talkAssetPath": "",
      "talkAssetPathAlter": "",
      "talkAudioName": "",
      "actionBefore": "",
      "actionWhile": "",
      "actionAfter": "",
      "optionIcon": "",
      "iconPath": ""
    },
    {
      "id": 690230423,
      "talkRole": {
        "type": "TALK_ROLE_NPC",
        "_id": "9023"
      },
      "talkContentTextMapHash": 2523807650,
      "talkAssetPath": "",
      "talkAssetPathAlter": "",
      "talkAudioName": "",
      "actionBefore": "",
      "actionWhile": "",
      "actionAfter": "",
      "optionIcon": "",
      "iconPath": ""
    },
    {
      "id": 690230419,
      "nextDialogs": [
        690230420
      ],
      "talkShowType": "TALK_SHOW_FORCE_SELECT",
      "talkRole": {
        "type": "TALK_ROLE_PLAYER",
        "_id": ""
      },
      "talkContentTextMapHash": 1305428834,
      "talkAssetPath": "",
      "talkAssetPathAlter": "",
      "talkAudioName": "",
      "actionBefore": "",
      "actionWhile": "",
      "actionAfter": "",
      "optionIcon": "",
      "iconPath": ""
    },
    {
      "id": 690230420,
      "nextDialogs": [
        690230421
      ],
      "talkRole": {
        "type": "TALK_ROLE_NPC",
        "_id": "9023"
      },
      "talkContentTextMapHash": 1236767682,
      "talkAssetPath": "",
      "talkAssetPathAlter": "",
      "talkAudioName": "",
      "actionBefore": "",
      "actionWhile": "",
      "actionAfter": "",
      "optionIcon": "",
      "iconPath": ""
    },
    {
      "id": 690230406,
      "nextDialogs": [
        690230407
      ],
      "talkShowType": "TALK_SHOW_FORCE_SELECT",
      "talkRole": {
        "type": "TALK_ROLE_PLAYER",
        "_id": ""
      },
      "talkContentTextMapHash": 2926843490,
      "talkAssetPath": "",
      "talkAssetPathAlter": "",
      "talkAudioName": "",
      "actionBefore": "",
      "actionWhile": "",
      "actionAfter": "",
      "optionIcon": "",
      "iconPath": ""
    },
    {
      "id": 690230407,
      "nextDialogs": [
        690230408
      ],
      "talkRole": {
        "type": "TALK_ROLE_NPC",
        "_id": "9023"
      },
      "talkContentTextMapHash": 3454785970,
      "talkAssetPath": "",
      "talkAssetPathAlter": "",
      "talkAudioName": "",
      "actionBefore": "",
      "actionWhile": "",
      "actionAfter": "",
      "optionIcon": "",
      "iconPath": ""
    }
  ]
}