{
  "talkId": 6902703,
  "KPGKDHAFHFE": "FREE",
  "dialogList": [
    {
      "id": 690270301,
      "nextDialogs": [
        690270302
      ],
      "talkShowType": "TALK_SHOW_FORCE_SELECT",
      "talkRole": {
        "type": "TALK_ROLE_PLAYER",
        "_id": ""
      },
      "talkContentTextMapHash": 4020664826,
      "talkAssetPath": "",
      "talkAssetPathAlter": "",
      "talkAudioName": "",
      "actionBefore": "",
      "actionWhile": "",
      "actionAfter": "",
      "optionIcon": "",
      "iconPath": ""
    },
    {
      "id": 690270302,
      "nextDialogs": [
        690270303
      ],
      "talkRole": {
        "type": "TALK_ROLE_NPC",
        "_id": "9027"
      },
      "talkContentTextMapHash": 1002356306,
      "talkAssetPath": "",
      "talkAssetPathAlter": "",
      "talkAudioName": "",
      "actionBefore": "",
      "actionWhile": "",
      "actionAfter": "",
      "optionIcon": "",
      "iconPath": ""
    },
    {
      "id": 690270303,
      "nextDialogs": [
        690270304
      ],
      "talkShowType": "TALK_SHOW_FORCE_SELECT",
      "talkRole": {
        "type": "TALK_ROLE_PLAYER",
        "_id": ""
      },
      "talkContentTextMapHash": 760818642,
      "talkAssetPath": "",
      "talkAssetPathAlter": "",
      "talkAudioName": "",
      "actionBefore": "",
      "actionWhile": "",
      "actionAfter": "",
      "optionIcon": "",
      "iconPath": ""
    },
    {
      "id": 690270304,
      "nextDialogs": [
        690270305
      ],
      "talkRole": {
        "type": "TALK_ROLE_NPC",
        "_id": "9027"
      },
      "talkContentTextMapHash": 4013055946,
      "talkAssetPath": "",
      "talkAssetPathAlter": "",
      "talkAudioName": "",
      "actionBefore": "",
      "actionWhile": "",
      "actionAfter": "",
      "optionIcon": "",
      "iconPath": ""
    },
    {
      "id": 690270305,
      "nextDialogs": [
        690270306,
        690270308
      ],
      "talkRole": {
        "type": "TALK_ROLE_NPC",
        "_id": "9027"
      },
      "talkContentTextMapHash": 2712176362,
      "talkAssetPath": "",
      "talkAssetPathAlter": "",
      "talkAudioName": "",
      "actionBefore": "",
      "actionWhile": "",
      "actionAfter": "",
      "optionIcon": "",
      "iconPath": ""
    },
    {
      "id": 690270306,
      "nextDialogs": [
        690270307
      ],
      "talkShowType": "TALK_SHOW_FORCE_SELECT",
      "talkRole": {
        "type": "TALK_ROLE_PLAYER",
        "_id": ""
      },
      "talkContentTextMapHash": 1838046378,
      "talkAssetPath": "",
      "talkAssetPathAlter": "",
      "talkAudioName": "",
      "actionBefore": "",
      "actionWhile": "",
      "actionAfter": "",
      "optionIcon": "",
      "iconPath": ""
    },
    {
      "id": 690270307,
      "nextDialogs": [
        690270310
      ],
      "talkRole": {
        "type": "TALK_ROLE_NPC",
        "_id": "9027"
      },
      "talkContentTextMapHash": 2649517930,
      "talkAssetPath": "",
      "talkAssetPathAlter": "",
      "talkAudioName": "",
      "actionBefore": "",
      "actionWhile": "",
      "actionAfter": "",
      "optionIcon": "",
      "iconPath": ""
    },
    {
      "id": 690270310,
      "nextDialogs": [
        690270311
      ],
      "talkRole": {
        "type": "TALK_ROLE_NPC",
        "_id": "9027"
      },
      "talkContentTextMapHash": 1688447090,
      "talkAssetPath": "",
      "talkAssetPathAlter": "",
      "talkAudioName": "",
      "actionBefore": "",
      "actionWhile": "",
      "actionAfter": "",
      "optionIcon": "",
      "iconPath": ""
    },
    {
      "id": 690270311,
      "nextDialogs": [
        690270312
      ],
      "talkRole": {
        "type": "TALK_ROLE_NPC",
        "_id": "9027"
      },
      "talkContentTextMapHash": 2955737730,
      "talkAssetPath": "",
      "talkAssetPathAlter": "",
      "talkAudioName": "",
      "actionBefore": "",
      "actionWhile": "",
      "actionAfter": "",
      "optionIcon": "",
      "iconPath": ""
    },
    {
      "id": 690270312,
      "nextDialogs": [
        690270313
      ],
      "talkRole": {
        "type": "TALK_ROLE_NPC",
        "_id": "9027"
      },
      "talkContentTextMapHash": 4018594866,
      "talkAssetPath": "",
      "talkAssetPathAlter": "",
      "talkAudioName": "",
      "actionBefore": "",
      "actionWhile": "",
      "actionAfter": "",
      "optionIcon": "",
      "iconPath": ""
    },
    {
      "id": 690270313,
      "nextDialogs": [
        690270314
      ],
      "talkRole": {
        "type": "TALK_ROLE_NPC",
        "_id": "9027"
      },
      "talkContentTextMapHash": 2390126058,
      "talkAssetPath": "",
      "talkAssetPathAlter": "",
      "talkAudioName": "",
      "actionBefore": "",
      "actionWhile": "",
      "actionAfter": "",
      "optionIcon": "",
      "iconPath": ""
    },
    {
      "id": 690270314,
      "talkRole": {
        "type": "TALK_ROLE_NPC",
        "_id": "9027"
      },
      "talkContentTextMapHash": 2637817226,
      "talkAssetPath": "",
      "talkAssetPathAlter": "",
      "talkAudioName": "",
      "actionBefore": "",
      "actionWhile": "",
      "actionAfter": "",
      "optionIcon": "",
      "iconPath": ""
    },
    {
      "id": 690270308,
      "nextDialogs": [
        690270309
      ],
      "talkShowType": "TALK_SHOW_FORCE_SELECT",
      "talkRole": {
        "type": "TALK_ROLE_PLAYER",
        "_id": ""
      },
      "talkContentTextMapHash": 2597263258,
      "talkAssetPath": "",
      "talkAssetPathAlter": "",
      "talkAudioName": "",
      "actionBefore": "",
      "actionWhile": "",
      "actionAfter": "",
      "optionIcon": "",
      "iconPath": ""
    },
    {
      "id": 690270309,
      "nextDialogs": [
        690270310
      ],
      "talkRole": {
        "type": "TALK_ROLE_NPC",
        "_id": "9027"
      },
      "talkContentTextMapHash": 3861661338,
      "talkAssetPath": "",
      "talkAssetPathAlter": "",
      "talkAudioName": "",
      "actionBefore": "",
      "actionWhile": "",
      "actionAfter": "",
      "optionIcon": "",
      "iconPath": ""
    }
  ]
}