{
  "talkId": 6902407,
  "KPGKDHAFHFE": "FREE",
  "dialogList": [
    {
      "id": 690240701,
      "nextDialogs": [
        690240301
      ],
      "talkShowType": "TALK_SHOW_FORCE_SELECT",
      "talkRole": {
        "type": "TALK_ROLE_PLAYER",
        "_id": ""
      },
      "talkContentTextMapHash": 727795834,
      "talkAssetPath": "",
      "talkAssetPathAlter": "",
      "talkAudioName": "",
      "actionBefore": "",
      "actionWhile": "",
      "actionAfter": "",
      "optionIcon": "",
      "iconPath": ""
    },
    {
      "id": 690240301,
      "nextDialogs": [
        690240302
      ],
      "talkShowType": "TALK_SHOW_FORCE_SELECT",
      "talkRole": {
        "type": "TALK_ROLE_PLAYER",
        "_id": ""
      },
      "talkContentTextMapHash": 3917141994,
      "talkAssetPath": "",
      "talkAssetPathAlter": "",
      "talkAudioName": "",
      "actionBefore": "",
      "actionWhile": "",
      "actionAfter": "",
      "optionIcon": "",
      "iconPath": ""
    },
    {
      "id": 690240302,
      "nextDialogs": [
        690240303
      ],
      "talkRole": {
        "type": "TALK_ROLE_NPC",
        "_id": "9024"
      },
      "talkContentTextMapHash": 1974766202,
      "talkAssetPath": "",
      "talkAssetPathAlter": "",
      "talkAudioName": "",
      "actionBefore": "",
      "actionWhile": "",
      "actionAfter": "",
      "optionIcon": "",
      "iconPath": ""
    },
    {
      "id": 690240303,
      "nextDialogs": [
        690240304
      ],
      "talkRole": {
        "type": "TALK_ROLE_NPC",
        "_id": "9024"
      },
      "talkContentTextMapHash": 655931074,
      "talkAssetPath": "",
      "talkAssetPathAlter": "",
      "talkAudioName": "",
      "actionBefore": "",
      "actionWhile": "",
      "actionAfter": "",
      "optionIcon": "",
      "iconPath": ""
    },
    {
      "id": 690240304,
      "nextDialogs": [
        690240305,
        690240307
      ],
      "talkRole": {
        "type": "TALK_ROLE_NPC",
        "_id": "9024"
      },
      "talkContentTextMapHash": 3599047602,
      "talkAssetPath": "",
      "talkAssetPathAlter": "",
      "talkAudioName": "",
      "actionBefore": "",
      "actionWhile": "",
      "actionAfter": "",
      "optionIcon": "",
      "iconPath": ""
    },
    {
      "id": 690240305,
      "nextDialogs": [
        690240306
      ],
      "talkShowType": "TALK_SHOW_FORCE_SELECT",
      "talkRole": {
        "type": "TALK_ROLE_PLAYER",
        "_id": ""
      },
      "talkContentTextMapHash": 120977714,
      "talkAssetPath": "",
      "talkAssetPathAlter": "",
      "talkAudioName": "",
      "actionBefore": "",
      "actionWhile": "",
      "actionAfter": "",
      "optionIcon": "",
      "iconPath": ""
    },
    {
      "id": 690240306,
      "nextDialogs": [
        690240308
      ],
      "talkRole": {
        "type": "TALK_ROLE_NPC",
        "_id": "9024"
      },
      "talkContentTextMapHash": 2343881394,
      "talkAssetPath": "",
      "talkAssetPathAlter": "",
      "talkAudioName": "",
      "actionBefore": "",
      "actionWhile": "",
      "actionAfter": "",
      "optionIcon": "",
      "iconPath": ""
    },
    {
      "id": 690240308,
      "nextDialogs": [
        690240309
      ],
      "talkRole": {
        "type": "TALK_ROLE_NPC",
        "_id": "9024"
      },
      "talkContentTextMapHash": 1392113162,
      "talkAssetPath": "",
      "talkAssetPathAlter": "",
      "talkAudioName": "",
      "actionBefore": "",
      "actionWhile": "",
      "actionAfter": "",
      "optionIcon": "",
      "iconPath": ""
    },
    {
      "id": 690240309,
      "nextDialogs": [
        690240310
      ],
      "talkRole": {
        "type": "TALK_ROLE_NPC",
        "_id": "9024"
      },
      "talkContentTextMapHash": 3274578314,
      "talkAssetPath": "",
      "talkAssetPathAlter": "",
      "talkAudioName": "",
      "actionBefore": "",
      "actionWhile": "",
      "actionAfter": "",
      "optionIcon": "",
      "iconPath": ""
    },
    {
      "id": 690240310,
      "nextDialogs": [
        690240311
      ],
      "talkRole": {
        "type": "TALK_ROLE_NPC",
        "_id": "9024"
      },
      "talkContentTextMapHash": 1087793146,
      "talkAssetPath": "",
      "talkAssetPathAlter": "",
      "talkAudioName": "",
      "actionBefore": "",
      "actionWhile": "",
      "actionAfter": "",
      "optionIcon": "",
      "iconPath": ""
    },
    {
      "id": 690240311,
      "nextDialogs": [
        690240312
      ],
      "talkShowType": "TALK_SHOW_FORCE_SELECT",
      "talkRole": {
        "type": "TALK_ROLE_PLAYER",
        "_id": ""
      },
      "talkContentTextMapHash": 2321891882,
      "talkAssetPath": "",
      "talkAssetPathAlter": "",
      "talkAudioName": "",
      "actionBefore": "",
      "actionWhile": "",
      "actionAfter": "",
      "optionIcon": "",
      "iconPath": ""
    },
    {
      "id": 690240312,
      "nextDialogs": [
        690240313
      ],
      "talkRole": {
        "type": "TALK_ROLE_NPC",
        "_id": "9024"
      },
      "talkContentTextMapHash": 1330422786,
      "talkAssetPath": "",
      "talkAssetPathAlter": "",
      "talkAudioName": "",
      "actionBefore": "",
      "actionWhile": "",
      "actionAfter": "",
      "optionIcon": "",
      "iconPath": ""
    },
    {
      "id": 690240313,
      "nextDialogs": [
        690240314
      ],
      "talkRole": {
        "type": "TALK_ROLE_NPC",
        "_id": "9024"
      },
      "talkContentTextMapHash": 1739472826,
      "talkAssetPath": "",
      "talkAssetPathAlter": "",
      "talkAudioName": "",
      "actionBefore": "",
      "actionWhile": "",
      "actionAfter": "",
      "optionIcon": "",
      "iconPath": ""
    },
    {
      "id": 690240314,
      "nextDialogs": [
        690240315
      ],
      "talkRole": {
        "type": "TALK_ROLE_NPC",
        "_id": "9024"
      },
      "talkContentTextMapHash": 2741142978,
      "talkAssetPath": "",
      "talkAssetPathAlter": "",
      "talkAudioName": "",
      "actionBefore": "",
      "actionWhile": "",
      "actionAfter": "",
      "optionIcon": "",
      "iconPath": ""
    },
    {
      "id": 690240315,
      "talkRole": {
        "type": "TALK_ROLE_NPC",
        "_id": "9024"
      },
      "talkContentTextMapHash": 2349141090,
      "talkAssetPath": "",
      "talkAssetPathAlter": "",
      "talkAudioName": "",
      "actionBefore": "",
      "actionWhile": "",
      "actionAfter": "",
      "optionIcon": "",
      "iconPath": ""
    },
    {
      "id": 690240307,
      "nextDialogs": [
        690240315
      ],
      "talkShowType": "TALK_SHOW_FORCE_SELECT",
      "talkRole": {
        "type": "TALK_ROLE_PLAYER",
        "_id": ""
      },
      "talkContentTextMapHash": 2900615266,
      "talkAssetPath": "",
      "talkAssetPathAlter": "",
      "talkAudioName": "",
      "actionBefore": "",
      "actionWhile": "",
      "actionAfter": "",
      "optionIcon": "",
      "iconPath": ""
    }
  ]
}