{
  "talkId": 6902950,
  "KPGKDHAFHFE": "FREE",
  "dialogList": [
    {
      "id": 690295001,
      "nextDialogs": [
        690295002
      ],
      "talkRole": {
        "type": "TALK_ROLE_NPC",
        "_id": "9029"
      },
      "talkContentTextMapHash": 1751054090,
      "talkAssetPath": "",
      "talkAssetPathAlter": "",
      "talkAudioName": "",
      "actionBefore": "",
      "actionWhile": "",
      "actionAfter": "",
      "optionIcon": "",
      "iconPath": ""
    },
    {
      "id": 690295002,
      "nextDialogs": [
        690295003
      ],
      "talkRole": {
        "type": "TALK_ROLE_NPC",
        "_id": "9029"
      },
      "talkContentTextMapHash": 1668840994,
      "talkAssetPath": "",
      "talkAssetPathAlter": "",
      "talkAudioName": "",
      "actionBefore": "",
      "actionWhile": "",
      "actionAfter": "",
      "optionIcon": "",
      "iconPath": ""
    },
    {
      "id": 690295003,
      "talkRole": {
        "type": "TALK_ROLE_NPC",
        "_id": "9029"
      },
      "talkContentTextMapHash": 2613258194,
      "talkAssetPath": "",
      "talkAssetPathAlter": "",
      "talkAudioName": "",
      "actionBefore": "",
      "actionWhile": "",
      "actionAfter": "",
      "optionIcon": "",
      "iconPath": ""
    }
  ]
}