{
  "talkId": 6902050,
  "KPGKDHAFHFE": "FREE",
  "dialogList": [
    {
      "id": 690205001,
      "nextDialogs": [
        690205002
      ],
      "talkRole": {
        "type": "TALK_ROLE_NPC",
        "_id": "9020"
      },
      "talkContentTextMapHash": 3088907562,
      "talkAssetPath": "",
      "talkAssetPathAlter": "",
      "talkAudioName": "",
      "actionBefore": "",
      "actionWhile": "",
      "actionAfter": "",
      "optionIcon": "",
      "iconPath": ""
    },
    {
      "id": 690205002,
      "nextDialogs": [
        690205003
      ],
      "talkRole": {
        "type": "TALK_ROLE_NPC",
        "_id": "9020"
      },
      "talkContentTextMapHash": 1133022754,
      "talkAssetPath": "",
      "talkAssetPathAlter": "",
      "talkAudioName": "",
      "actionBefore": "",
      "actionWhile": "",
      "actionAfter": "",
      "optionIcon": "",
      "iconPath": ""
    },
    {
      "id": 690205003,
      "talkRole": {
        "type": "TALK_ROLE_NPC",
        "_id": "9020"
      },
      "talkContentTextMapHash": 2211657826,
      "talkAssetPath": "",
      "talkAssetPathAlter": "",
      "talkAudioName": "",
      "actionBefore": "",
      "actionWhile": "",
      "actionAfter": "",
      "optionIcon": "",
      "iconPath": ""
    }
  ]
}