{
  "talkId": 6902505,
  "KPGKDHAFHFE": "FREE",
  "dialogList": [
    {
      "id": 690250501,
      "nextDialogs": [
        690250502
      ],
      "talkShowType": "TALK_SHOW_FORCE_SELECT",
      "talkRole": {
        "type": "TALK_ROLE_PLAYER",
        "_id": ""
      },
      "talkContentTextMapHash": 1132685370,
      "talkAssetPath": "",
      "talkAssetPathAlter": "",
      "talkAudioName": "",
      "actionBefore": "",
      "actionWhile": "",
      "actionAfter": "",
      "optionIcon": "",
      "iconPath": ""
    },
    {
      "id": 690250502,
      "nextDialogs": [
        690250503
      ],
      "talkRole": {
        "type": "TALK_ROLE_NPC",
        "_id": "9025"
      },
      "talkContentTextMapHash": 1764436474,
      "talkAssetPath": "",
      "talkAssetPathAlter": "",
      "talkAudioName": "",
      "actionBefore": "",
      "actionWhile": "",
      "actionAfter": "",
      "optionIcon": "",
      "iconPath": ""
    },
    {
      "id": 690250503,
      "talkRole": {
        "type": "TALK_ROLE_NPC",
        "_id": "9025"
      },
      "talkContentTextMapHash": 2719359922,
      "talkAssetPath": "",
      "talkAssetPathAlter": "",
      "talkAudioName": "",
      "actionBefore": "",
      "actionWhile": "",
      "actionAfter": "",
      "optionIcon": "",
      "iconPath": ""
    }
  ]
}