{
  "talkId": 6903605,
  "KPGKDHAFHFE": "FREE",
  "dialogList": [
    {
      "id": 690360501,
      "nextDialogs": [
        690360502
      ],
      "talkShowType": "TALK_SHOW_FORCE_SELECT",
      "talkRole": {
        "type": "TALK_ROLE_PLAYER",
        "_id": ""
      },
      "talkContentTextMapHash": 540355106,
      "talkAssetPath": "",
      "talkAssetPathAlter": "",
      "talkAudioName": "",
      "actionBefore": "",
      "actionWhile": "",
      "actionAfter": "",
      "optionIcon": "",
      "iconPath": ""
    },
    {
      "id": 690360502,
      "nextDialogs": [
        690360503
      ],
      "talkRole": {
        "type": "TALK_ROLE_NPC",
        "_id": "9036"
      },
      "talkContentTextMapHash": 673574690,
      "talkAssetPath": "",
      "talkAssetPathAlter": "",
      "talkAudioName": "",
      "actionBefore": "",
      "actionWhile": "",
      "actionAfter": "",
      "optionIcon": "",
      "iconPath": ""
    },
    {
      "id": 690360503,
      "nextDialogs": [
        690360504
      ],
      "talkRole": {
        "type": "TALK_ROLE_NPC",
        "_id": "9036"
      },
      "talkContentTextMapHash": 4130948986,
      "talkAssetPath": "",
      "talkAssetPathAlter": "",
      "talkAudioName": "",
      "actionBefore": "",
      "actionWhile": "",
      "actionAfter": "",
      "optionIcon": "",
      "iconPath": ""
    },
    {
      "id": 690360504,
      "talkRole": {
        "type": "TALK_ROLE_NPC",
        "_id": "9036"
      },
      "talkContentTextMapHash": 4124346778,
      "talkAssetPath": "",
      "talkAssetPathAlter": "",
      "talkAudioName": "",
      "actionBefore": "",
      "actionWhile": "",
      "actionAfter": "",
      "optionIcon": "",
      "iconPath": ""
    }
  ]
}