{
  "talkId": 6903207,
  "KPGKDHAFHFE": "FREE",
  "dialogList": [
    {
      "id": 690320701,
      "nextDialogs": [
        690320301
      ],
      "talkShowType": "TALK_SHOW_FORCE_SELECT",
      "talkRole": {
        "type": "TALK_ROLE_PLAYER",
        "_id": ""
      },
      "talkContentTextMapHash": 4126961418,
      "talkAssetPath": "",
      "talkAssetPathAlter": "",
      "talkAudioName": "",
      "actionBefore": "",
      "actionWhile": "",
      "actionAfter": "",
      "optionIcon": "",
      "iconPath": ""
    },
    {
      "id": 690320301,
      "nextDialogs": [
        690320302
      ],
      "talkShowType": "TALK_SHOW_FORCE_SELECT",
      "talkRole": {
        "type": "TALK_ROLE_PLAYER",
        "_id": ""
      },
      "talkContentTextMapHash": 2783825010,
      "talkAssetPath": "",
      "talkAssetPathAlter": "",
      "talkAudioName": "",
      "actionBefore": "",
      "actionWhile": "",
      "actionAfter": "",
      "optionIcon": "",
      "iconPath": ""
    },
    {
      "id": 690320302,
      "nextDialogs": [
        690320303
      ],
      "talkRole": {
        "type": "TALK_ROLE_NPC",
        "_id": "9032"
      },
      "talkContentTextMapHash": 1225811210,
      "talkAssetPath": "",
      "talkAssetPathAlter": "",
      "talkAudioName": "",
      "actionBefore": "",
      "actionWhile": "",
      "actionAfter": "",
      "optionIcon": "",
      "iconPath": ""
    },
    {
      "id": 690320303,
      "nextDialogs": [
        690320304
      ],
      "talkRole": {
        "type": "TALK_ROLE_NPC",
        "_id": "9032"
      },
      "talkContentTextMapHash": 4226649834,
      "talkAssetPath": "",
      "talkAssetPathAlter": "",
      "talkAudioName": "",
      "actionBefore": "",
      "actionWhile": "",
      "actionAfter": "",
      "optionIcon": "",
      "iconPath": ""
    },
    {
      "id": 690320304,
      "nextDialogs": [
        690320305
      ],
      "talkRole": {
        "type": "TALK_ROLE_NPC",
        "_id": "9032"
      },
      "talkContentTextMapHash": 537974874,
      "talkAssetPath": "",
      "talkAssetPathAlter": "",
      "talkAudioName": "",
      "actionBefore": "",
      "actionWhile": "",
      "actionAfter": "",
      "optionIcon": "",
      "iconPath": ""
    },
    {
      "id": 690320305,
      "nextDialogs": [
        690320306
      ],
      "talkShowType": "TALK_SHOW_FORCE_SELECT",
      "talkRole": {
        "type": "TALK_ROLE_PLAYER",
        "_id": ""
      },
      "talkContentTextMapHash": 578257714,
      "talkAssetPath": "",
      "talkAssetPathAlter": "",
      "talkAudioName": "",
      "actionBefore": "",
      "actionWhile": "",
      "actionAfter": "",
      "optionIcon": "",
      "iconPath": ""
    },
    {
      "id": 690320306,
      "nextDialogs": [
        690320307
      ],
      "talkRole": {
        "type": "TALK_ROLE_NPC",
        "_id": "9032"
      },
      "talkContentTextMapHash": 537119226,
      "talkAssetPath": "",
      "talkAssetPathAlter": "",
      "talkAudioName": "",
      "actionBefore": "",
      "actionWhile": "",
      "actionAfter": "",
      "optionIcon": "",
      "iconPath": ""
    },
    {
      "id": 690320307,
      "nextDialogs": [
        690320308
      ],
      "talkRole": {
        "type": "TALK_ROLE_NPC",
        "_id": "9032"
      },
      "talkContentTextMapHash": 404332514,
      "talkAssetPath": "",
      "talkAssetPathAlter": "",
      "talkAudioName": "",
      "actionBefore": "",
      "actionWhile": "",
      "actionAfter": "",
      "optionIcon": "",
      "iconPath": ""
    },
    {
      "id": 690320308,
      "nextDialogs": [
        690320309
      ],
      "talkRole": {
        "type": "TALK_ROLE_NPC",
        "_id": "9032"
      },
      "talkContentTextMapHash": 2875329898,
      "talkAssetPath": "",
      "talkAssetPathAlter": "",
      "talkAudioName": "",
      "actionBefore": "",
      "actionWhile": "",
      "actionAfter": "",
      "optionIcon": "",
      "iconPath": ""
    },
    {
      "id": 690320309,
      "nextDialogs": [
        690320310,
        690320313
      ],
      "talkRole": {
        "type": "TALK_ROLE_NPC",
        "_id": "9032"
      },
      "talkContentTextMapHash": 563480778,
      "talkAssetPath": "",
      "talkAssetPathAlter": "",
      "talkAudioName": "",
      "actionBefore": "",
      "actionWhile": "",
      "actionAfter": "",
      "optionIcon": "",
      "iconPath": ""
    },
    {
      "id": 690320310,
      "nextDialogs": [
        690320311
      ],
      "talkShowType": "TALK_SHOW_FORCE_SELECT",
      "talkRole": {
        "type": "TALK_ROLE_PLAYER",
        "_id": ""
      },
      "talkContentTextMapHash": 1237701346,
      "talkAssetPath": "",
      "talkAssetPathAlter": "",
      "talkAudioName": "",
      "actionBefore": "",
      "actionWhile": "",
      "actionAfter": "",
      "optionIcon": "",
      "iconPath": ""
    },
    {
      "id": 690320311,
      "nextDialogs": [
        690320312
      ],
      "talkRole": {
        "type": "TALK_ROLE_NPC",
        "_id": "9032"
      },
      "talkContentTextMapHash": 1210364242,
      "talkAssetPath": "",
      "talkAssetPathAlter": "",
      "talkAudioName": "",
      "actionBefore": "",
      "actionWhile": "",
      "actionAfter": "",
      "optionIcon": "",
      "iconPath": ""
    },
    {
      "id": 690320312,
      "nextDialogs": [
        690320315
      ],
      "talkRole": {
        "type": "TALK_ROLE_NPC",
        "_id": "9032"
      },
      "talkContentTextMapHash": 2207000658,
      "talkAssetPath": "",
      "talkAssetPathAlter": "",
      "talkAudioName": "",
      "actionBefore": "",
      "actionWhile": "",
      "actionAfter": "",
      "optionIcon": "",
      "iconPath": ""
    },
    {
      "id": 690320315,
      "talkRole": {
        "type": "TALK_ROLE_NPC",
        "_id": "9032"
      },
      "talkContentTextMapHash": 3128834586,
      "talkAssetPath": "",
      "talkAssetPathAlter": "",
      "talkAudioName": "",
      "actionBefore": "",
      "actionWhile": "",
      "actionAfter": "",
      "optionIcon": "",
      "iconPath": ""
    },
    {
      "id": 690320313,
      "nextDialogs": [
        690320314
      ],
      "talkShowType": "TALK_SHOW_FORCE_SELECT",
      "talkRole": {
        "type": "TALK_ROLE_PLAYER",
        "_id": ""
      },
      "talkContentTextMapHash": 2340363186,
      "talkAssetPath": "",
      "talkAssetPathAlter": "",
      "talkAudioName": "",
      "actionBefore": "",
      "actionWhile": "",
      "actionAfter": "",
      "optionIcon": "",
      "iconPath": ""
    },
    {
      "id": 690320314,
      "nextDialogs": [
        690320315
      ],
      "talkRole": {
        "type": "TALK_ROLE_NPC",
        "_id": "9032"
      },
      "talkContentTextMapHash": 2019225994,
      "talkAssetPath": "",
      "talkAssetPathAlter": "",
      "talkAudioName": "",
      "actionBefore": "",
      "actionWhile": "",
      "actionAfter": "",
      "optionIcon": "",
      "iconPath": ""
    }
  ]
}