{
  "talkId": 6903301,
  "KPGKDHAFHFE": "FREE",
  "dialogList": [
    {
      "id": 690330101,
      "nextDialogs": [
        690330102
      ],
      "talkRole": {
        "type": "TALK_ROLE_NPC",
        "_id": "9033"
      },
      "talkContentTextMapHash": 2641374418,
      "talkAssetPath": "",
      "talkAssetPathAlter": "",
      "talkAudioName": "",
      "actionBefore": "",
      "actionWhile": "",
      "actionAfter": "",
      "optionIcon": "",
      "iconPath": ""
    },
    {
      "id": 690330102,
      "nextDialogs": [
        690330103
      ],
      "talkRole": {
        "type": "TALK_ROLE_NPC",
        "_id": "9033"
      },
      "talkContentTextMapHash": 3411646282,
      "talkAssetPath": "",
      "talkAssetPathAlter": "",
      "talkAudioName": "",
      "actionBefore": "",
      "actionWhile": "",
      "actionAfter": "",
      "optionIcon": "",
      "iconPath": ""
    },
    {
      "id": 690330103,
      "talkRole": {
        "type": "TALK_ROLE_NPC",
        "_id": "9033"
      },
      "talkContentTextMapHash": 1983429778,
      "talkAssetPath": "",
      "talkAssetPathAlter": "",
      "talkAudioName": "",
      "actionBefore": "",
      "actionWhile": "",
      "actionAfter": "",
      "optionIcon": "",
      "iconPath": ""
    }
  ]
}