{
  "talkId": 6903504,
  "KPGKDHAFHFE": "FREE",
  "dialogList": [
    {
      "id": 690350401,
      "nextDialogs": [
        690350402
      ],
      "talkShowType": "TALK_SHOW_FORCE_SELECT",
      "talkRole": {
        "type": "TALK_ROLE_PLAYER",
        "_id": ""
      },
      "talkContentTextMapHash": 3902194402,
      "talkAssetPath": "",
      "talkAssetPathAlter": "",
      "talkAudioName": "",
      "actionBefore": "",
      "actionWhile": "",
      "actionAfter": "",
      "optionIcon": "",
      "iconPath": ""
    },
    {
      "id": 690350402,
      "nextDialogs": [
        690350403
      ],
      "talkRole": {
        "type": "TALK_ROLE_NPC",
        "_id": "9035"
      },
      "talkContentTextMapHash": 3327053922,
      "talkAssetPath": "",
      "talkAssetPathAlter": "",
      "talkAudioName": "",
      "actionBefore": "",
      "actionWhile": "",
      "actionAfter": "",
      "optionIcon": "",
      "iconPath": ""
    },
    {
      "id": 690350403,
      "nextDialogs": [
        690350404
      ],
      "talkRole": {
        "type": "TALK_ROLE_NPC",
        "_id": "9035"
      },
      "talkContentTextMapHash": 3100296922,
      "talkAssetPath": "",
      "talkAssetPathAlter": "",
      "talkAudioName": "",
      "actionBefore": "",
      "actionWhile": "",
      "actionAfter": "",
      "optionIcon": "",
      "iconPath": ""
    },
    {
      "id": 690350404,
      "nextDialogs": [
        690350405
      ],
      "talkRole": {
        "type": "TALK_ROLE_NPC",
        "_id": "9035"
      },
      "talkContentTextMapHash": 4281944378,
      "talkAssetPath": "",
      "talkAssetPathAlter": "",
      "talkAudioName": "",
      "actionBefore": "",
      "actionWhile": "",
      "actionAfter": "",
      "optionIcon": "",
      "iconPath": ""
    },
    {
      "id": 690350405,
      "nextDialogs": [
        690350406
      ],
      "talkRole": {
        "type": "TALK_ROLE_NPC",
        "_id": "9035"
      },
      "talkContentTextMapHash": 256610378,
      "talkAssetPath": "",
      "talkAssetPathAlter": "",
      "talkAudioName": "",
      "actionBefore": "",
      "actionWhile": "",
      "actionAfter": "",
      "optionIcon": "",
      "iconPath": ""
    },
    {
      "id": 690350406,
      "nextDialogs": [
        690350407,
        690350408
      ],
      "talkRole": {
        "type": "TALK_ROLE_NPC",
        "_id": "9035"
      },
      "talkContentTextMapHash": 977226674,
      "talkAssetPath": "",
      "talkAssetPathAlter": "",
      "talkAudioName": "",
      "actionBefore": "",
      "actionWhile": "",
      "actionAfter": "",
      "optionIcon": "",
      "iconPath": ""
    },
    {
      "id": 690350407,
      "nextDialogs": [
        690350409
      ],
      "talkShowType": "TALK_SHOW_FORCE_SELECT",
      "talkRole": {
        "type": "TALK_ROLE_PLAYER",
        "_id": ""
      },
      "talkContentTextMapHash": 2121217826,
      "talkAssetPath": "",
      "talkAssetPathAlter": "",
      "talkAudioName": "",
      "actionBefore": "",
      "actionWhile": "",
      "actionAfter": "",
      "optionIcon": "",
      "iconPath": ""
    },
    {
      "id": 690350409,
      "nextDialogs": [
        690350410
      ],
      "talkRole": {
        "type": "TALK_ROLE_NPC",
        "_id": "9035"
      },
      "talkContentTextMapHash": 3890499426,
      "talkAssetPath": "",
      "talkAssetPathAlter": "",
      "talkAudioName": "",
      "actionBefore": "",
      "actionWhile": "",
      "actionAfter": "",
      "optionIcon": "",
      "iconPath": ""
    },
    {
      "id": 690350410,
      "nextDialogs": [
        690350411,
        690350412
      ],
      "talkRole": {
        "type": "TALK_ROLE_NPC",
        "_id": "9035"
      },
      "talkContentTextMapHash": 3937332338,
      "talkAssetPath": "",
      "talkAssetPathAlter": "",
      "talkAudioName": "",
      "actionBefore": "",
      "actionWhile": "",
      "actionAfter": "",
      "optionIcon": "",
      "iconPath": ""
    },
    {
      "id": 690350411,
      "nextDialogs": [
        690350413
      ],
      "talkShowType": "TALK_SHOW_FORCE_SELECT",
      "talkRole": {
        "type": "TALK_ROLE_PLAYER",
        "_id": ""
      },
      "talkContentTextMapHash": 4184890394,
      "talkAssetPath": "",
      "talkAssetPathAlter": "",
      "talkAudioName": "",
      "actionBefore": "",
      "actionWhile": "",
      "actionAfter": "",
      "optionIcon": "",
      "iconPath": ""
    },
    {
      "id": 690350413,
      "nextDialogs": [
        690350414
      ],
      "talkRole": {
        "type": "TALK_ROLE_NPC",
        "_id": "9035"
      },
      "talkContentTextMapHash": 1399389498,
      "talkAssetPath": "",
      "talkAssetPathAlter": "",
      "talkAudioName": "",
      "actionBefore": "",
      "actionWhile": "",
      "actionAfter": "",
      "optionIcon": "",
      "iconPath": ""
    },
    {
      "id": 690350414,
      "nextDialogs": [
        690350415
      ],
      "talkRole": {
        "type": "TALK_ROLE_NPC",
        "_id": "9035"
      },
      "talkContentTextMapHash": 3275314506,
      "talkAssetPath": "",
      "talkAssetPathAlter": "",
      "talkAudioName": "",
      "actionBefore": "",
      "actionWhile": "",
      "actionAfter": "",
      "optionIcon": "",
      "iconPath": ""
    },
    {
      "id": 690350415,
      "talkRole": {
        "type": "TALK_ROLE_NPC",
        "_id": "9035"
      },
      "talkContentTextMapHash": 1965002882,
      "talkAssetPath": "",
      "talkAssetPathAlter": "",
      "talkAudioName": "",
      "actionBefore": "",
      "actionWhile": "",
      "actionAfter": "",
      "optionIcon": "",
      "iconPath": ""
    },
    {
      "id": 690350412,
      "nextDialogs": [
        690350413
      ],
      "talkShowType": "TALK_SHOW_FORCE_SELECT",
      "talkRole": {
        "type": "TALK_ROLE_PLAYER",
        "_id": ""
      },
      "talkContentTextMapHash": 3505523122,
      "talkAssetPath": "",
      "talkAssetPathAlter": "",
      "talkAudioName": "",
      "actionBefore": "",
      "actionWhile": "",
      "actionAfter": "",
      "optionIcon": "",
      "iconPath": ""
    },
    {
      "id": 690350408,
      "nextDialogs": [
        690350409
      ],
      "talkShowType": "TALK_SHOW_FORCE_SELECT",
      "talkRole": {
        "type": "TALK_ROLE_PLAYER",
        "_id": ""
      },
      "talkContentTextMapHash": 857788874,
      "talkAssetPath": "",
      "talkAssetPathAlter": "",
      "talkAudioName": "",
      "actionBefore": "",
      "actionWhile": "",
      "actionAfter": "",
      "optionIcon": "",
      "iconPath": ""
    }
  ]
}