{
  "talkId": 6903906,
  "KPGKDHAFHFE": "FREE",
  "dialogList": [
    {
      "id": 690390601,
      "nextDialogs": [
        690390602
      ],
      "talkShowType": "TALK_SHOW_FORCE_SELECT",
      "talkRole": {
        "type": "TALK_ROLE_PLAYER",
        "_id": ""
      },
      "talkContentTextMapHash": 915243354,
      "talkAssetPath": "",
      "talkAssetPathAlter": "",
      "talkAudioName": "",
      "actionBefore": "",
      "actionWhile": "",
      "actionAfter": "",
      "optionIcon": "",
      "iconPath": ""
    },
    {
      "id": 690390602,
      "nextDialogs": [
        690390603
      ],
      "talkRole": {
        "type": "TALK_ROLE_NPC",
        "_id": "9039"
      },
      "talkContentTextMapHash": 651975690,
      "talkAssetPath": "",
      "talkAssetPathAlter": "",
      "talkAudioName": "",
      "actionBefore": "",
      "actionWhile": "",
      "actionAfter": "",
      "optionIcon": "",
      "iconPath": ""
    },
    {
      "id": 690390603,
      "nextDialogs": [
        690390604
      ],
      "talkRole": {
        "type": "TALK_ROLE_NPC",
        "_id": "9039"
      },
      "talkContentTextMapHash": 2976142834,
      "talkAssetPath": "",
      "talkAssetPathAlter": "",
      "talkAudioName": "",
      "actionBefore": "",
      "actionWhile": "",
      "actionAfter": "",
      "optionIcon": "",
      "iconPath": ""
    },
    {
      "id": 690390604,
      "talkRole": {
        "type": "TALK_ROLE_NPC",
        "_id": "9039"
      },
      "talkContentTextMapHash": 778379506,
      "talkAssetPath": "",
      "talkAssetPathAlter": "",
      "talkAudioName": "",
      "actionBefore": "",
      "actionWhile": "",
      "actionAfter": "",
      "optionIcon": "",
      "iconPath": ""
    }
  ]
}