{
  "talkId": 6903151,
  "KPGKDHAFHFE": "FREE",
  "dialogList": [
    {
      "id": 690315101,
      "nextDialogs": [
        690315102
      ],
      "talkRole": {
        "type": "TALK_ROLE_NPC",
        "_id": "9031"
      },
      "talkContentTextMapHash": 2327018914,
      "talkAssetPath": "",
      "talkAssetPathAlter": "",
      "talkAudioName": "",
      "actionBefore": "",
      "actionWhile": "",
      "actionAfter": "",
      "optionIcon": "",
      "iconPath": ""
    },
    {
      "id": 690315102,
      "nextDialogs": [
        690315103
      ],
      "talkRole": {
        "type": "TALK_ROLE_NPC",
        "_id": "9031"
      },
      "talkContentTextMapHash": 4073491858,
      "talkAssetPath": "",
      "talkAssetPathAlter": "",
      "talkAudioName": "",
      "actionBefore": "",
      "actionWhile": "",
      "actionAfter": "",
      "optionIcon": "",
      "iconPath": ""
    },
    {
      "id": 690315103,
      "talkRole": {
        "type": "TALK_ROLE_NPC",
        "_id": "9000"
      },
      "talkContentTextMapHash": 1004018322,
      "talkAssetPath": "",
      "talkAssetPathAlter": "",
      "talkAudioName": "",
      "actionBefore": "",
      "actionWhile": "",
      "actionAfter": "",
      "optionIcon": "",
      "iconPath": ""
    }
  ]
}