{
  "talkId": 6903705,
  "KPGKDHAFHFE": "FREE",
  "dialogList": [
    {
      "id": 690370501,
      "nextDialogs": [
        690370502
      ],
      "talkShowType": "TALK_SHOW_FORCE_SELECT",
      "talkRole": {
        "type": "TALK_ROLE_PLAYER",
        "_id": ""
      },
      "talkContentTextMapHash": 451908186,
      "talkAssetPath": "",
      "talkAssetPathAlter": "",
      "talkAudioName": "",
      "actionBefore": "",
      "actionWhile": "",
      "actionAfter": "",
      "optionIcon": "",
      "iconPath": ""
    },
    {
      "id": 690370502,
      "nextDialogs": [
        690370503
      ],
      "talkRole": {
        "type": "TALK_ROLE_NPC",
        "_id": "9037"
      },
      "talkContentTextMapHash": 1052712834,
      "talkAssetPath": "",
      "talkAssetPathAlter": "",
      "talkAudioName": "",
      "actionBefore": "",
      "actionWhile": "",
      "actionAfter": "",
      "optionIcon": "",
      "iconPath": ""
    },
    {
      "id": 690370503,
      "nextDialogs": [
        690370504
      ],
      "talkRole": {
        "type": "TALK_ROLE_NPC",
        "_id": "9037"
      },
      "talkContentTextMapHash": 475239626,
      "talkAssetPath": "",
      "talkAssetPathAlter": "",
      "talkAudioName": "",
      "actionBefore": "",
      "actionWhile": "",
      "actionAfter": "",
      "optionIcon": "",
      "iconPath": ""
    },
    {
      "id": 690370504,
      "talkRole": {
        "type": "TALK_ROLE_NPC",
        "_id": "9037"
      },
      "talkContentTextMapHash": 2010471938,
      "talkAssetPath": "",
      "talkAssetPathAlter": "",
      "talkAudioName": "",
      "actionBefore": "",
      "actionWhile": "",
      "actionAfter": "",
      "optionIcon": "",
      "iconPath": ""
    }
  ]
}