{
  "talkId": 6903805,
  "KPGKDHAFHFE": "FREE",
  "dialogList": [
    {
      "id": 690380501,
      "nextDialogs": [
        690380502
      ],
      "talkShowType": "TALK_SHOW_FORCE_SELECT",
      "talkRole": {
        "type": "TALK_ROLE_PLAYER",
        "_id": ""
      },
      "talkContentTextMapHash": 1108431666,
      "talkAssetPath": "",
      "talkAssetPathAlter": "",
      "talkAudioName": "",
      "actionBefore": "",
      "actionWhile": "",
      "actionAfter": "",
      "optionIcon": "",
      "iconPath": ""
    },
    {
      "id": 690380502,
      "nextDialogs": [
        690380503
      ],
      "talkRole": {
        "type": "TALK_ROLE_NPC",
        "_id": "9038"
      },
      "talkContentTextMapHash": 1460980626,
      "talkAssetPath": "",
      "talkAssetPathAlter": "",
      "talkAudioName": "",
      "actionBefore": "",
      "actionWhile": "",
      "actionAfter": "",
      "optionIcon": "",
      "iconPath": ""
    },
    {
      "id": 690380503,
      "talkRole": {
        "type": "TALK_ROLE_NPC",
        "_id": "9038"
      },
      "talkContentTextMapHash": 1523202274,
      "talkAssetPath": "",
      "talkAssetPathAlter": "",
      "talkAudioName": "",
      "actionBefore": "",
      "actionWhile": "",
      "actionAfter": "",
      "optionIcon": "",
      "iconPath": ""
    }
  ]
}