{
  "talkId": 6903206,
  "KPGKDHAFHFE": "FREE",
  "dialogList": [
    {
      "id": 690320601,
      "nextDialogs": [
        690320602
      ],
      "talkShowType": "TALK_SHOW_FORCE_SELECT",
      "talkRole": {
        "type": "TALK_ROLE_PLAYER",
        "_id": ""
      },
      "talkContentTextMapHash": 897184882,
      "talkAssetPath": "",
      "talkAssetPathAlter": "",
      "talkAudioName": "",
      "actionBefore": "",
      "actionWhile": "",
      "actionAfter": "",
      "optionIcon": "",
      "iconPath": ""
    },
    {
      "id": 690320602,
      "nextDialogs": [
        690320603
      ],
      "talkRole": {
        "type": "TALK_ROLE_NPC",
        "_id": "9032"
      },
      "talkContentTextMapHash": 2269389674,
      "talkAssetPath": "",
      "talkAssetPathAlter": "",
      "talkAudioName": "",
      "actionBefore": "",
      "actionWhile": "",
      "actionAfter": "",
      "optionIcon": "",
      "iconPath": ""
    },
    {
      "id": 690320603,
      "talkRole": {
        "type": "TALK_ROLE_NPC",
        "_id": "9032"
      },
      "talkContentTextMapHash": 3419125298,
      "talkAssetPath": "",
      "talkAssetPathAlter": "",
      "talkAudioName": "",
      "actionBefore": "",
      "actionWhile": "",
      "actionAfter": "",
      "optionIcon": "",
      "iconPath": ""
    }
  ]
}