{
  "talkId": 6903308,
  "KPGKDHAFHFE": "FREE",
  "dialogList": [
    {
      "id": 690330801,
      "nextDialogs": [
        690330401
      ],
      "talkShowType": "TALK_SHOW_FORCE_SELECT",
      "talkRole": {
        "type": "TALK_ROLE_PLAYER",
        "_id": ""
      },
      "talkContentTextMapHash": 2291074106,
      "talkAssetPath": "",
      "talkAssetPathAlter": "",
      "talkAudioName": "",
      "actionBefore": "",
      "actionWhile": "",
      "actionAfter": "",
      "optionIcon": "",
      "iconPath": ""
    },
    {
      "id": 690330401,
      "nextDialogs": [
        690330402
      ],
      "talkShowType": "TALK_SHOW_FORCE_SELECT",
      "talkRole": {
        "type": "TALK_ROLE_PLAYER",
        "_id": ""
      },
      "talkContentTextMapHash": 3089852010,
      "talkAssetPath": "",
      "talkAssetPathAlter": "",
      "talkAudioName": "",
      "actionBefore": "",
      "actionWhile": "",
      "actionAfter": "",
      "optionIcon": "",
      "iconPath": ""
    },
    {
      "id": 690330402,
      "nextDialogs": [
        690330403
      ],
      "talkRole": {
        "type": "TALK_ROLE_NPC",
        "_id": "9033"
      },
      "talkContentTextMapHash": 2015284474,
      "talkAssetPath": "",
      "talkAssetPathAlter": "",
      "talkAudioName": "",
      "actionBefore": "",
      "actionWhile": "",
      "actionAfter": "",
      "optionIcon": "",
      "iconPath": ""
    },
    {
      "id": 690330403,
      "nextDialogs": [
        690330404
      ],
      "talkRole": {
        "type": "TALK_ROLE_NPC",
        "_id": "9033"
      },
      "talkContentTextMapHash": 3448378810,
      "talkAssetPath": "",
      "talkAssetPathAlter": "",
      "talkAudioName": "",
      "actionBefore": "",
      "actionWhile": "",
      "actionAfter": "",
      "optionIcon": "",
      "iconPath": ""
    },
    {
      "id": 690330404,
      "nextDialogs": [
        690330405
      ],
      "talkRole": {
        "type": "TALK_ROLE_NPC",
        "_id": "9033"
      },
      "talkContentTextMapHash": 4224874330,
      "talkAssetPath": "",
      "talkAssetPathAlter": "",
      "talkAudioName": "",
      "actionBefore": "",
      "actionWhile": "",
      "actionAfter": "",
      "optionIcon": "",
      "iconPath": ""
    },
    {
      "id": 690330405,
      "nextDialogs": [
        690330406
      ],
      "talkRole": {
        "type": "TALK_ROLE_NPC",
        "_id": "9033"
      },
      "talkContentTextMapHash": 2880378010,
      "talkAssetPath": "",
      "talkAssetPathAlter": "",
      "talkAudioName": "",
      "actionBefore": "",
      "actionWhile": "",
      "actionAfter": "",
      "optionIcon": "",
      "iconPath": ""
    },
    {
      "id": 690330406,
      "nextDialogs": [
        690330407
      ],
      "talkRole": {
        "type": "TALK_ROLE_NPC",
        "_id": "9033"
      },
      "talkContentTextMapHash": 2527016202,
      "talkAssetPath": "",
      "talkAssetPathAlter": "",
      "talkAudioName": "",
      "actionBefore": "",
      "actionWhile": "",
      "actionAfter": "",
      "optionIcon": "",
      "iconPath": ""
    },
    {
      "id": 690330407,
      "nextDialogs": [
        690330408
      ],
      "talkRole": {
        "type": "TALK_ROLE_NPC",
        "_id": "9033"
      },
      "talkContentTextMapHash": 2165868386,
      "talkAssetPath": "",
      "talkAssetPathAlter": "",
      "talkAudioName": "",
      "actionBefore": "",
      "actionWhile": "",
      "actionAfter": "",
      "optionIcon": "",
      "iconPath": ""
    },
    {
      "id": 690330408,
      "nextDialogs": [
        690330409,
        690330410
      ],
      "talkRole": {
        "type": "TALK_ROLE_NPC",
        "_id": "9033"
      },
      "talkContentTextMapHash": 2933854650,
      "talkAssetPath": "",
      "talkAssetPathAlter": "",
      "talkAudioName": "",
      "actionBefore": "",
      "actionWhile": "",
      "actionAfter": "",
      "optionIcon": "",
      "iconPath": ""
    },
    {
      "id": 690330409,
      "nextDialogs": [
        690330411
      ],
      "talkShowType": "TALK_SHOW_FORCE_SELECT",
      "talkRole": {
        "type": "TALK_ROLE_PLAYER",
        "_id": ""
      },
      "talkContentTextMapHash": 3275929274,
      "talkAssetPath": "",
      "talkAssetPathAlter": "",
      "talkAudioName": "",
      "actionBefore": "",
      "actionWhile": "",
      "actionAfter": "",
      "optionIcon": "",
      "iconPath": ""
    },
    {
      "id": 690330411,
      "nextDialogs": [
        690330412
      ],
      "talkRole": {
        "type": "TALK_ROLE_NPC",
        "_id": "9033"
      },
      "talkContentTextMapHash": 4222675458,
      "talkAssetPath": "",
      "talkAssetPathAlter": "",
      "talkAudioName": "",
      "actionBefore": "",
      "actionWhile": "",
      "actionAfter": "",
      "optionIcon": "",
      "iconPath": ""
    },
    {
      "id": 690330412,
      "nextDialogs": [
        690330413
      ],
      "talkRole": {
        "type": "TALK_ROLE_NPC",
        "_id": "9033"
      },
      "talkContentTextMapHash": 1065286730,
      "talkAssetPath": "",
      "talkAssetPathAlter": "",
      "talkAudioName": "",
      "actionBefore": "",
      "actionWhile": "",
      "actionAfter": "",
      "optionIcon": "",
      "iconPath": ""
    },
    {
      "id": 690330413,
      "talkRole": {
        "type": "TALK_ROLE_NPC",
        "_id": "9033"
      },
      "talkContentTextMapHash": 2655962906,
      "talkAssetPath": "",
      "talkAssetPathAlter": "",
      "talkAudioName": "",
      "actionBefore": "",
      "actionWhile": "",
      "actionAfter": "",
      "optionIcon": "",
      "iconPath": ""
    },
    {
      "id": 690330410,
      "nextDialogs": [
        690330411
      ],
      "talkShowType": "TALK_SHOW_FORCE_SELECT",
      "talkRole": {
        "type": "TALK_ROLE_PLAYER",
        "_id": ""
      },
      "talkContentTextMapHash": 3884300762,
      "talkAssetPath": "",
      "talkAssetPathAlter": "",
      "talkAudioName": "",
      "actionBefore": "",
      "actionWhile": "",
      "actionAfter": "",
      "optionIcon": "",
      "iconPath": ""
    }
  ]
}