{
  "talkId": 6904306,
  "KPGKDHAFHFE": "FREE",
  "dialogList": [
    {
      "id": 690430601,
      "nextDialogs": [
        690430602
      ],
      "talkShowType": "TALK_SHOW_FORCE_SELECT",
      "talkRole": {
        "type": "TALK_ROLE_PLAYER",
        "_id": ""
      },
      "talkContentTextMapHash": 180234234,
      "talkAssetPath": "",
      "talkAssetPathAlter": "",
      "talkAudioName": "",
      "actionBefore": "",
      "actionWhile": "",
      "actionAfter": "",
      "optionIcon": "",
      "iconPath": ""
    },
    {
      "id": 690430602,
      "nextDialogs": [
        690430603
      ],
      "talkRole": {
        "type": "TALK_ROLE_NPC",
        "_id": "9043"
      },
      "talkContentTextMapHash": 3260119714,
      "talkAssetPath": "",
      "talkAssetPathAlter": "",
      "talkAudioName": "",
      "actionBefore": "",
      "actionWhile": "",
      "actionAfter": "",
      "optionIcon": "",
      "iconPath": ""
    },
    {
      "id": 690430603,
      "nextDialogs": [
        690430604
      ],
      "talkRole": {
        "type": "TALK_ROLE_NPC",
        "_id": "9043"
      },
      "talkContentTextMapHash": 2457187682,
      "talkAssetPath": "",
      "talkAssetPathAlter": "",
      "talkAudioName": "",
      "actionBefore": "",
      "actionWhile": "",
      "actionAfter": "",
      "optionIcon": "",
      "iconPath": ""
    },
    {
      "id": 690430604,
      "talkRole": {
        "type": "TALK_ROLE_NPC",
        "_id": "9043"
      },
      "talkContentTextMapHash": 1696383546,
      "talkAssetPath": "",
      "talkAssetPathAlter": "",
      "talkAudioName": "",
      "actionBefore": "",
      "actionWhile": "",
      "actionAfter": "",
      "optionIcon": "",
      "iconPath": ""
    }
  ]
}