{
  "talkId": 6904307,
  "KPGKDHAFHFE": "FREE",
  "dialogList": [
    {
      "id": 690430701,
      "nextDialogs": [
        690430302
      ],
      "talkShowType": "TALK_SHOW_FORCE_SELECT",
      "talkRole": {
        "type": "TALK_ROLE_PLAYER",
        "_id": ""
      },
      "talkContentTextMapHash": 292475674,
      "talkAssetPath": "",
      "talkAssetPathAlter": "",
      "talkAudioName": "",
      "actionBefore": "",
      "actionWhile": "",
      "actionAfter": "",
      "optionIcon": "",
      "iconPath": ""
    },
    {
      "id": 690430302,
      "nextDialogs": [
        690430303
      ],
      "talkRole": {
        "type": "TALK_ROLE_NPC",
        "_id": "9043"
      },
      "talkContentTextMapHash": 9229938,
      "talkAssetPath": "",
      "talkAssetPathAlter": "",
      "talkAudioName": "",
      "actionBefore": "",
      "actionWhile": "",
      "actionAfter": "",
      "optionIcon": "",
      "iconPath": ""
    },
    {
      "id": 690430303,
      "nextDialogs": [
        690430304
      ],
      "talkRole": {
        "type": "TALK_ROLE_NPC",
        "_id": "9043"
      },
      "talkContentTextMapHash": 4121820754,
      "talkAssetPath": "",
      "talkAssetPathAlter": "",
      "talkAudioName": "",
      "actionBefore": "",
      "actionWhile": "",
      "actionAfter": "",
      "optionIcon": "",
      "iconPath": ""
    },
    {
      "id": 690430304,
      "nextDialogs": [
        690430305
      ],
      "talkRole": {
        "type": "TALK_ROLE_NPC",
        "_id": "9043"
      },
      "talkContentTextMapHash": 1483461730,
      "talkAssetPath": "",
      "talkAssetPathAlter": "",
      "talkAudioName": "",
      "actionBefore": "",
      "actionWhile": "",
      "actionAfter": "",
      "optionIcon": "",
      "iconPath": ""
    },
    {
      "id": 690430305,
      "nextDialogs": [
        690430306
      ],
      "talkRole": {
        "type": "TALK_ROLE_NPC",
        "_id": "9043"
      },
      "talkContentTextMapHash": 4253935554,
      "talkAssetPath": "",
      "talkAssetPathAlter": "",
      "talkAudioName": "",
      "actionBefore": "",
      "actionWhile": "",
      "actionAfter": "",
      "optionIcon": "",
      "iconPath": ""
    },
    {
      "id": 690430306,
      "nextDialogs": [
        690430307,
        690430308
      ],
      "talkRole": {
        "type": "TALK_ROLE_NPC",
        "_id": "9043"
      },
      "talkContentTextMapHash": 2712168850,
      "talkAssetPath": "",
      "talkAssetPathAlter": "",
      "talkAudioName": "",
      "actionBefore": "",
      "actionWhile": "",
      "actionAfter": "",
      "optionIcon": "",
      "iconPath": ""
    },
    {
      "id": 690430307,
      "nextDialogs": [
        690430309
      ],
      "talkShowType": "TALK_SHOW_FORCE_SELECT",
      "talkRole": {
        "type": "TALK_ROLE_PLAYER",
        "_id": ""
      },
      "talkContentTextMapHash": 85636170,
      "talkAssetPath": "",
      "talkAssetPathAlter": "",
      "talkAudioName": "",
      "actionBefore": "",
      "actionWhile": "",
      "actionAfter": "",
      "optionIcon": "",
      "iconPath": ""
    },
    {
      "id": 690430309,
      "nextDialogs": [
        690430310
      ],
      "talkRole": {
        "type": "TALK_ROLE_NPC",
        "_id": "9043"
      },
      "talkContentTextMapHash": 3103981930,
      "talkAssetPath": "",
      "talkAssetPathAlter": "",
      "talkAudioName": "",
      "actionBefore": "",
      "actionWhile": "",
      "actionAfter": "",
      "optionIcon": "",
      "iconPath": ""
    },
    {
      "id": 690430310,
      "nextDialogs": [
        690430311,
        690430312
      ],
      "talkRole": {
        "type": "TALK_ROLE_NPC",
        "_id": "9043"
      },
      "talkContentTextMapHash": 1097546586,
      "talkAssetPath": "",
      "talkAssetPathAlter": "",
      "talkAudioName": "",
      "actionBefore": "",
      "actionWhile": "",
      "actionAfter": "",
      "optionIcon": "",
      "iconPath": ""
    },
    {
      "id": 690430311,
      "nextDialogs": [
        690430313
      ],
      "talkShowType": "TALK_SHOW_FORCE_SELECT",
      "talkRole": {
        "type": "TALK_ROLE_PLAYER",
        "_id": ""
      },
      "talkContentTextMapHash": 3738715402,
      "talkAssetPath": "",
      "talkAssetPathAlter": "",
      "talkAudioName": "",
      "actionBefore": "",
      "actionWhile": "",
      "actionAfter": "",
      "optionIcon": "",
      "iconPath": ""
    },
    {
      "id": 690430313,
      "nextDialogs": [
        690430314
      ],
      "talkRole": {
        "type": "TALK_ROLE_NPC",
        "_id": "9043"
      },
      "talkContentTextMapHash": 681751274,
      "talkAssetPath": "",
      "talkAssetPathAlter": "",
      "talkAudioName": "",
      "actionBefore": "",
      "actionWhile": "",
      "actionAfter": "",
      "optionIcon": "",
      "iconPath": ""
    },
    {
      "id": 690430314,
      "nextDialogs": [
        690430315
      ],
      "talkRole": {
        "type": "TALK_ROLE_NPC",
        "_id": "9043"
      },
      "talkContentTextMapHash": 187479994,
      "talkAssetPath": "",
      "talkAssetPathAlter": "",
      "talkAudioName": "",
      "actionBefore": "",
      "actionWhile": "",
      "actionAfter": "",
      "optionIcon": "",
      "iconPath": ""
    },
    {
      "id": 690430315,
      "talkRole": {
        "type": "TALK_ROLE_NPC",
        "_id": "9043"
      },
      "talkContentTextMapHash": 958771298,
      "talkAssetPath": "",
      "talkAssetPathAlter": "",
      "talkAudioName": "",
      "actionBefore": "",
      "actionWhile": "",
      "actionAfter": "",
      "optionIcon": "",
      "iconPath": ""
    },
    {
      "id": 690430312,
      "nextDialogs": [
        690430313
      ],
      "talkShowType": "TALK_SHOW_FORCE_SELECT",
      "talkRole": {
        "type": "TALK_ROLE_PLAYER",
        "_id": ""
      },
      "talkContentTextMapHash": 3279583786,
      "talkAssetPath": "",
      "talkAssetPathAlter": "",
      "talkAudioName": "",
      "actionBefore": "",
      "actionWhile": "",
      "actionAfter": "",
      "optionIcon": "",
      "iconPath": ""
    },
    {
      "id": 690430308,
      "nextDialogs": [
        690430309
      ],
      "talkShowType": "TALK_SHOW_FORCE_SELECT",
      "talkRole": {
        "type": "TALK_ROLE_PLAYER",
        "_id": ""
      },
      "talkContentTextMapHash": 3004982978,
      "talkAssetPath": "",
      "talkAssetPathAlter": "",
      "talkAudioName": "",
      "actionBefore": "",
      "actionWhile": "",
      "actionAfter": "",
      "optionIcon": "",
      "iconPath": ""
    }
  ]
}