{
  "talkId": 6904803,
  "KPGKDHAFHFE": "FREE",
  "dialogList": [
    {
      "id": 690480301,
      "nextDialogs": [
        690480302
      ],
      "talkShowType": "TALK_SHOW_FORCE_SELECT",
      "talkRole": {
        "type": "TALK_ROLE_PLAYER",
        "_id": ""
      },
      "talkContentTextMapHash": 707790610,
      "talkAssetPath": "",
      "talkAssetPathAlter": "",
      "talkAudioName": "",
      "actionBefore": "",
      "actionWhile": "",
      "actionAfter": "",
      "optionIcon": "",
      "iconPath": ""
    },
    {
      "id": 690480302,
      "nextDialogs": [
        690480303
      ],
      "talkRole": {
        "type": "TALK_ROLE_NPC",
        "_id": "9048"
      },
      "talkContentTextMapHash": 3398784458,
      "talkAssetPath": "",
      "talkAssetPathAlter": "",
      "talkAudioName": "",
      "actionBefore": "",
      "actionWhile": "",
      "actionAfter": "",
      "optionIcon": "",
      "iconPath": ""
    },
    {
      "id": 690480303,
      "nextDialogs": [
        690480304,
        690480308
      ],
      "talkRole": {
        "type": "TALK_ROLE_NPC",
        "_id": "9048"
      },
      "talkContentTextMapHash": 2261034866,
      "talkAssetPath": "",
      "talkAssetPathAlter": "",
      "talkAudioName": "",
      "actionBefore": "",
      "actionWhile": "",
      "actionAfter": "",
      "optionIcon": "",
      "iconPath": ""
    },
    {
      "id": 690480304,
      "nextDialogs": [
        690480305
      ],
      "talkShowType": "TALK_SHOW_FORCE_SELECT",
      "talkRole": {
        "type": "TALK_ROLE_PLAYER",
        "_id": ""
      },
      "talkContentTextMapHash": 1681578026,
      "talkAssetPath": "",
      "talkAssetPathAlter": "",
      "talkAudioName": "",
      "actionBefore": "",
      "actionWhile": "",
      "actionAfter": "",
      "optionIcon": "",
      "iconPath": ""
    },
    {
      "id": 690480305,
      "nextDialogs": [
        690480306
      ],
      "talkRole": {
        "type": "TALK_ROLE_NPC",
        "_id": "9048"
      },
      "talkContentTextMapHash": 3348809986,
      "talkAssetPath": "",
      "talkAssetPathAlter": "",
      "talkAudioName": "",
      "actionBefore": "",
      "actionWhile": "",
      "actionAfter": "",
      "optionIcon": "",
      "iconPath": ""
    },
    {
      "id": 690480306,
      "nextDialogs": [
        690480307
      ],
      "talkRole": {
        "type": "TALK_ROLE_NPC",
        "_id": "9048"
      },
      "talkContentTextMapHash": 2811867242,
      "talkAssetPath": "",
      "talkAssetPathAlter": "",
      "talkAudioName": "",
      "actionBefore": "",
      "actionWhile": "",
      "actionAfter": "",
      "optionIcon": "",
      "iconPath": ""
    },
    {
      "id": 690480307,
      "nextDialogs": [
        690480312
      ],
      "talkRole": {
        "type": "TALK_ROLE_NPC",
        "_id": "9048"
      },
      "talkContentTextMapHash": 1587787554,
      "talkAssetPath": "",
      "talkAssetPathAlter": "",
      "talkAudioName": "",
      "actionBefore": "",
      "actionWhile": "",
      "actionAfter": "",
      "optionIcon": "",
      "iconPath": ""
    },
    {
      "id": 690480312,
      "nextDialogs": [
        690480313
      ],
      "talkShowType": "TALK_SHOW_FORCE_SELECT",
      "talkRole": {
        "type": "TALK_ROLE_PLAYER",
        "_id": ""
      },
      "talkContentTextMapHash": 1791835986,
      "talkAssetPath": "",
      "talkAssetPathAlter": "",
      "talkAudioName": "",
      "actionBefore": "",
      "actionWhile": "",
      "actionAfter": "",
      "optionIcon": "",
      "iconPath": ""
    },
    {
      "id": 690480313,
      "nextDialogs": [
        690480314,
        690480315
      ],
      "talkRole": {
        "type": "TALK_ROLE_NPC",
        "_id": "9048"
      },
      "talkContentTextMapHash": 1101556858,
      "talkAssetPath": "",
      "talkAssetPathAlter": "",
      "talkAudioName": "",
      "actionBefore": "",
      "actionWhile": "",
      "actionAfter": "",
      "optionIcon": "",
      "iconPath": ""
    },
    {
      "id": 690480314,
      "nextDialogs": [
        690480316
      ],
      "talkShowType": "TALK_SHOW_FORCE_SELECT",
      "talkRole": {
        "type": "TALK_ROLE_PLAYER",
        "_id": ""
      },
      "talkContentTextMapHash": 1972927610,
      "talkAssetPath": "",
      "talkAssetPathAlter": "",
      "talkAudioName": "",
      "actionBefore": "",
      "actionWhile": "",
      "actionAfter": "",
      "optionIcon": "",
      "iconPath": ""
    },
    {
      "id": 690480316,
      "nextDialogs": [
        690480317
      ],
      "talkRole": {
        "type": "TALK_ROLE_NPC",
        "_id": "9048"
      },
      "talkContentTextMapHash": 2752279250,
      "talkAssetPath": "",
      "talkAssetPathAlter": "",
      "talkAudioName": "",
      "actionBefore": "",
      "actionWhile": "",
      "actionAfter": "",
      "optionIcon": "",
      "iconPath": ""
    },
    {
      "id": 690480317,
      "nextDialogs": [
        690480318
      ],
      "talkRole": {
        "type": "TALK_ROLE_NPC",
        "_id": "9048"
      },
      "talkContentTextMapHash": 87778250,
      "talkAssetPath": "",
      "talkAssetPathAlter": "",
      "talkAudioName": "",
      "actionBefore": "",
      "actionWhile": "",
      "actionAfter": "",
      "optionIcon": "",
      "iconPath": ""
    },
    {
      "id": 690480318,
      "talkRole": {
        "type": "TALK_ROLE_NPC",
        "_id": "9048"
      },
      "talkContentTextMapHash": 3975341010,
      "talkAssetPath": "",
      "talkAssetPathAlter": "",
      "talkAudioName": "",
      "actionBefore": "",
      "actionWhile": "",
      "actionAfter": "",
      "optionIcon": "",
      "iconPath": ""
    },
    {
      "id": 690480315,
      "nextDialogs": [
        690480316
      ],
      "talkShowType": "TALK_SHOW_FORCE_SELECT",
      "talkRole": {
        "type": "TALK_ROLE_PLAYER",
        "_id": ""
      },
      "talkContentTextMapHash": 2055844026,
      "talkAssetPath": "",
      "talkAssetPathAlter": "",
      "talkAudioName": "",
      "actionBefore": "",
      "actionWhile": "",
      "actionAfter": "",
      "optionIcon": "",
      "iconPath": ""
    },
    {
      "id": 690480308,
      "nextDialogs": [
        690480309
      ],
      "talkShowType": "TALK_SHOW_FORCE_SELECT",
      "talkRole": {
        "type": "TALK_ROLE_PLAYER",
        "_id": ""
      },
      "talkContentTextMapHash": 2368071858,
      "talkAssetPath": "",
      "talkAssetPathAlter": "",
      "talkAudioName": "",
      "actionBefore": "",
      "actionWhile": "",
      "actionAfter": "",
      "optionIcon": "",
      "iconPath": ""
    },
    {
      "id": 690480309,
      "nextDialogs": [
        690480310
      ],
      "talkRole": {
        "type": "TALK_ROLE_NPC",
        "_id": "9048"
      },
      "talkContentTextMapHash": 3850407586,
      "talkAssetPath": "",
      "talkAssetPathAlter": "",
      "talkAudioName": "",
      "actionBefore": "",
      "actionWhile": "",
      "actionAfter": "",
      "optionIcon": "",
      "iconPath": ""
    },
    {
      "id": 690480310,
      "nextDialogs": [
        690480311
      ],
      "talkRole": {
        "type": "TALK_ROLE_NPC",
        "_id": "9048"
      },
      "talkContentTextMapHash": 1485081642,
      "talkAssetPath": "",
      "talkAssetPathAlter": "",
      "talkAudioName": "",
      "actionBefore": "",
      "actionWhile": "",
      "actionAfter": "",
      "optionIcon": "",
      "iconPath": ""
    },
    {
      "id": 690480311,
      "nextDialogs": [
        690480312
      ],
      "talkRole": {
        "type": "TALK_ROLE_NPC",
        "_id": "9048"
      },
      "talkContentTextMapHash": 782303738,
      "talkAssetPath": "",
      "talkAssetPathAlter": "",
      "talkAudioName": "",
      "actionBefore": "",
      "actionWhile": "",
      "actionAfter": "",
      "optionIcon": "",
      "iconPath": ""
    }
  ]
}