{
  "talkId": 6904850,
  "KPGKDHAFHFE": "FREE",
  "dialogList": [
    {
      "id": 690485001,
      "nextDialogs": [
        690485002
      ],
      "talkRole": {
        "type": "TALK_ROLE_NPC",
        "_id": "9048"
      },
      "talkContentTextMapHash": 1357661746,
      "talkAssetPath": "",
      "talkAssetPathAlter": "",
      "talkAudioName": "",
      "actionBefore": "",
      "actionWhile": "",
      "actionAfter": "",
      "optionIcon": "",
      "iconPath": ""
    },
    {
      "id": 690485002,
      "nextDialogs": [
        690485003
      ],
      "talkRole": {
        "type": "TALK_ROLE_NPC",
        "_id": "9048"
      },
      "talkContentTextMapHash": 4285302562,
      "talkAssetPath": "",
      "talkAssetPathAlter": "",
      "talkAudioName": "",
      "actionBefore": "",
      "actionWhile": "",
      "actionAfter": "",
      "optionIcon": "",
      "iconPath": ""
    },
    {
      "id": 690485003,
      "talkRole": {
        "type": "TALK_ROLE_NPC",
        "_id": "9048"
      },
      "talkContentTextMapHash": 547837994,
      "talkAssetPath": "",
      "talkAssetPathAlter": "",
      "talkAudioName": "",
      "actionBefore": "",
      "actionWhile": "",
      "actionAfter": "",
      "optionIcon": "",
      "iconPath": ""
    }
  ]
}