{
  "talkId": 6904908,
  "KPGKDHAFHFE": "FREE",
  "dialogList": [
    {
      "id": 690490801,
      "nextDialogs": [
        690490302
      ],
      "talkShowType": "TALK_SHOW_FORCE_SELECT",
      "talkRole": {
        "type": "TALK_ROLE_PLAYER",
        "_id": ""
      },
      "talkContentTextMapHash": 263422330,
      "talkAssetPath": "",
      "talkAssetPathAlter": "",
      "talkAudioName": "",
      "actionBefore": "",
      "actionWhile": "",
      "actionAfter": "",
      "optionIcon": "",
      "iconPath": ""
    },
    {
      "id": 690490302,
      "nextDialogs": [
        690490303
      ],
      "talkRole": {
        "type": "TALK_ROLE_NPC",
        "_id": "9049"
      },
      "talkContentTextMapHash": 694985146,
      "talkAssetPath": "",
      "talkAssetPathAlter": "",
      "talkAudioName": "",
      "actionBefore": "",
      "actionWhile": "",
      "actionAfter": "",
      "optionIcon": "",
      "iconPath": ""
    },
    {
      "id": 690490303,
      "nextDialogs": [
        690490304
      ],
      "talkRole": {
        "type": "TALK_ROLE_NPC",
        "_id": "9049"
      },
      "talkContentTextMapHash": 1854706810,
      "talkAssetPath": "",
      "talkAssetPathAlter": "",
      "talkAudioName": "",
      "actionBefore": "",
      "actionWhile": "",
      "actionAfter": "",
      "optionIcon": "",
      "iconPath": ""
    },
    {
      "id": 690490304,
      "nextDialogs": [
        690490305,
        690490310
      ],
      "talkRole": {
        "type": "TALK_ROLE_NPC",
        "_id": "9049"
      },
      "talkContentTextMapHash": 3003888258,
      "talkAssetPath": "",
      "talkAssetPathAlter": "",
      "talkAudioName": "",
      "actionBefore": "",
      "actionWhile": "",
      "actionAfter": "",
      "optionIcon": "",
      "iconPath": ""
    },
    {
      "id": 690490305,
      "nextDialogs": [
        690490306
      ],
      "talkShowType": "TALK_SHOW_FORCE_SELECT",
      "talkRole": {
        "type": "TALK_ROLE_PLAYER",
        "_id": ""
      },
      "talkContentTextMapHash": 3884355194,
      "talkAssetPath": "",
      "talkAssetPathAlter": "",
      "talkAudioName": "",
      "actionBefore": "",
      "actionWhile": "",
      "actionAfter": "",
      "optionIcon": "",
      "iconPath": ""
    },
    {
      "id": 690490306,
      "nextDialogs": [
        690490307
      ],
      "talkRole": {
        "type": "TALK_ROLE_NPC",
        "_id": "9049"
      },
      "talkContentTextMapHash": 3291743410,
      "talkAssetPath": "",
      "talkAssetPathAlter": "",
      "talkAudioName": "",
      "actionBefore": "",
      "actionWhile": "",
      "actionAfter": "",
      "optionIcon": "",
      "iconPath": ""
    },
    {
      "id": 690490307,
      "nextDialogs": [
        690490308
      ],
      "talkRole": {
        "type": "TALK_ROLE_NPC",
        "_id": "9049"
      },
      "talkContentTextMapHash": 2567220802,
      "talkAssetPath": "",
      "talkAssetPathAlter": "",
      "talkAudioName": "",
      "actionBefore": "",
      "actionWhile": "",
      "actionAfter": "",
      "optionIcon": "",
      "iconPath": ""
    },
    {
      "id": 690490308,
      "nextDialogs": [
        690490309
      ],
      "talkRole": {
        "type": "TALK_ROLE_NPC",
        "_id": "9049"
      },
      "talkContentTextMapHash": 266658338,
      "talkAssetPath": "",
      "talkAssetPathAlter": "",
      "talkAudioName": "",
      "actionBefore": "",
      "actionWhile": "",
      "actionAfter": "",
      "optionIcon": "",
      "iconPath": ""
    },
    {
      "id": 690490309,
      "nextDialogs": [
        690490315
      ],
      "talkRole": {
        "type": "TALK_ROLE_NPC",
        "_id": "9049"
      },
      "talkContentTextMapHash": 1922052306,
      "talkAssetPath": "",
      "talkAssetPathAlter": "",
      "talkAudioName": "",
      "actionBefore": "",
      "actionWhile": "",
      "actionAfter": "",
      "optionIcon": "",
      "iconPath": ""
    },
    {
      "id": 690490315,
      "nextDialogs": [
        690490316
      ],
      "talkRole": {
        "type": "TALK_ROLE_NPC",
        "_id": "9049"
      },
      "talkContentTextMapHash": 4092409434,
      "talkAssetPath": "",
      "talkAssetPathAlter": "",
      "talkAudioName": "",
      "actionBefore": "",
      "actionWhile": "",
      "actionAfter": "",
      "optionIcon": "",
      "iconPath": ""
    },
    {
      "id": 690490316,
      "nextDialogs": [
        690490317
      ],
      "talkShowType": "TALK_SHOW_FORCE_SELECT",
      "talkRole": {
        "type": "TALK_ROLE_PLAYER",
        "_id": ""
      },
      "talkContentTextMapHash": 1672302890,
      "talkAssetPath": "",
      "talkAssetPathAlter": "",
      "talkAudioName": "",
      "actionBefore": "",
      "actionWhile": "",
      "actionAfter": "",
      "optionIcon": "",
      "iconPath": ""
    },
    {
      "id": 690490317,
      "nextDialogs": [
        690490318
      ],
      "talkRole": {
        "type": "TALK_ROLE_NPC",
        "_id": "9049"
      },
      "talkContentTextMapHash": 2518427242,
      "talkAssetPath": "",
      "talkAssetPathAlter": "",
      "talkAudioName": "",
      "actionBefore": "",
      "actionWhile": "",
      "actionAfter": "",
      "optionIcon": "",
      "iconPath": ""
    },
    {
      "id": 690490318,
      "nextDialogs": [
        690490319
      ],
      "talkRole": {
        "type": "TALK_ROLE_NPC",
        "_id": "9049"
      },
      "talkContentTextMapHash": 1972303602,
      "talkAssetPath": "",
      "talkAssetPathAlter": "",
      "talkAudioName": "",
      "actionBefore": "",
      "actionWhile": "",
      "actionAfter": "",
      "optionIcon": "",
      "iconPath": ""
    },
    {
      "id": 690490319,
      "nextDialogs": [
        690490320
      ],
      "talkRole": {
        "type": "TALK_ROLE_NPC",
        "_id": "9049"
      },
      "talkContentTextMapHash": 4018560650,
      "talkAssetPath": "",
      "talkAssetPathAlter": "",
      "talkAudioName": "",
      "actionBefore": "",
      "actionWhile": "",
      "actionAfter": "",
      "optionIcon": "",
      "iconPath": ""
    },
    {
      "id": 690490320,
      "nextDialogs": [
        690490321
      ],
      "talkShowType": "TALK_SHOW_FORCE_SELECT",
      "talkRole": {
        "type": "TALK_ROLE_PLAYER",
        "_id": ""
      },
      "talkContentTextMapHash": 2701458562,
      "talkAssetPath": "",
      "talkAssetPathAlter": "",
      "talkAudioName": "",
      "actionBefore": "",
      "actionWhile": "",
      "actionAfter": "",
      "optionIcon": "",
      "iconPath": ""
    },
    {
      "id": 690490321,
      "nextDialogs": [
        690490322
      ],
      "talkRole": {
        "type": "TALK_ROLE_NPC",
        "_id": "9049"
      },
      "talkContentTextMapHash": 1164189442,
      "talkAssetPath": "",
      "talkAssetPathAlter": "",
      "talkAudioName": "",
      "actionBefore": "",
      "actionWhile": "",
      "actionAfter": "",
      "optionIcon": "",
      "iconPath": ""
    },
    {
      "id": 690490322,
      "nextDialogs": [
        690490323
      ],
      "talkRole": {
        "type": "TALK_ROLE_NPC",
        "_id": "9049"
      },
      "talkContentTextMapHash": 1830391210,
      "talkAssetPath": "",
      "talkAssetPathAlter": "",
      "talkAudioName": "",
      "actionBefore": "",
      "actionWhile": "",
      "actionAfter": "",
      "optionIcon": "",
      "iconPath": ""
    },
    {
      "id": 690490323,
      "talkRole": {
        "type": "TALK_ROLE_NPC",
        "_id": "9049"
      },
      "talkContentTextMapHash": 2483613554,
      "talkAssetPath": "",
      "talkAssetPathAlter": "",
      "talkAudioName": "",
      "actionBefore": "",
      "actionWhile": "",
      "actionAfter": "",
      "optionIcon": "",
      "iconPath": ""
    },
    {
      "id": 690490310,
      "nextDialogs": [
        690490311
      ],
      "talkShowType": "TALK_SHOW_FORCE_SELECT",
      "talkRole": {
        "type": "TALK_ROLE_PLAYER",
        "_id": ""
      },
      "talkContentTextMapHash": 3637368042,
      "talkAssetPath": "",
      "talkAssetPathAlter": "",
      "talkAudioName": "",
      "actionBefore": "",
      "actionWhile": "",
      "actionAfter": "",
      "optionIcon": "",
      "iconPath": ""
    },
    {
      "id": 690490311,
      "nextDialogs": [
        690490312
      ],
      "talkRole": {
        "type": "TALK_ROLE_NPC",
        "_id": "9049"
      },
      "talkContentTextMapHash": 3821072698,
      "talkAssetPath": "",
      "talkAssetPathAlter": "",
      "talkAudioName": "",
      "actionBefore": "",
      "actionWhile": "",
      "actionAfter": "",
      "optionIcon": "",
      "iconPath": ""
    },
    {
      "id": 690490312,
      "nextDialogs": [
        690490313
      ],
      "talkRole": {
        "type": "TALK_ROLE_NPC",
        "_id": "9049"
      },
      "talkContentTextMapHash": 1529308818,
      "talkAssetPath": "",
      "talkAssetPathAlter": "",
      "talkAudioName": "",
      "actionBefore": "",
      "actionWhile": "",
      "actionAfter": "",
      "optionIcon": "",
      "iconPath": ""
    },
    {
      "id": 690490313,
      "nextDialogs": [
        690490314
      ],
      "talkRole": {
        "type": "TALK_ROLE_NPC",
        "_id": "9049"
      },
      "talkContentTextMapHash": 786834802,
      "talkAssetPath": "",
      "talkAssetPathAlter": "",
      "talkAudioName": "",
      "actionBefore": "",
      "actionWhile": "",
      "actionAfter": "",
      "optionIcon": "",
      "iconPath": ""
    },
    {
      "id": 690490314,
      "nextDialogs": [
        690490315
      ],
      "talkRole": {
        "type": "TALK_ROLE_NPC",
        "_id": "9049"
      },
      "talkContentTextMapHash": 1988610386,
      "talkAssetPath": "",
      "talkAssetPathAlter": "",
      "talkAudioName": "",
      "actionBefore": "",
      "actionWhile": "",
      "actionAfter": "",
      "optionIcon": "",
      "iconPath": ""
    }
  ]
}