{
  "talkId": 6904506,
  "KPGKDHAFHFE": "FREE",
  "dialogList": [
    {
      "id": 690450601,
      "nextDialogs": [
        690450602
      ],
      "talkShowType": "TALK_SHOW_FORCE_SELECT",
      "talkRole": {
        "type": "TALK_ROLE_PLAYER",
        "_id": ""
      },
      "talkContentTextMapHash": 1415887770,
      "talkAssetPath": "",
      "talkAssetPathAlter": "",
      "talkAudioName": "",
      "actionBefore": "",
      "actionWhile": "",
      "actionAfter": "",
      "optionIcon": "",
      "iconPath": ""
    },
    {
      "id": 690450602,
      "nextDialogs": [
        690450603
      ],
      "talkRole": {
        "type": "TALK_ROLE_NPC",
        "_id": "9045"
      },
      "talkContentTextMapHash": 59056010,
      "talkAssetPath": "",
      "talkAssetPathAlter": "",
      "talkAudioName": "",
      "actionBefore": "",
      "actionWhile": "",
      "actionAfter": "",
      "optionIcon": "",
      "iconPath": ""
    },
    {
      "id": 690450603,
      "talkRole": {
        "type": "TALK_ROLE_NPC",
        "_id": "9045"
      },
      "talkContentTextMapHash": 102904898,
      "talkAssetPath": "",
      "talkAssetPathAlter": "",
      "talkAudioName": "",
      "actionBefore": "",
      "actionWhile": "",
      "actionAfter": "",
      "optionIcon": "",
      "iconPath": ""
    }
  ]
}