{
  "talkId": 6904201,
  "KPGKDHAFHFE": "FREE",
  "dialogList": [
    {
      "id": 690420101,
      "nextDialogs": [
        690420102
      ],
      "talkRole": {
        "type": "TALK_ROLE_NPC",
        "_id": "9042"
      },
      "talkContentTextMapHash": 2213079034,
      "talkAssetPath": "",
      "talkAssetPathAlter": "",
      "talkAudioName": "",
      "actionBefore": "",
      "actionWhile": "",
      "actionAfter": "",
      "optionIcon": "",
      "iconPath": ""
    },
    {
      "id": 690420102,
      "talkRole": {
        "type": "TALK_ROLE_NPC",
        "_id": "9042"
      },
      "talkContentTextMapHash": 3136348802,
      "talkAssetPath": "",
      "talkAssetPathAlter": "",
      "talkAudioName": "",
      "actionBefore": "",
      "actionWhile": "",
      "actionAfter": "",
      "optionIcon": "",
      "iconPath": ""
    }
  ]
}