{
  "talkId": 6904609,
  "KPGKDHAFHFE": "FREE",
  "dialogList": [
    {
      "id": 690460901,
      "nextDialogs": [
        690460202
      ],
      "talkShowType": "TALK_SHOW_FORCE_SELECT",
      "talkRole": {
        "type": "TALK_ROLE_PLAYER",
        "_id": ""
      },
      "talkContentTextMapHash": 4246474898,
      "talkAssetPath": "",
      "talkAssetPathAlter": "",
      "talkAudioName": "",
      "actionBefore": "",
      "actionWhile": "",
      "actionAfter": "",
      "optionIcon": "",
      "iconPath": ""
    },
    {
      "id": 690460202,
      "nextDialogs": [
        690460203
      ],
      "talkRole": {
        "type": "TALK_ROLE_NPC",
        "_id": "9046"
      },
      "talkContentTextMapHash": 1164736914,
      "talkAssetPath": "",
      "talkAssetPathAlter": "",
      "talkAudioName": "",
      "actionBefore": "",
      "actionWhile": "",
      "actionAfter": "",
      "optionIcon": "",
      "iconPath": ""
    },
    {
      "id": 690460203,
      "nextDialogs": [
        690460204,
        690460207
      ],
      "talkRole": {
        "type": "TALK_ROLE_NPC",
        "_id": "9046"
      },
      "talkContentTextMapHash": 1265607266,
      "talkAssetPath": "",
      "talkAssetPathAlter": "",
      "talkAudioName": "",
      "actionBefore": "",
      "actionWhile": "",
      "actionAfter": "",
      "optionIcon": "",
      "iconPath": ""
    },
    {
      "id": 690460204,
      "nextDialogs": [
        690460205
      ],
      "talkShowType": "TALK_SHOW_FORCE_SELECT",
      "talkRole": {
        "type": "TALK_ROLE_PLAYER",
        "_id": ""
      },
      "talkContentTextMapHash": 3832993298,
      "talkAssetPath": "",
      "talkAssetPathAlter": "",
      "talkAudioName": "",
      "actionBefore": "",
      "actionWhile": "",
      "actionAfter": "",
      "optionIcon": "",
      "iconPath": ""
    },
    {
      "id": 690460205,
      "nextDialogs": [
        690460206
      ],
      "talkRole": {
        "type": "TALK_ROLE_NPC",
        "_id": "9046"
      },
      "talkContentTextMapHash": 4123412458,
      "talkAssetPath": "",
      "talkAssetPathAlter": "",
      "talkAudioName": "",
      "actionBefore": "",
      "actionWhile": "",
      "actionAfter": "",
      "optionIcon": "",
      "iconPath": ""
    },
    {
      "id": 690460206,
      "talkRole": {
        "type": "TALK_ROLE_NPC",
        "_id": "9046"
      },
      "talkContentTextMapHash": 655942058,
      "talkAssetPath": "",
      "talkAssetPathAlter": "",
      "talkAudioName": "",
      "actionBefore": "",
      "actionWhile": "",
      "actionAfter": "",
      "optionIcon": "",
      "iconPath": ""
    },
    {
      "id": 690460207,
      "nextDialogs": [
        690460208
      ],
      "talkShowType": "TALK_SHOW_FORCE_SELECT",
      "talkRole": {
        "type": "TALK_ROLE_PLAYER",
        "_id": ""
      },
      "talkContentTextMapHash": 1227711522,
      "talkAssetPath": "",
      "talkAssetPathAlter": "",
      "talkAudioName": "",
      "actionBefore": "",
      "actionWhile": "",
      "actionAfter": "",
      "optionIcon": "",
      "iconPath": ""
    },
    {
      "id": 690460208,
      "nextDialogs": [
        690460209
      ],
      "talkRole": {
        "type": "TALK_ROLE_NPC",
        "_id": "9046"
      },
      "talkContentTextMapHash": 2537477482,
      "talkAssetPath": "",
      "talkAssetPathAlter": "",
      "talkAudioName": "",
      "actionBefore": "",
      "actionWhile": "",
      "actionAfter": "",
      "optionIcon": "",
      "iconPath": ""
    },
    {
      "id": 690460209,
      "talkRole": {
        "type": "TALK_ROLE_NPC",
        "_id": "9046"
      },
      "talkContentTextMapHash": 4226982146,
      "talkAssetPath": "",
      "talkAssetPathAlter": "",
      "talkAudioName": "",
      "actionBefore": "",
      "actionWhile": "",
      "actionAfter": "",
      "optionIcon": "",
      "iconPath": ""
    }
  ]
}