{
  "talkId": 6904650,
  "KPGKDHAFHFE": "FREE",
  "dialogList": [
    {
      "id": 690465001,
      "nextDialogs": [
        690465002
      ],
      "talkRole": {
        "type": "TALK_ROLE_NPC",
        "_id": "9046"
      },
      "talkContentTextMapHash": 1370390314,
      "talkAssetPath": "",
      "talkAssetPathAlter": "",
      "talkAudioName": "",
      "actionBefore": "",
      "actionWhile": "",
      "actionAfter": "",
      "optionIcon": "",
      "iconPath": ""
    },
    {
      "id": 690465002,
      "nextDialogs": [
        690465003
      ],
      "talkRole": {
        "type": "TALK_ROLE_NPC",
        "_id": "9046"
      },
      "talkContentTextMapHash": 3084332994,
      "talkAssetPath": "",
      "talkAssetPathAlter": "",
      "talkAudioName": "",
      "actionBefore": "",
      "actionWhile": "",
      "actionAfter": "",
      "optionIcon": "",
      "iconPath": ""
    },
    {
      "id": 690465003,
      "talkRole": {
        "type": "TALK_ROLE_NPC",
        "_id": "9046"
      },
      "talkContentTextMapHash": 1807865914,
      "talkAssetPath": "",
      "talkAssetPathAlter": "",
      "talkAudioName": "",
      "actionBefore": "",
      "actionWhile": "",
      "actionAfter": "",
      "optionIcon": "",
      "iconPath": ""
    }
  ]
}