{
  "talkId": 6904910,
  "KPGKDHAFHFE": "FREE",
  "dialogList": [
    {
      "id": 690491001,
      "nextDialogs": [
        690491002
      ],
      "talkRole": {
        "type": "TALK_ROLE_NPC",
        "_id": "9049"
      },
      "talkContentTextMapHash": 2947399914,
      "talkAssetPath": "",
      "talkAssetPathAlter": "",
      "talkAudioName": "",
      "actionBefore": "",
      "actionWhile": "",
      "actionAfter": "",
      "optionIcon": "",
      "iconPath": ""
    },
    {
      "id": 690491002,
      "nextDialogs": [
        690491003
      ],
      "talkRole": {
        "type": "TALK_ROLE_NPC",
        "_id": "9049"
      },
      "talkContentTextMapHash": 2439533226,
      "talkAssetPath": "",
      "talkAssetPathAlter": "",
      "talkAudioName": "",
      "actionBefore": "",
      "actionWhile": "",
      "actionAfter": "",
      "optionIcon": "",
      "iconPath": ""
    },
    {
      "id": 690491003,
      "talkRole": {
        "type": "TALK_ROLE_NPC",
        "_id": "9049"
      },
      "talkContentTextMapHash": 2632981130,
      "talkAssetPath": "",
      "talkAssetPathAlter": "",
      "talkAudioName": "",
      "actionBefore": "",
      "actionWhile": "",
      "actionAfter": "",
      "optionIcon": "",
      "iconPath": ""
    }
  ]
}