{
  "talkId": 6904103,
  "KPGKDHAFHFE": "FREE",
  "dialogList": [
    {
      "id": 690410301,
      "nextDialogs": [
        690410302
      ],
      "talkShowType": "TALK_SHOW_FORCE_SELECT",
      "talkRole": {
        "type": "TALK_ROLE_PLAYER",
        "_id": ""
      },
      "talkContentTextMapHash": 2929776050,
      "talkAssetPath": "",
      "talkAssetPathAlter": "",
      "talkAudioName": "",
      "actionBefore": "",
      "actionWhile": "",
      "actionAfter": "",
      "optionIcon": "",
      "iconPath": ""
    },
    {
      "id": 690410302,
      "nextDialogs": [
        690410303
      ],
      "talkRole": {
        "type": "TALK_ROLE_NPC",
        "_id": "9041"
      },
      "talkContentTextMapHash": 4294187170,
      "talkAssetPath": "",
      "talkAssetPathAlter": "",
      "talkAudioName": "",
      "actionBefore": "",
      "actionWhile": "",
      "actionAfter": "",
      "optionIcon": "",
      "iconPath": ""
    },
    {
      "id": 690410303,
      "nextDialogs": [
        690410304
      ],
      "talkShowType": "TALK_SHOW_FORCE_SELECT",
      "talkRole": {
        "type": "TALK_ROLE_PLAYER",
        "_id": ""
      },
      "talkContentTextMapHash": 238854490,
      "talkAssetPath": "",
      "talkAssetPathAlter": "",
      "talkAudioName": "",
      "actionBefore": "",
      "actionWhile": "",
      "actionAfter": "",
      "optionIcon": "",
      "iconPath": ""
    },
    {
      "id": 690410304,
      "nextDialogs": [
        690410305
      ],
      "talkRole": {
        "type": "TALK_ROLE_NPC",
        "_id": "9041"
      },
      "talkContentTextMapHash": 1948424274,
      "talkAssetPath": "",
      "talkAssetPathAlter": "",
      "talkAudioName": "",
      "actionBefore": "",
      "actionWhile": "",
      "actionAfter": "",
      "optionIcon": "",
      "iconPath": ""
    },
    {
      "id": 690410305,
      "nextDialogs": [
        690410306
      ],
      "talkRole": {
        "type": "TALK_ROLE_NPC",
        "_id": "9041"
      },
      "talkContentTextMapHash": 4207278066,
      "talkAssetPath": "",
      "talkAssetPathAlter": "",
      "talkAudioName": "",
      "actionBefore": "",
      "actionWhile": "",
      "actionAfter": "",
      "optionIcon": "",
      "iconPath": ""
    },
    {
      "id": 690410306,
      "nextDialogs": [
        690410307
      ],
      "talkRole": {
        "type": "TALK_ROLE_NPC",
        "_id": "9041"
      },
      "talkContentTextMapHash": 1390214338,
      "talkAssetPath": "",
      "talkAssetPathAlter": "",
      "talkAudioName": "",
      "actionBefore": "",
      "actionWhile": "",
      "actionAfter": "",
      "optionIcon": "",
      "iconPath": ""
    },
    {
      "id": 690410307,
      "nextDialogs": [
        690410308,
        690410309
      ],
      "talkRole": {
        "type": "TALK_ROLE_NPC",
        "_id": "9041"
      },
      "talkContentTextMapHash": 2593514098,
      "talkAssetPath": "",
      "talkAssetPathAlter": "",
      "talkAudioName": "",
      "actionBefore": "",
      "actionWhile": "",
      "actionAfter": "",
      "optionIcon": "",
      "iconPath": ""
    },
    {
      "id": 690410308,
      "nextDialogs": [
        690410311
      ],
      "talkShowType": "TALK_SHOW_FORCE_SELECT",
      "talkRole": {
        "type": "TALK_ROLE_PLAYER",
        "_id": ""
      },
      "talkContentTextMapHash": 326882546,
      "talkAssetPath": "",
      "talkAssetPathAlter": "",
      "talkAudioName": "",
      "actionBefore": "",
      "actionWhile": "",
      "actionAfter": "",
      "optionIcon": "",
      "iconPath": ""
    },
    {
      "id": 690410311,
      "nextDialogs": [
        690410312
      ],
      "talkRole": {
        "type": "TALK_ROLE_NPC",
        "_id": "9041"
      },
      "talkContentTextMapHash": 1748961002,
      "talkAssetPath": "",
      "talkAssetPathAlter": "",
      "talkAudioName": "",
      "actionBefore": "",
      "actionWhile": "",
      "actionAfter": "",
      "optionIcon": "",
      "iconPath": ""
    },
    {
      "id": 690410312,
      "nextDialogs": [
        690410313
      ],
      "talkRole": {
        "type": "TALK_ROLE_NPC",
        "_id": "9041"
      },
      "talkContentTextMapHash": 1825188362,
      "talkAssetPath": "",
      "talkAssetPathAlter": "",
      "talkAudioName": "",
      "actionBefore": "",
      "actionWhile": "",
      "actionAfter": "",
      "optionIcon": "",
      "iconPath": ""
    },
    {
      "id": 690410313,
      "nextDialogs": [
        690410314,
        690410319
      ],
      "talkRole": {
        "type": "TALK_ROLE_NPC",
        "_id": "9041"
      },
      "talkContentTextMapHash": 3200268882,
      "talkAssetPath": "",
      "talkAssetPathAlter": "",
      "talkAudioName": "",
      "actionBefore": "",
      "actionWhile": "",
      "actionAfter": "",
      "optionIcon": "",
      "iconPath": ""
    },
    {
      "id": 690410314,
      "nextDialogs": [
        690410315
      ],
      "talkShowType": "TALK_SHOW_FORCE_SELECT",
      "talkRole": {
        "type": "TALK_ROLE_PLAYER",
        "_id": ""
      },
      "talkContentTextMapHash": 2206032322,
      "talkAssetPath": "",
      "talkAssetPathAlter": "",
      "talkAudioName": "",
      "actionBefore": "",
      "actionWhile": "",
      "actionAfter": "",
      "optionIcon": "",
      "iconPath": ""
    },
    {
      "id": 690410315,
      "nextDialogs": [
        690410316
      ],
      "talkRole": {
        "type": "TALK_ROLE_NPC",
        "_id": "9041"
      },
      "talkContentTextMapHash": 2761115930,
      "talkAssetPath": "",
      "talkAssetPathAlter": "",
      "talkAudioName": "",
      "actionBefore": "",
      "actionWhile": "",
      "actionAfter": "",
      "optionIcon": "",
      "iconPath": ""
    },
    {
      "id": 690410316,
      "nextDialogs": [
        690410317
      ],
      "talkRole": {
        "type": "TALK_ROLE_NPC",
        "_id": "9041"
      },
      "talkContentTextMapHash": 3801512962,
      "talkAssetPath": "",
      "talkAssetPathAlter": "",
      "talkAudioName": "",
      "actionBefore": "",
      "actionWhile": "",
      "actionAfter": "",
      "optionIcon": "",
      "iconPath": ""
    },
    {
      "id": 690410317,
      "nextDialogs": [
        690410318
      ],
      "talkRole": {
        "type": "TALK_ROLE_NPC",
        "_id": "9041"
      },
      "talkContentTextMapHash": 1324845538,
      "talkAssetPath": "",
      "talkAssetPathAlter": "",
      "talkAudioName": "",
      "actionBefore": "",
      "actionWhile": "",
      "actionAfter": "",
      "optionIcon": "",
      "iconPath": ""
    },
    {
      "id": 690410318,
      "talkRole": {
        "type": "TALK_ROLE_NPC",
        "_id": "9041"
      },
      "talkContentTextMapHash": 734851642,
      "talkAssetPath": "",
      "talkAssetPathAlter": "",
      "talkAudioName": "",
      "actionBefore": "",
      "actionWhile": "",
      "actionAfter": "",
      "optionIcon": "",
      "iconPath": ""
    },
    {
      "id": 690410319,
      "nextDialogs": [
        690410320
      ],
      "talkShowType": "TALK_SHOW_FORCE_SELECT",
      "talkRole": {
        "type": "TALK_ROLE_PLAYER",
        "_id": ""
      },
      "talkContentTextMapHash": 602215954,
      "talkAssetPath": "",
      "talkAssetPathAlter": "",
      "talkAudioName": "",
      "actionBefore": "",
      "actionWhile": "",
      "actionAfter": "",
      "optionIcon": "",
      "iconPath": ""
    },
    {
      "id": 690410320,
      "nextDialogs": [
        690410321
      ],
      "talkRole": {
        "type": "TALK_ROLE_NPC",
        "_id": "9041"
      },
      "talkContentTextMapHash": 1190737234,
      "talkAssetPath": "",
      "talkAssetPathAlter": "",
      "talkAudioName": "",
      "actionBefore": "",
      "actionWhile": "",
      "actionAfter": "",
      "optionIcon": "",
      "iconPath": ""
    },
    {
      "id": 690410321,
      "talkRole": {
        "type": "TALK_ROLE_NPC",
        "_id": "9041"
      },
      "talkContentTextMapHash": 1147985018,
      "talkAssetPath": "",
      "talkAssetPathAlter": "",
      "talkAudioName": "",
      "actionBefore": "",
      "actionWhile": "",
      "actionAfter": "",
      "optionIcon": "",
      "iconPath": ""
    },
    {
      "id": 690410309,
      "nextDialogs": [
        690410310
      ],
      "talkShowType": "TALK_SHOW_FORCE_SELECT",
      "talkRole": {
        "type": "TALK_ROLE_PLAYER",
        "_id": ""
      },
      "talkContentTextMapHash": 3926851578,
      "talkAssetPath": "",
      "talkAssetPathAlter": "",
      "talkAudioName": "",
      "actionBefore": "",
      "actionWhile": "",
      "actionAfter": "",
      "optionIcon": "",
      "iconPath": ""
    },
    {
      "id": 690410310,
      "nextDialogs": [
        690410311
      ],
      "talkRole": {
        "type": "TALK_ROLE_NPC",
        "_id": "9041"
      },
      "talkContentTextMapHash": 2276256330,
      "talkAssetPath": "",
      "talkAssetPathAlter": "",
      "talkAudioName": "",
      "actionBefore": "",
      "actionWhile": "",
      "actionAfter": "",
      "optionIcon": "",
      "iconPath": ""
    }
  ]
}