{
  "talkId": 6904351,
  "KPGKDHAFHFE": "FREE",
  "dialogList": [
    {
      "id": 690435101,
      "nextDialogs": [
        690435102
      ],
      "talkRole": {
        "type": "TALK_ROLE_NPC",
        "_id": "9043"
      },
      "talkContentTextMapHash": 3293841434,
      "talkAssetPath": "",
      "talkAssetPathAlter": "",
      "talkAudioName": "",
      "actionBefore": "",
      "actionWhile": "",
      "actionAfter": "",
      "optionIcon": "",
      "iconPath": ""
    },
    {
      "id": 690435102,
      "nextDialogs": [
        690435103
      ],
      "talkRole": {
        "type": "TALK_ROLE_NPC",
        "_id": "9043"
      },
      "talkContentTextMapHash": 2783276850,
      "talkAssetPath": "",
      "talkAssetPathAlter": "",
      "talkAudioName": "",
      "actionBefore": "",
      "actionWhile": "",
      "actionAfter": "",
      "optionIcon": "",
      "iconPath": ""
    },
    {
      "id": 690435103,
      "talkRole": {
        "type": "TALK_ROLE_NPC",
        "_id": "9043"
      },
      "talkContentTextMapHash": 968691338,
      "talkAssetPath": "",
      "talkAssetPathAlter": "",
      "talkAudioName": "",
      "actionBefore": "",
      "actionWhile": "",
      "actionAfter": "",
      "optionIcon": "",
      "iconPath": ""
    }
  ]
}