{
  "talkId": 6904806,
  "KPGKDHAFHFE": "FREE",
  "dialogList": [
    {
      "id": 690480601,
      "nextDialogs": [
        690480602
      ],
      "talkShowType": "TALK_SHOW_FORCE_SELECT",
      "talkRole": {
        "type": "TALK_ROLE_PLAYER",
        "_id": ""
      },
      "talkContentTextMapHash": 1487997218,
      "talkAssetPath": "",
      "talkAssetPathAlter": "",
      "talkAudioName": "",
      "actionBefore": "",
      "actionWhile": "",
      "actionAfter": "",
      "optionIcon": "",
      "iconPath": ""
    },
    {
      "id": 690480602,
      "nextDialogs": [
        690480603
      ],
      "talkRole": {
        "type": "TALK_ROLE_NPC",
        "_id": "9048"
      },
      "talkContentTextMapHash": 1710640330,
      "talkAssetPath": "",
      "talkAssetPathAlter": "",
      "talkAudioName": "",
      "actionBefore": "",
      "actionWhile": "",
      "actionAfter": "",
      "optionIcon": "",
      "iconPath": ""
    },
    {
      "id": 690480603,
      "talkRole": {
        "type": "TALK_ROLE_NPC",
        "_id": "9048"
      },
      "talkContentTextMapHash": 2540090874,
      "talkAssetPath": "",
      "talkAssetPathAlter": "",
      "talkAudioName": "",
      "actionBefore": "",
      "actionWhile": "",
      "actionAfter": "",
      "optionIcon": "",
      "iconPath": ""
    }
  ]
}