{
  "talkId": 6905509,
  "KPGKDHAFHFE": "FREE",
  "dialogList": [
    {
      "id": 690550201,
      "nextDialogs": [
        690550202
      ],
      "talkShowType": "TALK_SHOW_FORCE_SELECT",
      "talkRole": {
        "type": "TALK_ROLE_PLAYER",
        "_id": ""
      },
      "talkContentTextMapHash": 744358906,
      "talkAssetPath": "",
      "talkAssetPathAlter": "",
      "talkAudioName": "",
      "actionBefore": "",
      "actionWhile": "",
      "actionAfter": "",
      "optionIcon": "",
      "iconPath": ""
    },
    {
      "id": 690550202,
      "nextDialogs": [
        690550203
      ],
      "talkRole": {
        "type": "TALK_ROLE_NPC",
        "_id": "9055"
      },
      "talkContentTextMapHash": 1258284266,
      "talkAssetPath": "",
      "talkAssetPathAlter": "",
      "talkAudioName": "",
      "actionBefore": "",
      "actionWhile": "",
      "actionAfter": "",
      "optionIcon": "",
      "iconPath": ""
    },
    {
      "id": 690550203,
      "nextDialogs": [
        690550204,
        690550208
      ],
      "talkRole": {
        "type": "TALK_ROLE_NPC",
        "_id": "9055"
      },
      "talkContentTextMapHash": 905895154,
      "talkAssetPath": "",
      "talkAssetPathAlter": "",
      "talkAudioName": "",
      "actionBefore": "",
      "actionWhile": "",
      "actionAfter": "",
      "optionIcon": "",
      "iconPath": ""
    },
    {
      "id": 690550204,
      "nextDialogs": [
        690550205
      ],
      "talkShowType": "TALK_SHOW_FORCE_SELECT",
      "talkRole": {
        "type": "TALK_ROLE_PLAYER",
        "_id": ""
      },
      "talkContentTextMapHash": 1023111490,
      "talkAssetPath": "",
      "talkAssetPathAlter": "",
      "talkAudioName": "",
      "actionBefore": "",
      "actionWhile": "",
      "actionAfter": "",
      "optionIcon": "",
      "iconPath": ""
    },
    {
      "id": 690550205,
      "nextDialogs": [
        690550206
      ],
      "talkRole": {
        "type": "TALK_ROLE_NPC",
        "_id": "9055"
      },
      "talkContentTextMapHash": 532753058,
      "talkAssetPath": "",
      "talkAssetPathAlter": "",
      "talkAudioName": "",
      "actionBefore": "",
      "actionWhile": "",
      "actionAfter": "",
      "optionIcon": "",
      "iconPath": ""
    },
    {
      "id": 690550206,
      "nextDialogs": [
        690550207
      ],
      "talkRole": {
        "type": "TALK_ROLE_NPC",
        "_id": "9055"
      },
      "talkContentTextMapHash": 1417392066,
      "talkAssetPath": "",
      "talkAssetPathAlter": "",
      "talkAudioName": "",
      "actionBefore": "",
      "actionWhile": "",
      "actionAfter": "",
      "optionIcon": "",
      "iconPath": ""
    },
    {
      "id": 690550207,
      "nextDialogs": [
        690550211
      ],
      "talkRole": {
        "type": "TALK_ROLE_NPC",
        "_id": "9055"
      },
      "talkContentTextMapHash": 1725990146,
      "talkAssetPath": "",
      "talkAssetPathAlter": "",
      "talkAudioName": "",
      "actionBefore": "",
      "actionWhile": "",
      "actionAfter": "",
      "optionIcon": "",
      "iconPath": ""
    },
    {
      "id": 690550211,
      "nextDialogs": [
        690550212
      ],
      "talkRole": {
        "type": "TALK_ROLE_NPC",
        "_id": "9055"
      },
      "talkContentTextMapHash": 14751554,
      "talkAssetPath": "",
      "talkAssetPathAlter": "",
      "talkAudioName": "",
      "actionBefore": "",
      "actionWhile": "",
      "actionAfter": "",
      "optionIcon": "",
      "iconPath": ""
    },
    {
      "id": 690550212,
      "nextDialogs": [
        690550213
      ],
      "talkRole": {
        "type": "TALK_ROLE_NPC",
        "_id": "9055"
      },
      "talkContentTextMapHash": 1157005746,
      "talkAssetPath": "",
      "talkAssetPathAlter": "",
      "talkAudioName": "",
      "actionBefore": "",
      "actionWhile": "",
      "actionAfter": "",
      "optionIcon": "",
      "iconPath": ""
    },
    {
      "id": 690550213,
      "talkRole": {
        "type": "TALK_ROLE_NPC",
        "_id": "9055"
      },
      "talkContentTextMapHash": 830847290,
      "talkAssetPath": "",
      "talkAssetPathAlter": "",
      "talkAudioName": "",
      "actionBefore": "",
      "actionWhile": "",
      "actionAfter": "",
      "optionIcon": "",
      "iconPath": ""
    },
    {
      "id": 690550208,
      "nextDialogs": [
        690550209
      ],
      "talkShowType": "TALK_SHOW_FORCE_SELECT",
      "talkRole": {
        "type": "TALK_ROLE_PLAYER",
        "_id": ""
      },
      "talkContentTextMapHash": 1462216122,
      "talkAssetPath": "",
      "talkAssetPathAlter": "",
      "talkAudioName": "",
      "actionBefore": "",
      "actionWhile": "",
      "actionAfter": "",
      "optionIcon": "",
      "iconPath": ""
    },
    {
      "id": 690550209,
      "nextDialogs": [
        690550210
      ],
      "talkRole": {
        "type": "TALK_ROLE_NPC",
        "_id": "9055"
      },
      "talkContentTextMapHash": 3826737482,
      "talkAssetPath": "",
      "talkAssetPathAlter": "",
      "talkAudioName": "",
      "actionBefore": "",
      "actionWhile": "",
      "actionAfter": "",
      "optionIcon": "",
      "iconPath": ""
    },
    {
      "id": 690550210,
      "nextDialogs": [
        690550211
      ],
      "talkRole": {
        "type": "TALK_ROLE_NPC",
        "_id": "9055"
      },
      "talkContentTextMapHash": 386257106,
      "talkAssetPath": "",
      "talkAssetPathAlter": "",
      "talkAudioName": "",
      "actionBefore": "",
      "actionWhile": "",
      "actionAfter": "",
      "optionIcon": "",
      "iconPath": ""
    }
  ]
}