{
  "talkId": 6905902,
  "KPGKDHAFHFE": "FREE",
  "dialogList": [
    {
      "id": 690590201,
      "nextDialogs": [
        690590202
      ],
      "talkShowType": "TALK_SHOW_FORCE_SELECT",
      "talkRole": {
        "type": "TALK_ROLE_PLAYER",
        "_id": ""
      },
      "talkContentTextMapHash": 4292458810,
      "talkAssetPath": "",
      "talkAssetPathAlter": "",
      "talkAudioName": "",
      "actionBefore": "",
      "actionWhile": "",
      "actionAfter": "",
      "optionIcon": "",
      "iconPath": ""
    },
    {
      "id": 690590202,
      "nextDialogs": [
        690590203
      ],
      "talkRole": {
        "type": "TALK_ROLE_NPC",
        "_id": "9059"
      },
      "talkContentTextMapHash": 2856261082,
      "talkAssetPath": "",
      "talkAssetPathAlter": "",
      "talkAudioName": "",
      "actionBefore": "",
      "actionWhile": "",
      "actionAfter": "",
      "optionIcon": "",
      "iconPath": ""
    },
    {
      "id": 690590203,
      "nextDialogs": [
        690590204
      ],
      "talkRole": {
        "type": "TALK_ROLE_NPC",
        "_id": "9059"
      },
      "talkContentTextMapHash": 3923802170,
      "talkAssetPath": "",
      "talkAssetPathAlter": "",
      "talkAudioName": "",
      "actionBefore": "",
      "actionWhile": "",
      "actionAfter": "",
      "optionIcon": "",
      "iconPath": ""
    },
    {
      "id": 690590204,
      "nextDialogs": [
        690590205,
        690590208
      ],
      "talkRole": {
        "type": "TALK_ROLE_NPC",
        "_id": "9059"
      },
      "talkContentTextMapHash": 2446256306,
      "talkAssetPath": "",
      "talkAssetPathAlter": "",
      "talkAudioName": "",
      "actionBefore": "",
      "actionWhile": "",
      "actionAfter": "",
      "optionIcon": "",
      "iconPath": ""
    },
    {
      "id": 690590205,
      "nextDialogs": [
        690590206
      ],
      "talkShowType": "TALK_SHOW_FORCE_SELECT",
      "talkRole": {
        "type": "TALK_ROLE_PLAYER",
        "_id": ""
      },
      "talkContentTextMapHash": 4049749970,
      "talkAssetPath": "",
      "talkAssetPathAlter": "",
      "talkAudioName": "",
      "actionBefore": "",
      "actionWhile": "",
      "actionAfter": "",
      "optionIcon": "",
      "iconPath": ""
    },
    {
      "id": 690590206,
      "nextDialogs": [
        690590207
      ],
      "talkRole": {
        "type": "TALK_ROLE_NPC",
        "_id": "9059"
      },
      "talkContentTextMapHash": 2407481682,
      "talkAssetPath": "",
      "talkAssetPathAlter": "",
      "talkAudioName": "",
      "actionBefore": "",
      "actionWhile": "",
      "actionAfter": "",
      "optionIcon": "",
      "iconPath": ""
    },
    {
      "id": 690590207,
      "nextDialogs": [
        690590210
      ],
      "talkRole": {
        "type": "TALK_ROLE_NPC",
        "_id": "9059"
      },
      "talkContentTextMapHash": 1094471898,
      "talkAssetPath": "",
      "talkAssetPathAlter": "",
      "talkAudioName": "",
      "actionBefore": "",
      "actionWhile": "",
      "actionAfter": "",
      "optionIcon": "",
      "iconPath": ""
    },
    {
      "id": 690590210,
      "nextDialogs": [
        690590211
      ],
      "talkRole": {
        "type": "TALK_ROLE_NPC",
        "_id": "9059"
      },
      "talkContentTextMapHash": 3324750490,
      "talkAssetPath": "",
      "talkAssetPathAlter": "",
      "talkAudioName": "",
      "actionBefore": "",
      "actionWhile": "",
      "actionAfter": "",
      "optionIcon": "",
      "iconPath": ""
    },
    {
      "id": 690590211,
      "nextDialogs": [
        690590212
      ],
      "talkRole": {
        "type": "TALK_ROLE_NPC",
        "_id": "9059"
      },
      "talkContentTextMapHash": 1942834066,
      "talkAssetPath": "",
      "talkAssetPathAlter": "",
      "talkAudioName": "",
      "actionBefore": "",
      "actionWhile": "",
      "actionAfter": "",
      "optionIcon": "",
      "iconPath": ""
    },
    {
      "id": 690590212,
      "talkRole": {
        "type": "TALK_ROLE_NPC",
        "_id": "9059"
      },
      "talkContentTextMapHash": 3309354698,
      "talkAssetPath": "",
      "talkAssetPathAlter": "",
      "talkAudioName": "",
      "actionBefore": "",
      "actionWhile": "",
      "actionAfter": "",
      "optionIcon": "",
      "iconPath": ""
    },
    {
      "id": 690590208,
      "nextDialogs": [
        690590209
      ],
      "talkShowType": "TALK_SHOW_FORCE_SELECT",
      "talkRole": {
        "type": "TALK_ROLE_PLAYER",
        "_id": ""
      },
      "talkContentTextMapHash": 2708521202,
      "talkAssetPath": "",
      "talkAssetPathAlter": "",
      "talkAudioName": "",
      "actionBefore": "",
      "actionWhile": "",
      "actionAfter": "",
      "optionIcon": "",
      "iconPath": ""
    },
    {
      "id": 690590209,
      "nextDialogs": [
        690590210
      ],
      "talkRole": {
        "type": "TALK_ROLE_NPC",
        "_id": "9059"
      },
      "talkContentTextMapHash": 2970869426,
      "talkAssetPath": "",
      "talkAssetPathAlter": "",
      "talkAudioName": "",
      "actionBefore": "",
      "actionWhile": "",
      "actionAfter": "",
      "optionIcon": "",
      "iconPath": ""
    }
  ]
}