{
  "talkId": 6905507,
  "KPGKDHAFHFE": "FREE",
  "dialogList": [
    {
      "id": 690550701,
      "nextDialogs": [
        690550702
      ],
      "talkRole": {
        "type": "TALK_ROLE_NPC",
        "_id": "9055"
      },
      "talkContentTextMapHash": 908942698,
      "talkAssetPath": "",
      "talkAssetPathAlter": "",
      "talkAudioName": "",
      "actionBefore": "",
      "actionWhile": "",
      "actionAfter": "",
      "optionIcon": "",
      "iconPath": ""
    },
    {
      "id": 690550702,
      "nextDialogs": [
        690550703
      ],
      "talkRole": {
        "type": "TALK_ROLE_NPC",
        "_id": "9055"
      },
      "talkContentTextMapHash": 3230937186,
      "talkAssetPath": "",
      "talkAssetPathAlter": "",
      "talkAudioName": "",
      "actionBefore": "",
      "actionWhile": "",
      "actionAfter": "",
      "optionIcon": "",
      "iconPath": ""
    },
    {
      "id": 690550703,
      "talkRole": {
        "type": "TALK_ROLE_NPC",
        "_id": "9055"
      },
      "talkContentTextMapHash": 721510882,
      "talkAssetPath": "",
      "talkAssetPathAlter": "",
      "talkAudioName": "",
      "actionBefore": "",
      "actionWhile": "",
      "actionAfter": "",
      "optionIcon": "",
      "iconPath": ""
    }
  ]
}