{
  "talkId": 6905403,
  "KPGKDHAFHFE": "FREE",
  "dialogList": [
    {
      "id": 690540301,
      "nextDialogs": [
        690540302
      ],
      "talkShowType": "TALK_SHOW_FORCE_SELECT",
      "talkRole": {
        "type": "TALK_ROLE_PLAYER",
        "_id": ""
      },
      "talkContentTextMapHash": 3767785882,
      "talkAssetPath": "",
      "talkAssetPathAlter": "",
      "talkAudioName": "",
      "actionBefore": "",
      "actionWhile": "",
      "actionAfter": "",
      "optionIcon": "",
      "iconPath": ""
    },
    {
      "id": 690540302,
      "nextDialogs": [
        690540303
      ],
      "talkRole": {
        "type": "TALK_ROLE_NPC",
        "_id": "9054"
      },
      "talkContentTextMapHash": 3579355106,
      "talkAssetPath": "",
      "talkAssetPathAlter": "",
      "talkAudioName": "",
      "actionBefore": "",
      "actionWhile": "",
      "actionAfter": "",
      "optionIcon": "",
      "iconPath": ""
    },
    {
      "id": 690540303,
      "nextDialogs": [
        690540304
      ],
      "talkShowType": "TALK_SHOW_FORCE_SELECT",
      "talkRole": {
        "type": "TALK_ROLE_PLAYER",
        "_id": ""
      },
      "talkContentTextMapHash": 422951450,
      "talkAssetPath": "",
      "talkAssetPathAlter": "",
      "talkAudioName": "",
      "actionBefore": "",
      "actionWhile": "",
      "actionAfter": "",
      "optionIcon": "",
      "iconPath": ""
    },
    {
      "id": 690540304,
      "nextDialogs": [
        690540305
      ],
      "talkRole": {
        "type": "TALK_ROLE_NPC",
        "_id": "9054"
      },
      "talkContentTextMapHash": 1449263210,
      "talkAssetPath": "",
      "talkAssetPathAlter": "",
      "talkAudioName": "",
      "actionBefore": "",
      "actionWhile": "",
      "actionAfter": "",
      "optionIcon": "",
      "iconPath": ""
    },
    {
      "id": 690540305,
      "nextDialogs": [
        690540306
      ],
      "talkRole": {
        "type": "TALK_ROLE_NPC",
        "_id": "9054"
      },
      "talkContentTextMapHash": 1234499850,
      "talkAssetPath": "",
      "talkAssetPathAlter": "",
      "talkAudioName": "",
      "actionBefore": "",
      "actionWhile": "",
      "actionAfter": "",
      "optionIcon": "",
      "iconPath": ""
    },
    {
      "id": 690540306,
      "nextDialogs": [
        690540307
      ],
      "talkRole": {
        "type": "TALK_ROLE_NPC",
        "_id": "9054"
      },
      "talkContentTextMapHash": 3413302378,
      "talkAssetPath": "",
      "talkAssetPathAlter": "",
      "talkAudioName": "",
      "actionBefore": "",
      "actionWhile": "",
      "actionAfter": "",
      "optionIcon": "",
      "iconPath": ""
    },
    {
      "id": 690540307,
      "nextDialogs": [
        690540308
      ],
      "talkRole": {
        "type": "TALK_ROLE_NPC",
        "_id": "9054"
      },
      "talkContentTextMapHash": 1196061762,
      "talkAssetPath": "",
      "talkAssetPathAlter": "",
      "talkAudioName": "",
      "actionBefore": "",
      "actionWhile": "",
      "actionAfter": "",
      "optionIcon": "",
      "iconPath": ""
    },
    {
      "id": 690540308,
      "nextDialogs": [
        690540309
      ],
      "talkRole": {
        "type": "TALK_ROLE_NPC",
        "_id": "9054"
      },
      "talkContentTextMapHash": 2861373746,
      "talkAssetPath": "",
      "talkAssetPathAlter": "",
      "talkAudioName": "",
      "actionBefore": "",
      "actionWhile": "",
      "actionAfter": "",
      "optionIcon": "",
      "iconPath": ""
    },
    {
      "id": 690540309,
      "nextDialogs": [
        690540310
      ],
      "talkRole": {
        "type": "TALK_ROLE_NPC",
        "_id": "9054"
      },
      "talkContentTextMapHash": 1545211722,
      "talkAssetPath": "",
      "talkAssetPathAlter": "",
      "talkAudioName": "",
      "actionBefore": "",
      "actionWhile": "",
      "actionAfter": "",
      "optionIcon": "",
      "iconPath": ""
    },
    {
      "id": 690540310,
      "nextDialogs": [
        690540311
      ],
      "talkShowType": "TALK_SHOW_FORCE_SELECT",
      "talkRole": {
        "type": "TALK_ROLE_PLAYER",
        "_id": ""
      },
      "talkContentTextMapHash": 811881746,
      "talkAssetPath": "",
      "talkAssetPathAlter": "",
      "talkAudioName": "",
      "actionBefore": "",
      "actionWhile": "",
      "actionAfter": "",
      "optionIcon": "",
      "iconPath": ""
    },
    {
      "id": 690540311,
      "nextDialogs": [
        690540312
      ],
      "talkRole": {
        "type": "TALK_ROLE_NPC",
        "_id": "9054"
      },
      "talkContentTextMapHash": 3365588690,
      "talkAssetPath": "",
      "talkAssetPathAlter": "",
      "talkAudioName": "",
      "actionBefore": "",
      "actionWhile": "",
      "actionAfter": "",
      "optionIcon": "",
      "iconPath": ""
    },
    {
      "id": 690540312,
      "nextDialogs": [
        690540313
      ],
      "talkRole": {
        "type": "TALK_ROLE_NPC",
        "_id": "9054"
      },
      "talkContentTextMapHash": 3602333458,
      "talkAssetPath": "",
      "talkAssetPathAlter": "",
      "talkAudioName": "",
      "actionBefore": "",
      "actionWhile": "",
      "actionAfter": "",
      "optionIcon": "",
      "iconPath": ""
    },
    {
      "id": 690540313,
      "nextDialogs": [
        690540314
      ],
      "talkRole": {
        "type": "TALK_ROLE_NPC",
        "_id": "9054"
      },
      "talkContentTextMapHash": 1277904834,
      "talkAssetPath": "",
      "talkAssetPathAlter": "",
      "talkAudioName": "",
      "actionBefore": "",
      "actionWhile": "",
      "actionAfter": "",
      "optionIcon": "",
      "iconPath": ""
    },
    {
      "id": 690540314,
      "nextDialogs": [
        690540315
      ],
      "talkRole": {
        "type": "TALK_ROLE_NPC",
        "_id": "9054"
      },
      "talkContentTextMapHash": 201114162,
      "talkAssetPath": "",
      "talkAssetPathAlter": "",
      "talkAudioName": "",
      "actionBefore": "",
      "actionWhile": "",
      "actionAfter": "",
      "optionIcon": "",
      "iconPath": ""
    },
    {
      "id": 690540315,
      "nextDialogs": [
        690540316
      ],
      "talkShowType": "TALK_SHOW_FORCE_SELECT",
      "talkRole": {
        "type": "TALK_ROLE_PLAYER",
        "_id": ""
      },
      "talkContentTextMapHash": 658579506,
      "talkAssetPath": "",
      "talkAssetPathAlter": "",
      "talkAudioName": "",
      "actionBefore": "",
      "actionWhile": "",
      "actionAfter": "",
      "optionIcon": "",
      "iconPath": ""
    },
    {
      "id": 690540316,
      "nextDialogs": [
        690540317
      ],
      "talkRole": {
        "type": "TALK_ROLE_NPC",
        "_id": "9054"
      },
      "talkContentTextMapHash": 926817226,
      "talkAssetPath": "",
      "talkAssetPathAlter": "",
      "talkAudioName": "",
      "actionBefore": "",
      "actionWhile": "",
      "actionAfter": "",
      "optionIcon": "",
      "iconPath": ""
    },
    {
      "id": 690540317,
      "nextDialogs": [
        690540318
      ],
      "talkRole": {
        "type": "TALK_ROLE_NPC",
        "_id": "9054"
      },
      "talkContentTextMapHash": 834527978,
      "talkAssetPath": "",
      "talkAssetPathAlter": "",
      "talkAudioName": "",
      "actionBefore": "",
      "actionWhile": "",
      "actionAfter": "",
      "optionIcon": "",
      "iconPath": ""
    },
    {
      "id": 690540318,
      "talkRole": {
        "type": "TALK_ROLE_NPC",
        "_id": "9054"
      },
      "talkContentTextMapHash": 1233936802,
      "talkAssetPath": "",
      "talkAssetPathAlter": "",
      "talkAudioName": "",
      "actionBefore": "",
      "actionWhile": "",
      "actionAfter": "",
      "optionIcon": "",
      "iconPath": ""
    }
  ]
}