{
  "talkId": 6905404,
  "KPGKDHAFHFE": "FREE",
  "dialogList": [
    {
      "id": 690540401,
      "nextDialogs": [
        690540402
      ],
      "talkShowType": "TALK_SHOW_FORCE_SELECT",
      "talkRole": {
        "type": "TALK_ROLE_PLAYER",
        "_id": ""
      },
      "talkContentTextMapHash": 3794258922,
      "talkAssetPath": "",
      "talkAssetPathAlter": "",
      "talkAudioName": "",
      "actionBefore": "",
      "actionWhile": "",
      "actionAfter": "",
      "optionIcon": "",
      "iconPath": ""
    },
    {
      "id": 690540402,
      "nextDialogs": [
        690540403
      ],
      "talkRole": {
        "type": "TALK_ROLE_NPC",
        "_id": "9054"
      },
      "talkContentTextMapHash": 3193971698,
      "talkAssetPath": "",
      "talkAssetPathAlter": "",
      "talkAudioName": "",
      "actionBefore": "",
      "actionWhile": "",
      "actionAfter": "",
      "optionIcon": "",
      "iconPath": ""
    },
    {
      "id": 690540403,
      "nextDialogs": [
        690540404
      ],
      "talkRole": {
        "type": "TALK_ROLE_NPC",
        "_id": "9054"
      },
      "talkContentTextMapHash": 3751397234,
      "talkAssetPath": "",
      "talkAssetPathAlter": "",
      "talkAudioName": "",
      "actionBefore": "",
      "actionWhile": "",
      "actionAfter": "",
      "optionIcon": "",
      "iconPath": ""
    },
    {
      "id": 690540404,
      "nextDialogs": [
        690540405
      ],
      "talkRole": {
        "type": "TALK_ROLE_NPC",
        "_id": "9054"
      },
      "talkContentTextMapHash": 1630333898,
      "talkAssetPath": "",
      "talkAssetPathAlter": "",
      "talkAudioName": "",
      "actionBefore": "",
      "actionWhile": "",
      "actionAfter": "",
      "optionIcon": "",
      "iconPath": ""
    },
    {
      "id": 690540405,
      "nextDialogs": [
        690540406,
        690540407
      ],
      "talkRole": {
        "type": "TALK_ROLE_NPC",
        "_id": "9054"
      },
      "talkContentTextMapHash": 811684914,
      "talkAssetPath": "",
      "talkAssetPathAlter": "",
      "talkAudioName": "",
      "actionBefore": "",
      "actionWhile": "",
      "actionAfter": "",
      "optionIcon": "",
      "iconPath": ""
    },
    {
      "id": 690540406,
      "nextDialogs": [
        690540408
      ],
      "talkShowType": "TALK_SHOW_FORCE_SELECT",
      "talkRole": {
        "type": "TALK_ROLE_PLAYER",
        "_id": ""
      },
      "talkContentTextMapHash": 1353764194,
      "talkAssetPath": "",
      "talkAssetPathAlter": "",
      "talkAudioName": "",
      "actionBefore": "",
      "actionWhile": "",
      "actionAfter": "",
      "optionIcon": "",
      "iconPath": ""
    },
    {
      "id": 690540408,
      "nextDialogs": [
        690540409
      ],
      "talkRole": {
        "type": "TALK_ROLE_NPC",
        "_id": "9054"
      },
      "talkContentTextMapHash": 675650170,
      "talkAssetPath": "",
      "talkAssetPathAlter": "",
      "talkAudioName": "",
      "actionBefore": "",
      "actionWhile": "",
      "actionAfter": "",
      "optionIcon": "",
      "iconPath": ""
    },
    {
      "id": 690540409,
      "nextDialogs": [
        690540410
      ],
      "talkRole": {
        "type": "TALK_ROLE_NPC",
        "_id": "9054"
      },
      "talkContentTextMapHash": 3355442802,
      "talkAssetPath": "",
      "talkAssetPathAlter": "",
      "talkAudioName": "",
      "actionBefore": "",
      "actionWhile": "",
      "actionAfter": "",
      "optionIcon": "",
      "iconPath": ""
    },
    {
      "id": 690540410,
      "nextDialogs": [
        690540411
      ],
      "talkRole": {
        "type": "TALK_ROLE_NPC",
        "_id": "9054"
      },
      "talkContentTextMapHash": 1742782770,
      "talkAssetPath": "",
      "talkAssetPathAlter": "",
      "talkAudioName": "",
      "actionBefore": "",
      "actionWhile": "",
      "actionAfter": "",
      "optionIcon": "",
      "iconPath": ""
    },
    {
      "id": 690540411,
      "nextDialogs": [
        690540412
      ],
      "talkRole": {
        "type": "TALK_ROLE_NPC",
        "_id": "9054"
      },
      "talkContentTextMapHash": 3771936530,
      "talkAssetPath": "",
      "talkAssetPathAlter": "",
      "talkAudioName": "",
      "actionBefore": "",
      "actionWhile": "",
      "actionAfter": "",
      "optionIcon": "",
      "iconPath": ""
    },
    {
      "id": 690540412,
      "nextDialogs": [
        690540413
      ],
      "talkRole": {
        "type": "TALK_ROLE_NPC",
        "_id": "9054"
      },
      "talkContentTextMapHash": 4120364778,
      "talkAssetPath": "",
      "talkAssetPathAlter": "",
      "talkAudioName": "",
      "actionBefore": "",
      "actionWhile": "",
      "actionAfter": "",
      "optionIcon": "",
      "iconPath": ""
    },
    {
      "id": 690540413,
      "nextDialogs": [
        690540414
      ],
      "talkShowType": "TALK_SHOW_FORCE_SELECT",
      "talkRole": {
        "type": "TALK_ROLE_PLAYER",
        "_id": ""
      },
      "talkContentTextMapHash": 2363051290,
      "talkAssetPath": "",
      "talkAssetPathAlter": "",
      "talkAudioName": "",
      "actionBefore": "",
      "actionWhile": "",
      "actionAfter": "",
      "optionIcon": "",
      "iconPath": ""
    },
    {
      "id": 690540414,
      "nextDialogs": [
        690540415
      ],
      "talkRole": {
        "type": "TALK_ROLE_NPC",
        "_id": "9054"
      },
      "talkContentTextMapHash": 979856986,
      "talkAssetPath": "",
      "talkAssetPathAlter": "",
      "talkAudioName": "",
      "actionBefore": "",
      "actionWhile": "",
      "actionAfter": "",
      "optionIcon": "",
      "iconPath": ""
    },
    {
      "id": 690540415,
      "nextDialogs": [
        690540416
      ],
      "talkRole": {
        "type": "TALK_ROLE_NPC",
        "_id": "9054"
      },
      "talkContentTextMapHash": 1449605810,
      "talkAssetPath": "",
      "talkAssetPathAlter": "",
      "talkAudioName": "",
      "actionBefore": "",
      "actionWhile": "",
      "actionAfter": "",
      "optionIcon": "",
      "iconPath": ""
    },
    {
      "id": 690540416,
      "talkRole": {
        "type": "TALK_ROLE_NPC",
        "_id": "9054"
      },
      "talkContentTextMapHash": 373464218,
      "talkAssetPath": "",
      "talkAssetPathAlter": "",
      "talkAudioName": "",
      "actionBefore": "",
      "actionWhile": "",
      "actionAfter": "",
      "optionIcon": "",
      "iconPath": ""
    },
    {
      "id": 690540407,
      "nextDialogs": [
        690540408
      ],
      "talkShowType": "TALK_SHOW_FORCE_SELECT",
      "talkRole": {
        "type": "TALK_ROLE_PLAYER",
        "_id": ""
      },
      "talkContentTextMapHash": 2109844258,
      "talkAssetPath": "",
      "talkAssetPathAlter": "",
      "talkAudioName": "",
      "actionBefore": "",
      "actionWhile": "",
      "actionAfter": "",
      "optionIcon": "",
      "iconPath": ""
    }
  ]
}