{
  "talkId": 6905306,
  "KPGKDHAFHFE": "FREE",
  "dialogList": [
    {
      "id": 690530601,
      "nextDialogs": [
        690530602
      ],
      "talkShowType": "TALK_SHOW_FORCE_SELECT",
      "talkRole": {
        "type": "TALK_ROLE_PLAYER",
        "_id": ""
      },
      "talkContentTextMapHash": 1886624066,
      "talkAssetPath": "",
      "talkAssetPathAlter": "",
      "talkAudioName": "",
      "actionBefore": "",
      "actionWhile": "",
      "actionAfter": "",
      "optionIcon": "",
      "iconPath": ""
    },
    {
      "id": 690530602,
      "nextDialogs": [
        690530603
      ],
      "talkRole": {
        "type": "TALK_ROLE_NPC",
        "_id": "9053"
      },
      "talkContentTextMapHash": 733825106,
      "talkAssetPath": "",
      "talkAssetPathAlter": "",
      "talkAudioName": "",
      "actionBefore": "",
      "actionWhile": "",
      "actionAfter": "",
      "optionIcon": "",
      "iconPath": ""
    },
    {
      "id": 690530603,
      "talkRole": {
        "type": "TALK_ROLE_NPC",
        "_id": "9053"
      },
      "talkContentTextMapHash": 3788275642,
      "talkAssetPath": "",
      "talkAssetPathAlter": "",
      "talkAudioName": "",
      "actionBefore": "",
      "actionWhile": "",
      "actionAfter": "",
      "optionIcon": "",
      "iconPath": ""
    }
  ]
}