{
  "talkId": 6905002,
  "KPGKDHAFHFE": "FREE",
  "dialogList": [
    {
      "id": 690500201,
      "nextDialogs": [
        690500202
      ],
      "talkShowType": "TALK_SHOW_FORCE_SELECT",
      "talkRole": {
        "type": "TALK_ROLE_PLAYER",
        "_id": ""
      },
      "talkContentTextMapHash": 2273951538,
      "talkAssetPath": "",
      "talkAssetPathAlter": "",
      "talkAudioName": "",
      "actionBefore": "",
      "actionWhile": "",
      "actionAfter": "",
      "optionIcon": "",
      "iconPath": ""
    },
    {
      "id": 690500202,
      "nextDialogs": [
        690500203
      ],
      "talkRole": {
        "type": "TALK_ROLE_NPC",
        "_id": "9050"
      },
      "talkContentTextMapHash": 4169710906,
      "talkAssetPath": "",
      "talkAssetPathAlter": "",
      "talkAudioName": "",
      "actionBefore": "",
      "actionWhile": "",
      "actionAfter": "",
      "optionIcon": "",
      "iconPath": ""
    },
    {
      "id": 690500203,
      "nextDialogs": [
        690500204,
        690500208
      ],
      "talkRole": {
        "type": "TALK_ROLE_NPC",
        "_id": "9050"
      },
      "talkContentTextMapHash": 2657486410,
      "talkAssetPath": "",
      "talkAssetPathAlter": "",
      "talkAudioName": "",
      "actionBefore": "",
      "actionWhile": "",
      "actionAfter": "",
      "optionIcon": "",
      "iconPath": ""
    },
    {
      "id": 690500204,
      "nextDialogs": [
        690500205
      ],
      "talkShowType": "TALK_SHOW_FORCE_SELECT",
      "talkRole": {
        "type": "TALK_ROLE_PLAYER",
        "_id": ""
      },
      "talkContentTextMapHash": 1588466090,
      "talkAssetPath": "",
      "talkAssetPathAlter": "",
      "talkAudioName": "",
      "actionBefore": "",
      "actionWhile": "",
      "actionAfter": "",
      "optionIcon": "",
      "iconPath": ""
    },
    {
      "id": 690500205,
      "nextDialogs": [
        690500206
      ],
      "talkRole": {
        "type": "TALK_ROLE_NPC",
        "_id": "9050"
      },
      "talkContentTextMapHash": 3098906162,
      "talkAssetPath": "",
      "talkAssetPathAlter": "",
      "talkAudioName": "",
      "actionBefore": "",
      "actionWhile": "",
      "actionAfter": "",
      "optionIcon": "",
      "iconPath": ""
    },
    {
      "id": 690500206,
      "nextDialogs": [
        690500207
      ],
      "talkRole": {
        "type": "TALK_ROLE_NPC",
        "_id": "9050"
      },
      "talkContentTextMapHash": 1505186842,
      "talkAssetPath": "",
      "talkAssetPathAlter": "",
      "talkAudioName": "",
      "actionBefore": "",
      "actionWhile": "",
      "actionAfter": "",
      "optionIcon": "",
      "iconPath": ""
    },
    {
      "id": 690500207,
      "nextDialogs": [
        690500212
      ],
      "talkRole": {
        "type": "TALK_ROLE_NPC",
        "_id": "9050"
      },
      "talkContentTextMapHash": 4052340010,
      "talkAssetPath": "",
      "talkAssetPathAlter": "",
      "talkAudioName": "",
      "actionBefore": "",
      "actionWhile": "",
      "actionAfter": "",
      "optionIcon": "",
      "iconPath": ""
    },
    {
      "id": 690500212,
      "nextDialogs": [
        690500213
      ],
      "talkShowType": "TALK_SHOW_FORCE_SELECT",
      "talkRole": {
        "type": "TALK_ROLE_PLAYER",
        "_id": ""
      },
      "talkContentTextMapHash": 2603896450,
      "talkAssetPath": "",
      "talkAssetPathAlter": "",
      "talkAudioName": "",
      "actionBefore": "",
      "actionWhile": "",
      "actionAfter": "",
      "optionIcon": "",
      "iconPath": ""
    },
    {
      "id": 690500213,
      "nextDialogs": [
        690500214
      ],
      "talkRole": {
        "type": "TALK_ROLE_NPC",
        "_id": "9050"
      },
      "talkContentTextMapHash": 1431469306,
      "talkAssetPath": "",
      "talkAssetPathAlter": "",
      "talkAudioName": "",
      "actionBefore": "",
      "actionWhile": "",
      "actionAfter": "",
      "optionIcon": "",
      "iconPath": ""
    },
    {
      "id": 690500214,
      "talkRole": {
        "type": "TALK_ROLE_NPC",
        "_id": "9050"
      },
      "talkContentTextMapHash": 4104875106,
      "talkAssetPath": "",
      "talkAssetPathAlter": "",
      "talkAudioName": "",
      "actionBefore": "",
      "actionWhile": "",
      "actionAfter": "",
      "optionIcon": "",
      "iconPath": ""
    },
    {
      "id": 690500208,
      "nextDialogs": [
        690500209
      ],
      "talkShowType": "TALK_SHOW_FORCE_SELECT",
      "talkRole": {
        "type": "TALK_ROLE_PLAYER",
        "_id": ""
      },
      "talkContentTextMapHash": 1986515122,
      "talkAssetPath": "",
      "talkAssetPathAlter": "",
      "talkAudioName": "",
      "actionBefore": "",
      "actionWhile": "",
      "actionAfter": "",
      "optionIcon": "",
      "iconPath": ""
    },
    {
      "id": 690500209,
      "nextDialogs": [
        690500210
      ],
      "talkRole": {
        "type": "TALK_ROLE_NPC",
        "_id": "9050"
      },
      "talkContentTextMapHash": 1309935706,
      "talkAssetPath": "",
      "talkAssetPathAlter": "",
      "talkAudioName": "",
      "actionBefore": "",
      "actionWhile": "",
      "actionAfter": "",
      "optionIcon": "",
      "iconPath": ""
    },
    {
      "id": 690500210,
      "nextDialogs": [
        690500211
      ],
      "talkRole": {
        "type": "TALK_ROLE_NPC",
        "_id": "9050"
      },
      "talkContentTextMapHash": 3634212586,
      "talkAssetPath": "",
      "talkAssetPathAlter": "",
      "talkAudioName": "",
      "actionBefore": "",
      "actionWhile": "",
      "actionAfter": "",
      "optionIcon": "",
      "iconPath": ""
    },
    {
      "id": 690500211,
      "nextDialogs": [
        690500212
      ],
      "talkRole": {
        "type": "TALK_ROLE_NPC",
        "_id": "9050"
      },
      "talkContentTextMapHash": 3635394866,
      "talkAssetPath": "",
      "talkAssetPathAlter": "",
      "talkAudioName": "",
      "actionBefore": "",
      "actionWhile": "",
      "actionAfter": "",
      "optionIcon": "",
      "iconPath": ""
    }
  ]
}