{
  "talkId": 6905711,
  "KPGKDHAFHFE": "FREE",
  "dialogList": [
    {
      "id": 690570401,
      "nextDialogs": [
        690570402
      ],
      "talkShowType": "TALK_SHOW_FORCE_SELECT",
      "talkRole": {
        "type": "TALK_ROLE_PLAYER",
        "_id": ""
      },
      "talkContentTextMapHash": 905936842,
      "talkAssetPath": "",
      "talkAssetPathAlter": "",
      "talkAudioName": "",
      "actionBefore": "",
      "actionWhile": "",
      "actionAfter": "",
      "optionIcon": "",
      "iconPath": ""
    },
    {
      "id": 690570402,
      "nextDialogs": [
        690570403
      ],
      "talkRole": {
        "type": "TALK_ROLE_NPC",
        "_id": "9057"
      },
      "talkContentTextMapHash": 3482764642,
      "talkAssetPath": "",
      "talkAssetPathAlter": "",
      "talkAudioName": "",
      "actionBefore": "",
      "actionWhile": "",
      "actionAfter": "",
      "optionIcon": "",
      "iconPath": ""
    },
    {
      "id": 690570403,
      "nextDialogs": [
        690570404
      ],
      "talkRole": {
        "type": "TALK_ROLE_NPC",
        "_id": "9057"
      },
      "talkContentTextMapHash": 2977067986,
      "talkAssetPath": "",
      "talkAssetPathAlter": "",
      "talkAudioName": "",
      "actionBefore": "",
      "actionWhile": "",
      "actionAfter": "",
      "optionIcon": "",
      "iconPath": ""
    },
    {
      "id": 690570404,
      "nextDialogs": [
        690570405
      ],
      "talkShowType": "TALK_SHOW_FORCE_SELECT",
      "talkRole": {
        "type": "TALK_ROLE_PLAYER",
        "_id": ""
      },
      "talkContentTextMapHash": 1431305826,
      "talkAssetPath": "",
      "talkAssetPathAlter": "",
      "talkAudioName": "",
      "actionBefore": "",
      "actionWhile": "",
      "actionAfter": "",
      "optionIcon": "",
      "iconPath": ""
    },
    {
      "id": 690570405,
      "nextDialogs": [
        690570406
      ],
      "talkRole": {
        "type": "TALK_ROLE_NPC",
        "_id": "9057"
      },
      "talkContentTextMapHash": 3555745338,
      "talkAssetPath": "",
      "talkAssetPathAlter": "",
      "talkAudioName": "",
      "actionBefore": "",
      "actionWhile": "",
      "actionAfter": "",
      "optionIcon": "",
      "iconPath": ""
    },
    {
      "id": 690570406,
      "nextDialogs": [
        690570407
      ],
      "talkRole": {
        "type": "TALK_ROLE_NPC",
        "_id": "9057"
      },
      "talkContentTextMapHash": 692437562,
      "talkAssetPath": "",
      "talkAssetPathAlter": "",
      "talkAudioName": "",
      "actionBefore": "",
      "actionWhile": "",
      "actionAfter": "",
      "optionIcon": "",
      "iconPath": ""
    },
    {
      "id": 690570407,
      "nextDialogs": [
        690570408,
        690570411
      ],
      "talkRole": {
        "type": "TALK_ROLE_NPC",
        "_id": "9057"
      },
      "talkContentTextMapHash": 3758861106,
      "talkAssetPath": "",
      "talkAssetPathAlter": "",
      "talkAudioName": "",
      "actionBefore": "",
      "actionWhile": "",
      "actionAfter": "",
      "optionIcon": "",
      "iconPath": ""
    },
    {
      "id": 690570408,
      "nextDialogs": [
        690570409
      ],
      "talkShowType": "TALK_SHOW_FORCE_SELECT",
      "talkRole": {
        "type": "TALK_ROLE_PLAYER",
        "_id": ""
      },
      "talkContentTextMapHash": 3035531698,
      "talkAssetPath": "",
      "talkAssetPathAlter": "",
      "talkAudioName": "",
      "actionBefore": "",
      "actionWhile": "",
      "actionAfter": "",
      "optionIcon": "",
      "iconPath": ""
    },
    {
      "id": 690570409,
      "nextDialogs": [
        690570410
      ],
      "talkRole": {
        "type": "TALK_ROLE_NPC",
        "_id": "9057"
      },
      "talkContentTextMapHash": 1517441258,
      "talkAssetPath": "",
      "talkAssetPathAlter": "",
      "talkAudioName": "",
      "actionBefore": "",
      "actionWhile": "",
      "actionAfter": "",
      "optionIcon": "",
      "iconPath": ""
    },
    {
      "id": 690570410,
      "nextDialogs": [
        690570414
      ],
      "talkRole": {
        "type": "TALK_ROLE_NPC",
        "_id": "9057"
      },
      "talkContentTextMapHash": 1194727978,
      "talkAssetPath": "",
      "talkAssetPathAlter": "",
      "talkAudioName": "",
      "actionBefore": "",
      "actionWhile": "",
      "actionAfter": "",
      "optionIcon": "",
      "iconPath": ""
    },
    {
      "id": 690570414,
      "nextDialogs": [
        690570415
      ],
      "talkRole": {
        "type": "TALK_ROLE_NPC",
        "_id": "9057"
      },
      "talkContentTextMapHash": 1934805122,
      "talkAssetPath": "",
      "talkAssetPathAlter": "",
      "talkAudioName": "",
      "actionBefore": "",
      "actionWhile": "",
      "actionAfter": "",
      "optionIcon": "",
      "iconPath": ""
    },
    {
      "id": 690570415,
      "nextDialogs": [
        690570416
      ],
      "talkRole": {
        "type": "TALK_ROLE_NPC",
        "_id": "9057"
      },
      "talkContentTextMapHash": 196367826,
      "talkAssetPath": "",
      "talkAssetPathAlter": "",
      "talkAudioName": "",
      "actionBefore": "",
      "actionWhile": "",
      "actionAfter": "",
      "optionIcon": "",
      "iconPath": ""
    },
    {
      "id": 690570416,
      "nextDialogs": [
        690570417
      ],
      "talkRole": {
        "type": "TALK_ROLE_NPC",
        "_id": "9057"
      },
      "talkContentTextMapHash": 3680451266,
      "talkAssetPath": "",
      "talkAssetPathAlter": "",
      "talkAudioName": "",
      "actionBefore": "",
      "actionWhile": "",
      "actionAfter": "",
      "optionIcon": "",
      "iconPath": ""
    },
    {
      "id": 690570417,
      "nextDialogs": [
        690570418
      ],
      "talkRole": {
        "type": "TALK_ROLE_NPC",
        "_id": "9057"
      },
      "talkContentTextMapHash": 4209693610,
      "talkAssetPath": "",
      "talkAssetPathAlter": "",
      "talkAudioName": "",
      "actionBefore": "",
      "actionWhile": "",
      "actionAfter": "",
      "optionIcon": "",
      "iconPath": ""
    },
    {
      "id": 690570418,
      "nextDialogs": [
        690570419
      ],
      "talkRole": {
        "type": "TALK_ROLE_NPC",
        "_id": "9057"
      },
      "talkContentTextMapHash": 1155205562,
      "talkAssetPath": "",
      "talkAssetPathAlter": "",
      "talkAudioName": "",
      "actionBefore": "",
      "actionWhile": "",
      "actionAfter": "",
      "optionIcon": "",
      "iconPath": ""
    },
    {
      "id": 690570419,
      "nextDialogs": [
        690570420
      ],
      "talkRole": {
        "type": "TALK_ROLE_NPC",
        "_id": "9057"
      },
      "talkContentTextMapHash": 3485030386,
      "talkAssetPath": "",
      "talkAssetPathAlter": "",
      "talkAudioName": "",
      "actionBefore": "",
      "actionWhile": "",
      "actionAfter": "",
      "optionIcon": "",
      "iconPath": ""
    },
    {
      "id": 690570420,
      "nextDialogs": [
        690570421
      ],
      "talkShowType": "TALK_SHOW_FORCE_SELECT",
      "talkRole": {
        "type": "TALK_ROLE_PLAYER",
        "_id": ""
      },
      "talkContentTextMapHash": 867591642,
      "talkAssetPath": "",
      "talkAssetPathAlter": "",
      "talkAudioName": "",
      "actionBefore": "",
      "actionWhile": "",
      "actionAfter": "",
      "optionIcon": "",
      "iconPath": ""
    },
    {
      "id": 690570421,
      "nextDialogs": [
        690570422
      ],
      "talkRole": {
        "type": "TALK_ROLE_NPC",
        "_id": "9057"
      },
      "talkContentTextMapHash": 1974428834,
      "talkAssetPath": "",
      "talkAssetPathAlter": "",
      "talkAudioName": "",
      "actionBefore": "",
      "actionWhile": "",
      "actionAfter": "",
      "optionIcon": "",
      "iconPath": ""
    },
    {
      "id": 690570422,
      "nextDialogs": [
        690570423
      ],
      "talkRole": {
        "type": "TALK_ROLE_NPC",
        "_id": "9057"
      },
      "talkContentTextMapHash": 903072986,
      "talkAssetPath": "",
      "talkAssetPathAlter": "",
      "talkAudioName": "",
      "actionBefore": "",
      "actionWhile": "",
      "actionAfter": "",
      "optionIcon": "",
      "iconPath": ""
    },
    {
      "id": 690570423,
      "talkRole": {
        "type": "TALK_ROLE_NPC",
        "_id": "9057"
      },
      "talkContentTextMapHash": 796355218,
      "talkAssetPath": "",
      "talkAssetPathAlter": "",
      "talkAudioName": "",
      "actionBefore": "",
      "actionWhile": "",
      "actionAfter": "",
      "optionIcon": "",
      "iconPath": ""
    },
    {
      "id": 690570411,
      "nextDialogs": [
        690570412
      ],
      "talkShowType": "TALK_SHOW_FORCE_SELECT",
      "talkRole": {
        "type": "TALK_ROLE_PLAYER",
        "_id": ""
      },
      "talkContentTextMapHash": 2601624850,
      "talkAssetPath": "",
      "talkAssetPathAlter": "",
      "talkAudioName": "",
      "actionBefore": "",
      "actionWhile": "",
      "actionAfter": "",
      "optionIcon": "",
      "iconPath": ""
    },
    {
      "id": 690570412,
      "nextDialogs": [
        690570413
      ],
      "talkRole": {
        "type": "TALK_ROLE_NPC",
        "_id": "9057"
      },
      "talkContentTextMapHash": 2763190554,
      "talkAssetPath": "",
      "talkAssetPathAlter": "",
      "talkAudioName": "",
      "actionBefore": "",
      "actionWhile": "",
      "actionAfter": "",
      "optionIcon": "",
      "iconPath": ""
    },
    {
      "id": 690570413,
      "nextDialogs": [
        690570414
      ],
      "talkRole": {
        "type": "TALK_ROLE_NPC",
        "_id": "9057"
      },
      "talkContentTextMapHash": 2551096002,
      "talkAssetPath": "",
      "talkAssetPathAlter": "",
      "talkAudioName": "",
      "actionBefore": "",
      "actionWhile": "",
      "actionAfter": "",
      "optionIcon": "",
      "iconPath": ""
    }
  ]
}