{
  "talkId": 6906709,
  "KPGKDHAFHFE": "FREE",
  "dialogList": [
    {
      "id": 690670401,
      "nextDialogs": [
        690670402
      ],
      "talkRole": {
        "type": "TALK_ROLE_PLAYER",
        "_id": ""
      },
      "talkContentTextMapHash": 1157214058,
      "talkAssetPath": "",
      "talkAssetPathAlter": "",
      "talkAudioName": "",
      "actionBefore": "",
      "actionWhile": "",
      "actionAfter": "",
      "optionIcon": "",
      "iconPath": ""
    },
    {
      "id": 690670402,
      "nextDialogs": [
        690670403
      ],
      "talkRole": {
        "type": "TALK_ROLE_NPC",
        "_id": "9067"
      },
      "talkContentTextMapHash": 876516058,
      "talkAssetPath": "",
      "talkAssetPathAlter": "",
      "talkAudioName": "",
      "actionBefore": "",
      "actionWhile": "",
      "actionAfter": "",
      "optionIcon": "",
      "iconPath": ""
    },
    {
      "id": 690670403,
      "nextDialogs": [
        690670404
      ],
      "talkRole": {
        "type": "TALK_ROLE_NPC",
        "_id": "9067"
      },
      "talkContentTextMapHash": 1471768826,
      "talkAssetPath": "",
      "talkAssetPathAlter": "",
      "talkAudioName": "",
      "actionBefore": "",
      "actionWhile": "",
      "actionAfter": "",
      "optionIcon": "",
      "iconPath": ""
    },
    {
      "id": 690670404,
      "nextDialogs": [
        690670405,
        690670406
      ],
      "talkRole": {
        "type": "TALK_ROLE_NPC",
        "_id": "9067"
      },
      "talkContentTextMapHash": 227205546,
      "talkAssetPath": "",
      "talkAssetPathAlter": "",
      "talkAudioName": "",
      "actionBefore": "",
      "actionWhile": "",
      "actionAfter": "",
      "optionIcon": "",
      "iconPath": ""
    },
    {
      "id": 690670405,
      "nextDialogs": [
        690670407
      ],
      "talkRole": {
        "type": "TALK_ROLE_PLAYER",
        "_id": ""
      },
      "talkContentTextMapHash": 2039622786,
      "talkAssetPath": "",
      "talkAssetPathAlter": "",
      "talkAudioName": "",
      "actionBefore": "",
      "actionWhile": "",
      "actionAfter": "",
      "optionIcon": "",
      "iconPath": ""
    },
    {
      "id": 690670407,
      "nextDialogs": [
        690670408
      ],
      "talkRole": {
        "type": "TALK_ROLE_NPC",
        "_id": "9067"
      },
      "talkContentTextMapHash": 602983098,
      "talkAssetPath": "",
      "talkAssetPathAlter": "",
      "talkAudioName": "",
      "actionBefore": "",
      "actionWhile": "",
      "actionAfter": "",
      "optionIcon": "",
      "iconPath": ""
    },
    {
      "id": 690670408,
      "nextDialogs": [
        690670409
      ],
      "talkShowType": "TALK_SHOW_FORCE_SELECT",
      "talkRole": {
        "type": "TALK_ROLE_PLAYER",
        "_id": ""
      },
      "talkContentTextMapHash": 1588695722,
      "talkAssetPath": "",
      "talkAssetPathAlter": "",
      "talkAudioName": "",
      "actionBefore": "",
      "actionWhile": "",
      "actionAfter": "",
      "optionIcon": "",
      "iconPath": ""
    },
    {
      "id": 690670409,
      "nextDialogs": [
        690670410
      ],
      "talkRole": {
        "type": "TALK_ROLE_NPC",
        "_id": "9067"
      },
      "talkContentTextMapHash": 293136786,
      "talkAssetPath": "",
      "talkAssetPathAlter": "",
      "talkAudioName": "",
      "actionBefore": "",
      "actionWhile": "",
      "actionAfter": "",
      "optionIcon": "",
      "iconPath": ""
    },
    {
      "id": 690670410,
      "nextDialogs": [
        690670411
      ],
      "talkRole": {
        "type": "TALK_ROLE_NPC",
        "_id": "9067"
      },
      "talkContentTextMapHash": 3597481274,
      "talkAssetPath": "",
      "talkAssetPathAlter": "",
      "talkAudioName": "",
      "actionBefore": "",
      "actionWhile": "",
      "actionAfter": "",
      "optionIcon": "",
      "iconPath": ""
    },
    {
      "id": 690670411,
      "nextDialogs": [
        690670412
      ],
      "talkRole": {
        "type": "TALK_ROLE_NPC",
        "_id": "9067"
      },
      "talkContentTextMapHash": 385463578,
      "talkAssetPath": "",
      "talkAssetPathAlter": "",
      "talkAudioName": "",
      "actionBefore": "",
      "actionWhile": "",
      "actionAfter": "",
      "optionIcon": "",
      "iconPath": ""
    },
    {
      "id": 690670412,
      "nextDialogs": [
        690670413
      ],
      "talkRole": {
        "type": "TALK_ROLE_NPC",
        "_id": "9067"
      },
      "talkContentTextMapHash": 469804394,
      "talkAssetPath": "",
      "talkAssetPathAlter": "",
      "talkAudioName": "",
      "actionBefore": "",
      "actionWhile": "",
      "actionAfter": "",
      "optionIcon": "",
      "iconPath": ""
    },
    {
      "id": 690670413,
      "nextDialogs": [
        690670414
      ],
      "talkRole": {
        "type": "TALK_ROLE_NPC",
        "_id": "9067"
      },
      "talkContentTextMapHash": 2030073794,
      "talkAssetPath": "",
      "talkAssetPathAlter": "",
      "talkAudioName": "",
      "actionBefore": "",
      "actionWhile": "",
      "actionAfter": "",
      "optionIcon": "",
      "iconPath": ""
    },
    {
      "id": 690670414,
      "nextDialogs": [
        690670415
      ],
      "talkShowType": "TALK_SHOW_FORCE_SELECT",
      "talkRole": {
        "type": "TALK_ROLE_PLAYER",
        "_id": ""
      },
      "talkContentTextMapHash": 1441309770,
      "talkAssetPath": "",
      "talkAssetPathAlter": "",
      "talkAudioName": "",
      "actionBefore": "",
      "actionWhile": "",
      "actionAfter": "",
      "optionIcon": "",
      "iconPath": ""
    },
    {
      "id": 690670415,
      "nextDialogs": [
        690670416
      ],
      "talkRole": {
        "type": "TALK_ROLE_NPC",
        "_id": "9067"
      },
      "talkContentTextMapHash": 1035969714,
      "talkAssetPath": "",
      "talkAssetPathAlter": "",
      "talkAudioName": "",
      "actionBefore": "",
      "actionWhile": "",
      "actionAfter": "",
      "optionIcon": "",
      "iconPath": ""
    },
    {
      "id": 690670416,
      "nextDialogs": [
        690670417
      ],
      "talkRole": {
        "type": "TALK_ROLE_NPC",
        "_id": "9067"
      },
      "talkContentTextMapHash": 1754496570,
      "talkAssetPath": "",
      "talkAssetPathAlter": "",
      "talkAudioName": "",
      "actionBefore": "",
      "actionWhile": "",
      "actionAfter": "",
      "optionIcon": "",
      "iconPath": ""
    },
    {
      "id": 690670417,
      "nextDialogs": [
        690670418
      ],
      "talkShowType": "TALK_SHOW_FORCE_SELECT",
      "talkRole": {
        "type": "TALK_ROLE_PLAYER",
        "_id": ""
      },
      "talkContentTextMapHash": 3585600546,
      "talkAssetPath": "",
      "talkAssetPathAlter": "",
      "talkAudioName": "",
      "actionBefore": "",
      "actionWhile": "",
      "actionAfter": "",
      "optionIcon": "",
      "iconPath": ""
    },
    {
      "id": 690670418,
      "nextDialogs": [
        690670419
      ],
      "talkRole": {
        "type": "TALK_ROLE_NPC",
        "_id": "9067"
      },
      "talkContentTextMapHash": 1386011162,
      "talkAssetPath": "",
      "talkAssetPathAlter": "",
      "talkAudioName": "",
      "actionBefore": "",
      "actionWhile": "",
      "actionAfter": "",
      "optionIcon": "",
      "iconPath": ""
    },
    {
      "id": 690670419,
      "talkRole": {
        "type": "TALK_ROLE_NPC",
        "_id": "9067"
      },
      "talkContentTextMapHash": 1838775266,
      "talkAssetPath": "",
      "talkAssetPathAlter": "",
      "talkAudioName": "",
      "actionBefore": "",
      "actionWhile": "",
      "actionAfter": "",
      "optionIcon": "",
      "iconPath": ""
    },
    {
      "id": 690670406,
      "nextDialogs": [
        690670407
      ],
      "talkRole": {
        "type": "TALK_ROLE_PLAYER",
        "_id": ""
      },
      "talkContentTextMapHash": 3878993154,
      "talkAssetPath": "",
      "talkAssetPathAlter": "",
      "talkAudioName": "",
      "actionBefore": "",
      "actionWhile": "",
      "actionAfter": "",
      "optionIcon": "",
      "iconPath": ""
    }
  ]
}