{
  "talkId": 6906308,
  "KPGKDHAFHFE": "FREE",
  "dialogList": [
    {
      "id": 690630801,
      "nextDialogs": [
        690630802
      ],
      "talkRole": {
        "type": "TALK_ROLE_NPC",
        "_id": "9063"
      },
      "talkContentTextMapHash": 3245216522,
      "talkAssetPath": "",
      "talkAssetPathAlter": "",
      "talkAudioName": "",
      "actionBefore": "",
      "actionWhile": "",
      "actionAfter": "",
      "optionIcon": "",
      "iconPath": ""
    },
    {
      "id": 690630802,
      "nextDialogs": [
        690630803
      ],
      "talkRole": {
        "type": "TALK_ROLE_NPC",
        "_id": "9063"
      },
      "talkContentTextMapHash": 784227538,
      "talkAssetPath": "",
      "talkAssetPathAlter": "",
      "talkAudioName": "",
      "actionBefore": "",
      "actionWhile": "",
      "actionAfter": "",
      "optionIcon": "",
      "iconPath": ""
    },
    {
      "id": 690630803,
      "talkRole": {
        "type": "TALK_ROLE_NPC",
        "_id": "9063"
      },
      "talkContentTextMapHash": 2540284146,
      "talkAssetPath": "",
      "talkAssetPathAlter": "",
      "talkAudioName": "",
      "actionBefore": "",
      "actionWhile": "",
      "actionAfter": "",
      "optionIcon": "",
      "iconPath": ""
    }
  ]
}