{
  "talkId": 6906206,
  "KPGKDHAFHFE": "FREE",
  "dialogList": [
    {
      "id": 690620601,
      "nextDialogs": [
        690620602
      ],
      "talkShowType": "TALK_SHOW_FORCE_SELECT",
      "talkRole": {
        "type": "TALK_ROLE_PLAYER",
        "_id": ""
      },
      "talkContentTextMapHash": 2394343218,
      "talkAssetPath": "",
      "talkAssetPathAlter": "",
      "talkAudioName": "",
      "actionBefore": "",
      "actionWhile": "",
      "actionAfter": "",
      "optionIcon": "",
      "iconPath": ""
    },
    {
      "id": 690620602,
      "talkRole": {
        "type": "TALK_ROLE_NPC",
        "_id": "9062"
      },
      "talkContentTextMapHash": 1920974706,
      "talkAssetPath": "",
      "talkAssetPathAlter": "",
      "talkAudioName": "",
      "actionBefore": "",
      "actionWhile": "",
      "actionAfter": "",
      "optionIcon": "",
      "iconPath": ""
    }
  ]
}