{
  "talkId": 6906302,
  "KPGKDHAFHFE": "FREE",
  "dialogList": [
    {
      "id": 690630201,
      "nextDialogs": [
        690630202
      ],
      "talkShowType": "TALK_SHOW_FORCE_SELECT",
      "talkRole": {
        "type": "TALK_ROLE_PLAYER",
        "_id": ""
      },
      "talkContentTextMapHash": 3447109210,
      "talkAssetPath": "",
      "talkAssetPathAlter": "",
      "talkAudioName": "",
      "actionBefore": "",
      "actionWhile": "",
      "actionAfter": "",
      "optionIcon": "",
      "iconPath": ""
    },
    {
      "id": 690630202,
      "nextDialogs": [
        690630203
      ],
      "talkRole": {
        "type": "TALK_ROLE_NPC",
        "_id": "9063"
      },
      "talkContentTextMapHash": 1510190738,
      "talkAssetPath": "",
      "talkAssetPathAlter": "",
      "talkAudioName": "",
      "actionBefore": "",
      "actionWhile": "",
      "actionAfter": "",
      "optionIcon": "",
      "iconPath": ""
    },
    {
      "id": 690630203,
      "nextDialogs": [
        690630204
      ],
      "talkRole": {
        "type": "TALK_ROLE_NPC",
        "_id": "9063"
      },
      "talkContentTextMapHash": 2406829738,
      "talkAssetPath": "",
      "talkAssetPathAlter": "",
      "talkAudioName": "",
      "actionBefore": "",
      "actionWhile": "",
      "actionAfter": "",
      "optionIcon": "",
      "iconPath": ""
    },
    {
      "id": 690630204,
      "nextDialogs": [
        690630205
      ],
      "talkShowType": "TALK_SHOW_FORCE_SELECT",
      "talkRole": {
        "type": "TALK_ROLE_PLAYER",
        "_id": ""
      },
      "talkContentTextMapHash": 1448345522,
      "talkAssetPath": "",
      "talkAssetPathAlter": "",
      "talkAudioName": "",
      "actionBefore": "",
      "actionWhile": "",
      "actionAfter": "",
      "optionIcon": "",
      "iconPath": ""
    },
    {
      "id": 690630205,
      "nextDialogs": [
        690630206
      ],
      "talkRole": {
        "type": "TALK_ROLE_NPC",
        "_id": "9063"
      },
      "talkContentTextMapHash": 1405383306,
      "talkAssetPath": "",
      "talkAssetPathAlter": "",
      "talkAudioName": "",
      "actionBefore": "",
      "actionWhile": "",
      "actionAfter": "",
      "optionIcon": "",
      "iconPath": ""
    },
    {
      "id": 690630206,
      "nextDialogs": [
        690630207
      ],
      "talkRole": {
        "type": "TALK_ROLE_NPC",
        "_id": "9063"
      },
      "talkContentTextMapHash": 344773874,
      "talkAssetPath": "",
      "talkAssetPathAlter": "",
      "talkAudioName": "",
      "actionBefore": "",
      "actionWhile": "",
      "actionAfter": "",
      "optionIcon": "",
      "iconPath": ""
    },
    {
      "id": 690630207,
      "nextDialogs": [
        690630208
      ],
      "talkRole": {
        "type": "TALK_ROLE_NPC",
        "_id": "9063"
      },
      "talkContentTextMapHash": 1260316738,
      "talkAssetPath": "",
      "talkAssetPathAlter": "",
      "talkAudioName": "",
      "actionBefore": "",
      "actionWhile": "",
      "actionAfter": "",
      "optionIcon": "",
      "iconPath": ""
    },
    {
      "id": 690630208,
      "nextDialogs": [
        690630209
      ],
      "talkShowType": "TALK_SHOW_FORCE_SELECT",
      "talkRole": {
        "type": "TALK_ROLE_PLAYER",
        "_id": ""
      },
      "talkContentTextMapHash": 2215435714,
      "talkAssetPath": "",
      "talkAssetPathAlter": "",
      "talkAudioName": "",
      "actionBefore": "",
      "actionWhile": "",
      "actionAfter": "",
      "optionIcon": "",
      "iconPath": ""
    },
    {
      "id": 690630209,
      "nextDialogs": [
        690630210
      ],
      "talkRole": {
        "type": "TALK_ROLE_NPC",
        "_id": "9063"
      },
      "talkContentTextMapHash": 245321506,
      "talkAssetPath": "",
      "talkAssetPathAlter": "",
      "talkAudioName": "",
      "actionBefore": "",
      "actionWhile": "",
      "actionAfter": "",
      "optionIcon": "",
      "iconPath": ""
    },
    {
      "id": 690630210,
      "talkRole": {
        "type": "TALK_ROLE_NPC",
        "_id": "9063"
      },
      "talkContentTextMapHash": 811633498,
      "talkAssetPath": "",
      "talkAssetPathAlter": "",
      "talkAudioName": "",
      "actionBefore": "",
      "actionWhile": "",
      "actionAfter": "",
      "optionIcon": "",
      "iconPath": ""
    }
  ]
}