{
  "talkId": 6906802,
  "KPGKDHAFHFE": "FREE",
  "dialogList": [
    {
      "id": 690680201,
      "nextDialogs": [
        690680202
      ],
      "talkRole": {
        "type": "TALK_ROLE_PLAYER",
        "_id": ""
      },
      "talkContentTextMapHash": 3776175474,
      "talkAssetPath": "",
      "talkAssetPathAlter": "",
      "talkAudioName": "",
      "actionBefore": "",
      "actionWhile": "",
      "actionAfter": "",
      "optionIcon": "",
      "iconPath": ""
    },
    {
      "id": 690680202,
      "nextDialogs": [
        690680203
      ],
      "talkRole": {
        "type": "TALK_ROLE_NPC",
        "_id": "9068"
      },
      "talkContentTextMapHash": 3604980018,
      "talkAssetPath": "",
      "talkAssetPathAlter": "",
      "talkAudioName": "",
      "actionBefore": "",
      "actionWhile": "",
      "actionAfter": "",
      "optionIcon": "",
      "iconPath": ""
    },
    {
      "id": 690680203,
      "nextDialogs": [
        690680204,
        690680208
      ],
      "talkRole": {
        "type": "TALK_ROLE_NPC",
        "_id": "9068"
      },
      "talkContentTextMapHash": 2106578650,
      "talkAssetPath": "",
      "talkAssetPathAlter": "",
      "talkAudioName": "",
      "actionBefore": "",
      "actionWhile": "",
      "actionAfter": "",
      "optionIcon": "",
      "iconPath": ""
    },
    {
      "id": 690680204,
      "nextDialogs": [
        690680205
      ],
      "talkRole": {
        "type": "TALK_ROLE_PLAYER",
        "_id": ""
      },
      "talkContentTextMapHash": 4073076522,
      "talkAssetPath": "",
      "talkAssetPathAlter": "",
      "talkAudioName": "",
      "actionBefore": "",
      "actionWhile": "",
      "actionAfter": "",
      "optionIcon": "",
      "iconPath": ""
    },
    {
      "id": 690680205,
      "nextDialogs": [
        690680206
      ],
      "talkRole": {
        "type": "TALK_ROLE_NPC",
        "_id": "9068"
      },
      "talkContentTextMapHash": 3850153922,
      "talkAssetPath": "",
      "talkAssetPathAlter": "",
      "talkAudioName": "",
      "actionBefore": "",
      "actionWhile": "",
      "actionAfter": "",
      "optionIcon": "",
      "iconPath": ""
    },
    {
      "id": 690680206,
      "nextDialogs": [
        690680207
      ],
      "talkRole": {
        "type": "TALK_ROLE_NPC",
        "_id": "9068"
      },
      "talkContentTextMapHash": 4082793170,
      "talkAssetPath": "",
      "talkAssetPathAlter": "",
      "talkAudioName": "",
      "actionBefore": "",
      "actionWhile": "",
      "actionAfter": "",
      "optionIcon": "",
      "iconPath": ""
    },
    {
      "id": 690680207,
      "nextDialogs": [
        690680212
      ],
      "talkRole": {
        "type": "TALK_ROLE_NPC",
        "_id": "9068"
      },
      "talkContentTextMapHash": 2377075506,
      "talkAssetPath": "",
      "talkAssetPathAlter": "",
      "talkAudioName": "",
      "actionBefore": "",
      "actionWhile": "",
      "actionAfter": "",
      "optionIcon": "",
      "iconPath": ""
    },
    {
      "id": 690680212,
      "nextDialogs": [
        690680213
      ],
      "talkRole": {
        "type": "TALK_ROLE_NPC",
        "_id": "9068"
      },
      "talkContentTextMapHash": 2692465890,
      "talkAssetPath": "",
      "talkAssetPathAlter": "",
      "talkAudioName": "",
      "actionBefore": "",
      "actionWhile": "",
      "actionAfter": "",
      "optionIcon": "",
      "iconPath": ""
    },
    {
      "id": 690680213,
      "nextDialogs": [
        690680214
      ],
      "talkRole": {
        "type": "TALK_ROLE_NPC",
        "_id": "9068"
      },
      "talkContentTextMapHash": 2036444962,
      "talkAssetPath": "",
      "talkAssetPathAlter": "",
      "talkAudioName": "",
      "actionBefore": "",
      "actionWhile": "",
      "actionAfter": "",
      "optionIcon": "",
      "iconPath": ""
    },
    {
      "id": 690680214,
      "nextDialogs": [
        690680215
      ],
      "talkRole": {
        "type": "TALK_ROLE_NPC",
        "_id": "9068"
      },
      "talkContentTextMapHash": 2356525018,
      "talkAssetPath": "",
      "talkAssetPathAlter": "",
      "talkAudioName": "",
      "actionBefore": "",
      "actionWhile": "",
      "actionAfter": "",
      "optionIcon": "",
      "iconPath": ""
    },
    {
      "id": 690680215,
      "talkRole": {
        "type": "TALK_ROLE_NPC",
        "_id": "9068"
      },
      "talkContentTextMapHash": 1559308410,
      "talkAssetPath": "",
      "talkAssetPathAlter": "",
      "talkAudioName": "",
      "actionBefore": "",
      "actionWhile": "",
      "actionAfter": "",
      "optionIcon": "",
      "iconPath": ""
    },
    {
      "id": 690680208,
      "nextDialogs": [
        690680209
      ],
      "talkRole": {
        "type": "TALK_ROLE_PLAYER",
        "_id": ""
      },
      "talkContentTextMapHash": 1053056458,
      "talkAssetPath": "",
      "talkAssetPathAlter": "",
      "talkAudioName": "",
      "actionBefore": "",
      "actionWhile": "",
      "actionAfter": "",
      "optionIcon": "",
      "iconPath": ""
    },
    {
      "id": 690680209,
      "nextDialogs": [
        690680210
      ],
      "talkRole": {
        "type": "TALK_ROLE_NPC",
        "_id": "9068"
      },
      "talkContentTextMapHash": 2788306922,
      "talkAssetPath": "",
      "talkAssetPathAlter": "",
      "talkAudioName": "",
      "actionBefore": "",
      "actionWhile": "",
      "actionAfter": "",
      "optionIcon": "",
      "iconPath": ""
    },
    {
      "id": 690680210,
      "nextDialogs": [
        690680211
      ],
      "talkRole": {
        "type": "TALK_ROLE_NPC",
        "_id": "9068"
      },
      "talkContentTextMapHash": 708409730,
      "talkAssetPath": "",
      "talkAssetPathAlter": "",
      "talkAudioName": "",
      "actionBefore": "",
      "actionWhile": "",
      "actionAfter": "",
      "optionIcon": "",
      "iconPath": ""
    },
    {
      "id": 690680211,
      "nextDialogs": [
        690680212
      ],
      "talkRole": {
        "type": "TALK_ROLE_NPC",
        "_id": "9068"
      },
      "talkContentTextMapHash": 3829611474,
      "talkAssetPath": "",
      "talkAssetPathAlter": "",
      "talkAudioName": "",
      "actionBefore": "",
      "actionWhile": "",
      "actionAfter": "",
      "optionIcon": "",
      "iconPath": ""
    }
  ]
}