{
  "talkId": 6906705,
  "KPGKDHAFHFE": "FREE",
  "dialogList": [
    {
      "id": 690670501,
      "nextDialogs": [
        690670502
      ],
      "talkRole": {
        "type": "TALK_ROLE_PLAYER",
        "_id": ""
      },
      "talkContentTextMapHash": 3664886362,
      "talkAssetPath": "",
      "talkAssetPathAlter": "",
      "talkAudioName": "",
      "actionBefore": "",
      "actionWhile": "",
      "actionAfter": "",
      "optionIcon": "",
      "iconPath": ""
    },
    {
      "id": 690670502,
      "nextDialogs": [
        690670503
      ],
      "talkRole": {
        "type": "TALK_ROLE_NPC",
        "_id": "9067"
      },
      "talkContentTextMapHash": 2950231906,
      "talkAssetPath": "",
      "talkAssetPathAlter": "",
      "talkAudioName": "",
      "actionBefore": "",
      "actionWhile": "",
      "actionAfter": "",
      "optionIcon": "",
      "iconPath": ""
    },
    {
      "id": 690670503,
      "talkRole": {
        "type": "TALK_ROLE_NPC",
        "_id": "9067"
      },
      "talkContentTextMapHash": 4136879642,
      "talkAssetPath": "",
      "talkAssetPathAlter": "",
      "talkAudioName": "",
      "actionBefore": "",
      "actionWhile": "",
      "actionAfter": "",
      "optionIcon": "",
      "iconPath": ""
    }
  ]
}