{
  "talkId": 6906902,
  "KPGKDHAFHFE": "FREE",
  "dialogList": [
    {
      "id": 690690201,
      "nextDialogs": [
        690690202
      ],
      "talkRole": {
        "type": "TALK_ROLE_PLAYER",
        "_id": ""
      },
      "talkContentTextMapHash": 231043698,
      "talkAssetPath": "",
      "talkAssetPathAlter": "",
      "talkAudioName": "",
      "actionBefore": "",
      "actionWhile": "",
      "actionAfter": "",
      "optionIcon": "",
      "iconPath": ""
    },
    {
      "id": 690690202,
      "nextDialogs": [
        690690203
      ],
      "talkRole": {
        "type": "TALK_ROLE_NPC",
        "_id": "9069"
      },
      "talkContentTextMapHash": 3463520402,
      "talkAssetPath": "",
      "talkAssetPathAlter": "",
      "talkAudioName": "",
      "actionBefore": "",
      "actionWhile": "",
      "actionAfter": "",
      "optionIcon": "",
      "iconPath": ""
    },
    {
      "id": 690690203,
      "nextDialogs": [
        690690204
      ],
      "talkRole": {
        "type": "TALK_ROLE_NPC",
        "_id": "9069"
      },
      "talkContentTextMapHash": 1940824018,
      "talkAssetPath": "",
      "talkAssetPathAlter": "",
      "talkAudioName": "",
      "actionBefore": "",
      "actionWhile": "",
      "actionAfter": "",
      "optionIcon": "",
      "iconPath": ""
    },
    {
      "id": 690690204,
      "nextDialogs": [
        690690205,
        690690210
      ],
      "talkRole": {
        "type": "TALK_ROLE_NPC",
        "_id": "9069"
      },
      "talkContentTextMapHash": 4207832730,
      "talkAssetPath": "",
      "talkAssetPathAlter": "",
      "talkAudioName": "",
      "actionBefore": "",
      "actionWhile": "",
      "actionAfter": "",
      "optionIcon": "",
      "iconPath": ""
    },
    {
      "id": 690690205,
      "nextDialogs": [
        690690206
      ],
      "talkRole": {
        "type": "TALK_ROLE_PLAYER",
        "_id": ""
      },
      "talkContentTextMapHash": 3381672482,
      "talkAssetPath": "",
      "talkAssetPathAlter": "",
      "talkAudioName": "",
      "actionBefore": "",
      "actionWhile": "",
      "actionAfter": "",
      "optionIcon": "",
      "iconPath": ""
    },
    {
      "id": 690690206,
      "nextDialogs": [
        690690207
      ],
      "talkRole": {
        "type": "TALK_ROLE_NPC",
        "_id": "9069"
      },
      "talkContentTextMapHash": 4223991362,
      "talkAssetPath": "",
      "talkAssetPathAlter": "",
      "talkAudioName": "",
      "actionBefore": "",
      "actionWhile": "",
      "actionAfter": "",
      "optionIcon": "",
      "iconPath": ""
    },
    {
      "id": 690690207,
      "nextDialogs": [
        690690208
      ],
      "talkRole": {
        "type": "TALK_ROLE_NPC",
        "_id": "9069"
      },
      "talkContentTextMapHash": 2423579330,
      "talkAssetPath": "",
      "talkAssetPathAlter": "",
      "talkAudioName": "",
      "actionBefore": "",
      "actionWhile": "",
      "actionAfter": "",
      "optionIcon": "",
      "iconPath": ""
    },
    {
      "id": 690690208,
      "nextDialogs": [
        690690209
      ],
      "talkRole": {
        "type": "TALK_ROLE_NPC",
        "_id": "9069"
      },
      "talkContentTextMapHash": 3833000882,
      "talkAssetPath": "",
      "talkAssetPathAlter": "",
      "talkAudioName": "",
      "actionBefore": "",
      "actionWhile": "",
      "actionAfter": "",
      "optionIcon": "",
      "iconPath": ""
    },
    {
      "id": 690690209,
      "talkRole": {
        "type": "TALK_ROLE_NPC",
        "_id": "9069"
      },
      "talkContentTextMapHash": 3032021778,
      "talkAssetPath": "",
      "talkAssetPathAlter": "",
      "talkAudioName": "",
      "actionBefore": "",
      "actionWhile": "",
      "actionAfter": "",
      "optionIcon": "",
      "iconPath": ""
    },
    {
      "id": 690690210,
      "nextDialogs": [
        690690211
      ],
      "talkRole": {
        "type": "TALK_ROLE_PLAYER",
        "_id": ""
      },
      "talkContentTextMapHash": 3200122778,
      "talkAssetPath": "",
      "talkAssetPathAlter": "",
      "talkAudioName": "",
      "actionBefore": "",
      "actionWhile": "",
      "actionAfter": "",
      "optionIcon": "",
      "iconPath": ""
    },
    {
      "id": 690690211,
      "nextDialogs": [
        690690212
      ],
      "talkRole": {
        "type": "TALK_ROLE_NPC",
        "_id": "9069"
      },
      "talkContentTextMapHash": 4118113282,
      "talkAssetPath": "",
      "talkAssetPathAlter": "",
      "talkAudioName": "",
      "actionBefore": "",
      "actionWhile": "",
      "actionAfter": "",
      "optionIcon": "",
      "iconPath": ""
    },
    {
      "id": 690690212,
      "nextDialogs": [
        690690213
      ],
      "talkRole": {
        "type": "TALK_ROLE_NPC",
        "_id": "9069"
      },
      "talkContentTextMapHash": 373669370,
      "talkAssetPath": "",
      "talkAssetPathAlter": "",
      "talkAudioName": "",
      "actionBefore": "",
      "actionWhile": "",
      "actionAfter": "",
      "optionIcon": "",
      "iconPath": ""
    },
    {
      "id": 690690213,
      "nextDialogs": [
        690690214
      ],
      "talkRole": {
        "type": "TALK_ROLE_NPC",
        "_id": "9069"
      },
      "talkContentTextMapHash": 349218554,
      "talkAssetPath": "",
      "talkAssetPathAlter": "",
      "talkAudioName": "",
      "actionBefore": "",
      "actionWhile": "",
      "actionAfter": "",
      "optionIcon": "",
      "iconPath": ""
    },
    {
      "id": 690690214,
      "nextDialogs": [
        690690215
      ],
      "talkRole": {
        "type": "TALK_ROLE_NPC",
        "_id": "9069"
      },
      "talkContentTextMapHash": 2916905794,
      "talkAssetPath": "",
      "talkAssetPathAlter": "",
      "talkAudioName": "",
      "actionBefore": "",
      "actionWhile": "",
      "actionAfter": "",
      "optionIcon": "",
      "iconPath": ""
    },
    {
      "id": 690690215,
      "talkRole": {
        "type": "TALK_ROLE_NPC",
        "_id": "9069"
      },
      "talkContentTextMapHash": 1188224434,
      "talkAssetPath": "",
      "talkAssetPathAlter": "",
      "talkAudioName": "",
      "actionBefore": "",
      "actionWhile": "",
      "actionAfter": "",
      "optionIcon": "",
      "iconPath": ""
    }
  ]
}