{
  "talkId": 6906905,
  "KPGKDHAFHFE": "FREE",
  "dialogList": [
    {
      "id": 690690501,
      "nextDialogs": [
        690690502
      ],
      "talkRole": {
        "type": "TALK_ROLE_PLAYER",
        "_id": ""
      },
      "talkContentTextMapHash": 492353754,
      "talkAssetPath": "",
      "talkAssetPathAlter": "",
      "talkAudioName": "",
      "actionBefore": "",
      "actionWhile": "",
      "actionAfter": "",
      "optionIcon": "",
      "iconPath": ""
    },
    {
      "id": 690690502,
      "nextDialogs": [
        690690503
      ],
      "talkRole": {
        "type": "TALK_ROLE_NPC",
        "_id": "9069"
      },
      "talkContentTextMapHash": 1317839850,
      "talkAssetPath": "",
      "talkAssetPathAlter": "",
      "talkAudioName": "",
      "actionBefore": "",
      "actionWhile": "",
      "actionAfter": "",
      "optionIcon": "",
      "iconPath": ""
    },
    {
      "id": 690690503,
      "nextDialogs": [
        690690504
      ],
      "talkRole": {
        "type": "TALK_ROLE_NPC",
        "_id": "9069"
      },
      "talkContentTextMapHash": 4252373114,
      "talkAssetPath": "",
      "talkAssetPathAlter": "",
      "talkAudioName": "",
      "actionBefore": "",
      "actionWhile": "",
      "actionAfter": "",
      "optionIcon": "",
      "iconPath": ""
    },
    {
      "id": 690690504,
      "talkRole": {
        "type": "TALK_ROLE_NPC",
        "_id": "9069"
      },
      "talkContentTextMapHash": 4034336090,
      "talkAssetPath": "",
      "talkAssetPathAlter": "",
      "talkAudioName": "",
      "actionBefore": "",
      "actionWhile": "",
      "actionAfter": "",
      "optionIcon": "",
      "iconPath": ""
    }
  ]
}