{
  "talkId": 6906301,
  "KPGKDHAFHFE": "FREE",
  "dialogList": [
    {
      "id": 690630101,
      "nextDialogs": [
        690630102
      ],
      "talkRole": {
        "type": "TALK_ROLE_NPC",
        "_id": "9063"
      },
      "talkContentTextMapHash": 2691285082,
      "talkAssetPath": "",
      "talkAssetPathAlter": "",
      "talkAudioName": "",
      "actionBefore": "",
      "actionWhile": "",
      "actionAfter": "",
      "optionIcon": "",
      "iconPath": ""
    },
    {
      "id": 690630102,
      "talkRole": {
        "type": "TALK_ROLE_NPC",
        "_id": "9063"
      },
      "talkContentTextMapHash": 1788957586,
      "talkAssetPath": "",
      "talkAssetPathAlter": "",
      "talkAudioName": "",
      "actionBefore": "",
      "actionWhile": "",
      "actionAfter": "",
      "optionIcon": "",
      "iconPath": ""
    }
  ]
}