{
  "talkId": 6907706,
  "KPGKDHAFHFE": "FREE",
  "dialogList": [
    {
      "id": 690770601,
      "nextDialogs": [
        690770602
      ],
      "talkShowType": "TALK_SHOW_FORCE_SELECT",
      "talkRole": {
        "type": "TALK_ROLE_PLAYER",
        "_id": ""
      },
      "talkContentTextMapHash": 1382512338,
      "talkAssetPath": "",
      "talkAssetPathAlter": "",
      "talkAudioName": "",
      "actionBefore": "",
      "actionWhile": "",
      "actionAfter": "",
      "optionIcon": "",
      "iconPath": ""
    },
    {
      "id": 690770602,
      "nextDialogs": [
        690770603
      ],
      "talkRole": {
        "type": "TALK_ROLE_NPC",
        "_id": "9077"
      },
      "talkContentTextMapHash": 2532231602,
      "talkAssetPath": "",
      "talkAssetPathAlter": "",
      "talkAudioName": "",
      "actionBefore": "",
      "actionWhile": "",
      "actionAfter": "",
      "optionIcon": "",
      "iconPath": ""
    },
    {
      "id": 690770603,
      "talkRole": {
        "type": "TALK_ROLE_NPC",
        "_id": "9077"
      },
      "talkContentTextMapHash": 2057485090,
      "talkAssetPath": "",
      "talkAssetPathAlter": "",
      "talkAudioName": "",
      "actionBefore": "",
      "actionWhile": "",
      "actionAfter": "",
      "optionIcon": "",
      "iconPath": ""
    }
  ]
}