{
  "talkId": 6907305,
  "KPGKDHAFHFE": "FREE",
  "dialogList": [
    {
      "id": 690730501,
      "nextDialogs": [
        690730502
      ],
      "talkShowType": "TALK_SHOW_FORCE_SELECT",
      "talkRole": {
        "type": "TALK_ROLE_PLAYER",
        "_id": ""
      },
      "talkContentTextMapHash": 1644756954,
      "talkAssetPath": "",
      "talkAssetPathAlter": "",
      "talkAudioName": "",
      "actionBefore": "",
      "actionWhile": "",
      "actionAfter": "",
      "optionIcon": "",
      "iconPath": ""
    },
    {
      "id": 690730502,
      "nextDialogs": [
        690730503
      ],
      "talkRole": {
        "type": "TALK_ROLE_NPC",
        "_id": "9073"
      },
      "talkContentTextMapHash": 2648635290,
      "talkAssetPath": "",
      "talkAssetPathAlter": "",
      "talkAudioName": "",
      "actionBefore": "",
      "actionWhile": "",
      "actionAfter": "",
      "optionIcon": "",
      "iconPath": ""
    },
    {
      "id": 690730503,
      "talkRole": {
        "type": "TALK_ROLE_NPC",
        "_id": "9073"
      },
      "talkContentTextMapHash": 1053009538,
      "talkAssetPath": "",
      "talkAssetPathAlter": "",
      "talkAudioName": "",
      "actionBefore": "",
      "actionWhile": "",
      "actionAfter": "",
      "optionIcon": "",
      "iconPath": ""
    }
  ]
}