{
  "talkId": 6907710,
  "KPGKDHAFHFE": "FREE",
  "dialogList": [
    {
      "id": 690770301,
      "nextDialogs": [
        690770302
      ],
      "talkShowType": "TALK_SHOW_FORCE_SELECT",
      "talkRole": {
        "type": "TALK_ROLE_PLAYER",
        "_id": ""
      },
      "talkContentTextMapHash": 121809898,
      "talkAssetPath": "",
      "talkAssetPathAlter": "",
      "talkAudioName": "",
      "actionBefore": "",
      "actionWhile": "",
      "actionAfter": "",
      "optionIcon": "",
      "iconPath": ""
    },
    {
      "id": 690770302,
      "nextDialogs": [
        690770303
      ],
      "talkRole": {
        "type": "TALK_ROLE_NPC",
        "_id": "9077"
      },
      "talkContentTextMapHash": 4053641346,
      "talkAssetPath": "",
      "talkAssetPathAlter": "",
      "talkAudioName": "",
      "actionBefore": "",
      "actionWhile": "",
      "actionAfter": "",
      "optionIcon": "",
      "iconPath": ""
    },
    {
      "id": 690770303,
      "nextDialogs": [
        690770304
      ],
      "talkRole": {
        "type": "TALK_ROLE_NPC",
        "_id": "9077"
      },
      "talkContentTextMapHash": 1689311642,
      "talkAssetPath": "",
      "talkAssetPathAlter": "",
      "talkAudioName": "",
      "actionBefore": "",
      "actionWhile": "",
      "actionAfter": "",
      "optionIcon": "",
      "iconPath": ""
    },
    {
      "id": 690770304,
      "nextDialogs": [
        690770305
      ],
      "talkShowType": "TALK_SHOW_FORCE_SELECT",
      "talkRole": {
        "type": "TALK_ROLE_PLAYER",
        "_id": ""
      },
      "talkContentTextMapHash": 3564884354,
      "talkAssetPath": "",
      "talkAssetPathAlter": "",
      "talkAudioName": "",
      "actionBefore": "",
      "actionWhile": "",
      "actionAfter": "",
      "optionIcon": "",
      "iconPath": ""
    },
    {
      "id": 690770305,
      "nextDialogs": [
        690770306
      ],
      "talkRole": {
        "type": "TALK_ROLE_NPC",
        "_id": "9077"
      },
      "talkContentTextMapHash": 3627240722,
      "talkAssetPath": "",
      "talkAssetPathAlter": "",
      "talkAudioName": "",
      "actionBefore": "",
      "actionWhile": "",
      "actionAfter": "",
      "optionIcon": "",
      "iconPath": ""
    },
    {
      "id": 690770306,
      "nextDialogs": [
        690770307
      ],
      "talkRole": {
        "type": "TALK_ROLE_NPC",
        "_id": "9077"
      },
      "talkContentTextMapHash": 377809226,
      "talkAssetPath": "",
      "talkAssetPathAlter": "",
      "talkAudioName": "",
      "actionBefore": "",
      "actionWhile": "",
      "actionAfter": "",
      "optionIcon": "",
      "iconPath": ""
    },
    {
      "id": 690770307,
      "nextDialogs": [
        690770308
      ],
      "talkRole": {
        "type": "TALK_ROLE_NPC",
        "_id": "9077"
      },
      "talkContentTextMapHash": 1728538514,
      "talkAssetPath": "",
      "talkAssetPathAlter": "",
      "talkAudioName": "",
      "actionBefore": "",
      "actionWhile": "",
      "actionAfter": "",
      "optionIcon": "",
      "iconPath": ""
    },
    {
      "id": 690770308,
      "nextDialogs": [
        690770309,
        690770316
      ],
      "talkRole": {
        "type": "TALK_ROLE_NPC",
        "_id": "9077"
      },
      "talkContentTextMapHash": 2655042898,
      "talkAssetPath": "",
      "talkAssetPathAlter": "",
      "talkAudioName": "",
      "actionBefore": "",
      "actionWhile": "",
      "actionAfter": "",
      "optionIcon": "",
      "iconPath": ""
    },
    {
      "id": 690770309,
      "nextDialogs": [
        690770310
      ],
      "talkShowType": "TALK_SHOW_FORCE_SELECT",
      "talkRole": {
        "type": "TALK_ROLE_PLAYER",
        "_id": ""
      },
      "talkContentTextMapHash": 1597556226,
      "talkAssetPath": "",
      "talkAssetPathAlter": "",
      "talkAudioName": "",
      "actionBefore": "",
      "actionWhile": "",
      "actionAfter": "",
      "optionIcon": "",
      "iconPath": ""
    },
    {
      "id": 690770310,
      "nextDialogs": [
        690770311
      ],
      "talkRole": {
        "type": "TALK_ROLE_NPC",
        "_id": "9077"
      },
      "talkContentTextMapHash": 2002227626,
      "talkAssetPath": "",
      "talkAssetPathAlter": "",
      "talkAudioName": "",
      "actionBefore": "",
      "actionWhile": "",
      "actionAfter": "",
      "optionIcon": "",
      "iconPath": ""
    },
    {
      "id": 690770311,
      "nextDialogs": [
        690770312
      ],
      "talkRole": {
        "type": "TALK_ROLE_NPC",
        "_id": "9077"
      },
      "talkContentTextMapHash": 1770286042,
      "talkAssetPath": "",
      "talkAssetPathAlter": "",
      "talkAudioName": "",
      "actionBefore": "",
      "actionWhile": "",
      "actionAfter": "",
      "optionIcon": "",
      "iconPath": ""
    },
    {
      "id": 690770312,
      "nextDialogs": [
        690770313
      ],
      "talkRole": {
        "type": "TALK_ROLE_NPC",
        "_id": "9077"
      },
      "talkContentTextMapHash": 2969925178,
      "talkAssetPath": "",
      "talkAssetPathAlter": "",
      "talkAudioName": "",
      "actionBefore": "",
      "actionWhile": "",
      "actionAfter": "",
      "optionIcon": "",
      "iconPath": ""
    },
    {
      "id": 690770313,
      "nextDialogs": [
        690770314
      ],
      "talkRole": {
        "type": "TALK_ROLE_NPC",
        "_id": "9077"
      },
      "talkContentTextMapHash": 417564962,
      "talkAssetPath": "",
      "talkAssetPathAlter": "",
      "talkAudioName": "",
      "actionBefore": "",
      "actionWhile": "",
      "actionAfter": "",
      "optionIcon": "",
      "iconPath": ""
    },
    {
      "id": 690770314,
      "nextDialogs": [
        690770315
      ],
      "talkShowType": "TALK_SHOW_FORCE_SELECT",
      "talkRole": {
        "type": "TALK_ROLE_PLAYER",
        "_id": ""
      },
      "talkContentTextMapHash": 3493931194,
      "talkAssetPath": "",
      "talkAssetPathAlter": "",
      "talkAudioName": "",
      "actionBefore": "",
      "actionWhile": "",
      "actionAfter": "",
      "optionIcon": "",
      "iconPath": ""
    },
    {
      "id": 690770315,
      "nextDialogs": [
        690770322
      ],
      "talkRole": {
        "type": "TALK_ROLE_NPC",
        "_id": "9077"
      },
      "talkContentTextMapHash": 3346576130,
      "talkAssetPath": "",
      "talkAssetPathAlter": "",
      "talkAudioName": "",
      "actionBefore": "",
      "actionWhile": "",
      "actionAfter": "",
      "optionIcon": "",
      "iconPath": ""
    },
    {
      "id": 690770322,
      "nextDialogs": [
        690770323
      ],
      "talkRole": {
        "type": "TALK_ROLE_NPC",
        "_id": "9077"
      },
      "talkContentTextMapHash": 1604974346,
      "talkAssetPath": "",
      "talkAssetPathAlter": "",
      "talkAudioName": "",
      "actionBefore": "",
      "actionWhile": "",
      "actionAfter": "",
      "optionIcon": "",
      "iconPath": ""
    },
    {
      "id": 690770323,
      "talkRole": {
        "type": "TALK_ROLE_NPC",
        "_id": "9077"
      },
      "talkContentTextMapHash": 1471868210,
      "talkAssetPath": "",
      "talkAssetPathAlter": "",
      "talkAudioName": "",
      "actionBefore": "",
      "actionWhile": "",
      "actionAfter": "",
      "optionIcon": "",
      "iconPath": ""
    },
    {
      "id": 690770316,
      "nextDialogs": [
        690770317
      ],
      "talkShowType": "TALK_SHOW_FORCE_SELECT",
      "talkRole": {
        "type": "TALK_ROLE_PLAYER",
        "_id": ""
      },
      "talkContentTextMapHash": 3919421330,
      "talkAssetPath": "",
      "talkAssetPathAlter": "",
      "talkAudioName": "",
      "actionBefore": "",
      "actionWhile": "",
      "actionAfter": "",
      "optionIcon": "",
      "iconPath": ""
    },
    {
      "id": 690770317,
      "nextDialogs": [
        690770318
      ],
      "talkRole": {
        "type": "TALK_ROLE_NPC",
        "_id": "9077"
      },
      "talkContentTextMapHash": 3772038658,
      "talkAssetPath": "",
      "talkAssetPathAlter": "",
      "talkAudioName": "",
      "actionBefore": "",
      "actionWhile": "",
      "actionAfter": "",
      "optionIcon": "",
      "iconPath": ""
    },
    {
      "id": 690770318,
      "nextDialogs": [
        690770319
      ],
      "talkRole": {
        "type": "TALK_ROLE_NPC",
        "_id": "9077"
      },
      "talkContentTextMapHash": 993865178,
      "talkAssetPath": "",
      "talkAssetPathAlter": "",
      "talkAudioName": "",
      "actionBefore": "",
      "actionWhile": "",
      "actionAfter": "",
      "optionIcon": "",
      "iconPath": ""
    },
    {
      "id": 690770319,
      "nextDialogs": [
        690770320
      ],
      "talkRole": {
        "type": "TALK_ROLE_NPC",
        "_id": "9077"
      },
      "talkContentTextMapHash": 2798679562,
      "talkAssetPath": "",
      "talkAssetPathAlter": "",
      "talkAudioName": "",
      "actionBefore": "",
      "actionWhile": "",
      "actionAfter": "",
      "optionIcon": "",
      "iconPath": ""
    },
    {
      "id": 690770320,
      "nextDialogs": [
        690770321
      ],
      "talkRole": {
        "type": "TALK_ROLE_NPC",
        "_id": "9077"
      },
      "talkContentTextMapHash": 3725431250,
      "talkAssetPath": "",
      "talkAssetPathAlter": "",
      "talkAudioName": "",
      "actionBefore": "",
      "actionWhile": "",
      "actionAfter": "",
      "optionIcon": "",
      "iconPath": ""
    },
    {
      "id": 690770321,
      "nextDialogs": [
        690770322
      ],
      "talkRole": {
        "type": "TALK_ROLE_NPC",
        "_id": "9077"
      },
      "talkContentTextMapHash": 1663547130,
      "talkAssetPath": "",
      "talkAssetPathAlter": "",
      "talkAudioName": "",
      "actionBefore": "",
      "actionWhile": "",
      "actionAfter": "",
      "optionIcon": "",
      "iconPath": ""
    }
  ]
}