{
  "talkId": 6907411,
  "KPGKDHAFHFE": "FREE",
  "dialogList": [
    {
      "id": 690740401,
      "nextDialogs": [
        690740402
      ],
      "talkShowType": "TALK_SHOW_FORCE_SELECT",
      "talkRole": {
        "type": "TALK_ROLE_PLAYER",
        "_id": ""
      },
      "talkContentTextMapHash": 1753572930,
      "talkAssetPath": "",
      "talkAssetPathAlter": "",
      "talkAudioName": "",
      "actionBefore": "",
      "actionWhile": "",
      "actionAfter": "",
      "optionIcon": "",
      "iconPath": ""
    },
    {
      "id": 690740402,
      "nextDialogs": [
        690740403
      ],
      "talkRole": {
        "type": "TALK_ROLE_NPC",
        "_id": "9074"
      },
      "talkContentTextMapHash": 2936926938,
      "talkAssetPath": "",
      "talkAssetPathAlter": "",
      "talkAudioName": "",
      "actionBefore": "",
      "actionWhile": "",
      "actionAfter": "",
      "optionIcon": "",
      "iconPath": ""
    },
    {
      "id": 690740403,
      "nextDialogs": [
        690740404
      ],
      "talkRole": {
        "type": "TALK_ROLE_NPC",
        "_id": "9074"
      },
      "talkContentTextMapHash": 3822925354,
      "talkAssetPath": "",
      "talkAssetPathAlter": "",
      "talkAudioName": "",
      "actionBefore": "",
      "actionWhile": "",
      "actionAfter": "",
      "optionIcon": "",
      "iconPath": ""
    },
    {
      "id": 690740404,
      "nextDialogs": [
        690740405,
        690740406
      ],
      "talkRole": {
        "type": "TALK_ROLE_NPC",
        "_id": "9074"
      },
      "talkContentTextMapHash": 881907826,
      "talkAssetPath": "",
      "talkAssetPathAlter": "",
      "talkAudioName": "",
      "actionBefore": "",
      "actionWhile": "",
      "actionAfter": "",
      "optionIcon": "",
      "iconPath": ""
    },
    {
      "id": 690740405,
      "nextDialogs": [
        690740407
      ],
      "talkShowType": "TALK_SHOW_FORCE_SELECT",
      "talkRole": {
        "type": "TALK_ROLE_PLAYER",
        "_id": ""
      },
      "talkContentTextMapHash": 2371314698,
      "talkAssetPath": "",
      "talkAssetPathAlter": "",
      "talkAudioName": "",
      "actionBefore": "",
      "actionWhile": "",
      "actionAfter": "",
      "optionIcon": "",
      "iconPath": ""
    },
    {
      "id": 690740407,
      "nextDialogs": [
        690740408
      ],
      "talkRole": {
        "type": "TALK_ROLE_NPC",
        "_id": "9074"
      },
      "talkContentTextMapHash": 282056322,
      "talkAssetPath": "",
      "talkAssetPathAlter": "",
      "talkAudioName": "",
      "actionBefore": "",
      "actionWhile": "",
      "actionAfter": "",
      "optionIcon": "",
      "iconPath": ""
    },
    {
      "id": 690740408,
      "nextDialogs": [
        690740409
      ],
      "talkRole": {
        "type": "TALK_ROLE_NPC",
        "_id": "9074"
      },
      "talkContentTextMapHash": 3046685018,
      "talkAssetPath": "",
      "talkAssetPathAlter": "",
      "talkAudioName": "",
      "actionBefore": "",
      "actionWhile": "",
      "actionAfter": "",
      "optionIcon": "",
      "iconPath": ""
    },
    {
      "id": 690740409,
      "nextDialogs": [
        690740410
      ],
      "talkShowType": "TALK_SHOW_FORCE_SELECT",
      "talkRole": {
        "type": "TALK_ROLE_PLAYER",
        "_id": ""
      },
      "talkContentTextMapHash": 4034260538,
      "talkAssetPath": "",
      "talkAssetPathAlter": "",
      "talkAudioName": "",
      "actionBefore": "",
      "actionWhile": "",
      "actionAfter": "",
      "optionIcon": "",
      "iconPath": ""
    },
    {
      "id": 690740410,
      "nextDialogs": [
        690740411
      ],
      "talkRole": {
        "type": "TALK_ROLE_NPC",
        "_id": "9074"
      },
      "talkContentTextMapHash": 782925114,
      "talkAssetPath": "",
      "talkAssetPathAlter": "",
      "talkAudioName": "",
      "actionBefore": "",
      "actionWhile": "",
      "actionAfter": "",
      "optionIcon": "",
      "iconPath": ""
    },
    {
      "id": 690740411,
      "nextDialogs": [
        690740412
      ],
      "talkRole": {
        "type": "TALK_ROLE_NPC",
        "_id": "9074"
      },
      "talkContentTextMapHash": 292048442,
      "talkAssetPath": "",
      "talkAssetPathAlter": "",
      "talkAudioName": "",
      "actionBefore": "",
      "actionWhile": "",
      "actionAfter": "",
      "optionIcon": "",
      "iconPath": ""
    },
    {
      "id": 690740412,
      "nextDialogs": [
        690740413
      ],
      "talkRole": {
        "type": "TALK_ROLE_NPC",
        "_id": "9074"
      },
      "talkContentTextMapHash": 1592577530,
      "talkAssetPath": "",
      "talkAssetPathAlter": "",
      "talkAudioName": "",
      "actionBefore": "",
      "actionWhile": "",
      "actionAfter": "",
      "optionIcon": "",
      "iconPath": ""
    },
    {
      "id": 690740413,
      "nextDialogs": [
        690740414
      ],
      "talkRole": {
        "type": "TALK_ROLE_NPC",
        "_id": "9074"
      },
      "talkContentTextMapHash": 690425922,
      "talkAssetPath": "",
      "talkAssetPathAlter": "",
      "talkAudioName": "",
      "actionBefore": "",
      "actionWhile": "",
      "actionAfter": "",
      "optionIcon": "",
      "iconPath": ""
    },
    {
      "id": 690740414,
      "nextDialogs": [
        690740415
      ],
      "talkRole": {
        "type": "TALK_ROLE_NPC",
        "_id": "9074"
      },
      "talkContentTextMapHash": 2111932842,
      "talkAssetPath": "",
      "talkAssetPathAlter": "",
      "talkAudioName": "",
      "actionBefore": "",
      "actionWhile": "",
      "actionAfter": "",
      "optionIcon": "",
      "iconPath": ""
    },
    {
      "id": 690740415,
      "nextDialogs": [
        690740416
      ],
      "talkRole": {
        "type": "TALK_ROLE_NPC",
        "_id": "9074"
      },
      "talkContentTextMapHash": 4017055114,
      "talkAssetPath": "",
      "talkAssetPathAlter": "",
      "talkAudioName": "",
      "actionBefore": "",
      "actionWhile": "",
      "actionAfter": "",
      "optionIcon": "",
      "iconPath": ""
    },
    {
      "id": 690740416,
      "nextDialogs": [
        690740417
      ],
      "talkShowType": "TALK_SHOW_FORCE_SELECT",
      "talkRole": {
        "type": "TALK_ROLE_PLAYER",
        "_id": ""
      },
      "talkContentTextMapHash": 3286496346,
      "talkAssetPath": "",
      "talkAssetPathAlter": "",
      "talkAudioName": "",
      "actionBefore": "",
      "actionWhile": "",
      "actionAfter": "",
      "optionIcon": "",
      "iconPath": ""
    },
    {
      "id": 690740417,
      "nextDialogs": [
        690740418
      ],
      "talkRole": {
        "type": "TALK_ROLE_NPC",
        "_id": "9074"
      },
      "talkContentTextMapHash": 2802001938,
      "talkAssetPath": "",
      "talkAssetPathAlter": "",
      "talkAudioName": "",
      "actionBefore": "",
      "actionWhile": "",
      "actionAfter": "",
      "optionIcon": "",
      "iconPath": ""
    },
    {
      "id": 690740418,
      "nextDialogs": [
        690740419
      ],
      "talkRole": {
        "type": "TALK_ROLE_NPC",
        "_id": "9074"
      },
      "talkContentTextMapHash": 1611821146,
      "talkAssetPath": "",
      "talkAssetPathAlter": "",
      "talkAudioName": "",
      "actionBefore": "",
      "actionWhile": "",
      "actionAfter": "",
      "optionIcon": "",
      "iconPath": ""
    },
    {
      "id": 690740419,
      "nextDialogs": [
        690740420,
        690740421
      ],
      "talkRole": {
        "type": "TALK_ROLE_NPC",
        "_id": "9074"
      },
      "talkContentTextMapHash": 1440021794,
      "talkAssetPath": "",
      "talkAssetPathAlter": "",
      "talkAudioName": "",
      "actionBefore": "",
      "actionWhile": "",
      "actionAfter": "",
      "optionIcon": "",
      "iconPath": ""
    },
    {
      "id": 690740420,
      "nextDialogs": [
        690740422
      ],
      "talkShowType": "TALK_SHOW_FORCE_SELECT",
      "talkRole": {
        "type": "TALK_ROLE_PLAYER",
        "_id": ""
      },
      "talkContentTextMapHash": 162711866,
      "talkAssetPath": "",
      "talkAssetPathAlter": "",
      "talkAudioName": "",
      "actionBefore": "",
      "actionWhile": "",
      "actionAfter": "",
      "optionIcon": "",
      "iconPath": ""
    },
    {
      "id": 690740422,
      "talkRole": {
        "type": "TALK_ROLE_NPC",
        "_id": "9074"
      },
      "talkContentTextMapHash": 3306025018,
      "talkAssetPath": "",
      "talkAssetPathAlter": "",
      "talkAudioName": "",
      "actionBefore": "",
      "actionWhile": "",
      "actionAfter": "",
      "optionIcon": "",
      "iconPath": ""
    },
    {
      "id": 690740421,
      "nextDialogs": [
        690740422
      ],
      "talkShowType": "TALK_SHOW_FORCE_SELECT",
      "talkRole": {
        "type": "TALK_ROLE_PLAYER",
        "_id": ""
      },
      "talkContentTextMapHash": 1567822610,
      "talkAssetPath": "",
      "talkAssetPathAlter": "",
      "talkAudioName": "",
      "actionBefore": "",
      "actionWhile": "",
      "actionAfter": "",
      "optionIcon": "",
      "iconPath": ""
    },
    {
      "id": 690740406,
      "nextDialogs": [
        690740407
      ],
      "talkShowType": "TALK_SHOW_FORCE_SELECT",
      "talkRole": {
        "type": "TALK_ROLE_PLAYER",
        "_id": ""
      },
      "talkContentTextMapHash": 3861915850,
      "talkAssetPath": "",
      "talkAssetPathAlter": "",
      "talkAudioName": "",
      "actionBefore": "",
      "actionWhile": "",
      "actionAfter": "",
      "optionIcon": "",
      "iconPath": ""
    }
  ]
}