{
  "talkId": 6907207,
  "KPGKDHAFHFE": "FREE",
  "dialogList": [
    {
      "id": 690720201,
      "nextDialogs": [
        690720202
      ],
      "talkShowType": "TALK_SHOW_FORCE_SELECT",
      "talkRole": {
        "type": "TALK_ROLE_PLAYER",
        "_id": ""
      },
      "talkContentTextMapHash": 590053586,
      "talkAssetPath": "",
      "talkAssetPathAlter": "",
      "talkAudioName": "",
      "actionBefore": "",
      "actionWhile": "",
      "actionAfter": "",
      "optionIcon": "",
      "iconPath": ""
    },
    {
      "id": 690720202,
      "nextDialogs": [
        690720203
      ],
      "talkRole": {
        "type": "TALK_ROLE_NPC",
        "_id": "9072"
      },
      "talkContentTextMapHash": 3513454746,
      "talkAssetPath": "",
      "talkAssetPathAlter": "",
      "talkAudioName": "",
      "actionBefore": "",
      "actionWhile": "",
      "actionAfter": "",
      "optionIcon": "",
      "iconPath": ""
    },
    {
      "id": 690720203,
      "nextDialogs": [
        690720204
      ],
      "talkRole": {
        "type": "TALK_ROLE_NPC",
        "_id": "9072"
      },
      "talkContentTextMapHash": 3811729122,
      "talkAssetPath": "",
      "talkAssetPathAlter": "",
      "talkAudioName": "",
      "actionBefore": "",
      "actionWhile": "",
      "actionAfter": "",
      "optionIcon": "",
      "iconPath": ""
    },
    {
      "id": 690720204,
      "nextDialogs": [
        690720205,
        690720208
      ],
      "talkRole": {
        "type": "TALK_ROLE_NPC",
        "_id": "9072"
      },
      "talkContentTextMapHash": 3698092546,
      "talkAssetPath": "",
      "talkAssetPathAlter": "",
      "talkAudioName": "",
      "actionBefore": "",
      "actionWhile": "",
      "actionAfter": "",
      "optionIcon": "",
      "iconPath": ""
    },
    {
      "id": 690720205,
      "nextDialogs": [
        690720206
      ],
      "talkShowType": "TALK_SHOW_FORCE_SELECT",
      "talkRole": {
        "type": "TALK_ROLE_PLAYER",
        "_id": ""
      },
      "talkContentTextMapHash": 2284670642,
      "talkAssetPath": "",
      "talkAssetPathAlter": "",
      "talkAudioName": "",
      "actionBefore": "",
      "actionWhile": "",
      "actionAfter": "",
      "optionIcon": "",
      "iconPath": ""
    },
    {
      "id": 690720206,
      "nextDialogs": [
        690720207
      ],
      "talkRole": {
        "type": "TALK_ROLE_NPC",
        "_id": "9072"
      },
      "talkContentTextMapHash": 2725265226,
      "talkAssetPath": "",
      "talkAssetPathAlter": "",
      "talkAudioName": "",
      "actionBefore": "",
      "actionWhile": "",
      "actionAfter": "",
      "optionIcon": "",
      "iconPath": ""
    },
    {
      "id": 690720207,
      "nextDialogs": [
        690720211
      ],
      "talkRole": {
        "type": "TALK_ROLE_NPC",
        "_id": "9072"
      },
      "talkContentTextMapHash": 806065258,
      "talkAssetPath": "",
      "talkAssetPathAlter": "",
      "talkAudioName": "",
      "actionBefore": "",
      "actionWhile": "",
      "actionAfter": "",
      "optionIcon": "",
      "iconPath": ""
    },
    {
      "id": 690720211,
      "nextDialogs": [
        690720212
      ],
      "talkRole": {
        "type": "TALK_ROLE_NPC",
        "_id": "9072"
      },
      "talkContentTextMapHash": 3327096610,
      "talkAssetPath": "",
      "talkAssetPathAlter": "",
      "talkAudioName": "",
      "actionBefore": "",
      "actionWhile": "",
      "actionAfter": "",
      "optionIcon": "",
      "iconPath": ""
    },
    {
      "id": 690720212,
      "talkRole": {
        "type": "TALK_ROLE_NPC",
        "_id": "9072"
      },
      "talkContentTextMapHash": 1257519866,
      "talkAssetPath": "",
      "talkAssetPathAlter": "",
      "talkAudioName": "",
      "actionBefore": "",
      "actionWhile": "",
      "actionAfter": "",
      "optionIcon": "",
      "iconPath": ""
    },
    {
      "id": 690720208,
      "nextDialogs": [
        690720209
      ],
      "talkShowType": "TALK_SHOW_FORCE_SELECT",
      "talkRole": {
        "type": "TALK_ROLE_PLAYER",
        "_id": ""
      },
      "talkContentTextMapHash": 3221300874,
      "talkAssetPath": "",
      "talkAssetPathAlter": "",
      "talkAudioName": "",
      "actionBefore": "",
      "actionWhile": "",
      "actionAfter": "",
      "optionIcon": "",
      "iconPath": ""
    },
    {
      "id": 690720209,
      "nextDialogs": [
        690720210
      ],
      "talkRole": {
        "type": "TALK_ROLE_NPC",
        "_id": "9072"
      },
      "talkContentTextMapHash": 3883951658,
      "talkAssetPath": "",
      "talkAssetPathAlter": "",
      "talkAudioName": "",
      "actionBefore": "",
      "actionWhile": "",
      "actionAfter": "",
      "optionIcon": "",
      "iconPath": ""
    },
    {
      "id": 690720210,
      "nextDialogs": [
        690720211
      ],
      "talkRole": {
        "type": "TALK_ROLE_NPC",
        "_id": "9072"
      },
      "talkContentTextMapHash": 3310273338,
      "talkAssetPath": "",
      "talkAssetPathAlter": "",
      "talkAudioName": "",
      "actionBefore": "",
      "actionWhile": "",
      "actionAfter": "",
      "optionIcon": "",
      "iconPath": ""
    }
  ]
}