{
  "talkId": 6907505,
  "KPGKDHAFHFE": "FREE",
  "dialogList": [
    {
      "id": 690750501,
      "nextDialogs": [
        690750502
      ],
      "talkShowType": "TALK_SHOW_FORCE_SELECT",
      "talkRole": {
        "type": "TALK_ROLE_PLAYER",
        "_id": ""
      },
      "talkContentTextMapHash": 2476636050,
      "talkAssetPath": "",
      "talkAssetPathAlter": "",
      "talkAudioName": "",
      "actionBefore": "",
      "actionWhile": "",
      "actionAfter": "",
      "optionIcon": "",
      "iconPath": ""
    },
    {
      "id": 690750502,
      "nextDialogs": [
        690750503
      ],
      "talkRole": {
        "type": "TALK_ROLE_NPC",
        "_id": "9075"
      },
      "talkContentTextMapHash": 3960637018,
      "talkAssetPath": "",
      "talkAssetPathAlter": "",
      "talkAudioName": "",
      "actionBefore": "",
      "actionWhile": "",
      "actionAfter": "",
      "optionIcon": "",
      "iconPath": ""
    },
    {
      "id": 690750503,
      "talkRole": {
        "type": "TALK_ROLE_NPC",
        "_id": "9075"
      },
      "talkContentTextMapHash": 321358986,
      "talkAssetPath": "",
      "talkAssetPathAlter": "",
      "talkAudioName": "",
      "actionBefore": "",
      "actionWhile": "",
      "actionAfter": "",
      "optionIcon": "",
      "iconPath": ""
    }
  ]
}