{
  "talkId": 6907511,
  "KPGKDHAFHFE": "FREE",
  "dialogList": [
    {
      "id": 690750401,
      "nextDialogs": [
        690750402
      ],
      "talkShowType": "TALK_SHOW_FORCE_SELECT",
      "talkRole": {
        "type": "TALK_ROLE_PLAYER",
        "_id": ""
      },
      "talkContentTextMapHash": 332349426,
      "talkAssetPath": "",
      "talkAssetPathAlter": "",
      "talkAudioName": "",
      "actionBefore": "",
      "actionWhile": "",
      "actionAfter": "",
      "optionIcon": "",
      "iconPath": ""
    },
    {
      "id": 690750402,
      "nextDialogs": [
        690750403
      ],
      "talkRole": {
        "type": "TALK_ROLE_NPC",
        "_id": "9075"
      },
      "talkContentTextMapHash": 153387074,
      "talkAssetPath": "",
      "talkAssetPathAlter": "",
      "talkAudioName": "",
      "actionBefore": "",
      "actionWhile": "",
      "actionAfter": "",
      "optionIcon": "",
      "iconPath": ""
    },
    {
      "id": 690750403,
      "nextDialogs": [
        690750404
      ],
      "talkRole": {
        "type": "TALK_ROLE_NPC",
        "_id": "9075"
      },
      "talkContentTextMapHash": 3753606354,
      "talkAssetPath": "",
      "talkAssetPathAlter": "",
      "talkAudioName": "",
      "actionBefore": "",
      "actionWhile": "",
      "actionAfter": "",
      "optionIcon": "",
      "iconPath": ""
    },
    {
      "id": 690750404,
      "nextDialogs": [
        690750405
      ],
      "talkRole": {
        "type": "TALK_ROLE_NPC",
        "_id": "9075"
      },
      "talkContentTextMapHash": 3460088938,
      "talkAssetPath": "",
      "talkAssetPathAlter": "",
      "talkAudioName": "",
      "actionBefore": "",
      "actionWhile": "",
      "actionAfter": "",
      "optionIcon": "",
      "iconPath": ""
    },
    {
      "id": 690750405,
      "nextDialogs": [
        690750406
      ],
      "talkRole": {
        "type": "TALK_ROLE_NPC",
        "_id": "9075"
      },
      "talkContentTextMapHash": 2527889706,
      "talkAssetPath": "",
      "talkAssetPathAlter": "",
      "talkAudioName": "",
      "actionBefore": "",
      "actionWhile": "",
      "actionAfter": "",
      "optionIcon": "",
      "iconPath": ""
    },
    {
      "id": 690750406,
      "nextDialogs": [
        690750407
      ],
      "talkRole": {
        "type": "TALK_ROLE_NPC",
        "_id": "9075"
      },
      "talkContentTextMapHash": 1890306650,
      "talkAssetPath": "",
      "talkAssetPathAlter": "",
      "talkAudioName": "",
      "actionBefore": "",
      "actionWhile": "",
      "actionAfter": "",
      "optionIcon": "",
      "iconPath": ""
    },
    {
      "id": 690750407,
      "nextDialogs": [
        690750408
      ],
      "talkShowType": "TALK_SHOW_FORCE_SELECT",
      "talkRole": {
        "type": "TALK_ROLE_PLAYER",
        "_id": ""
      },
      "talkContentTextMapHash": 1633735842,
      "talkAssetPath": "",
      "talkAssetPathAlter": "",
      "talkAudioName": "",
      "actionBefore": "",
      "actionWhile": "",
      "actionAfter": "",
      "optionIcon": "",
      "iconPath": ""
    },
    {
      "id": 690750408,
      "nextDialogs": [
        690750409
      ],
      "talkRole": {
        "type": "TALK_ROLE_NPC",
        "_id": "9075"
      },
      "talkContentTextMapHash": 403169068,
      "talkAssetPath": "",
      "talkAssetPathAlter": "",
      "talkAudioName": "",
      "actionBefore": "",
      "actionWhile": "",
      "actionAfter": "",
      "optionIcon": "",
      "iconPath": ""
    },
    {
      "id": 690750409,
      "nextDialogs": [
        690750410
      ],
      "talkRole": {
        "type": "TALK_ROLE_NPC",
        "_id": "9075"
      },
      "talkContentTextMapHash": 2347617410,
      "talkAssetPath": "",
      "talkAssetPathAlter": "",
      "talkAudioName": "",
      "actionBefore": "",
      "actionWhile": "",
      "actionAfter": "",
      "optionIcon": "",
      "iconPath": ""
    },
    {
      "id": 690750410,
      "nextDialogs": [
        690750411
      ],
      "talkRole": {
        "type": "TALK_ROLE_NPC",
        "_id": "9075"
      },
      "talkContentTextMapHash": 62572354,
      "talkAssetPath": "",
      "talkAssetPathAlter": "",
      "talkAudioName": "",
      "actionBefore": "",
      "actionWhile": "",
      "actionAfter": "",
      "optionIcon": "",
      "iconPath": ""
    },
    {
      "id": 690750411,
      "nextDialogs": [
        690750412
      ],
      "talkRole": {
        "type": "TALK_ROLE_NPC",
        "_id": "9075"
      },
      "talkContentTextMapHash": 1378232890,
      "talkAssetPath": "",
      "talkAssetPathAlter": "",
      "talkAudioName": "",
      "actionBefore": "",
      "actionWhile": "",
      "actionAfter": "",
      "optionIcon": "",
      "iconPath": ""
    },
    {
      "id": 690750412,
      "nextDialogs": [
        690750413
      ],
      "talkRole": {
        "type": "TALK_ROLE_NPC",
        "_id": "9075"
      },
      "talkContentTextMapHash": 142036978,
      "talkAssetPath": "",
      "talkAssetPathAlter": "",
      "talkAudioName": "",
      "actionBefore": "",
      "actionWhile": "",
      "actionAfter": "",
      "optionIcon": "",
      "iconPath": ""
    },
    {
      "id": 690750413,
      "nextDialogs": [
        690750414
      ],
      "talkRole": {
        "type": "TALK_ROLE_NPC",
        "_id": "9075"
      },
      "talkContentTextMapHash": 3406107338,
      "talkAssetPath": "",
      "talkAssetPathAlter": "",
      "talkAudioName": "",
      "actionBefore": "",
      "actionWhile": "",
      "actionAfter": "",
      "optionIcon": "",
      "iconPath": ""
    },
    {
      "id": 690750414,
      "nextDialogs": [
        690750415,
        690750418
      ],
      "talkRole": {
        "type": "TALK_ROLE_NPC",
        "_id": "9075"
      },
      "talkContentTextMapHash": 4099411642,
      "talkAssetPath": "",
      "talkAssetPathAlter": "",
      "talkAudioName": "",
      "actionBefore": "",
      "actionWhile": "",
      "actionAfter": "",
      "optionIcon": "",
      "iconPath": ""
    },
    {
      "id": 690750415,
      "nextDialogs": [
        690750416
      ],
      "talkShowType": "TALK_SHOW_FORCE_SELECT",
      "talkRole": {
        "type": "TALK_ROLE_PLAYER",
        "_id": ""
      },
      "talkContentTextMapHash": 1813645122,
      "talkAssetPath": "",
      "talkAssetPathAlter": "",
      "talkAudioName": "",
      "actionBefore": "",
      "actionWhile": "",
      "actionAfter": "",
      "optionIcon": "",
      "iconPath": ""
    },
    {
      "id": 690750416,
      "nextDialogs": [
        690750417
      ],
      "talkRole": {
        "type": "TALK_ROLE_NPC",
        "_id": "9075"
      },
      "talkContentTextMapHash": 944064810,
      "talkAssetPath": "",
      "talkAssetPathAlter": "",
      "talkAudioName": "",
      "actionBefore": "",
      "actionWhile": "",
      "actionAfter": "",
      "optionIcon": "",
      "iconPath": ""
    },
    {
      "id": 690750417,
      "talkRole": {
        "type": "TALK_ROLE_NPC",
        "_id": "9075"
      },
      "talkContentTextMapHash": 2901181418,
      "talkAssetPath": "",
      "talkAssetPathAlter": "",
      "talkAudioName": "",
      "actionBefore": "",
      "actionWhile": "",
      "actionAfter": "",
      "optionIcon": "",
      "iconPath": ""
    },
    {
      "id": 690750418,
      "nextDialogs": [
        690750419
      ],
      "talkShowType": "TALK_SHOW_FORCE_SELECT",
      "talkRole": {
        "type": "TALK_ROLE_PLAYER",
        "_id": ""
      },
      "talkContentTextMapHash": 1350560762,
      "talkAssetPath": "",
      "talkAssetPathAlter": "",
      "talkAudioName": "",
      "actionBefore": "",
      "actionWhile": "",
      "actionAfter": "",
      "optionIcon": "",
      "iconPath": ""
    },
    {
      "id": 690750419,
      "nextDialogs": [
        690750420
      ],
      "talkRole": {
        "type": "TALK_ROLE_NPC",
        "_id": "9075"
      },
      "talkContentTextMapHash": 1970682938,
      "talkAssetPath": "",
      "talkAssetPathAlter": "",
      "talkAudioName": "",
      "actionBefore": "",
      "actionWhile": "",
      "actionAfter": "",
      "optionIcon": "",
      "iconPath": ""
    },
    {
      "id": 690750420,
      "nextDialogs": [
        690750421
      ],
      "talkShowType": "TALK_SHOW_FORCE_SELECT",
      "talkRole": {
        "type": "TALK_ROLE_PLAYER",
        "_id": ""
      },
      "talkContentTextMapHash": 2850390394,
      "talkAssetPath": "",
      "talkAssetPathAlter": "",
      "talkAudioName": "",
      "actionBefore": "",
      "actionWhile": "",
      "actionAfter": "",
      "optionIcon": "",
      "iconPath": ""
    },
    {
      "id": 690750421,
      "nextDialogs": [
        690750422
      ],
      "talkRole": {
        "type": "TALK_ROLE_NPC",
        "_id": "9075"
      },
      "talkContentTextMapHash": 1772976498,
      "talkAssetPath": "",
      "talkAssetPathAlter": "",
      "talkAudioName": "",
      "actionBefore": "",
      "actionWhile": "",
      "actionAfter": "",
      "optionIcon": "",
      "iconPath": ""
    },
    {
      "id": 690750422,
      "nextDialogs": [
        690750423
      ],
      "talkRole": {
        "type": "TALK_ROLE_NPC",
        "_id": "9075"
      },
      "talkContentTextMapHash": 3222971330,
      "talkAssetPath": "",
      "talkAssetPathAlter": "",
      "talkAudioName": "",
      "actionBefore": "",
      "actionWhile": "",
      "actionAfter": "",
      "optionIcon": "",
      "iconPath": ""
    },
    {
      "id": 690750423,
      "nextDialogs": [
        690750424
      ],
      "talkRole": {
        "type": "TALK_ROLE_NPC",
        "_id": "9075"
      },
      "talkContentTextMapHash": 1241695482,
      "talkAssetPath": "",
      "talkAssetPathAlter": "",
      "talkAudioName": "",
      "actionBefore": "",
      "actionWhile": "",
      "actionAfter": "",
      "optionIcon": "",
      "iconPath": ""
    },
    {
      "id": 690750424,
      "talkRole": {
        "type": "TALK_ROLE_NPC",
        "_id": "9075"
      },
      "talkContentTextMapHash": 1866652386,
      "talkAssetPath": "",
      "talkAssetPathAlter": "",
      "talkAudioName": "",
      "actionBefore": "",
      "actionWhile": "",
      "actionAfter": "",
      "optionIcon": "",
      "iconPath": ""
    }
  ]
}