{
  "talkId": 6907011,
  "KPGKDHAFHFE": "FREE",
  "dialogList": [
    {
      "id": 690701101,
      "nextDialogs": [
        690701102
      ],
      "talkRole": {
        "type": "TALK_ROLE_NPC",
        "_id": "9070"
      },
      "talkContentTextMapHash": 3664320042,
      "talkAssetPath": "",
      "talkAssetPathAlter": "",
      "talkAudioName": "",
      "actionBefore": "",
      "actionWhile": "",
      "actionAfter": "",
      "optionIcon": "",
      "iconPath": ""
    },
    {
      "id": 690701102,
      "nextDialogs": [
        690701103
      ],
      "talkRole": {
        "type": "TALK_ROLE_NPC",
        "_id": "9070"
      },
      "talkContentTextMapHash": 3034033306,
      "talkAssetPath": "",
      "talkAssetPathAlter": "",
      "talkAudioName": "",
      "actionBefore": "",
      "actionWhile": "",
      "actionAfter": "",
      "optionIcon": "",
      "iconPath": ""
    },
    {
      "id": 690701103,
      "talkRole": {
        "type": "TALK_ROLE_NPC",
        "_id": "9070"
      },
      "talkContentTextMapHash": 2030930242,
      "talkAssetPath": "",
      "talkAssetPathAlter": "",
      "talkAudioName": "",
      "actionBefore": "",
      "actionWhile": "",
      "actionAfter": "",
      "optionIcon": "",
      "iconPath": ""
    }
  ]
}