{
  "talkId": 6908603,
  "KPGKDHAFHFE": "FREE",
  "dialogList": [
    {
      "id": 690860301,
      "nextDialogs": [
        690860302
      ],
      "talkShowType": "TALK_SHOW_FORCE_SELECT",
      "talkRole": {
        "type": "TALK_ROLE_PLAYER",
        "_id": ""
      },
      "talkContentTextMapHash": 1056385978,
      "talkAssetPath": "",
      "talkAssetPathAlter": "",
      "talkAudioName": "",
      "actionBefore": "",
      "actionWhile": "",
      "actionAfter": "",
      "optionIcon": "",
      "iconPath": ""
    },
    {
      "id": 690860302,
      "nextDialogs": [
        690860303
      ],
      "talkRole": {
        "type": "TALK_ROLE_NPC",
        "_id": "9086"
      },
      "talkContentTextMapHash": 3629537634,
      "talkAssetPath": "",
      "talkAssetPathAlter": "",
      "talkAudioName": "",
      "actionBefore": "",
      "actionWhile": "",
      "actionAfter": "",
      "optionIcon": "",
      "iconPath": ""
    },
    {
      "id": 690860303,
      "nextDialogs": [
        690860304
      ],
      "talkRole": {
        "type": "TALK_ROLE_NPC",
        "_id": "9086"
      },
      "talkContentTextMapHash": 3792791370,
      "talkAssetPath": "",
      "talkAssetPathAlter": "",
      "talkAudioName": "",
      "actionBefore": "",
      "actionWhile": "",
      "actionAfter": "",
      "optionIcon": "",
      "iconPath": ""
    },
    {
      "id": 690860304,
      "nextDialogs": [
        690860305
      ],
      "talkShowType": "TALK_SHOW_FORCE_SELECT",
      "talkRole": {
        "type": "TALK_ROLE_PLAYER",
        "_id": ""
      },
      "talkContentTextMapHash": 2706400490,
      "talkAssetPath": "",
      "talkAssetPathAlter": "",
      "talkAudioName": "",
      "actionBefore": "",
      "actionWhile": "",
      "actionAfter": "",
      "optionIcon": "",
      "iconPath": ""
    },
    {
      "id": 690860305,
      "nextDialogs": [
        690860306
      ],
      "talkRole": {
        "type": "TALK_ROLE_NPC",
        "_id": "9086"
      },
      "talkContentTextMapHash": 2466995658,
      "talkAssetPath": "",
      "talkAssetPathAlter": "",
      "talkAudioName": "",
      "actionBefore": "",
      "actionWhile": "",
      "actionAfter": "",
      "optionIcon": "",
      "iconPath": ""
    },
    {
      "id": 690860306,
      "nextDialogs": [
        690860307
      ],
      "talkRole": {
        "type": "TALK_ROLE_NPC",
        "_id": "9086"
      },
      "talkContentTextMapHash": 2017764890,
      "talkAssetPath": "",
      "talkAssetPathAlter": "",
      "talkAudioName": "",
      "actionBefore": "",
      "actionWhile": "",
      "actionAfter": "",
      "optionIcon": "",
      "iconPath": ""
    },
    {
      "id": 690860307,
      "nextDialogs": [
        690860308
      ],
      "talkShowType": "TALK_SHOW_FORCE_SELECT",
      "talkRole": {
        "type": "TALK_ROLE_PLAYER",
        "_id": ""
      },
      "talkContentTextMapHash": 3048996282,
      "talkAssetPath": "",
      "talkAssetPathAlter": "",
      "talkAudioName": "",
      "actionBefore": "",
      "actionWhile": "",
      "actionAfter": "",
      "optionIcon": "",
      "iconPath": ""
    },
    {
      "id": 690860308,
      "nextDialogs": [
        690860309
      ],
      "talkRole": {
        "type": "TALK_ROLE_NPC",
        "_id": "9086"
      },
      "talkContentTextMapHash": 2792152114,
      "talkAssetPath": "",
      "talkAssetPathAlter": "",
      "talkAudioName": "",
      "actionBefore": "",
      "actionWhile": "",
      "actionAfter": "",
      "optionIcon": "",
      "iconPath": ""
    },
    {
      "id": 690860309,
      "nextDialogs": [
        690860310
      ],
      "talkRole": {
        "type": "TALK_ROLE_NPC",
        "_id": "9086"
      },
      "talkContentTextMapHash": 2301670850,
      "talkAssetPath": "",
      "talkAssetPathAlter": "",
      "talkAudioName": "",
      "actionBefore": "",
      "actionWhile": "",
      "actionAfter": "",
      "optionIcon": "",
      "iconPath": ""
    },
    {
      "id": 690860310,
      "nextDialogs": [
        690860311
      ],
      "talkRole": {
        "type": "TALK_ROLE_NPC",
        "_id": "9086"
      },
      "talkContentTextMapHash": 717633634,
      "talkAssetPath": "",
      "talkAssetPathAlter": "",
      "talkAudioName": "",
      "actionBefore": "",
      "actionWhile": "",
      "actionAfter": "",
      "optionIcon": "",
      "iconPath": ""
    },
    {
      "id": 690860311,
      "nextDialogs": [
        690860312,
        690860314
      ],
      "talkRole": {
        "type": "TALK_ROLE_NPC",
        "_id": "9086"
      },
      "talkContentTextMapHash": 113608572,
      "talkAssetPath": "",
      "talkAssetPathAlter": "",
      "talkAudioName": "",
      "actionBefore": "",
      "actionWhile": "",
      "actionAfter": "",
      "optionIcon": "",
      "iconPath": ""
    },
    {
      "id": 690860312,
      "nextDialogs": [
        690860313
      ],
      "talkShowType": "TALK_SHOW_FORCE_SELECT",
      "talkRole": {
        "type": "TALK_ROLE_PLAYER",
        "_id": ""
      },
      "talkContentTextMapHash": 3725133754,
      "talkAssetPath": "",
      "talkAssetPathAlter": "",
      "talkAudioName": "",
      "actionBefore": "",
      "actionWhile": "",
      "actionAfter": "",
      "optionIcon": "",
      "iconPath": ""
    },
    {
      "id": 690860313,
      "nextDialogs": [
        690860317
      ],
      "talkRole": {
        "type": "TALK_ROLE_NPC",
        "_id": "9086"
      },
      "talkContentTextMapHash": 2299934250,
      "talkAssetPath": "",
      "talkAssetPathAlter": "",
      "talkAudioName": "",
      "actionBefore": "",
      "actionWhile": "",
      "actionAfter": "",
      "optionIcon": "",
      "iconPath": ""
    },
    {
      "id": 690860317,
      "nextDialogs": [
        690860318
      ],
      "talkRole": {
        "type": "TALK_ROLE_NPC",
        "_id": "9086"
      },
      "talkContentTextMapHash": 26875058,
      "talkAssetPath": "",
      "talkAssetPathAlter": "",
      "talkAudioName": "",
      "actionBefore": "",
      "actionWhile": "",
      "actionAfter": "",
      "optionIcon": "",
      "iconPath": ""
    },
    {
      "id": 690860318,
      "talkRole": {
        "type": "TALK_ROLE_NPC",
        "_id": "9086"
      },
      "talkContentTextMapHash": 3135955330,
      "talkAssetPath": "",
      "talkAssetPathAlter": "",
      "talkAudioName": "",
      "actionBefore": "",
      "actionWhile": "",
      "actionAfter": "",
      "optionIcon": "",
      "iconPath": ""
    },
    {
      "id": 690860314,
      "nextDialogs": [
        690860315
      ],
      "talkShowType": "TALK_SHOW_FORCE_SELECT",
      "talkRole": {
        "type": "TALK_ROLE_PLAYER",
        "_id": ""
      },
      "talkContentTextMapHash": 1732141146,
      "talkAssetPath": "",
      "talkAssetPathAlter": "",
      "talkAudioName": "",
      "actionBefore": "",
      "actionWhile": "",
      "actionAfter": "",
      "optionIcon": "",
      "iconPath": ""
    },
    {
      "id": 690860315,
      "nextDialogs": [
        690860316
      ],
      "talkRole": {
        "type": "TALK_ROLE_NPC",
        "_id": "9086"
      },
      "talkContentTextMapHash": 3908646370,
      "talkAssetPath": "",
      "talkAssetPathAlter": "",
      "talkAudioName": "",
      "actionBefore": "",
      "actionWhile": "",
      "actionAfter": "",
      "optionIcon": "",
      "iconPath": ""
    },
    {
      "id": 690860316,
      "nextDialogs": [
        690860317
      ],
      "talkRole": {
        "type": "TALK_ROLE_NPC",
        "_id": "9086"
      },
      "talkContentTextMapHash": 2388628850,
      "talkAssetPath": "",
      "talkAssetPathAlter": "",
      "talkAudioName": "",
      "actionBefore": "",
      "actionWhile": "",
      "actionAfter": "",
      "optionIcon": "",
      "iconPath": ""
    }
  ]
}