{
  "talkId": 6908404,
  "KPGKDHAFHFE": "FREE",
  "dialogList": [
    {
      "id": 690840401,
      "nextDialogs": [
        690840402
      ],
      "talkShowType": "TALK_SHOW_FORCE_SELECT",
      "talkRole": {
        "type": "TALK_ROLE_PLAYER",
        "_id": ""
      },
      "talkContentTextMapHash": 3675173890,
      "talkAssetPath": "",
      "talkAssetPathAlter": "",
      "talkAudioName": "",
      "actionBefore": "",
      "actionWhile": "",
      "actionAfter": "",
      "optionIcon": "",
      "iconPath": ""
    },
    {
      "id": 690840402,
      "nextDialogs": [
        690840403
      ],
      "talkRole": {
        "type": "TALK_ROLE_NPC",
        "_id": "9084"
      },
      "talkContentTextMapHash": 4233979418,
      "talkAssetPath": "",
      "talkAssetPathAlter": "",
      "talkAudioName": "",
      "actionBefore": "",
      "actionWhile": "",
      "actionAfter": "",
      "optionIcon": "",
      "iconPath": ""
    },
    {
      "id": 690840403,
      "nextDialogs": [
        690840404
      ],
      "talkShowType": "TALK_SHOW_FORCE_SELECT",
      "talkRole": {
        "type": "TALK_ROLE_PLAYER",
        "_id": ""
      },
      "talkContentTextMapHash": 3502859914,
      "talkAssetPath": "",
      "talkAssetPathAlter": "",
      "talkAudioName": "",
      "actionBefore": "",
      "actionWhile": "",
      "actionAfter": "",
      "optionIcon": "",
      "iconPath": ""
    },
    {
      "id": 690840404,
      "nextDialogs": [
        690840405,
        690840408
      ],
      "talkRole": {
        "type": "TALK_ROLE_NPC",
        "_id": "9084"
      },
      "talkContentTextMapHash": 3443472970,
      "talkAssetPath": "",
      "talkAssetPathAlter": "",
      "talkAudioName": "",
      "actionBefore": "",
      "actionWhile": "",
      "actionAfter": "",
      "optionIcon": "",
      "iconPath": ""
    },
    {
      "id": 690840405,
      "nextDialogs": [
        690840406
      ],
      "talkShowType": "TALK_SHOW_FORCE_SELECT",
      "talkRole": {
        "type": "TALK_ROLE_PLAYER",
        "_id": ""
      },
      "talkContentTextMapHash": 3881270066,
      "talkAssetPath": "",
      "talkAssetPathAlter": "",
      "talkAudioName": "",
      "actionBefore": "",
      "actionWhile": "",
      "actionAfter": "",
      "optionIcon": "",
      "iconPath": ""
    },
    {
      "id": 690840406,
      "nextDialogs": [
        690840407
      ],
      "talkRole": {
        "type": "TALK_ROLE_NPC",
        "_id": "9084"
      },
      "talkContentTextMapHash": 378491602,
      "talkAssetPath": "",
      "talkAssetPathAlter": "",
      "talkAudioName": "",
      "actionBefore": "",
      "actionWhile": "",
      "actionAfter": "",
      "optionIcon": "",
      "iconPath": ""
    },
    {
      "id": 690840407,
      "nextDialogs": [
        690840411
      ],
      "talkRole": {
        "type": "TALK_ROLE_NPC",
        "_id": "9084"
      },
      "talkContentTextMapHash": 1374509250,
      "talkAssetPath": "",
      "talkAssetPathAlter": "",
      "talkAudioName": "",
      "actionBefore": "",
      "actionWhile": "",
      "actionAfter": "",
      "optionIcon": "",
      "iconPath": ""
    },
    {
      "id": 690840411,
      "nextDialogs": [
        690840412
      ],
      "talkShowType": "TALK_SHOW_FORCE_SELECT",
      "talkRole": {
        "type": "TALK_ROLE_PLAYER",
        "_id": ""
      },
      "talkContentTextMapHash": 1747174802,
      "talkAssetPath": "",
      "talkAssetPathAlter": "",
      "talkAudioName": "",
      "actionBefore": "",
      "actionWhile": "",
      "actionAfter": "",
      "optionIcon": "",
      "iconPath": ""
    },
    {
      "id": 690840412,
      "nextDialogs": [
        690840413
      ],
      "talkRole": {
        "type": "TALK_ROLE_NPC",
        "_id": "9084"
      },
      "talkContentTextMapHash": 1264633162,
      "talkAssetPath": "",
      "talkAssetPathAlter": "",
      "talkAudioName": "",
      "actionBefore": "",
      "actionWhile": "",
      "actionAfter": "",
      "optionIcon": "",
      "iconPath": ""
    },
    {
      "id": 690840413,
      "nextDialogs": [
        690840414
      ],
      "talkRole": {
        "type": "TALK_ROLE_NPC",
        "_id": "9084"
      },
      "talkContentTextMapHash": 2739645106,
      "talkAssetPath": "",
      "talkAssetPathAlter": "",
      "talkAudioName": "",
      "actionBefore": "",
      "actionWhile": "",
      "actionAfter": "",
      "optionIcon": "",
      "iconPath": ""
    },
    {
      "id": 690840414,
      "nextDialogs": [
        690840415
      ],
      "talkRole": {
        "type": "TALK_ROLE_NPC",
        "_id": "9084"
      },
      "talkContentTextMapHash": 1142021314,
      "talkAssetPath": "",
      "talkAssetPathAlter": "",
      "talkAudioName": "",
      "actionBefore": "",
      "actionWhile": "",
      "actionAfter": "",
      "optionIcon": "",
      "iconPath": ""
    },
    {
      "id": 690840415,
      "nextDialogs": [
        690840416
      ],
      "talkRole": {
        "type": "TALK_ROLE_NPC",
        "_id": "9084"
      },
      "talkContentTextMapHash": 357434810,
      "talkAssetPath": "",
      "talkAssetPathAlter": "",
      "talkAudioName": "",
      "actionBefore": "",
      "actionWhile": "",
      "actionAfter": "",
      "optionIcon": "",
      "iconPath": ""
    },
    {
      "id": 690840416,
      "nextDialogs": [
        690840417
      ],
      "talkRole": {
        "type": "TALK_ROLE_NPC",
        "_id": "9084"
      },
      "talkContentTextMapHash": 1356255570,
      "talkAssetPath": "",
      "talkAssetPathAlter": "",
      "talkAudioName": "",
      "actionBefore": "",
      "actionWhile": "",
      "actionAfter": "",
      "optionIcon": "",
      "iconPath": ""
    },
    {
      "id": 690840417,
      "talkRole": {
        "type": "TALK_ROLE_NPC",
        "_id": "9084"
      },
      "talkContentTextMapHash": 3227876306,
      "talkAssetPath": "",
      "talkAssetPathAlter": "",
      "talkAudioName": "",
      "actionBefore": "",
      "actionWhile": "",
      "actionAfter": "",
      "optionIcon": "",
      "iconPath": ""
    },
    {
      "id": 690840408,
      "nextDialogs": [
        690840409
      ],
      "talkShowType": "TALK_SHOW_FORCE_SELECT",
      "talkRole": {
        "type": "TALK_ROLE_PLAYER",
        "_id": ""
      },
      "talkContentTextMapHash": 3017876578,
      "talkAssetPath": "",
      "talkAssetPathAlter": "",
      "talkAudioName": "",
      "actionBefore": "",
      "actionWhile": "",
      "actionAfter": "",
      "optionIcon": "",
      "iconPath": ""
    },
    {
      "id": 690840409,
      "nextDialogs": [
        690840410
      ],
      "talkRole": {
        "type": "TALK_ROLE_NPC",
        "_id": "9084"
      },
      "talkContentTextMapHash": 370709146,
      "talkAssetPath": "",
      "talkAssetPathAlter": "",
      "talkAudioName": "",
      "actionBefore": "",
      "actionWhile": "",
      "actionAfter": "",
      "optionIcon": "",
      "iconPath": ""
    },
    {
      "id": 690840410,
      "nextDialogs": [
        690840411
      ],
      "talkRole": {
        "type": "TALK_ROLE_NPC",
        "_id": "9084"
      },
      "talkContentTextMapHash": 2439099914,
      "talkAssetPath": "",
      "talkAssetPathAlter": "",
      "talkAudioName": "",
      "actionBefore": "",
      "actionWhile": "",
      "actionAfter": "",
      "optionIcon": "",
      "iconPath": ""
    }
  ]
}