{
  "talkId": 6908407,
  "KPGKDHAFHFE": "FREE",
  "dialogList": [
    {
      "id": 690840201,
      "nextDialogs": [
        690840202
      ],
      "talkShowType": "TALK_SHOW_FORCE_SELECT",
      "talkRole": {
        "type": "TALK_ROLE_PLAYER",
        "_id": ""
      },
      "talkContentTextMapHash": 1279097586,
      "talkAssetPath": "",
      "talkAssetPathAlter": "",
      "talkAudioName": "",
      "actionBefore": "",
      "actionWhile": "",
      "actionAfter": "",
      "optionIcon": "",
      "iconPath": ""
    },
    {
      "id": 690840202,
      "nextDialogs": [
        690840203
      ],
      "talkRole": {
        "type": "TALK_ROLE_NPC",
        "_id": "9084"
      },
      "talkContentTextMapHash": 255438602,
      "talkAssetPath": "",
      "talkAssetPathAlter": "",
      "talkAudioName": "",
      "actionBefore": "",
      "actionWhile": "",
      "actionAfter": "",
      "optionIcon": "",
      "iconPath": ""
    },
    {
      "id": 690840203,
      "nextDialogs": [
        690840204,
        690840209
      ],
      "talkRole": {
        "type": "TALK_ROLE_NPC",
        "_id": "9084"
      },
      "talkContentTextMapHash": 152573314,
      "talkAssetPath": "",
      "talkAssetPathAlter": "",
      "talkAudioName": "",
      "actionBefore": "",
      "actionWhile": "",
      "actionAfter": "",
      "optionIcon": "",
      "iconPath": ""
    },
    {
      "id": 690840204,
      "nextDialogs": [
        690840205
      ],
      "talkShowType": "TALK_SHOW_FORCE_SELECT",
      "talkRole": {
        "type": "TALK_ROLE_PLAYER",
        "_id": ""
      },
      "talkContentTextMapHash": 3979988674,
      "talkAssetPath": "",
      "talkAssetPathAlter": "",
      "talkAudioName": "",
      "actionBefore": "",
      "actionWhile": "",
      "actionAfter": "",
      "optionIcon": "",
      "iconPath": ""
    },
    {
      "id": 690840205,
      "nextDialogs": [
        690840206
      ],
      "talkRole": {
        "type": "TALK_ROLE_NPC",
        "_id": "9084"
      },
      "talkContentTextMapHash": 329827546,
      "talkAssetPath": "",
      "talkAssetPathAlter": "",
      "talkAudioName": "",
      "actionBefore": "",
      "actionWhile": "",
      "actionAfter": "",
      "optionIcon": "",
      "iconPath": ""
    },
    {
      "id": 690840206,
      "nextDialogs": [
        690840207
      ],
      "talkRole": {
        "type": "TALK_ROLE_NPC",
        "_id": "9084"
      },
      "talkContentTextMapHash": 3322975426,
      "talkAssetPath": "",
      "talkAssetPathAlter": "",
      "talkAudioName": "",
      "actionBefore": "",
      "actionWhile": "",
      "actionAfter": "",
      "optionIcon": "",
      "iconPath": ""
    },
    {
      "id": 690840207,
      "nextDialogs": [
        690840208
      ],
      "talkRole": {
        "type": "TALK_ROLE_NPC",
        "_id": "9084"
      },
      "talkContentTextMapHash": 3808679522,
      "talkAssetPath": "",
      "talkAssetPathAlter": "",
      "talkAudioName": "",
      "actionBefore": "",
      "actionWhile": "",
      "actionAfter": "",
      "optionIcon": "",
      "iconPath": ""
    },
    {
      "id": 690840208,
      "talkRole": {
        "type": "TALK_ROLE_NPC",
        "_id": "9084"
      },
      "talkContentTextMapHash": 368692058,
      "talkAssetPath": "",
      "talkAssetPathAlter": "",
      "talkAudioName": "",
      "actionBefore": "",
      "actionWhile": "",
      "actionAfter": "",
      "optionIcon": "",
      "iconPath": ""
    },
    {
      "id": 690840209,
      "nextDialogs": [
        690840210
      ],
      "talkShowType": "TALK_SHOW_FORCE_SELECT",
      "talkRole": {
        "type": "TALK_ROLE_PLAYER",
        "_id": ""
      },
      "talkContentTextMapHash": 2958491074,
      "talkAssetPath": "",
      "talkAssetPathAlter": "",
      "talkAudioName": "",
      "actionBefore": "",
      "actionWhile": "",
      "actionAfter": "",
      "optionIcon": "",
      "iconPath": ""
    },
    {
      "id": 690840210,
      "nextDialogs": [
        690840211
      ],
      "talkRole": {
        "type": "TALK_ROLE_NPC",
        "_id": "9084"
      },
      "talkContentTextMapHash": 947657218,
      "talkAssetPath": "",
      "talkAssetPathAlter": "",
      "talkAudioName": "",
      "actionBefore": "",
      "actionWhile": "",
      "actionAfter": "",
      "optionIcon": "",
      "iconPath": ""
    },
    {
      "id": 690840211,
      "nextDialogs": [
        690840212
      ],
      "talkRole": {
        "type": "TALK_ROLE_NPC",
        "_id": "9084"
      },
      "talkContentTextMapHash": 2542685570,
      "talkAssetPath": "",
      "talkAssetPathAlter": "",
      "talkAudioName": "",
      "actionBefore": "",
      "actionWhile": "",
      "actionAfter": "",
      "optionIcon": "",
      "iconPath": ""
    },
    {
      "id": 690840212,
      "nextDialogs": [
        690840213
      ],
      "talkRole": {
        "type": "TALK_ROLE_NPC",
        "_id": "9084"
      },
      "talkContentTextMapHash": 2701652354,
      "talkAssetPath": "",
      "talkAssetPathAlter": "",
      "talkAudioName": "",
      "actionBefore": "",
      "actionWhile": "",
      "actionAfter": "",
      "optionIcon": "",
      "iconPath": ""
    },
    {
      "id": 690840213,
      "talkRole": {
        "type": "TALK_ROLE_NPC",
        "_id": "9084"
      },
      "talkContentTextMapHash": 32067506,
      "talkAssetPath": "",
      "talkAssetPathAlter": "",
      "talkAudioName": "",
      "actionBefore": "",
      "actionWhile": "",
      "actionAfter": "",
      "optionIcon": "",
      "iconPath": ""
    }
  ]
}