{
  "talkId": 6908101,
  "KPGKDHAFHFE": "FREE",
  "dialogList": [
    {
      "id": 690810101,
      "nextDialogs": [
        690810102
      ],
      "talkRole": {
        "type": "TALK_ROLE_NPC",
        "_id": "9081"
      },
      "talkContentTextMapHash": 3397679698,
      "talkAssetPath": "",
      "talkAssetPathAlter": "",
      "talkAudioName": "",
      "actionBefore": "",
      "actionWhile": "",
      "actionAfter": "",
      "optionIcon": "",
      "iconPath": ""
    },
    {
      "id": 690810102,
      "talkRole": {
        "type": "TALK_ROLE_NPC",
        "_id": "9081"
      },
      "talkContentTextMapHash": 2754670370,
      "talkAssetPath": "",
      "talkAssetPathAlter": "",
      "talkAudioName": "",
      "actionBefore": "",
      "actionWhile": "",
      "actionAfter": "",
      "optionIcon": "",
      "iconPath": ""
    }
  ]
}