{
  "talkId": 6908204,
  "KPGKDHAFHFE": "FREE",
  "dialogList": [
    {
      "id": 690820401,
      "nextDialogs": [
        690820402
      ],
      "talkShowType": "TALK_SHOW_FORCE_SELECT",
      "talkRole": {
        "type": "TALK_ROLE_PLAYER",
        "_id": ""
      },
      "talkContentTextMapHash": 1195402154,
      "talkAssetPath": "",
      "talkAssetPathAlter": "",
      "talkAudioName": "",
      "actionBefore": "",
      "actionWhile": "",
      "actionAfter": "",
      "optionIcon": "",
      "iconPath": ""
    },
    {
      "id": 690820402,
      "nextDialogs": [
        690820403
      ],
      "talkRole": {
        "type": "TALK_ROLE_NPC",
        "_id": "9082"
      },
      "talkContentTextMapHash": 1075617338,
      "talkAssetPath": "",
      "talkAssetPathAlter": "",
      "talkAudioName": "",
      "actionBefore": "",
      "actionWhile": "",
      "actionAfter": "",
      "optionIcon": "",
      "iconPath": ""
    },
    {
      "id": 690820403,
      "nextDialogs": [
        690820404
      ],
      "talkRole": {
        "type": "TALK_ROLE_NPC",
        "_id": "9082"
      },
      "talkContentTextMapHash": 2528054378,
      "talkAssetPath": "",
      "talkAssetPathAlter": "",
      "talkAudioName": "",
      "actionBefore": "",
      "actionWhile": "",
      "actionAfter": "",
      "optionIcon": "",
      "iconPath": ""
    },
    {
      "id": 690820404,
      "nextDialogs": [
        690820405
      ],
      "talkRole": {
        "type": "TALK_ROLE_NPC",
        "_id": "9082"
      },
      "talkContentTextMapHash": 2074262818,
      "talkAssetPath": "",
      "talkAssetPathAlter": "",
      "talkAudioName": "",
      "actionBefore": "",
      "actionWhile": "",
      "actionAfter": "",
      "optionIcon": "",
      "iconPath": ""
    },
    {
      "id": 690820405,
      "nextDialogs": [
        690820406
      ],
      "talkRole": {
        "type": "TALK_ROLE_NPC",
        "_id": "9082"
      },
      "talkContentTextMapHash": 2257985434,
      "talkAssetPath": "",
      "talkAssetPathAlter": "",
      "talkAudioName": "",
      "actionBefore": "",
      "actionWhile": "",
      "actionAfter": "",
      "optionIcon": "",
      "iconPath": ""
    },
    {
      "id": 690820406,
      "nextDialogs": [
        690820407
      ],
      "talkRole": {
        "type": "TALK_ROLE_NPC",
        "_id": "9082"
      },
      "talkContentTextMapHash": 104092210,
      "talkAssetPath": "",
      "talkAssetPathAlter": "",
      "talkAudioName": "",
      "actionBefore": "",
      "actionWhile": "",
      "actionAfter": "",
      "optionIcon": "",
      "iconPath": ""
    },
    {
      "id": 690820407,
      "nextDialogs": [
        690820408
      ],
      "talkRole": {
        "type": "TALK_ROLE_NPC",
        "_id": "9082"
      },
      "talkContentTextMapHash": 3448117306,
      "talkAssetPath": "",
      "talkAssetPathAlter": "",
      "talkAudioName": "",
      "actionBefore": "",
      "actionWhile": "",
      "actionAfter": "",
      "optionIcon": "",
      "iconPath": ""
    },
    {
      "id": 690820408,
      "nextDialogs": [
        690820409
      ],
      "talkRole": {
        "type": "TALK_ROLE_NPC",
        "_id": "9082"
      },
      "talkContentTextMapHash": 1007480282,
      "talkAssetPath": "",
      "talkAssetPathAlter": "",
      "talkAudioName": "",
      "actionBefore": "",
      "actionWhile": "",
      "actionAfter": "",
      "optionIcon": "",
      "iconPath": ""
    },
    {
      "id": 690820409,
      "nextDialogs": [
        690820410,
        690820412
      ],
      "talkRole": {
        "type": "TALK_ROLE_NPC",
        "_id": "9082"
      },
      "talkContentTextMapHash": 1979153250,
      "talkAssetPath": "",
      "talkAssetPathAlter": "",
      "talkAudioName": "",
      "actionBefore": "",
      "actionWhile": "",
      "actionAfter": "",
      "optionIcon": "",
      "iconPath": ""
    },
    {
      "id": 690820410,
      "nextDialogs": [
        690820411
      ],
      "talkShowType": "TALK_SHOW_FORCE_SELECT",
      "talkRole": {
        "type": "TALK_ROLE_PLAYER",
        "_id": ""
      },
      "talkContentTextMapHash": 3981716642,
      "talkAssetPath": "",
      "talkAssetPathAlter": "",
      "talkAudioName": "",
      "actionBefore": "",
      "actionWhile": "",
      "actionAfter": "",
      "optionIcon": "",
      "iconPath": ""
    },
    {
      "id": 690820411,
      "nextDialogs": [
        690820414
      ],
      "talkRole": {
        "type": "TALK_ROLE_NPC",
        "_id": "9082"
      },
      "talkContentTextMapHash": 2757530042,
      "talkAssetPath": "",
      "talkAssetPathAlter": "",
      "talkAudioName": "",
      "actionBefore": "",
      "actionWhile": "",
      "actionAfter": "",
      "optionIcon": "",
      "iconPath": ""
    },
    {
      "id": 690820414,
      "nextDialogs": [
        690820415
      ],
      "talkRole": {
        "type": "TALK_ROLE_NPC",
        "_id": "9082"
      },
      "talkContentTextMapHash": 795562418,
      "talkAssetPath": "",
      "talkAssetPathAlter": "",
      "talkAudioName": "",
      "actionBefore": "",
      "actionWhile": "",
      "actionAfter": "",
      "optionIcon": "",
      "iconPath": ""
    },
    {
      "id": 690820415,
      "nextDialogs": [
        690820416
      ],
      "talkRole": {
        "type": "TALK_ROLE_NPC",
        "_id": "9082"
      },
      "talkContentTextMapHash": 3096123882,
      "talkAssetPath": "",
      "talkAssetPathAlter": "",
      "talkAudioName": "",
      "actionBefore": "",
      "actionWhile": "",
      "actionAfter": "",
      "optionIcon": "",
      "iconPath": ""
    },
    {
      "id": 690820416,
      "talkRole": {
        "type": "TALK_ROLE_NPC",
        "_id": "9082"
      },
      "talkContentTextMapHash": 3873922778,
      "talkAssetPath": "",
      "talkAssetPathAlter": "",
      "talkAudioName": "",
      "actionBefore": "",
      "actionWhile": "",
      "actionAfter": "",
      "optionIcon": "",
      "iconPath": ""
    },
    {
      "id": 690820412,
      "nextDialogs": [
        690820413
      ],
      "talkShowType": "TALK_SHOW_FORCE_SELECT",
      "talkRole": {
        "type": "TALK_ROLE_PLAYER",
        "_id": ""
      },
      "talkContentTextMapHash": 411118690,
      "talkAssetPath": "",
      "talkAssetPathAlter": "",
      "talkAudioName": "",
      "actionBefore": "",
      "actionWhile": "",
      "actionAfter": "",
      "optionIcon": "",
      "iconPath": ""
    },
    {
      "id": 690820413,
      "nextDialogs": [
        690820414
      ],
      "talkRole": {
        "type": "TALK_ROLE_NPC",
        "_id": "9082"
      },
      "talkContentTextMapHash": 2119043290,
      "talkAssetPath": "",
      "talkAssetPathAlter": "",
      "talkAudioName": "",
      "actionBefore": "",
      "actionWhile": "",
      "actionAfter": "",
      "optionIcon": "",
      "iconPath": ""
    }
  ]
}