{
  "talkId": 6908901,
  "KPGKDHAFHFE": "FREE",
  "dialogList": [
    {
      "id": 690890101,
      "nextDialogs": [
        690890102
      ],
      "talkRole": {
        "type": "TALK_ROLE_NPC",
        "_id": "9089"
      },
      "talkContentTextMapHash": 2832409034,
      "talkAssetPath": "",
      "talkAssetPathAlter": "",
      "talkAudioName": "",
      "actionBefore": "",
      "actionWhile": "",
      "actionAfter": "",
      "optionIcon": "",
      "iconPath": ""
    },
    {
      "id": 690890102,
      "talkRole": {
        "type": "TALK_ROLE_NPC",
        "_id": "9089"
      },
      "talkContentTextMapHash": 1086234466,
      "talkAssetPath": "",
      "talkAssetPathAlter": "",
      "talkAudioName": "",
      "actionBefore": "",
      "actionWhile": "",
      "actionAfter": "",
      "optionIcon": "",
      "iconPath": ""
    }
  ]
}