{
  "talkId": 6908602,
  "KPGKDHAFHFE": "FREE",
  "dialogList": [
    {
      "id": 690860201,
      "nextDialogs": [
        690860202
      ],
      "talkShowType": "TALK_SHOW_FORCE_SELECT",
      "talkRole": {
        "type": "TALK_ROLE_PLAYER",
        "_id": ""
      },
      "talkContentTextMapHash": 3638480570,
      "talkAssetPath": "",
      "talkAssetPathAlter": "",
      "talkAudioName": "",
      "actionBefore": "",
      "actionWhile": "",
      "actionAfter": "",
      "optionIcon": "",
      "iconPath": ""
    },
    {
      "id": 690860202,
      "nextDialogs": [
        690860203
      ],
      "talkRole": {
        "type": "TALK_ROLE_NPC",
        "_id": "9086"
      },
      "talkContentTextMapHash": 63430842,
      "talkAssetPath": "",
      "talkAssetPathAlter": "",
      "talkAudioName": "",
      "actionBefore": "",
      "actionWhile": "",
      "actionAfter": "",
      "optionIcon": "",
      "iconPath": ""
    },
    {
      "id": 690860203,
      "nextDialogs": [
        690860204,
        690860209
      ],
      "talkRole": {
        "type": "TALK_ROLE_NPC",
        "_id": "9086"
      },
      "talkContentTextMapHash": 1824808754,
      "talkAssetPath": "",
      "talkAssetPathAlter": "",
      "talkAudioName": "",
      "actionBefore": "",
      "actionWhile": "",
      "actionAfter": "",
      "optionIcon": "",
      "iconPath": ""
    },
    {
      "id": 690860204,
      "nextDialogs": [
        690860205
      ],
      "talkShowType": "TALK_SHOW_FORCE_SELECT",
      "talkRole": {
        "type": "TALK_ROLE_PLAYER",
        "_id": ""
      },
      "talkContentTextMapHash": 458566586,
      "talkAssetPath": "",
      "talkAssetPathAlter": "",
      "talkAudioName": "",
      "actionBefore": "",
      "actionWhile": "",
      "actionAfter": "",
      "optionIcon": "",
      "iconPath": ""
    },
    {
      "id": 690860205,
      "nextDialogs": [
        690860206
      ],
      "talkRole": {
        "type": "TALK_ROLE_NPC",
        "_id": "9086"
      },
      "talkContentTextMapHash": 46058218,
      "talkAssetPath": "",
      "talkAssetPathAlter": "",
      "talkAudioName": "",
      "actionBefore": "",
      "actionWhile": "",
      "actionAfter": "",
      "optionIcon": "",
      "iconPath": ""
    },
    {
      "id": 690860206,
      "nextDialogs": [
        690860207
      ],
      "talkRole": {
        "type": "TALK_ROLE_NPC",
        "_id": "9086"
      },
      "talkContentTextMapHash": 2963832706,
      "talkAssetPath": "",
      "talkAssetPathAlter": "",
      "talkAudioName": "",
      "actionBefore": "",
      "actionWhile": "",
      "actionAfter": "",
      "optionIcon": "",
      "iconPath": ""
    },
    {
      "id": 690860207,
      "nextDialogs": [
        690860208
      ],
      "talkRole": {
        "type": "TALK_ROLE_NPC",
        "_id": "9086"
      },
      "talkContentTextMapHash": 427831514,
      "talkAssetPath": "",
      "talkAssetPathAlter": "",
      "talkAudioName": "",
      "actionBefore": "",
      "actionWhile": "",
      "actionAfter": "",
      "optionIcon": "",
      "iconPath": ""
    },
    {
      "id": 690860208,
      "talkRole": {
        "type": "TALK_ROLE_NPC",
        "_id": "9086"
      },
      "talkContentTextMapHash": 4247826594,
      "talkAssetPath": "",
      "talkAssetPathAlter": "",
      "talkAudioName": "",
      "actionBefore": "",
      "actionWhile": "",
      "actionAfter": "",
      "optionIcon": "",
      "iconPath": ""
    },
    {
      "id": 690860209,
      "nextDialogs": [
        690860210
      ],
      "talkShowType": "TALK_SHOW_FORCE_SELECT",
      "talkRole": {
        "type": "TALK_ROLE_PLAYER",
        "_id": ""
      },
      "talkContentTextMapHash": 2762918466,
      "talkAssetPath": "",
      "talkAssetPathAlter": "",
      "talkAudioName": "",
      "actionBefore": "",
      "actionWhile": "",
      "actionAfter": "",
      "optionIcon": "",
      "iconPath": ""
    },
    {
      "id": 690860210,
      "nextDialogs": [
        690860211
      ],
      "talkRole": {
        "type": "TALK_ROLE_NPC",
        "_id": "9086"
      },
      "talkContentTextMapHash": 4131704770,
      "talkAssetPath": "",
      "talkAssetPathAlter": "",
      "talkAudioName": "",
      "actionBefore": "",
      "actionWhile": "",
      "actionAfter": "",
      "optionIcon": "",
      "iconPath": ""
    },
    {
      "id": 690860211,
      "nextDialogs": [
        690860212
      ],
      "talkRole": {
        "type": "TALK_ROLE_NPC",
        "_id": "9086"
      },
      "talkContentTextMapHash": 118257570,
      "talkAssetPath": "",
      "talkAssetPathAlter": "",
      "talkAudioName": "",
      "actionBefore": "",
      "actionWhile": "",
      "actionAfter": "",
      "optionIcon": "",
      "iconPath": ""
    },
    {
      "id": 690860212,
      "nextDialogs": [
        690860213
      ],
      "talkShowType": "TALK_SHOW_FORCE_SELECT",
      "talkRole": {
        "type": "TALK_ROLE_PLAYER",
        "_id": ""
      },
      "talkContentTextMapHash": 350543274,
      "talkAssetPath": "",
      "talkAssetPathAlter": "",
      "talkAudioName": "",
      "actionBefore": "",
      "actionWhile": "",
      "actionAfter": "",
      "optionIcon": "",
      "iconPath": ""
    },
    {
      "id": 690860213,
      "nextDialogs": [
        690860214
      ],
      "talkRole": {
        "type": "TALK_ROLE_NPC",
        "_id": "9086"
      },
      "talkContentTextMapHash": 3533297042,
      "talkAssetPath": "",
      "talkAssetPathAlter": "",
      "talkAudioName": "",
      "actionBefore": "",
      "actionWhile": "",
      "actionAfter": "",
      "optionIcon": "",
      "iconPath": ""
    },
    {
      "id": 690860214,
      "nextDialogs": [
        690860215
      ],
      "talkRole": {
        "type": "TALK_ROLE_NPC",
        "_id": "9086"
      },
      "talkContentTextMapHash": 3946830106,
      "talkAssetPath": "",
      "talkAssetPathAlter": "",
      "talkAudioName": "",
      "actionBefore": "",
      "actionWhile": "",
      "actionAfter": "",
      "optionIcon": "",
      "iconPath": ""
    },
    {
      "id": 690860215,
      "talkRole": {
        "type": "TALK_ROLE_NPC",
        "_id": "9086"
      },
      "talkContentTextMapHash": 1723151882,
      "talkAssetPath": "",
      "talkAssetPathAlter": "",
      "talkAudioName": "",
      "actionBefore": "",
      "actionWhile": "",
      "actionAfter": "",
      "optionIcon": "",
      "iconPath": ""
    }
  ]
}