{
  "talkId": 6908205,
  "KPGKDHAFHFE": "FREE",
  "dialogList": [
    {
      "id": 690820501,
      "nextDialogs": [
        690820502
      ],
      "talkShowType": "TALK_SHOW_FORCE_SELECT",
      "talkRole": {
        "type": "TALK_ROLE_PLAYER",
        "_id": ""
      },
      "talkContentTextMapHash": 1793708322,
      "talkAssetPath": "",
      "talkAssetPathAlter": "",
      "talkAudioName": "",
      "actionBefore": "",
      "actionWhile": "",
      "actionAfter": "",
      "optionIcon": "",
      "iconPath": ""
    },
    {
      "id": 690820502,
      "nextDialogs": [
        690820503
      ],
      "talkRole": {
        "type": "TALK_ROLE_NPC",
        "_id": "9082"
      },
      "talkContentTextMapHash": 143964538,
      "talkAssetPath": "",
      "talkAssetPathAlter": "",
      "talkAudioName": "",
      "actionBefore": "",
      "actionWhile": "",
      "actionAfter": "",
      "optionIcon": "",
      "iconPath": ""
    },
    {
      "id": 690820503,
      "nextDialogs": [
        690820504
      ],
      "talkRole": {
        "type": "TALK_ROLE_NPC",
        "_id": "9082"
      },
      "talkContentTextMapHash": 2485412738,
      "talkAssetPath": "",
      "talkAssetPathAlter": "",
      "talkAudioName": "",
      "actionBefore": "",
      "actionWhile": "",
      "actionAfter": "",
      "optionIcon": "",
      "iconPath": ""
    },
    {
      "id": 690820504,
      "talkRole": {
        "type": "TALK_ROLE_NPC",
        "_id": "9082"
      },
      "talkContentTextMapHash": 2004750066,
      "talkRoleNameTextMapHash": 3374309891,
      "talkAssetPath": "",
      "talkAssetPathAlter": "",
      "talkAudioName": "",
      "actionBefore": "",
      "actionWhile": "",
      "actionAfter": "",
      "optionIcon": "",
      "iconPath": ""
    }
  ]
}