{
  "talkId": 6908803,
  "KPGKDHAFHFE": "FREE",
  "dialogList": [
    {
      "id": 690880301,
      "nextDialogs": [
        690880302
      ],
      "talkShowType": "TALK_SHOW_FORCE_SELECT",
      "talkRole": {
        "type": "TALK_ROLE_PLAYER",
        "_id": ""
      },
      "talkContentTextMapHash": 2099054434,
      "talkAssetPath": "",
      "talkAssetPathAlter": "",
      "talkAudioName": "",
      "actionBefore": "",
      "actionWhile": "",
      "actionAfter": "",
      "optionIcon": "",
      "iconPath": ""
    },
    {
      "id": 690880302,
      "nextDialogs": [
        690880303
      ],
      "talkRole": {
        "type": "TALK_ROLE_NPC",
        "_id": "9088"
      },
      "talkContentTextMapHash": 93880786,
      "talkAssetPath": "",
      "talkAssetPathAlter": "",
      "talkAudioName": "",
      "actionBefore": "",
      "actionWhile": "",
      "actionAfter": "",
      "optionIcon": "",
      "iconPath": ""
    },
    {
      "id": 690880303,
      "nextDialogs": [
        690880304
      ],
      "talkRole": {
        "type": "TALK_ROLE_NPC",
        "_id": "9088"
      },
      "talkContentTextMapHash": 4102873402,
      "talkAssetPath": "",
      "talkAssetPathAlter": "",
      "talkAudioName": "",
      "actionBefore": "",
      "actionWhile": "",
      "actionAfter": "",
      "optionIcon": "",
      "iconPath": ""
    },
    {
      "id": 690880304,
      "nextDialogs": [
        690880305
      ],
      "talkShowType": "TALK_SHOW_FORCE_SELECT",
      "talkRole": {
        "type": "TALK_ROLE_PLAYER",
        "_id": ""
      },
      "talkContentTextMapHash": 397329922,
      "talkAssetPath": "",
      "talkAssetPathAlter": "",
      "talkAudioName": "",
      "actionBefore": "",
      "actionWhile": "",
      "actionAfter": "",
      "optionIcon": "",
      "iconPath": ""
    },
    {
      "id": 690880305,
      "nextDialogs": [
        690880306
      ],
      "talkRole": {
        "type": "TALK_ROLE_NPC",
        "_id": "9088"
      },
      "talkContentTextMapHash": 926422138,
      "talkAssetPath": "",
      "talkAssetPathAlter": "",
      "talkAudioName": "",
      "actionBefore": "",
      "actionWhile": "",
      "actionAfter": "",
      "optionIcon": "",
      "iconPath": ""
    },
    {
      "id": 690880306,
      "nextDialogs": [
        690880307
      ],
      "talkRole": {
        "type": "TALK_ROLE_NPC",
        "_id": "9088"
      },
      "talkContentTextMapHash": 4146678266,
      "talkAssetPath": "",
      "talkAssetPathAlter": "",
      "talkAudioName": "",
      "actionBefore": "",
      "actionWhile": "",
      "actionAfter": "",
      "optionIcon": "",
      "iconPath": ""
    },
    {
      "id": 690880307,
      "nextDialogs": [
        690880308
      ],
      "talkRole": {
        "type": "TALK_ROLE_NPC",
        "_id": "9088"
      },
      "talkContentTextMapHash": 619531298,
      "talkAssetPath": "",
      "talkAssetPathAlter": "",
      "talkAudioName": "",
      "actionBefore": "",
      "actionWhile": "",
      "actionAfter": "",
      "optionIcon": "",
      "iconPath": ""
    },
    {
      "id": 690880308,
      "nextDialogs": [
        690880309
      ],
      "talkShowType": "TALK_SHOW_FORCE_SELECT",
      "talkRole": {
        "type": "TALK_ROLE_PLAYER",
        "_id": ""
      },
      "talkContentTextMapHash": 1638968594,
      "talkAssetPath": "",
      "talkAssetPathAlter": "",
      "talkAudioName": "",
      "actionBefore": "",
      "actionWhile": "",
      "actionAfter": "",
      "optionIcon": "",
      "iconPath": ""
    },
    {
      "id": 690880309,
      "nextDialogs": [
        690880310
      ],
      "talkRole": {
        "type": "TALK_ROLE_NPC",
        "_id": "9088"
      },
      "talkContentTextMapHash": 1848628026,
      "talkAssetPath": "",
      "talkAssetPathAlter": "",
      "talkAudioName": "",
      "actionBefore": "",
      "actionWhile": "",
      "actionAfter": "",
      "optionIcon": "",
      "iconPath": ""
    },
    {
      "id": 690880310,
      "nextDialogs": [
        690880311
      ],
      "talkRole": {
        "type": "TALK_ROLE_NPC",
        "_id": "9088"
      },
      "talkContentTextMapHash": 4179666458,
      "talkAssetPath": "",
      "talkAssetPathAlter": "",
      "talkAudioName": "",
      "actionBefore": "",
      "actionWhile": "",
      "actionAfter": "",
      "optionIcon": "",
      "iconPath": ""
    },
    {
      "id": 690880311,
      "nextDialogs": [
        690880312
      ],
      "talkRole": {
        "type": "TALK_ROLE_NPC",
        "_id": "9088"
      },
      "talkContentTextMapHash": 3390958706,
      "talkAssetPath": "",
      "talkAssetPathAlter": "",
      "talkAudioName": "",
      "actionBefore": "",
      "actionWhile": "",
      "actionAfter": "",
      "optionIcon": "",
      "iconPath": ""
    },
    {
      "id": 690880312,
      "nextDialogs": [
        690880313
      ],
      "talkRole": {
        "type": "TALK_ROLE_NPC",
        "_id": "9088"
      },
      "talkContentTextMapHash": 2616025586,
      "talkAssetPath": "",
      "talkAssetPathAlter": "",
      "talkAudioName": "",
      "actionBefore": "",
      "actionWhile": "",
      "actionAfter": "",
      "optionIcon": "",
      "iconPath": ""
    },
    {
      "id": 690880313,
      "nextDialogs": [
        690880314
      ],
      "talkRole": {
        "type": "TALK_ROLE_NPC",
        "_id": "9088"
      },
      "talkContentTextMapHash": 2222072538,
      "talkAssetPath": "",
      "talkAssetPathAlter": "",
      "talkAudioName": "",
      "actionBefore": "",
      "actionWhile": "",
      "actionAfter": "",
      "optionIcon": "",
      "iconPath": ""
    },
    {
      "id": 690880314,
      "nextDialogs": [
        690880315
      ],
      "talkShowType": "TALK_SHOW_FORCE_SELECT",
      "talkRole": {
        "type": "TALK_ROLE_PLAYER",
        "_id": ""
      },
      "talkContentTextMapHash": 2078370682,
      "talkAssetPath": "",
      "talkAssetPathAlter": "",
      "talkAudioName": "",
      "actionBefore": "",
      "actionWhile": "",
      "actionAfter": "",
      "optionIcon": "",
      "iconPath": ""
    },
    {
      "id": 690880315,
      "nextDialogs": [
        690880316
      ],
      "talkRole": {
        "type": "TALK_ROLE_NPC",
        "_id": "9088"
      },
      "talkContentTextMapHash": 1379892738,
      "talkAssetPath": "",
      "talkAssetPathAlter": "",
      "talkAudioName": "",
      "actionBefore": "",
      "actionWhile": "",
      "actionAfter": "",
      "optionIcon": "",
      "iconPath": ""
    },
    {
      "id": 690880316,
      "nextDialogs": [
        690880317
      ],
      "talkRole": {
        "type": "TALK_ROLE_NPC",
        "_id": "9088"
      },
      "talkContentTextMapHash": 3665448466,
      "talkAssetPath": "",
      "talkAssetPathAlter": "",
      "talkAudioName": "",
      "actionBefore": "",
      "actionWhile": "",
      "actionAfter": "",
      "optionIcon": "",
      "iconPath": ""
    },
    {
      "id": 690880317,
      "nextDialogs": [
        690880318
      ],
      "talkShowType": "TALK_SHOW_FORCE_SELECT",
      "talkRole": {
        "type": "TALK_ROLE_PLAYER",
        "_id": ""
      },
      "talkContentTextMapHash": 4244628946,
      "talkAssetPath": "",
      "talkAssetPathAlter": "",
      "talkAudioName": "",
      "actionBefore": "",
      "actionWhile": "",
      "actionAfter": "",
      "optionIcon": "",
      "iconPath": ""
    },
    {
      "id": 690880318,
      "nextDialogs": [
        690880319
      ],
      "talkRole": {
        "type": "TALK_ROLE_NPC",
        "_id": "9088"
      },
      "talkContentTextMapHash": 3980393786,
      "talkAssetPath": "",
      "talkAssetPathAlter": "",
      "talkAudioName": "",
      "actionBefore": "",
      "actionWhile": "",
      "actionAfter": "",
      "optionIcon": "",
      "iconPath": ""
    },
    {
      "id": 690880319,
      "nextDialogs": [
        690880320
      ],
      "talkRole": {
        "type": "TALK_ROLE_NPC",
        "_id": "9088"
      },
      "talkContentTextMapHash": 732477570,
      "talkAssetPath": "",
      "talkAssetPathAlter": "",
      "talkAudioName": "",
      "actionBefore": "",
      "actionWhile": "",
      "actionAfter": "",
      "optionIcon": "",
      "iconPath": ""
    },
    {
      "id": 690880320,
      "talkRole": {
        "type": "TALK_ROLE_NPC",
        "_id": "9088"
      },
      "talkContentTextMapHash": 2534062666,
      "talkAssetPath": "",
      "talkAssetPathAlter": "",
      "talkAudioName": "",
      "actionBefore": "",
      "actionWhile": "",
      "actionAfter": "",
      "optionIcon": "",
      "iconPath": ""
    }
  ]
}