{
  "talkId": 6909202,
  "KPGKDHAFHFE": "FREE",
  "dialogList": [
    {
      "id": 690920201,
      "nextDialogs": [
        690920202
      ],
      "talkShowType": "TALK_SHOW_FORCE_SELECT",
      "talkRole": {
        "type": "TALK_ROLE_PLAYER",
        "_id": ""
      },
      "talkContentTextMapHash": 1423437594,
      "talkAssetPath": "",
      "talkAssetPathAlter": "",
      "talkAudioName": "",
      "actionBefore": "",
      "actionWhile": "",
      "actionAfter": "",
      "optionIcon": "",
      "iconPath": ""
    },
    {
      "id": 690920202,
      "nextDialogs": [
        690920203
      ],
      "talkRole": {
        "type": "TALK_ROLE_NPC",
        "_id": "9092"
      },
      "talkContentTextMapHash": 295760610,
      "talkAssetPath": "",
      "talkAssetPathAlter": "",
      "talkAudioName": "",
      "actionBefore": "",
      "actionWhile": "",
      "actionAfter": "",
      "optionIcon": "",
      "iconPath": ""
    },
    {
      "id": 690920203,
      "nextDialogs": [
        690920204
      ],
      "talkRole": {
        "type": "TALK_ROLE_NPC",
        "_id": "9092"
      },
      "talkContentTextMapHash": 2291339010,
      "talkAssetPath": "",
      "talkAssetPathAlter": "",
      "talkAudioName": "",
      "actionBefore": "",
      "actionWhile": "",
      "actionAfter": "",
      "optionIcon": "",
      "iconPath": ""
    },
    {
      "id": 690920204,
      "nextDialogs": [
        690920205
      ],
      "talkRole": {
        "type": "TALK_ROLE_NPC",
        "_id": "9092"
      },
      "talkContentTextMapHash": 113915842,
      "talkAssetPath": "",
      "talkAssetPathAlter": "",
      "talkAudioName": "",
      "actionBefore": "",
      "actionWhile": "",
      "actionAfter": "",
      "optionIcon": "",
      "iconPath": ""
    },
    {
      "id": 690920205,
      "nextDialogs": [
        690920206
      ],
      "talkShowType": "TALK_SHOW_FORCE_SELECT",
      "talkRole": {
        "type": "TALK_ROLE_PLAYER",
        "_id": ""
      },
      "talkContentTextMapHash": 68331490,
      "talkAssetPath": "",
      "talkAssetPathAlter": "",
      "talkAudioName": "",
      "actionBefore": "",
      "actionWhile": "",
      "actionAfter": "",
      "optionIcon": "",
      "iconPath": ""
    },
    {
      "id": 690920206,
      "nextDialogs": [
        690920207
      ],
      "talkRole": {
        "type": "TALK_ROLE_NPC",
        "_id": "9092"
      },
      "talkContentTextMapHash": 3885605810,
      "talkAssetPath": "",
      "talkAssetPathAlter": "",
      "talkAudioName": "",
      "actionBefore": "",
      "actionWhile": "",
      "actionAfter": "",
      "optionIcon": "",
      "iconPath": ""
    },
    {
      "id": 690920207,
      "nextDialogs": [
        690920208
      ],
      "talkRole": {
        "type": "TALK_ROLE_NPC",
        "_id": "9092"
      },
      "talkContentTextMapHash": 1429249322,
      "talkAssetPath": "",
      "talkAssetPathAlter": "",
      "talkAudioName": "",
      "actionBefore": "",
      "actionWhile": "",
      "actionAfter": "",
      "optionIcon": "",
      "iconPath": ""
    },
    {
      "id": 690920208,
      "nextDialogs": [
        690920209
      ],
      "talkRole": {
        "type": "TALK_ROLE_NPC",
        "_id": "9092"
      },
      "talkContentTextMapHash": 3709580162,
      "talkAssetPath": "",
      "talkAssetPathAlter": "",
      "talkAudioName": "",
      "actionBefore": "",
      "actionWhile": "",
      "actionAfter": "",
      "optionIcon": "",
      "iconPath": ""
    },
    {
      "id": 690920209,
      "nextDialogs": [
        690920210
      ],
      "talkShowType": "TALK_SHOW_FORCE_SELECT",
      "talkRole": {
        "type": "TALK_ROLE_PLAYER",
        "_id": ""
      },
      "talkContentTextMapHash": 1833500602,
      "talkAssetPath": "",
      "talkAssetPathAlter": "",
      "talkAudioName": "",
      "actionBefore": "",
      "actionWhile": "",
      "actionAfter": "",
      "optionIcon": "",
      "iconPath": ""
    },
    {
      "id": 690920210,
      "nextDialogs": [
        690920211
      ],
      "talkRole": {
        "type": "TALK_ROLE_NPC",
        "_id": "9092"
      },
      "talkContentTextMapHash": 3691007266,
      "talkAssetPath": "",
      "talkAssetPathAlter": "",
      "talkAudioName": "",
      "actionBefore": "",
      "actionWhile": "",
      "actionAfter": "",
      "optionIcon": "",
      "iconPath": ""
    },
    {
      "id": 690920211,
      "nextDialogs": [
        690920212
      ],
      "talkRole": {
        "type": "TALK_ROLE_NPC",
        "_id": "9092"
      },
      "talkContentTextMapHash": 2554925034,
      "talkAssetPath": "",
      "talkAssetPathAlter": "",
      "talkAudioName": "",
      "actionBefore": "",
      "actionWhile": "",
      "actionAfter": "",
      "optionIcon": "",
      "iconPath": ""
    },
    {
      "id": 690920212,
      "nextDialogs": [
        690920213
      ],
      "talkShowType": "TALK_SHOW_FORCE_SELECT",
      "talkRole": {
        "type": "TALK_ROLE_PLAYER",
        "_id": ""
      },
      "talkContentTextMapHash": 313113074,
      "talkAssetPath": "",
      "talkAssetPathAlter": "",
      "talkAudioName": "",
      "actionBefore": "",
      "actionWhile": "",
      "actionAfter": "",
      "optionIcon": "",
      "iconPath": ""
    },
    {
      "id": 690920213,
      "nextDialogs": [
        690920214
      ],
      "talkRole": {
        "type": "TALK_ROLE_NPC",
        "_id": "9092"
      },
      "talkContentTextMapHash": 3591707034,
      "talkAssetPath": "",
      "talkAssetPathAlter": "",
      "talkAudioName": "",
      "actionBefore": "",
      "actionWhile": "",
      "actionAfter": "",
      "optionIcon": "",
      "iconPath": ""
    },
    {
      "id": 690920214,
      "talkRole": {
        "type": "TALK_ROLE_NPC",
        "_id": "9092"
      },
      "talkContentTextMapHash": 1061861058,
      "talkAssetPath": "",
      "talkAssetPathAlter": "",
      "talkAudioName": "",
      "actionBefore": "",
      "actionWhile": "",
      "actionAfter": "",
      "optionIcon": "",
      "iconPath": ""
    }
  ]
}