{
  "talkId": 6909005,
  "KPGKDHAFHFE": "FREE",
  "dialogList": [
    {
      "id": 690900501,
      "nextDialogs": [
        690900502
      ],
      "talkShowType": "TALK_SHOW_FORCE_SELECT",
      "talkRole": {
        "type": "TALK_ROLE_PLAYER",
        "_id": ""
      },
      "talkContentTextMapHash": 1394845402,
      "talkAssetPath": "",
      "talkAssetPathAlter": "",
      "talkAudioName": "",
      "actionBefore": "",
      "actionWhile": "",
      "actionAfter": "",
      "optionIcon": "",
      "iconPath": ""
    },
    {
      "id": 690900502,
      "nextDialogs": [
        690900503
      ],
      "talkRole": {
        "type": "TALK_ROLE_NPC",
        "_id": "9090"
      },
      "talkContentTextMapHash": 2603763642,
      "talkAssetPath": "",
      "talkAssetPathAlter": "",
      "talkAudioName": "",
      "actionBefore": "",
      "actionWhile": "",
      "actionAfter": "",
      "optionIcon": "",
      "iconPath": ""
    },
    {
      "id": 690900503,
      "talkRole": {
        "type": "TALK_ROLE_NPC",
        "_id": "9090"
      },
      "talkContentTextMapHash": 809916146,
      "talkAssetPath": "",
      "talkAssetPathAlter": "",
      "talkAudioName": "",
      "actionBefore": "",
      "actionWhile": "",
      "actionAfter": "",
      "optionIcon": "",
      "iconPath": ""
    }
  ]
}