{
  "talkId": 6909210,
  "KPGKDHAFHFE": "FREE",
  "dialogList": [
    {
      "id": 690920301,
      "nextDialogs": [
        690920302
      ],
      "talkShowType": "TALK_SHOW_FORCE_SELECT",
      "talkRole": {
        "type": "TALK_ROLE_PLAYER",
        "_id": ""
      },
      "talkContentTextMapHash": 1650292034,
      "talkAssetPath": "",
      "talkAssetPathAlter": "",
      "talkAudioName": "",
      "actionBefore": "",
      "actionWhile": "",
      "actionAfter": "",
      "optionIcon": "",
      "iconPath": ""
    },
    {
      "id": 690920302,
      "nextDialogs": [
        690920303
      ],
      "talkRole": {
        "type": "TALK_ROLE_NPC",
        "_id": "9092"
      },
      "talkContentTextMapHash": 4245500074,
      "talkAssetPath": "",
      "talkAssetPathAlter": "",
      "talkAudioName": "",
      "actionBefore": "",
      "actionWhile": "",
      "actionAfter": "",
      "optionIcon": "",
      "iconPath": ""
    },
    {
      "id": 690920303,
      "nextDialogs": [
        690920304,
        690920309
      ],
      "talkRole": {
        "type": "TALK_ROLE_NPC",
        "_id": "9092"
      },
      "talkContentTextMapHash": 1626548722,
      "talkAssetPath": "",
      "talkAssetPathAlter": "",
      "talkAudioName": "",
      "actionBefore": "",
      "actionWhile": "",
      "actionAfter": "",
      "optionIcon": "",
      "iconPath": ""
    },
    {
      "id": 690920304,
      "nextDialogs": [
        690920305
      ],
      "talkShowType": "TALK_SHOW_FORCE_SELECT",
      "talkRole": {
        "type": "TALK_ROLE_PLAYER",
        "_id": ""
      },
      "talkContentTextMapHash": 1472267210,
      "talkAssetPath": "",
      "talkAssetPathAlter": "",
      "talkAudioName": "",
      "actionBefore": "",
      "actionWhile": "",
      "actionAfter": "",
      "optionIcon": "",
      "iconPath": ""
    },
    {
      "id": 690920305,
      "nextDialogs": [
        690920306
      ],
      "talkRole": {
        "type": "TALK_ROLE_NPC",
        "_id": "9092"
      },
      "talkContentTextMapHash": 2646190954,
      "talkAssetPath": "",
      "talkAssetPathAlter": "",
      "talkAudioName": "",
      "actionBefore": "",
      "actionWhile": "",
      "actionAfter": "",
      "optionIcon": "",
      "iconPath": ""
    },
    {
      "id": 690920306,
      "nextDialogs": [
        690920307
      ],
      "talkRole": {
        "type": "TALK_ROLE_NPC",
        "_id": "9092"
      },
      "talkContentTextMapHash": 900274626,
      "talkAssetPath": "",
      "talkAssetPathAlter": "",
      "talkAudioName": "",
      "actionBefore": "",
      "actionWhile": "",
      "actionAfter": "",
      "optionIcon": "",
      "iconPath": ""
    },
    {
      "id": 690920307,
      "nextDialogs": [
        690920308
      ],
      "talkRole": {
        "type": "TALK_ROLE_NPC",
        "_id": "9092"
      },
      "talkContentTextMapHash": 3610844642,
      "talkAssetPath": "",
      "talkAssetPathAlter": "",
      "talkAudioName": "",
      "actionBefore": "",
      "actionWhile": "",
      "actionAfter": "",
      "optionIcon": "",
      "iconPath": ""
    },
    {
      "id": 690920308,
      "nextDialogs": [
        690920313
      ],
      "talkRole": {
        "type": "TALK_ROLE_NPC",
        "_id": "9092"
      },
      "talkContentTextMapHash": 929784626,
      "talkAssetPath": "",
      "talkAssetPathAlter": "",
      "talkAudioName": "",
      "actionBefore": "",
      "actionWhile": "",
      "actionAfter": "",
      "optionIcon": "",
      "iconPath": ""
    },
    {
      "id": 690920313,
      "nextDialogs": [
        690920314
      ],
      "talkRole": {
        "type": "TALK_ROLE_NPC",
        "_id": "9092"
      },
      "talkContentTextMapHash": 1672318770,
      "talkAssetPath": "",
      "talkAssetPathAlter": "",
      "talkAudioName": "",
      "actionBefore": "",
      "actionWhile": "",
      "actionAfter": "",
      "optionIcon": "",
      "iconPath": ""
    },
    {
      "id": 690920314,
      "nextDialogs": [
        690920315
      ],
      "talkRole": {
        "type": "TALK_ROLE_NPC",
        "_id": "9092"
      },
      "talkContentTextMapHash": 46212562,
      "talkAssetPath": "",
      "talkAssetPathAlter": "",
      "talkAudioName": "",
      "actionBefore": "",
      "actionWhile": "",
      "actionAfter": "",
      "optionIcon": "",
      "iconPath": ""
    },
    {
      "id": 690920315,
      "nextDialogs": [
        690920316
      ],
      "talkRole": {
        "type": "TALK_ROLE_NPC",
        "_id": "9092"
      },
      "talkContentTextMapHash": 1686557546,
      "talkAssetPath": "",
      "talkAssetPathAlter": "",
      "talkAudioName": "",
      "actionBefore": "",
      "actionWhile": "",
      "actionAfter": "",
      "optionIcon": "",
      "iconPath": ""
    },
    {
      "id": 690920316,
      "nextDialogs": [
        690920317
      ],
      "talkShowType": "TALK_SHOW_FORCE_SELECT",
      "talkRole": {
        "type": "TALK_ROLE_PLAYER",
        "_id": ""
      },
      "talkContentTextMapHash": 1878258450,
      "talkAssetPath": "",
      "talkAssetPathAlter": "",
      "talkAudioName": "",
      "actionBefore": "",
      "actionWhile": "",
      "actionAfter": "",
      "optionIcon": "",
      "iconPath": ""
    },
    {
      "id": 690920317,
      "nextDialogs": [
        690920318
      ],
      "talkRole": {
        "type": "TALK_ROLE_NPC",
        "_id": "9092"
      },
      "talkContentTextMapHash": 4071584538,
      "talkAssetPath": "",
      "talkAssetPathAlter": "",
      "talkAudioName": "",
      "actionBefore": "",
      "actionWhile": "",
      "actionAfter": "",
      "optionIcon": "",
      "iconPath": ""
    },
    {
      "id": 690920318,
      "nextDialogs": [
        690920319
      ],
      "talkShowType": "TALK_SHOW_FORCE_SELECT",
      "talkRole": {
        "type": "TALK_ROLE_PLAYER",
        "_id": ""
      },
      "talkContentTextMapHash": 293789538,
      "talkAssetPath": "",
      "talkAssetPathAlter": "",
      "talkAudioName": "",
      "actionBefore": "",
      "actionWhile": "",
      "actionAfter": "",
      "optionIcon": "",
      "iconPath": ""
    },
    {
      "id": 690920319,
      "nextDialogs": [
        690920320
      ],
      "talkRole": {
        "type": "TALK_ROLE_NPC",
        "_id": "9092"
      },
      "talkContentTextMapHash": 652039282,
      "talkAssetPath": "",
      "talkAssetPathAlter": "",
      "talkAudioName": "",
      "actionBefore": "",
      "actionWhile": "",
      "actionAfter": "",
      "optionIcon": "",
      "iconPath": ""
    },
    {
      "id": 690920320,
      "nextDialogs": [
        690920321
      ],
      "talkRole": {
        "type": "TALK_ROLE_NPC",
        "_id": "9092"
      },
      "talkContentTextMapHash": 1413996482,
      "talkAssetPath": "",
      "talkAssetPathAlter": "",
      "talkAudioName": "",
      "actionBefore": "",
      "actionWhile": "",
      "actionAfter": "",
      "optionIcon": "",
      "iconPath": ""
    },
    {
      "id": 690920321,
      "nextDialogs": [
        690920322
      ],
      "talkRole": {
        "type": "TALK_ROLE_NPC",
        "_id": "9092"
      },
      "talkContentTextMapHash": 2292884722,
      "talkAssetPath": "",
      "talkAssetPathAlter": "",
      "talkAudioName": "",
      "actionBefore": "",
      "actionWhile": "",
      "actionAfter": "",
      "optionIcon": "",
      "iconPath": ""
    },
    {
      "id": 690920322,
      "talkRole": {
        "type": "TALK_ROLE_NPC",
        "_id": "9092"
      },
      "talkContentTextMapHash": 2497616714,
      "talkAssetPath": "",
      "talkAssetPathAlter": "",
      "talkAudioName": "",
      "actionBefore": "",
      "actionWhile": "",
      "actionAfter": "",
      "optionIcon": "",
      "iconPath": ""
    },
    {
      "id": 690920309,
      "nextDialogs": [
        690920310
      ],
      "talkShowType": "TALK_SHOW_FORCE_SELECT",
      "talkRole": {
        "type": "TALK_ROLE_PLAYER",
        "_id": ""
      },
      "talkContentTextMapHash": 371265514,
      "talkAssetPath": "",
      "talkAssetPathAlter": "",
      "talkAudioName": "",
      "actionBefore": "",
      "actionWhile": "",
      "actionAfter": "",
      "optionIcon": "",
      "iconPath": ""
    },
    {
      "id": 690920310,
      "nextDialogs": [
        690920311
      ],
      "talkRole": {
        "type": "TALK_ROLE_NPC",
        "_id": "9092"
      },
      "talkContentTextMapHash": 2606844722,
      "talkAssetPath": "",
      "talkAssetPathAlter": "",
      "talkAudioName": "",
      "actionBefore": "",
      "actionWhile": "",
      "actionAfter": "",
      "optionIcon": "",
      "iconPath": ""
    },
    {
      "id": 690920311,
      "nextDialogs": [
        690920312
      ],
      "talkRole": {
        "type": "TALK_ROLE_NPC",
        "_id": "9092"
      },
      "talkContentTextMapHash": 1009364930,
      "talkAssetPath": "",
      "talkAssetPathAlter": "",
      "talkAudioName": "",
      "actionBefore": "",
      "actionWhile": "",
      "actionAfter": "",
      "optionIcon": "",
      "iconPath": ""
    },
    {
      "id": 690920312,
      "nextDialogs": [
        690920313
      ],
      "talkRole": {
        "type": "TALK_ROLE_NPC",
        "_id": "9092"
      },
      "talkContentTextMapHash": 4090681146,
      "talkAssetPath": "",
      "talkAssetPathAlter": "",
      "talkAudioName": "",
      "actionBefore": "",
      "actionWhile": "",
      "actionAfter": "",
      "optionIcon": "",
      "iconPath": ""
    }
  ]
}