{
  "talkId": 6909211,
  "KPGKDHAFHFE": "FREE",
  "dialogList": [
    {
      "id": 690920401,
      "nextDialogs": [
        690920402
      ],
      "talkShowType": "TALK_SHOW_FORCE_SELECT",
      "talkRole": {
        "type": "TALK_ROLE_PLAYER",
        "_id": ""
      },
      "talkContentTextMapHash": 452478290,
      "talkAssetPath": "",
      "talkAssetPathAlter": "",
      "talkAudioName": "",
      "actionBefore": "",
      "actionWhile": "",
      "actionAfter": "",
      "optionIcon": "",
      "iconPath": ""
    },
    {
      "id": 690920402,
      "nextDialogs": [
        690920403
      ],
      "talkRole": {
        "type": "TALK_ROLE_NPC",
        "_id": "9092"
      },
      "talkContentTextMapHash": 998531538,
      "talkAssetPath": "",
      "talkAssetPathAlter": "",
      "talkAudioName": "",
      "actionBefore": "",
      "actionWhile": "",
      "actionAfter": "",
      "optionIcon": "",
      "iconPath": ""
    },
    {
      "id": 690920403,
      "nextDialogs": [
        690920404
      ],
      "talkRole": {
        "type": "TALK_ROLE_NPC",
        "_id": "9092"
      },
      "talkContentTextMapHash": 1916623210,
      "talkAssetPath": "",
      "talkAssetPathAlter": "",
      "talkAudioName": "",
      "actionBefore": "",
      "actionWhile": "",
      "actionAfter": "",
      "optionIcon": "",
      "iconPath": ""
    },
    {
      "id": 690920404,
      "nextDialogs": [
        690920405,
        690920409
      ],
      "talkRole": {
        "type": "TALK_ROLE_NPC",
        "_id": "9092"
      },
      "talkContentTextMapHash": 743349202,
      "talkAssetPath": "",
      "talkAssetPathAlter": "",
      "talkAudioName": "",
      "actionBefore": "",
      "actionWhile": "",
      "actionAfter": "",
      "optionIcon": "",
      "iconPath": ""
    },
    {
      "id": 690920405,
      "nextDialogs": [
        690920406
      ],
      "talkShowType": "TALK_SHOW_FORCE_SELECT",
      "talkRole": {
        "type": "TALK_ROLE_PLAYER",
        "_id": ""
      },
      "talkContentTextMapHash": 2166007074,
      "talkAssetPath": "",
      "talkAssetPathAlter": "",
      "talkAudioName": "",
      "actionBefore": "",
      "actionWhile": "",
      "actionAfter": "",
      "optionIcon": "",
      "iconPath": ""
    },
    {
      "id": 690920406,
      "nextDialogs": [
        690920407
      ],
      "talkRole": {
        "type": "TALK_ROLE_NPC",
        "_id": "9092"
      },
      "talkContentTextMapHash": 612322906,
      "talkAssetPath": "",
      "talkAssetPathAlter": "",
      "talkAudioName": "",
      "actionBefore": "",
      "actionWhile": "",
      "actionAfter": "",
      "optionIcon": "",
      "iconPath": ""
    },
    {
      "id": 690920407,
      "nextDialogs": [
        690920408
      ],
      "talkRole": {
        "type": "TALK_ROLE_NPC",
        "_id": "9092"
      },
      "talkContentTextMapHash": 1946505818,
      "talkAssetPath": "",
      "talkAssetPathAlter": "",
      "talkAudioName": "",
      "actionBefore": "",
      "actionWhile": "",
      "actionAfter": "",
      "optionIcon": "",
      "iconPath": ""
    },
    {
      "id": 690920408,
      "nextDialogs": [
        690920413
      ],
      "talkRole": {
        "type": "TALK_ROLE_NPC",
        "_id": "9092"
      },
      "talkContentTextMapHash": 3523054666,
      "talkAssetPath": "",
      "talkAssetPathAlter": "",
      "talkAudioName": "",
      "actionBefore": "",
      "actionWhile": "",
      "actionAfter": "",
      "optionIcon": "",
      "iconPath": ""
    },
    {
      "id": 690920413,
      "nextDialogs": [
        690920414
      ],
      "talkRole": {
        "type": "TALK_ROLE_NPC",
        "_id": "9092"
      },
      "talkContentTextMapHash": 1283254602,
      "talkAssetPath": "",
      "talkAssetPathAlter": "",
      "talkAudioName": "",
      "actionBefore": "",
      "actionWhile": "",
      "actionAfter": "",
      "optionIcon": "",
      "iconPath": ""
    },
    {
      "id": 690920414,
      "nextDialogs": [
        690920415
      ],
      "talkRole": {
        "type": "TALK_ROLE_NPC",
        "_id": "9092"
      },
      "talkContentTextMapHash": 3214354970,
      "talkAssetPath": "",
      "talkAssetPathAlter": "",
      "talkAudioName": "",
      "actionBefore": "",
      "actionWhile": "",
      "actionAfter": "",
      "optionIcon": "",
      "iconPath": ""
    },
    {
      "id": 690920415,
      "nextDialogs": [
        690920416
      ],
      "talkShowType": "TALK_SHOW_FORCE_SELECT",
      "talkRole": {
        "type": "TALK_ROLE_PLAYER",
        "_id": ""
      },
      "talkContentTextMapHash": 1864773770,
      "talkAssetPath": "",
      "talkAssetPathAlter": "",
      "talkAudioName": "",
      "actionBefore": "",
      "actionWhile": "",
      "actionAfter": "",
      "optionIcon": "",
      "iconPath": ""
    },
    {
      "id": 690920416,
      "nextDialogs": [
        690920417
      ],
      "talkRole": {
        "type": "TALK_ROLE_NPC",
        "_id": "9092"
      },
      "talkContentTextMapHash": 3389214514,
      "talkAssetPath": "",
      "talkAssetPathAlter": "",
      "talkAudioName": "",
      "actionBefore": "",
      "actionWhile": "",
      "actionAfter": "",
      "optionIcon": "",
      "iconPath": ""
    },
    {
      "id": 690920417,
      "nextDialogs": [
        690920418
      ],
      "talkRole": {
        "type": "TALK_ROLE_NPC",
        "_id": "9092"
      },
      "talkContentTextMapHash": 1913342866,
      "talkAssetPath": "",
      "talkAssetPathAlter": "",
      "talkAudioName": "",
      "actionBefore": "",
      "actionWhile": "",
      "actionAfter": "",
      "optionIcon": "",
      "iconPath": ""
    },
    {
      "id": 690920418,
      "nextDialogs": [
        690920419
      ],
      "talkRole": {
        "type": "TALK_ROLE_NPC",
        "_id": "9092"
      },
      "talkContentTextMapHash": 3451469418,
      "talkAssetPath": "",
      "talkAssetPathAlter": "",
      "talkAudioName": "",
      "actionBefore": "",
      "actionWhile": "",
      "actionAfter": "",
      "optionIcon": "",
      "iconPath": ""
    },
    {
      "id": 690920419,
      "nextDialogs": [
        690920420
      ],
      "talkRole": {
        "type": "TALK_ROLE_NPC",
        "_id": "9092"
      },
      "talkContentTextMapHash": 3504901730,
      "talkAssetPath": "",
      "talkAssetPathAlter": "",
      "talkAudioName": "",
      "actionBefore": "",
      "actionWhile": "",
      "actionAfter": "",
      "optionIcon": "",
      "iconPath": ""
    },
    {
      "id": 690920420,
      "talkShowType": "TALK_SHOW_FORCE_SELECT",
      "talkRole": {
        "type": "TALK_ROLE_PLAYER",
        "_id": ""
      },
      "talkContentTextMapHash": 4224873930,
      "talkAssetPath": "",
      "talkAssetPathAlter": "",
      "talkAudioName": "",
      "actionBefore": "",
      "actionWhile": "",
      "actionAfter": "",
      "optionIcon": "",
      "iconPath": ""
    },
    {
      "id": 690920409,
      "nextDialogs": [
        690920410
      ],
      "talkShowType": "TALK_SHOW_FORCE_SELECT",
      "talkRole": {
        "type": "TALK_ROLE_PLAYER",
        "_id": ""
      },
      "talkContentTextMapHash": 4026268986,
      "talkAssetPath": "",
      "talkAssetPathAlter": "",
      "talkAudioName": "",
      "actionBefore": "",
      "actionWhile": "",
      "actionAfter": "",
      "optionIcon": "",
      "iconPath": ""
    },
    {
      "id": 690920410,
      "nextDialogs": [
        690920411
      ],
      "talkRole": {
        "type": "TALK_ROLE_NPC",
        "_id": "9092"
      },
      "talkContentTextMapHash": 458968274,
      "talkAssetPath": "",
      "talkAssetPathAlter": "",
      "talkAudioName": "",
      "actionBefore": "",
      "actionWhile": "",
      "actionAfter": "",
      "optionIcon": "",
      "iconPath": ""
    },
    {
      "id": 690920411,
      "nextDialogs": [
        690920412
      ],
      "talkRole": {
        "type": "TALK_ROLE_NPC",
        "_id": "9092"
      },
      "talkContentTextMapHash": 1730507298,
      "talkAssetPath": "",
      "talkAssetPathAlter": "",
      "talkAudioName": "",
      "actionBefore": "",
      "actionWhile": "",
      "actionAfter": "",
      "optionIcon": "",
      "iconPath": ""
    },
    {
      "id": 690920412,
      "nextDialogs": [
        690920413
      ],
      "talkRole": {
        "type": "TALK_ROLE_NPC",
        "_id": "9092"
      },
      "talkContentTextMapHash": 1696909370,
      "talkAssetPath": "",
      "talkAssetPathAlter": "",
      "talkAudioName": "",
      "actionBefore": "",
      "actionWhile": "",
      "actionAfter": "",
      "optionIcon": "",
      "iconPath": ""
    }
  ]
}