{
  "talkId": 6909207,
  "KPGKDHAFHFE": "FREE",
  "dialogList": [
    {
      "id": 690920701,
      "nextDialogs": [
        690920702
      ],
      "talkRole": {
        "type": "TALK_ROLE_NPC",
        "_id": "9092"
      },
      "talkContentTextMapHash": 2216034130,
      "talkAssetPath": "",
      "talkAssetPathAlter": "",
      "talkAudioName": "",
      "actionBefore": "",
      "actionWhile": "",
      "actionAfter": "",
      "optionIcon": "",
      "iconPath": ""
    },
    {
      "id": 690920702,
      "nextDialogs": [
        690920703
      ],
      "talkRole": {
        "type": "TALK_ROLE_NPC",
        "_id": "9092"
      },
      "talkContentTextMapHash": 3961106602,
      "talkAssetPath": "",
      "talkAssetPathAlter": "",
      "talkAudioName": "",
      "actionBefore": "",
      "actionWhile": "",
      "actionAfter": "",
      "optionIcon": "",
      "iconPath": ""
    },
    {
      "id": 690920703,
      "talkRole": {
        "type": "TALK_ROLE_NPC",
        "_id": "9092"
      },
      "talkContentTextMapHash": 207081674,
      "talkAssetPath": "",
      "talkAssetPathAlter": "",
      "talkAudioName": "",
      "actionBefore": "",
      "actionWhile": "",
      "actionAfter": "",
      "optionIcon": "",
      "iconPath": ""
    }
  ]
}