{
  "talkId": 6909110,
  "KPGKDHAFHFE": "FREE",
  "dialogList": [
    {
      "id": 690910301,
      "nextDialogs": [
        690910302
      ],
      "talkShowType": "TALK_SHOW_FORCE_SELECT",
      "talkRole": {
        "type": "TALK_ROLE_PLAYER",
        "_id": ""
      },
      "talkContentTextMapHash": 2734159730,
      "talkAssetPath": "",
      "talkAssetPathAlter": "",
      "talkAudioName": "",
      "actionBefore": "",
      "actionWhile": "",
      "actionAfter": "",
      "optionIcon": "",
      "iconPath": ""
    },
    {
      "id": 690910302,
      "nextDialogs": [
        690910303
      ],
      "talkRole": {
        "type": "TALK_ROLE_NPC",
        "_id": "9091"
      },
      "talkContentTextMapHash": 4256593314,
      "talkAssetPath": "",
      "talkAssetPathAlter": "",
      "talkAudioName": "",
      "actionBefore": "",
      "actionWhile": "",
      "actionAfter": "",
      "optionIcon": "",
      "iconPath": ""
    },
    {
      "id": 690910303,
      "nextDialogs": [
        690910304
      ],
      "talkRole": {
        "type": "TALK_ROLE_NPC",
        "_id": "9091"
      },
      "talkContentTextMapHash": 1863426706,
      "talkAssetPath": "",
      "talkAssetPathAlter": "",
      "talkAudioName": "",
      "actionBefore": "",
      "actionWhile": "",
      "actionAfter": "",
      "optionIcon": "",
      "iconPath": ""
    },
    {
      "id": 690910304,
      "nextDialogs": [
        690910305
      ],
      "talkShowType": "TALK_SHOW_FORCE_SELECT",
      "talkRole": {
        "type": "TALK_ROLE_PLAYER",
        "_id": ""
      },
      "talkContentTextMapHash": 607881210,
      "talkAssetPath": "",
      "talkAssetPathAlter": "",
      "talkAudioName": "",
      "actionBefore": "",
      "actionWhile": "",
      "actionAfter": "",
      "optionIcon": "",
      "iconPath": ""
    },
    {
      "id": 690910305,
      "nextDialogs": [
        690910306
      ],
      "talkRole": {
        "type": "TALK_ROLE_NPC",
        "_id": "9091"
      },
      "talkContentTextMapHash": 4285375346,
      "talkAssetPath": "",
      "talkAssetPathAlter": "",
      "talkAudioName": "",
      "actionBefore": "",
      "actionWhile": "",
      "actionAfter": "",
      "optionIcon": "",
      "iconPath": ""
    },
    {
      "id": 690910306,
      "nextDialogs": [
        690910307
      ],
      "talkRole": {
        "type": "TALK_ROLE_NPC",
        "_id": "9091"
      },
      "talkContentTextMapHash": 1177232722,
      "talkAssetPath": "",
      "talkAssetPathAlter": "",
      "talkAudioName": "",
      "actionBefore": "",
      "actionWhile": "",
      "actionAfter": "",
      "optionIcon": "",
      "iconPath": ""
    },
    {
      "id": 690910307,
      "nextDialogs": [
        690910308
      ],
      "talkShowType": "TALK_SHOW_FORCE_SELECT",
      "talkRole": {
        "type": "TALK_ROLE_PLAYER",
        "_id": ""
      },
      "talkContentTextMapHash": 4211174202,
      "talkAssetPath": "",
      "talkAssetPathAlter": "",
      "talkAudioName": "",
      "actionBefore": "",
      "actionWhile": "",
      "actionAfter": "",
      "optionIcon": "",
      "iconPath": ""
    },
    {
      "id": 690910308,
      "nextDialogs": [
        690910309
      ],
      "talkRole": {
        "type": "TALK_ROLE_NPC",
        "_id": "9091"
      },
      "talkContentTextMapHash": 3816356802,
      "talkAssetPath": "",
      "talkAssetPathAlter": "",
      "talkAudioName": "",
      "actionBefore": "",
      "actionWhile": "",
      "actionAfter": "",
      "optionIcon": "",
      "iconPath": ""
    },
    {
      "id": 690910309,
      "nextDialogs": [
        690910310
      ],
      "talkRole": {
        "type": "TALK_ROLE_NPC",
        "_id": "9091"
      },
      "talkContentTextMapHash": 1266827690,
      "talkAssetPath": "",
      "talkAssetPathAlter": "",
      "talkAudioName": "",
      "actionBefore": "",
      "actionWhile": "",
      "actionAfter": "",
      "optionIcon": "",
      "iconPath": ""
    },
    {
      "id": 690910310,
      "nextDialogs": [
        690910311
      ],
      "talkShowType": "TALK_SHOW_FORCE_SELECT",
      "talkRole": {
        "type": "TALK_ROLE_PLAYER",
        "_id": ""
      },
      "talkContentTextMapHash": 3037048546,
      "talkAssetPath": "",
      "talkAssetPathAlter": "",
      "talkAudioName": "",
      "actionBefore": "",
      "actionWhile": "",
      "actionAfter": "",
      "optionIcon": "",
      "iconPath": ""
    },
    {
      "id": 690910311,
      "nextDialogs": [
        690910312
      ],
      "talkRole": {
        "type": "TALK_ROLE_NPC",
        "_id": "9091"
      },
      "talkContentTextMapHash": 57076858,
      "talkAssetPath": "",
      "talkAssetPathAlter": "",
      "talkAudioName": "",
      "actionBefore": "",
      "actionWhile": "",
      "actionAfter": "",
      "optionIcon": "",
      "iconPath": ""
    },
    {
      "id": 690910312,
      "nextDialogs": [
        690910313
      ],
      "talkRole": {
        "type": "TALK_ROLE_NPC",
        "_id": "9091"
      },
      "talkContentTextMapHash": 3815412858,
      "talkAssetPath": "",
      "talkAssetPathAlter": "",
      "talkAudioName": "",
      "actionBefore": "",
      "actionWhile": "",
      "actionAfter": "",
      "optionIcon": "",
      "iconPath": ""
    },
    {
      "id": 690910313,
      "nextDialogs": [
        690910314
      ],
      "talkRole": {
        "type": "TALK_ROLE_NPC",
        "_id": "9091"
      },
      "talkContentTextMapHash": 821795866,
      "talkAssetPath": "",
      "talkAssetPathAlter": "",
      "talkAudioName": "",
      "actionBefore": "",
      "actionWhile": "",
      "actionAfter": "",
      "optionIcon": "",
      "iconPath": ""
    },
    {
      "id": 690910314,
      "talkRole": {
        "type": "TALK_ROLE_NPC",
        "_id": "9091"
      },
      "talkContentTextMapHash": 4143419074,
      "talkAssetPath": "",
      "talkAssetPathAlter": "",
      "talkAudioName": "",
      "actionBefore": "",
      "actionWhile": "",
      "actionAfter": "",
      "optionIcon": "",
      "iconPath": ""
    }
  ]
}