{
  "talkId": 6950307,
  "KPGKDHAFHFE": "FREE",
  "dialogList": [
    {
      "id": 695030701,
      "talkRole": {
        "type": "TALK_ROLE_NPC",
        "_id": "9503"
      },
      "talkContentTextMapHash": 4022758106,
      "talkAssetPath": "",
      "talkAssetPathAlter": "",
      "talkAudioName": "",
      "actionBefore": "",
      "actionWhile": "GCG/RefreshCardGroupName",
      "actionAfter": "",
      "showDuration": 0.10000000149011612,
      "optionIcon": "",
      "iconPath": ""
    }
  ]
}