{
  "talkId": 6950801,
  "KPGKDHAFHFE": "FREE",
  "dialogList": [
    {
      "id": 695080101,
      "talkRole": {
        "type": "TALK_ROLE_NPC",
        "_id": "9508"
      },
      "talkContentTextMapHash": 1764071538,
      "talkAssetPath": "",
      "talkAssetPathAlter": "",
      "talkAudioName": "",
      "actionBefore": "",
      "actionWhile": "",
      "actionAfter": "",
      "optionIcon": "",
      "iconPath": ""
    }
  ]
}