{
  "talkId": 6950812,
  "KPGKDHAFHFE": "FREE",
  "dialogList": [
    {
      "id": 695081201,
      "talkRole": {
        "type": "TALK_ROLE_NPC",
        "_id": "9508"
      },
      "talkContentTextMapHash": 2133555378,
      "talkAssetPath": "",
      "talkAssetPathAlter": "",
      "talkAudioName": "",
      "actionBefore": "GCG/open_GcgLevelPage_Invitation_Start",
      "actionWhile": "",
      "actionAfter": "",
      "optionIcon": "",
      "iconPath": ""
    }
  ]
}