{
  "talkId": 6950606,
  "KPGKDHAFHFE": "FREE",
  "dialogList": [
    {
      "id": 695060601,
      "talkRole": {
        "type": "TALK_ROLE_NPC",
        "_id": "9506"
      },
      "talkContentTextMapHash": 4116739426,
      "talkAssetPath": "",
      "talkAssetPathAlter": "",
      "talkAudioName": "",
      "actionBefore": "",
      "actionWhile": "",
      "actionAfter": "",
      "optionIcon": "",
      "iconPath": ""
    }
  ]
}