{
  "talkId": 6950712,
  "KPGKDHAFHFE": "FREE",
  "dialogList": [
    {
      "id": 695071201,
      "talkRole": {
        "type": "TALK_ROLE_NPC",
        "_id": "9507"
      },
      "talkContentTextMapHash": 3607702522,
      "talkAssetPath": "",
      "talkAssetPathAlter": "",
      "talkAudioName": "",
      "actionBefore": "GCG/open_GcgLevelPage_Invitation_Start",
      "actionWhile": "",
      "actionAfter": "",
      "optionIcon": "",
      "iconPath": ""
    }
  ]
}