{
  "talkId": 6950105,
  "KPGKDHAFHFE": "FREE",
  "dialogList": [
    {
      "id": 695010501,
      "talkRole": {
        "type": "TALK_ROLE_NPC",
        "_id": "9501"
      },
      "talkContentTextMapHash": 1637389946,
      "talkAssetPath": "",
      "talkAssetPathAlter": "",
      "talkAudioName": "",
      "actionBefore": "GCG/ClearWorldChallengeTalk",
      "actionWhile": "",
      "actionAfter": "",
      "optionIcon": "",
      "iconPath": ""
    }
  ]
}