{
  "talkId": 6951101,
  "KPGKDHAFHFE": "FREE",
  "dialogList": [
    {
      "id": 695110101,
      "talkRole": {
        "type": "TALK_ROLE_NPC",
        "_id": "9511"
      },
      "talkContentTextMapHash": 3587332770,
      "talkAssetPath": "",
      "talkAssetPathAlter": "",
      "talkAudioName": "",
      "actionBefore": "",
      "actionWhile": "",
      "actionAfter": "",
      "optionIcon": "",
      "iconPath": ""
    }
  ]
}