{
  "talkId": 6951904,
  "KPGKDHAFHFE": "FREE",
  "dialogList": [
    {
      "id": 695190401,
      "talkRole": {
        "type": "TALK_ROLE_NPC",
        "_id": "9519"
      },
      "talkContentTextMapHash": 2959821034,
      "talkAssetPath": "",
      "talkAssetPathAlter": "",
      "talkAudioName": "",
      "actionBefore": "GCG/ClearWorldChallengeTalk",
      "actionWhile": "",
      "actionAfter": "",
      "optionIcon": "",
      "iconPath": ""
    }
  ]
}