{
  "talkId": 6951410,
  "KPGKDHAFHFE": "FREE",
  "dialogList": [
    {
      "id": 695141001,
      "talkRole": {
        "type": "TALK_ROLE_NPC",
        "_id": "9514"
      },
      "talkContentTextMapHash": 4176901986,
      "talkAssetPath": "",
      "talkAssetPathAlter": "",
      "talkAudioName": "",
      "actionBefore": "GCG/open_GcgLevelPage_Invitation_End",
      "actionWhile": "",
      "actionAfter": "",
      "optionIcon": "",
      "iconPath": ""
    }
  ]
}