{
  "talkId": 6951207,
  "KPGKDHAFHFE": "FREE",
  "dialogList": [
    {
      "id": 695120701,
      "talkRole": {
        "type": "TALK_ROLE_NPC",
        "_id": "9512"
      },
      "talkContentTextMapHash": 1902410250,
      "talkAssetPath": "",
      "talkAssetPathAlter": "",
      "talkAudioName": "",
      "actionBefore": "",
      "actionWhile": "GCG/RefreshCardGroupName",
      "actionAfter": "",
      "showDuration": 0.10000000149011612,
      "optionIcon": "",
      "iconPath": ""
    }
  ]
}