{
  "talkId": 6951701,
  "KPGKDHAFHFE": "FREE",
  "dialogList": [
    {
      "id": 695170101,
      "talkRole": {
        "type": "TALK_ROLE_NPC",
        "_id": "9517"
      },
      "talkContentTextMapHash": 981433506,
      "talkAssetPath": "",
      "talkAssetPathAlter": "",
      "talkAudioName": "",
      "actionBefore": "",
      "actionWhile": "",
      "actionAfter": "",
      "optionIcon": "",
      "iconPath": ""
    }
  ]
}