{
  "talkId": 6951105,
  "KPGKDHAFHFE": "FREE",
  "dialogList": [
    {
      "id": 695110501,
      "talkRole": {
        "type": "TALK_ROLE_NPC",
        "_id": "9511"
      },
      "talkContentTextMapHash": 3246428058,
      "talkAssetPath": "",
      "talkAssetPathAlter": "",
      "talkAudioName": "",
      "actionBefore": "GCG/ClearWorldChallengeTalk",
      "actionWhile": "",
      "actionAfter": "",
      "optionIcon": "",
      "iconPath": ""
    }
  ]
}