{
  "talkId": 6951212,
  "KPGKDHAFHFE": "FREE",
  "dialogList": [
    {
      "id": 695121201,
      "talkRole": {
        "type": "TALK_ROLE_NPC",
        "_id": "9512"
      },
      "talkContentTextMapHash": 3010555170,
      "talkAssetPath": "",
      "talkAssetPathAlter": "",
      "talkAudioName": "",
      "actionBefore": "GCG/open_GcgLevelPage_Invitation_Start",
      "actionWhile": "",
      "actionAfter": "",
      "optionIcon": "",
      "iconPath": ""
    }
  ]
}