{
  "talkId": 6951817,
  "KPGKDHAFHFE": "FREE",
  "dialogList": [
    {
      "id": 695181701,
      "talkRole": {
        "type": "TALK_ROLE_NPC",
        "_id": "9518"
      },
      "talkContentTextMapHash": 1666738298,
      "talkAssetPath": "",
      "talkAssetPathAlter": "",
      "talkAudioName": "",
      "actionBefore": "GCG/open_GcgLevelPage_Invitation_End",
      "actionWhile": "",
      "actionAfter": "",
      "optionIcon": "",
      "iconPath": ""
    }
  ]
}