{
  "talkId": 6952111,
  "KPGKDHAFHFE": "FREE",
  "dialogList": [
    {
      "id": 695211101,
      "talkRole": {
        "type": "TALK_ROLE_NPC",
        "_id": "9521"
      },
      "talkContentTextMapHash": 3330658554,
      "talkAssetPath": "",
      "talkAssetPathAlter": "",
      "talkAudioName": "",
      "actionBefore": "GCG/open_GcgLevelPage_Invitation_End",
      "actionWhile": "",
      "actionAfter": "",
      "optionIcon": "",
      "iconPath": ""
    }
  ]
}