{
  "talkId": 6952617,
  "KPGKDHAFHFE": "FREE",
  "dialogList": [
    {
      "id": 695261701,
      "talkRole": {
        "type": "TALK_ROLE_NPC",
        "_id": "9526"
      },
      "talkContentTextMapHash": 3879851394,
      "talkAssetPath": "",
      "talkAssetPathAlter": "",
      "talkAudioName": "",
      "actionBefore": "",
      "actionWhile": "",
      "actionAfter": "",
      "optionIcon": "",
      "iconPath": ""
    }
  ]
}