{
  "talkId": 6952513,
  "KPGKDHAFHFE": "FREE",
  "dialogList": [
    {
      "id": 695251201,
      "talkRole": {
        "type": "TALK_ROLE_NPC",
        "_id": "9525"
      },
      "talkContentTextMapHash": 1677018778,
      "talkAssetPath": "",
      "talkAssetPathAlter": "",
      "talkAudioName": "",
      "actionBefore": "",
      "actionWhile": "",
      "actionAfter": "",
      "optionIcon": "",
      "iconPath": ""
    }
  ]
}