{
  "talkId": 6952003,
  "KPGKDHAFHFE": "FREE",
  "dialogList": [
    {
      "id": 695200301,
      "nextDialogs": [
        695200302
      ],
      "talkRole": {
        "type": "TALK_ROLE_PLAYER",
        "_id": ""
      },
      "talkContentTextMapHash": 1300643482,
      "talkAssetPath": "",
      "talkAssetPathAlter": "",
      "talkAudioName": "",
      "actionBefore": "",
      "actionWhile": "",
      "actionAfter": "",
      "optionIcon": "",
      "iconPath": ""
    },
    {
      "id": 695200302,
      "talkRole": {
        "type": "TALK_ROLE_NPC",
        "_id": "9520"
      },
      "talkContentTextMapHash": 4114969962,
      "talkAssetPath": "",
      "talkAssetPathAlter": "",
      "talkAudioName": "",
      "actionBefore": "",
      "actionWhile": "",
      "actionAfter": "",
      "optionIcon": "",
      "iconPath": ""
    }
  ]
}