{
  "talkId": 6952803,
  "KPGKDHAFHFE": "FREE",
  "dialogList": [
    {
      "id": 695280301,
      "nextDialogs": [
        695280302
      ],
      "talkRole": {
        "type": "TALK_ROLE_PLAYER",
        "_id": ""
      },
      "talkContentTextMapHash": 258239826,
      "talkAssetPath": "",
      "talkAssetPathAlter": "",
      "talkAudioName": "",
      "actionBefore": "",
      "actionWhile": "",
      "actionAfter": "",
      "optionIcon": "",
      "iconPath": ""
    },
    {
      "id": 695280302,
      "talkRole": {
        "type": "TALK_ROLE_NPC",
        "_id": "9528"
      },
      "talkContentTextMapHash": 948845402,
      "talkAssetPath": "",
      "talkAssetPathAlter": "",
      "talkAudioName": "",
      "actionBefore": "",
      "actionWhile": "",
      "actionAfter": "",
      "optionIcon": "",
      "iconPath": ""
    }
  ]
}