{
  "talkId": 6952710,
  "KPGKDHAFHFE": "FREE",
  "dialogList": [
    {
      "id": 695271001,
      "talkRole": {
        "type": "TALK_ROLE_NPC",
        "_id": "9527"
      },
      "talkContentTextMapHash": 3515998538,
      "talkAssetPath": "",
      "talkAssetPathAlter": "",
      "talkAudioName": "",
      "actionBefore": "",
      "actionWhile": "",
      "actionAfter": "",
      "optionIcon": "",
      "iconPath": ""
    }
  ]
}