{
  "talkId": 6952101,
  "KPGKDHAFHFE": "FREE",
  "dialogList": [
    {
      "id": 695210101,
      "talkRole": {
        "type": "TALK_ROLE_NPC",
        "_id": "9521"
      },
      "talkContentTextMapHash": 490345410,
      "talkAssetPath": "",
      "talkAssetPathAlter": "",
      "talkAudioName": "",
      "actionBefore": "",
      "actionWhile": "",
      "actionAfter": "",
      "optionIcon": "",
      "iconPath": ""
    }
  ]
}