{
  "talkId": 6952811,
  "KPGKDHAFHFE": "FREE",
  "dialogList": [
    {
      "id": 695281101,
      "talkRole": {
        "type": "TALK_ROLE_NPC",
        "_id": "9528"
      },
      "talkContentTextMapHash": 1678620594,
      "talkAssetPath": "",
      "talkAssetPathAlter": "",
      "talkAudioName": "",
      "actionBefore": "",
      "actionWhile": "",
      "actionAfter": "",
      "optionIcon": "",
      "iconPath": ""
    }
  ]
}