{
  "talkId": 6952516,
  "KPGKDHAFHFE": "FREE",
  "dialogList": [
    {
      "id": 695251601,
      "talkRole": {
        "type": "TALK_ROLE_NPC",
        "_id": "9525"
      },
      "talkContentTextMapHash": 1198678546,
      "talkAssetPath": "",
      "talkAssetPathAlter": "",
      "talkAudioName": "",
      "actionBefore": "",
      "actionWhile": "",
      "actionAfter": "",
      "optionIcon": "",
      "iconPath": ""
    }
  ]
}