{
  "talkId": 6952517,
  "KPGKDHAFHFE": "FREE",
  "dialogList": [
    {
      "id": 695251701,
      "talkRole": {
        "type": "TALK_ROLE_NPC",
        "_id": "9525"
      },
      "talkContentTextMapHash": 2941109034,
      "talkAssetPath": "",
      "talkAssetPathAlter": "",
      "talkAudioName": "",
      "actionBefore": "",
      "actionWhile": "",
      "actionAfter": "",
      "optionIcon": "",
      "iconPath": ""
    }
  ]
}