{
  "talkId": 6953612,
  "KPGKDHAFHFE": "FREE",
  "dialogList": [
    {
      "id": 695361201,
      "talkRole": {
        "type": "TALK_ROLE_NPC",
        "_id": "9536"
      },
      "talkContentTextMapHash": 1004410506,
      "talkAssetPath": "",
      "talkAssetPathAlter": "",
      "talkAudioName": "",
      "actionBefore": "",
      "actionWhile": "",
      "actionAfter": "",
      "optionIcon": "",
      "iconPath": ""
    }
  ]
}