{
  "talkId": 6953001,
  "KPGKDHAFHFE": "FREE",
  "dialogList": [
    {
      "id": 695300101,
      "talkRole": {
        "type": "TALK_ROLE_NPC",
        "_id": "9530"
      },
      "talkContentTextMapHash": 745492826,
      "talkAssetPath": "",
      "talkAssetPathAlter": "",
      "talkAudioName": "",
      "actionBefore": "",
      "actionWhile": "",
      "actionAfter": "",
      "optionIcon": "",
      "iconPath": ""
    }
  ]
}