{
  "talkId": 6953906,
  "KPGKDHAFHFE": "FREE",
  "dialogList": [
    {
      "id": 695390601,
      "talkRole": {
        "type": "TALK_ROLE_NPC",
        "_id": "9539"
      },
      "talkContentTextMapHash": 2077903850,
      "talkAssetPath": "",
      "talkAssetPathAlter": "",
      "talkAudioName": "",
      "actionBefore": "",
      "actionWhile": "",
      "actionAfter": "",
      "optionIcon": "",
      "iconPath": ""
    }
  ]
}