{
  "talkId": 6953105,
  "KPGKDHAFHFE": "FREE",
  "dialogList": [
    {
      "id": 695310501,
      "talkRole": {
        "type": "TALK_ROLE_NPC",
        "_id": "9531"
      },
      "talkContentTextMapHash": 498231858,
      "talkAssetPath": "",
      "talkAssetPathAlter": "",
      "talkAudioName": "",
      "actionBefore": "",
      "actionWhile": "",
      "actionAfter": "",
      "optionIcon": "",
      "iconPath": ""
    }
  ]
}