{
  "talkId": 6953407,
  "KPGKDHAFHFE": "FREE",
  "dialogList": [
    {
      "id": 695340601,
      "talkRole": {
        "type": "TALK_ROLE_NPC",
        "_id": "9534"
      },
      "talkContentTextMapHash": 1509983370,
      "talkAssetPath": "",
      "talkAssetPathAlter": "",
      "talkAudioName": "",
      "actionBefore": "",
      "actionWhile": "",
      "actionAfter": "",
      "optionIcon": "",
      "iconPath": ""
    }
  ]
}