{
  "talkId": 6953117,
  "KPGKDHAFHFE": "FREE",
  "dialogList": [
    {
      "id": 695311701,
      "talkRole": {
        "type": "TALK_ROLE_NPC",
        "_id": "9531"
      },
      "talkContentTextMapHash": 2415381170,
      "talkAssetPath": "",
      "talkAssetPathAlter": "",
      "talkAudioName": "",
      "actionBefore": "",
      "actionWhile": "",
      "actionAfter": "",
      "optionIcon": "",
      "iconPath": ""
    }
  ]
}