{
  "talkId": 6954916,
  "KPGKDHAFHFE": "FREE",
  "dialogList": [
    {
      "id": 695491601,
      "talkRole": {
        "type": "TALK_ROLE_NPC",
        "_id": "9549"
      },
      "talkContentTextMapHash": 2189424658,
      "talkAssetPath": "",
      "talkAssetPathAlter": "",
      "talkAudioName": "",
      "actionBefore": "",
      "actionWhile": "",
      "actionAfter": "",
      "optionIcon": "",
      "iconPath": ""
    }
  ]
}