{
  "talkId": 6954401,
  "KPGKDHAFHFE": "FREE",
  "dialogList": [
    {
      "id": 695440101,
      "talkRole": {
        "type": "TALK_ROLE_NPC",
        "_id": "9544"
      },
      "talkContentTextMapHash": 2368004074,
      "talkAssetPath": "",
      "talkAssetPathAlter": "",
      "talkAudioName": "",
      "actionBefore": "",
      "actionWhile": "",
      "actionAfter": "",
      "optionIcon": "",
      "iconPath": ""
    }
  ]
}