{
  "talkId": 6954207,
  "KPGKDHAFHFE": "FREE",
  "dialogList": [
    {
      "id": 695420601,
      "talkRole": {
        "type": "TALK_ROLE_NPC",
        "_id": "9542"
      },
      "talkContentTextMapHash": 866822458,
      "talkAssetPath": "",
      "talkAssetPathAlter": "",
      "talkAudioName": "",
      "actionBefore": "",
      "actionWhile": "",
      "actionAfter": "",
      "optionIcon": "",
      "iconPath": ""
    }
  ]
}