{
  "talkId": 6954006,
  "KPGKDHAFHFE": "FREE",
  "dialogList": [
    {
      "id": 695400601,
      "talkRole": {
        "type": "TALK_ROLE_NPC",
        "_id": "9540"
      },
      "talkContentTextMapHash": 167106770,
      "talkAssetPath": "",
      "talkAssetPathAlter": "",
      "talkAudioName": "",
      "actionBefore": "",
      "actionWhile": "",
      "actionAfter": "",
      "optionIcon": "",
      "iconPath": ""
    }
  ]
}