{
  "talkId": 6954917,
  "KPGKDHAFHFE": "FREE",
  "dialogList": [
    {
      "id": 695491701,
      "talkRole": {
        "type": "TALK_ROLE_NPC",
        "_id": "9549"
      },
      "talkContentTextMapHash": 2304419354,
      "talkAssetPath": "",
      "talkAssetPathAlter": "",
      "talkAudioName": "",
      "actionBefore": "",
      "actionWhile": "",
      "actionAfter": "",
      "optionIcon": "",
      "iconPath": ""
    }
  ]
}