{
  "talkId": 6954211,
  "KPGKDHAFHFE": "FREE",
  "dialogList": [
    {
      "id": 695421101,
      "talkRole": {
        "type": "TALK_ROLE_NPC",
        "_id": "9542"
      },
      "talkContentTextMapHash": 3060737354,
      "talkAssetPath": "",
      "talkAssetPathAlter": "",
      "talkAudioName": "",
      "actionBefore": "",
      "actionWhile": "",
      "actionAfter": "",
      "optionIcon": "",
      "iconPath": ""
    }
  ]
}