{
  "talkId": 6954713,
  "KPGKDHAFHFE": "FREE",
  "dialogList": [
    {
      "id": 695471201,
      "talkRole": {
        "type": "TALK_ROLE_NPC",
        "_id": "9547"
      },
      "talkContentTextMapHash": 3348426666,
      "talkAssetPath": "",
      "talkAssetPathAlter": "",
      "talkAudioName": "",
      "actionBefore": "",
      "actionWhile": "",
      "actionAfter": "",
      "optionIcon": "",
      "iconPath": ""
    }
  ]
}