{
  "talkId": 6955712,
  "KPGKDHAFHFE": "FREE",
  "dialogList": [
    {
      "id": 695571201,
      "talkRole": {
        "type": "TALK_ROLE_NPC",
        "_id": "9557"
      },
      "talkContentTextMapHash": 3303001986,
      "talkAssetPath": "",
      "talkAssetPathAlter": "",
      "talkAudioName": "",
      "actionBefore": "",
      "actionWhile": "",
      "actionAfter": "",
      "optionIcon": "",
      "iconPath": ""
    }
  ]
}