{
  "talkId": 6955310,
  "KPGKDHAFHFE": "FREE",
  "dialogList": [
    {
      "id": 695531001,
      "talkRole": {
        "type": "TALK_ROLE_NPC",
        "_id": "9553"
      },
      "talkContentTextMapHash": 10347034,
      "talkAssetPath": "",
      "talkAssetPathAlter": "",
      "talkAudioName": "",
      "actionBefore": "",
      "actionWhile": "",
      "actionAfter": "",
      "optionIcon": "",
      "iconPath": ""
    }
  ]
}