{
  "talkId": 6955913,
  "KPGKDHAFHFE": "FREE",
  "dialogList": [
    {
      "id": 695591201,
      "talkRole": {
        "type": "TALK_ROLE_NPC",
        "_id": "9559"
      },
      "talkContentTextMapHash": 787417218,
      "talkAssetPath": "",
      "talkAssetPathAlter": "",
      "talkAudioName": "",
      "actionBefore": "",
      "actionWhile": "",
      "actionAfter": "",
      "optionIcon": "",
      "iconPath": ""
    }
  ]
}