{
  "talkId": 6955514,
  "KPGKDHAFHFE": "FREE",
  "dialogList": [
    {
      "id": 695551401,
      "talkRole": {
        "type": "TALK_ROLE_PLAYER",
        "_id": ""
      },
      "talkContentTextMapHash": 2263783882,
      "talkAssetPath": "",
      "talkAssetPathAlter": "",
      "talkAudioName": "",
      "actionBefore": "GCG/open_GcgLevelPage_Invitation",
      "actionWhile": "",
      "actionAfter": "",
      "optionIcon": "UI_Icon_Intee_GcgZhanDou",
      "iconPath": ""
    }
  ]
}