{
  "talkId": 6955206,
  "KPGKDHAFHFE": "FREE",
  "dialogList": [
    {
      "id": 695520601,
      "talkRole": {
        "type": "TALK_ROLE_NPC",
        "_id": "9552"
      },
      "talkContentTextMapHash": 3182249058,
      "talkAssetPath": "",
      "talkAssetPathAlter": "",
      "talkAudioName": "",
      "actionBefore": "",
      "actionWhile": "",
      "actionAfter": "",
      "optionIcon": "",
      "iconPath": ""
    }
  ]
}