{
  "talkId": 6955007,
  "KPGKDHAFHFE": "FREE",
  "dialogList": [
    {
      "id": 695500601,
      "talkRole": {
        "type": "TALK_ROLE_NPC",
        "_id": "9550"
      },
      "talkContentTextMapHash": 3476247962,
      "talkAssetPath": "",
      "talkAssetPathAlter": "",
      "talkAudioName": "",
      "actionBefore": "",
      "actionWhile": "",
      "actionAfter": "",
      "optionIcon": "",
      "iconPath": ""
    }
  ]
}