{
  "talkId": 6955603,
  "KPGKDHAFHFE": "FREE",
  "dialogList": [
    {
      "id": 695560301,
      "nextDialogs": [
        695560302
      ],
      "talkRole": {
        "type": "TALK_ROLE_PLAYER",
        "_id": ""
      },
      "talkContentTextMapHash": 24334194,
      "talkAssetPath": "",
      "talkAssetPathAlter": "",
      "talkAudioName": "",
      "actionBefore": "",
      "actionWhile": "",
      "actionAfter": "",
      "optionIcon": "",
      "iconPath": ""
    },
    {
      "id": 695560302,
      "talkRole": {
        "type": "TALK_ROLE_NPC",
        "_id": "9556"
      },
      "talkContentTextMapHash": 211676002,
      "talkAssetPath": "",
      "talkAssetPathAlter": "",
      "talkAudioName": "",
      "actionBefore": "",
      "actionWhile": "",
      "actionAfter": "",
      "optionIcon": "",
      "iconPath": ""
    }
  ]
}