{
  "talkId": 6955410,
  "KPGKDHAFHFE": "FREE",
  "dialogList": [
    {
      "id": 695541001,
      "talkRole": {
        "type": "TALK_ROLE_NPC",
        "_id": "9554"
      },
      "talkContentTextMapHash": 906609018,
      "talkAssetPath": "",
      "talkAssetPathAlter": "",
      "talkAudioName": "",
      "actionBefore": "",
      "actionWhile": "",
      "actionAfter": "",
      "optionIcon": "",
      "iconPath": ""
    }
  ]
}