{
  "talkId": 6956503,
  "KPGKDHAFHFE": "FREE",
  "dialogList": [
    {
      "id": 695650301,
      "nextDialogs": [
        695650302
      ],
      "talkRole": {
        "type": "TALK_ROLE_PLAYER",
        "_id": ""
      },
      "talkContentTextMapHash": 1324261890,
      "talkAssetPath": "",
      "talkAssetPathAlter": "",
      "talkAudioName": "",
      "actionBefore": "",
      "actionWhile": "",
      "actionAfter": "",
      "optionIcon": "",
      "iconPath": ""
    },
    {
      "id": 695650302,
      "talkRole": {
        "type": "TALK_ROLE_NPC",
        "_id": "9565"
      },
      "talkContentTextMapHash": 1497194610,
      "talkAssetPath": "",
      "talkAssetPathAlter": "",
      "talkAudioName": "",
      "actionBefore": "",
      "actionWhile": "",
      "actionAfter": "",
      "optionIcon": "",
      "iconPath": ""
    }
  ]
}