{
  "talkId": 6956103,
  "KPGKDHAFHFE": "FREE",
  "dialogList": [
    {
      "id": 695610301,
      "nextDialogs": [
        695610302
      ],
      "talkRole": {
        "type": "TALK_ROLE_PLAYER",
        "_id": ""
      },
      "talkContentTextMapHash": 751765442,
      "talkAssetPath": "",
      "talkAssetPathAlter": "",
      "talkAudioName": "",
      "actionBefore": "",
      "actionWhile": "",
      "actionAfter": "",
      "optionIcon": "",
      "iconPath": ""
    },
    {
      "id": 695610302,
      "talkRole": {
        "type": "TALK_ROLE_NPC",
        "_id": "9561"
      },
      "talkContentTextMapHash": 1145625682,
      "talkAssetPath": "",
      "talkAssetPathAlter": "",
      "talkAudioName": "",
      "actionBefore": "",
      "actionWhile": "",
      "actionAfter": "",
      "optionIcon": "",
      "iconPath": ""
    }
  ]
}