{
  "talkId": 6956410,
  "KPGKDHAFHFE": "FREE",
  "dialogList": [
    {
      "id": 695641001,
      "talkRole": {
        "type": "TALK_ROLE_NPC",
        "_id": "9564"
      },
      "talkContentTextMapHash": 1124066794,
      "talkAssetPath": "",
      "talkAssetPathAlter": "",
      "talkAudioName": "",
      "actionBefore": "",
      "actionWhile": "",
      "actionAfter": "",
      "optionIcon": "",
      "iconPath": ""
    }
  ]
}