{
  "talkId": 6956311,
  "KPGKDHAFHFE": "FREE",
  "dialogList": [
    {
      "id": 695631101,
      "talkRole": {
        "type": "TALK_ROLE_NPC",
        "_id": "9563"
      },
      "talkContentTextMapHash": 865943202,
      "talkAssetPath": "",
      "talkAssetPathAlter": "",
      "talkAudioName": "",
      "actionBefore": "",
      "actionWhile": "",
      "actionAfter": "",
      "optionIcon": "",
      "iconPath": ""
    }
  ]
}