{
  "talkId": 6956017,
  "KPGKDHAFHFE": "FREE",
  "dialogList": [
    {
      "id": 695601701,
      "talkRole": {
        "type": "TALK_ROLE_NPC",
        "_id": "9560"
      },
      "talkContentTextMapHash": 2741100762,
      "talkAssetPath": "",
      "talkAssetPathAlter": "",
      "talkAudioName": "",
      "actionBefore": "",
      "actionWhile": "",
      "actionAfter": "",
      "optionIcon": "",
      "iconPath": ""
    }
  ]
}