{
  "talkId": 6956112,
  "KPGKDHAFHFE": "FREE",
  "dialogList": [
    {
      "id": 695611201,
      "talkRole": {
        "type": "TALK_ROLE_NPC",
        "_id": "9561"
      },
      "talkContentTextMapHash": 1423476162,
      "talkAssetPath": "",
      "talkAssetPathAlter": "",
      "talkAudioName": "",
      "actionBefore": "",
      "actionWhile": "",
      "actionAfter": "",
      "optionIcon": "",
      "iconPath": ""
    }
  ]
}