{
  "talkId": 6956401,
  "KPGKDHAFHFE": "FREE",
  "dialogList": [
    {
      "id": 695640101,
      "talkRole": {
        "type": "TALK_ROLE_NPC",
        "_id": "9564"
      },
      "talkContentTextMapHash": 1894809514,
      "talkAssetPath": "",
      "talkAssetPathAlter": "",
      "talkAudioName": "",
      "actionBefore": "",
      "actionWhile": "",
      "actionAfter": "",
      "optionIcon": "",
      "iconPath": ""
    }
  ]
}