{
  "talkId": 6971403,
  "KPGKDHAFHFE": "FREE",
  "dialogList": [
    {
      "id": 697140301,
      "nextDialogs": [
        697140302
      ],
      "talkShowType": "TALK_SHOW_FORCE_SELECT",
      "talkRole": {
        "type": "TALK_ROLE_PLAYER",
        "_id": ""
      },
      "talkContentTextMapHash": 3567693978,
      "talkAssetPath": "",
      "talkAssetPathAlter": "",
      "talkAudioName": "",
      "actionBefore": "",
      "actionWhile": "",
      "actionAfter": "",
      "optionIcon": "",
      "iconPath": ""
    },
    {
      "id": 697140302,
      "talkRole": {
        "type": "TALK_ROLE_NPC",
        "_id": "9714"
      },
      "talkContentTextMapHash": 750699426,
      "talkAssetPath": "",
      "talkAssetPathAlter": "",
      "talkAudioName": "",
      "actionBefore": "",
      "actionWhile": "",
      "actionAfter": "GCG/open_GcgLevelPage_CatBar_2",
      "optionIcon": "",
      "iconPath": ""
    }
  ]
}