{
  "talkId": 6971101,
  "KPGKDHAFHFE": "FREE",
  "dialogList": [
    {
      "id": 697110101,
      "nextDialogs": [
        697110102
      ],
      "talkRole": {
        "type": "TALK_ROLE_NPC",
        "_id": "9711"
      },
      "talkContentTextMapHash": 3657643674,
      "talkAssetPath": "",
      "talkAssetPathAlter": "",
      "talkAudioName": "",
      "actionBefore": "GCG/open_GcgLevelPage_CatBar_1",
      "actionWhile": "",
      "actionAfter": "",
      "optionIcon": "",
      "iconPath": ""
    },
    {
      "id": 697110102,
      "talkRole": {
        "type": "TALK_ROLE_NPC",
        "_id": "9711"
      },
      "talkContentTextMapHash": 734850514,
      "talkAssetPath": "",
      "talkAssetPathAlter": "",
      "talkAudioName": "",
      "actionBefore": "",
      "actionWhile": "",
      "actionAfter": "",
      "optionIcon": "",
      "iconPath": ""
    }
  ]
}