{
  "talkId": 6971405,
  "KPGKDHAFHFE": "FREE",
  "dialogList": [
    {
      "id": 697140501,
      "talkRole": {
        "type": "TALK_ROLE_NPC",
        "_id": "9714"
      },
      "talkContentTextMapHash": 2495765074,
      "talkAssetPath": "",
      "talkAssetPathAlter": "",
      "talkAudioName": "",
      "actionBefore": "GCG/ClearWorldChallengeTalk_CatBar",
      "actionWhile": "",
      "actionAfter": "GCG/open_GcgLevelPage_CatBar_2",
      "optionIcon": "",
      "iconPath": ""
    }
  ]
}