{
  "talkId": 6971601,
  "KPGKDHAFHFE": "FREE",
  "dialogList": [
    {
      "id": 697160101,
      "nextDialogs": [
        697160102
      ],
      "talkRole": {
        "type": "TALK_ROLE_NPC",
        "_id": "9716"
      },
      "talkContentTextMapHash": 2047270074,
      "talkAssetPath": "",
      "talkAssetPathAlter": "",
      "talkAudioName": "",
      "actionBefore": "GCG/open_GcgLevelPage_CatBar_1",
      "actionWhile": "",
      "actionAfter": "",
      "optionIcon": "",
      "iconPath": ""
    },
    {
      "id": 697160102,
      "talkRole": {
        "type": "TALK_ROLE_NPC",
        "_id": "9716"
      },
      "talkContentTextMapHash": 558055282,
      "talkAssetPath": "",
      "talkAssetPathAlter": "",
      "talkAudioName": "",
      "actionBefore": "",
      "actionWhile": "",
      "actionAfter": "",
      "optionIcon": "",
      "iconPath": ""
    }
  ]
}