{
  "talkId": 6972305,
  "KPGKDHAFHFE": "FREE",
  "dialogList": [
    {
      "id": 697230501,
      "talkRole": {
        "type": "TALK_ROLE_NPC",
        "_id": "9723"
      },
      "talkContentTextMapHash": 792526970,
      "talkAssetPath": "",
      "talkAssetPathAlter": "",
      "talkAudioName": "",
      "actionBefore": "GCG/ClearWorldChallengeTalk_CatBar",
      "actionWhile": "",
      "actionAfter": "GCG/open_GcgLevelPage_CatBar_2",
      "optionIcon": "",
      "iconPath": ""
    }
  ]
}