{
  "talkId": 6972101,
  "KPGKDHAFHFE": "FREE",
  "dialogList": [
    {
      "id": 697210101,
      "nextDialogs": [
        697210102
      ],
      "talkRole": {
        "type": "TALK_ROLE_NPC",
        "_id": "9721"
      },
      "talkContentTextMapHash": 2999451690,
      "talkAssetPath": "",
      "talkAssetPathAlter": "",
      "talkAudioName": "",
      "actionBefore": "GCG/open_GcgLevelPage_CatBar_1",
      "actionWhile": "",
      "actionAfter": "",
      "optionIcon": "",
      "iconPath": ""
    },
    {
      "id": 697210102,
      "talkRole": {
        "type": "TALK_ROLE_NPC",
        "_id": "9721"
      },
      "talkContentTextMapHash": 2454260666,
      "talkAssetPath": "",
      "talkAssetPathAlter": "",
      "talkAudioName": "",
      "actionBefore": "",
      "actionWhile": "",
      "actionAfter": "",
      "optionIcon": "",
      "iconPath": ""
    }
  ]
}