{
  "talkId": 7002613,
  "KPGKDHAFHFE": "FREE",
  "dialogList": [
    {
      "id": 700261006,
      "nextDialogs": [
        700261007
      ],
      "talkShowType": "TALK_SHOW_FORCE_SELECT",
      "talkRole": {
        "type": "TALK_ROLE_PLAYER",
        "_id": ""
      },
      "talkContentTextMapHash": 2707471618,
      "talkAssetPath": "",
      "talkAssetPathAlter": "",
      "talkAudioName": "",
      "actionBefore": "",
      "actionWhile": "",
      "actionAfter": "",
      "optionIcon": "",
      "iconPath": ""
    },
    {
      "id": 700261007,
      "nextDialogs": [
        700261008
      ],
      "talkRole": {
        "type": "TALK_ROLE_NPC",
        "_id": "30068"
      },
      "talkContentTextMapHash": 676629658,
      "talkAssetPath": "",
      "talkAssetPathAlter": "",
      "talkAudioName": "",
      "actionBefore": "",
      "actionWhile": "",
      "actionAfter": "",
      "optionIcon": "",
      "iconPath": ""
    },
    {
      "id": 700261008,
      "nextDialogs": [
        700261009
      ],
      "talkRole": {
        "type": "TALK_ROLE_NPC",
        "_id": "30068"
      },
      "talkContentTextMapHash": 187703674,
      "talkAssetPath": "",
      "talkAssetPathAlter": "",
      "talkAudioName": "",
      "actionBefore": "",
      "actionWhile": "",
      "actionAfter": "",
      "optionIcon": "",
      "iconPath": ""
    },
    {
      "id": 700261009,
      "nextDialogs": [
        700261010
      ],
      "talkRole": {
        "type": "TALK_ROLE_NPC",
        "_id": "30068"
      },
      "talkContentTextMapHash": 646039026,
      "talkAssetPath": "",
      "talkAssetPathAlter": "",
      "talkAudioName": "",
      "actionBefore": "",
      "actionWhile": "",
      "actionAfter": "",
      "optionIcon": "",
      "iconPath": ""
    },
    {
      "id": 700261010,
      "nextDialogs": [
        700261011
      ],
      "talkRole": {
        "type": "TALK_ROLE_NPC",
        "_id": "30068"
      },
      "talkContentTextMapHash": 969019074,
      "talkAssetPath": "",
      "talkAssetPathAlter": "",
      "talkAudioName": "",
      "actionBefore": "",
      "actionWhile": "",
      "actionAfter": "",
      "optionIcon": "",
      "iconPath": ""
    },
    {
      "id": 700261011,
      "nextDialogs": [
        700261012
      ],
      "talkRole": {
        "type": "TALK_ROLE_NPC",
        "_id": "30068"
      },
      "talkContentTextMapHash": 2003003146,
      "talkAssetPath": "",
      "talkAssetPathAlter": "",
      "talkAudioName": "",
      "actionBefore": "",
      "actionWhile": "",
      "actionAfter": "",
      "optionIcon": "",
      "iconPath": ""
    },
    {
      "id": 700261012,
      "talkRole": {
        "type": "TALK_ROLE_NPC",
        "_id": "30068"
      },
      "talkContentTextMapHash": 1355724930,
      "talkAssetPath": "",
      "talkAssetPathAlter": "",
      "talkAudioName": "",
      "actionBefore": "",
      "actionWhile": "",
      "actionAfter": "",
      "optionIcon": "",
      "iconPath": ""
    }
  ]
}