{
  "talkId": 7010309,
  "KPGKDHAFHFE": "FREE",
  "dialogList": [
    {
      "id": 701030901,
      "talkRole": {
        "type": "TALK_ROLE_NPC",
        "_id": "20205"
      },
      "talkContentTextMapHash": 926108386,
      "talkRoleNameTextMapHash": 3083305891,
      "talkAssetPath": "",
      "talkAssetPathAlter": "",
      "talkAudioName": "",
      "actionBefore": "",
      "actionWhile": "",
      "actionAfter": "",
      "optionIcon": "",
      "iconPath": ""
    }
  ]
}