{
  "talkId": 7010103,
  "KPGKDHAFHFE": "FREE",
  "dialogList": [
    {
      "id": 701010301,
      "talkRole": {
        "type": "TALK_ROLE_PLAYER",
        "_id": ""
      },
      "talkContentTextMapHash": 82440042,
      "talkRoleNameTextMapHash": 3492083019,
      "talkAssetPath": "",
      "talkAssetPathAlter": "",
      "talkAudioName": "",
      "actionBefore": "",
      "actionWhile": "",
      "actionAfter": "",
      "optionIcon": "",
      "iconPath": ""
    }
  ]
}