{
  "talkId": 7012401,
  "KPGKDHAFHFE": "FREE",
  "dialogList": [
    {
      "id": 701240101,
      "talkRole": {
        "type": "TALK_ROLE_NPC",
        "_id": "20184"
      },
      "talkContentTextMapHash": 1713542802,
      "talkRoleNameTextMapHash": 2568140939,
      "talkAssetPath": "",
      "talkAssetPathAlter": "",
      "talkAudioName": "",
      "actionBefore": "",
      "actionWhile": "",
      "actionAfter": "",
      "optionIcon": "",
      "iconPath": ""
    }
  ]
}