{
  "talkId": 7012405,
  "KPGKDHAFHFE": "FREE",
  "dialogList": [
    {
      "id": 701240501,
      "talkRole": {
        "type": "TALK_ROLE_NPC",
        "_id": "20188"
      },
      "talkContentTextMapHash": 4226717578,
      "talkRoleNameTextMapHash": 2698092299,
      "talkAssetPath": "",
      "talkAssetPathAlter": "",
      "talkAudioName": "",
      "actionBefore": "",
      "actionWhile": "",
      "actionAfter": "",
      "optionIcon": "",
      "iconPath": ""
    }
  ]
}