{
  "talkId": 7066402,
  "KPGKDHAFHFE": "FREE",
  "dialogList": [
    {
      "id": 706640201,
      "nextDialogs": [
        706640202,
        706640209,
        706640213
      ],
      "talkRole": {
        "type": "TALK_ROLE_NPC",
        "_id": "30153"
      },
      "talkContentTextMapHash": 568362474,
      "talkAssetPath": "",
      "talkAssetPathAlter": "",
      "talkAudioName": "",
      "actionBefore": "",
      "actionWhile": "",
      "actionAfter": "",
      "optionIcon": "",
      "iconPath": ""
    },
    {
      "id": 706640202,
      "nextDialogs": [
        706640203
      ],
      "talkShowType": "TALK_SHOW_FORCE_SELECT",
      "talkRole": {
        "type": "TALK_ROLE_PLAYER",
        "_id": ""
      },
      "talkContentTextMapHash": 1212281138,
      "talkAssetPath": "",
      "talkAssetPathAlter": "",
      "talkAudioName": "",
      "actionBefore": "",
      "actionWhile": "",
      "actionAfter": "",
      "optionIcon": "",
      "iconPath": ""
    },
    {
      "id": 706640203,
      "nextDialogs": [
        706640204
      ],
      "talkRole": {
        "type": "TALK_ROLE_NPC",
        "_id": "30153"
      },
      "talkContentTextMapHash": 4031736610,
      "talkAssetPath": "",
      "talkAssetPathAlter": "",
      "talkAudioName": "",
      "actionBefore": "",
      "actionWhile": "",
      "actionAfter": "",
      "optionIcon": "",
      "iconPath": ""
    },
    {
      "id": 706640204,
      "nextDialogs": [
        706640205
      ],
      "talkRole": {
        "type": "TALK_ROLE_NPC",
        "_id": "30153"
      },
      "talkContentTextMapHash": 1777232682,
      "talkAssetPath": "",
      "talkAssetPathAlter": "",
      "talkAudioName": "",
      "actionBefore": "",
      "actionWhile": "",
      "actionAfter": "",
      "optionIcon": "",
      "iconPath": ""
    },
    {
      "id": 706640205,
      "nextDialogs": [
        706640206
      ],
      "talkRole": {
        "type": "TALK_ROLE_NPC",
        "_id": "30153"
      },
      "talkContentTextMapHash": 244760002,
      "talkAssetPath": "",
      "talkAssetPathAlter": "",
      "talkAudioName": "",
      "actionBefore": "",
      "actionWhile": "",
      "actionAfter": "",
      "optionIcon": "",
      "iconPath": ""
    },
    {
      "id": 706640206,
      "nextDialogs": [
        706640207
      ],
      "talkRole": {
        "type": "TALK_ROLE_NPC",
        "_id": "30153"
      },
      "talkContentTextMapHash": 2771112994,
      "talkAssetPath": "",
      "talkAssetPathAlter": "",
      "talkAudioName": "",
      "actionBefore": "",
      "actionWhile": "",
      "actionAfter": "",
      "optionIcon": "",
      "iconPath": ""
    },
    {
      "id": 706640207,
      "nextDialogs": [
        706640208
      ],
      "talkRole": {
        "type": "TALK_ROLE_NPC",
        "_id": "30153"
      },
      "talkContentTextMapHash": 3448149490,
      "talkAssetPath": "",
      "talkAssetPathAlter": "",
      "talkAudioName": "",
      "actionBefore": "",
      "actionWhile": "",
      "actionAfter": "",
      "optionIcon": "",
      "iconPath": ""
    },
    {
      "id": 706640208,
      "talkRole": {
        "type": "TALK_ROLE_NPC",
        "_id": "30153"
      },
      "talkContentTextMapHash": 1955368570,
      "talkAssetPath": "",
      "talkAssetPathAlter": "",
      "talkAudioName": "",
      "actionBefore": "",
      "actionWhile": "",
      "actionAfter": "",
      "optionIcon": "",
      "iconPath": ""
    },
    {
      "id": 706640209,
      "nextDialogs": [
        706640210
      ],
      "talkShowType": "TALK_SHOW_FORCE_SELECT",
      "talkRole": {
        "type": "TALK_ROLE_PLAYER",
        "_id": ""
      },
      "talkContentTextMapHash": 3838077746,
      "talkAssetPath": "",
      "talkAssetPathAlter": "",
      "talkAudioName": "",
      "actionBefore": "",
      "actionWhile": "",
      "actionAfter": "",
      "optionIcon": "",
      "iconPath": ""
    },
    {
      "id": 706640210,
      "nextDialogs": [
        706640211
      ],
      "talkRole": {
        "type": "TALK_ROLE_NPC",
        "_id": "30153"
      },
      "talkContentTextMapHash": 3577936674,
      "talkAssetPath": "",
      "talkAssetPathAlter": "",
      "talkAudioName": "",
      "actionBefore": "",
      "actionWhile": "",
      "actionAfter": "",
      "optionIcon": "",
      "iconPath": ""
    },
    {
      "id": 706640211,
      "nextDialogs": [
        706640212
      ],
      "talkRole": {
        "type": "TALK_ROLE_NPC",
        "_id": "30153"
      },
      "talkContentTextMapHash": 3649483538,
      "talkAssetPath": "",
      "talkAssetPathAlter": "",
      "talkAudioName": "",
      "actionBefore": "",
      "actionWhile": "",
      "actionAfter": "",
      "optionIcon": "",
      "iconPath": ""
    },
    {
      "id": 706640212,
      "talkRole": {
        "type": "TALK_ROLE_NPC",
        "_id": "30153"
      },
      "talkContentTextMapHash": 3736175258,
      "talkAssetPath": "",
      "talkAssetPathAlter": "",
      "talkAudioName": "",
      "actionBefore": "",
      "actionWhile": "",
      "actionAfter": "",
      "optionIcon": "",
      "iconPath": ""
    },
    {
      "id": 706640213,
      "nextDialogs": [
        706640214
      ],
      "talkShowType": "TALK_SHOW_FORCE_SELECT",
      "talkRole": {
        "type": "TALK_ROLE_PLAYER",
        "_id": ""
      },
      "talkContentTextMapHash": 4177734610,
      "talkAssetPath": "",
      "talkAssetPathAlter": "",
      "talkAudioName": "",
      "actionBefore": "",
      "actionWhile": "",
      "actionAfter": "",
      "optionIcon": "",
      "iconPath": ""
    },
    {
      "id": 706640214,
      "nextDialogs": [
        706640215
      ],
      "talkRole": {
        "type": "TALK_ROLE_NPC",
        "_id": "30153"
      },
      "talkContentTextMapHash": 2402730538,
      "talkAssetPath": "",
      "talkAssetPathAlter": "",
      "talkAudioName": "",
      "actionBefore": "",
      "actionWhile": "",
      "actionAfter": "",
      "optionIcon": "",
      "iconPath": ""
    },
    {
      "id": 706640215,
      "talkRole": {
        "type": "TALK_ROLE_NPC",
        "_id": "30153"
      },
      "talkContentTextMapHash": 3513988594,
      "talkAssetPath": "",
      "talkAssetPathAlter": "",
      "talkAudioName": "",
      "actionBefore": "",
      "actionWhile": "",
      "actionAfter": "",
      "optionIcon": "",
      "iconPath": ""
    }
  ]
}