{
  "talkId": 7067902,
  "KPGKDHAFHFE": "FREE",
  "dialogList": [
    {
      "id": 706790201,
      "nextDialogs": [
        706790202,
        706790204,
        706790214
      ],
      "talkRole": {
        "type": "TALK_ROLE_NPC",
        "_id": "30051"
      },
      "talkContentTextMapHash": 3428880570,
      "talkAssetPath": "",
      "talkAssetPathAlter": "",
      "talkAudioName": "",
      "actionBefore": "",
      "actionWhile": "",
      "actionAfter": "",
      "optionIcon": "",
      "iconPath": ""
    },
    {
      "id": 706790202,
      "nextDialogs": [
        706790203
      ],
      "talkRole": {
        "type": "TALK_ROLE_PLAYER",
        "_id": ""
      },
      "talkContentTextMapHash": 1818894818,
      "talkAssetPath": "",
      "talkAssetPathAlter": "",
      "talkAudioName": "",
      "actionBefore": "",
      "actionWhile": "",
      "actionAfter": "",
      "optionIcon": "UI_Icon_Intee_HideAndSeekV4",
      "iconPath": ""
    },
    {
      "id": 706790203,
      "talkRole": {
        "type": "TALK_ROLE_NPC",
        "_id": "30051"
      },
      "talkContentTextMapHash": 667189794,
      "talkAssetPath": "",
      "talkAssetPathAlter": "",
      "talkAudioName": "",
      "actionBefore": "",
      "actionWhile": "",
      "actionAfter": "",
      "optionIcon": "",
      "iconPath": ""
    },
    {
      "id": 706790204,
      "nextDialogs": [
        706790205
      ],
      "talkRole": {
        "type": "TALK_ROLE_PLAYER",
        "_id": ""
      },
      "talkContentTextMapHash": 413626706,
      "talkAssetPath": "",
      "talkAssetPathAlter": "",
      "talkAudioName": "",
      "actionBefore": "",
      "actionWhile": "",
      "actionAfter": "",
      "optionIcon": "",
      "iconPath": ""
    },
    {
      "id": 706790205,
      "nextDialogs": [
        706790206
      ],
      "talkRole": {
        "type": "TALK_ROLE_NPC",
        "_id": "30051"
      },
      "talkContentTextMapHash": 2165046194,
      "talkAssetPath": "",
      "talkAssetPathAlter": "",
      "talkAudioName": "",
      "actionBefore": "",
      "actionWhile": "",
      "actionAfter": "",
      "optionIcon": "",
      "iconPath": ""
    },
    {
      "id": 706790206,
      "nextDialogs": [
        706790207
      ],
      "talkRole": {
        "type": "TALK_ROLE_NPC",
        "_id": "30051"
      },
      "talkContentTextMapHash": 3108318130,
      "talkAssetPath": "",
      "talkAssetPathAlter": "",
      "talkAudioName": "",
      "actionBefore": "",
      "actionWhile": "",
      "actionAfter": "",
      "optionIcon": "",
      "iconPath": ""
    },
    {
      "id": 706790207,
      "nextDialogs": [
        706790208
      ],
      "talkRole": {
        "type": "TALK_ROLE_NPC",
        "_id": "30051"
      },
      "talkContentTextMapHash": 1677066914,
      "talkAssetPath": "",
      "talkAssetPathAlter": "",
      "talkAudioName": "",
      "actionBefore": "",
      "actionWhile": "",
      "actionAfter": "",
      "optionIcon": "",
      "iconPath": ""
    },
    {
      "id": 706790208,
      "nextDialogs": [
        706790209
      ],
      "talkRole": {
        "type": "TALK_ROLE_NPC",
        "_id": "30051"
      },
      "talkContentTextMapHash": 3086470858,
      "talkAssetPath": "",
      "talkAssetPathAlter": "",
      "talkAudioName": "",
      "actionBefore": "",
      "actionWhile": "",
      "actionAfter": "",
      "optionIcon": "",
      "iconPath": ""
    },
    {
      "id": 706790209,
      "nextDialogs": [
        706790210
      ],
      "talkRole": {
        "type": "TALK_ROLE_NPC",
        "_id": "30051"
      },
      "talkContentTextMapHash": 631906850,
      "talkAssetPath": "",
      "talkAssetPathAlter": "",
      "talkAudioName": "",
      "actionBefore": "",
      "actionWhile": "",
      "actionAfter": "",
      "optionIcon": "",
      "iconPath": ""
    },
    {
      "id": 706790210,
      "nextDialogs": [
        706790211
      ],
      "talkRole": {
        "type": "TALK_ROLE_NPC",
        "_id": "30051"
      },
      "talkContentTextMapHash": 3149284866,
      "talkAssetPath": "",
      "talkAssetPathAlter": "",
      "talkAudioName": "",
      "actionBefore": "",
      "actionWhile": "",
      "actionAfter": "",
      "optionIcon": "",
      "iconPath": ""
    },
    {
      "id": 706790211,
      "nextDialogs": [
        706790212
      ],
      "talkRole": {
        "type": "TALK_ROLE_NPC",
        "_id": "30051"
      },
      "talkContentTextMapHash": 2055563634,
      "talkAssetPath": "",
      "talkAssetPathAlter": "",
      "talkAudioName": "",
      "actionBefore": "",
      "actionWhile": "",
      "actionAfter": "",
      "optionIcon": "",
      "iconPath": ""
    },
    {
      "id": 706790212,
      "nextDialogs": [
        706790213
      ],
      "talkRole": {
        "type": "TALK_ROLE_NPC",
        "_id": "30051"
      },
      "talkContentTextMapHash": 345780762,
      "talkAssetPath": "",
      "talkAssetPathAlter": "",
      "talkAudioName": "",
      "actionBefore": "",
      "actionWhile": "",
      "actionAfter": "",
      "optionIcon": "",
      "iconPath": ""
    },
    {
      "id": 706790213,
      "talkRole": {
        "type": "TALK_ROLE_NPC",
        "_id": "30051"
      },
      "talkContentTextMapHash": 3549679250,
      "talkAssetPath": "",
      "talkAssetPathAlter": "",
      "talkAudioName": "",
      "actionBefore": "",
      "actionWhile": "",
      "actionAfter": "",
      "optionIcon": "",
      "iconPath": ""
    },
    {
      "id": 706790214,
      "nextDialogs": [
        706790215
      ],
      "talkRole": {
        "type": "TALK_ROLE_PLAYER",
        "_id": ""
      },
      "talkContentTextMapHash": 3244688074,
      "talkAssetPath": "",
      "talkAssetPathAlter": "",
      "talkAudioName": "",
      "actionBefore": "",
      "actionWhile": "",
      "actionAfter": "",
      "optionIcon": "",
      "iconPath": ""
    },
    {
      "id": 706790215,
      "talkRole": {
        "type": "TALK_ROLE_NPC",
        "_id": "30051"
      },
      "talkContentTextMapHash": 2694927818,
      "talkAssetPath": "",
      "talkAssetPathAlter": "",
      "talkAudioName": "",
      "actionBefore": "",
      "actionWhile": "",
      "actionAfter": "",
      "optionIcon": "",
      "iconPath": ""
    }
  ]
}