{
  "talkId": 7081202,
  "KPGKDHAFHFE": "FREE",
  "dialogList": [
    {
      "id": 708120201,
      "nextDialogs": [
        708120202
      ],
      "talkShowType": "TALK_SHOW_FORCE_SELECT",
      "talkRole": {
        "type": "TALK_ROLE_PLAYER",
        "_id": ""
      },
      "talkContentTextMapHash": 26724338,
      "talkAssetPath": "",
      "talkAssetPathAlter": "",
      "talkAudioName": "",
      "actionBefore": "",
      "actionWhile": "",
      "actionAfter": "",
      "optionIcon": "",
      "iconPath": ""
    },
    {
      "id": 708120202,
      "nextDialogs": [
        708120203
      ],
      "talkRole": {
        "type": "TALK_ROLE_NPC",
        "_id": "1445"
      },
      "talkContentTextMapHash": 1413934410,
      "talkAssetPath": "",
      "talkAssetPathAlter": "",
      "talkAudioName": "",
      "actionBefore": "",
      "actionWhile": "",
      "actionAfter": "",
      "optionIcon": "",
      "iconPath": ""
    },
    {
      "id": 708120203,
      "nextDialogs": [
        708120204
      ],
      "talkRole": {
        "type": "TALK_ROLE_NPC",
        "_id": "1445"
      },
      "talkContentTextMapHash": 2898736362,
      "talkAssetPath": "",
      "talkAssetPathAlter": "",
      "talkAudioName": "",
      "actionBefore": "",
      "actionWhile": "",
      "actionAfter": "",
      "optionIcon": "",
      "iconPath": ""
    },
    {
      "id": 708120204,
      "nextDialogs": [
        708120205
      ],
      "talkRole": {
        "type": "TALK_ROLE_NPC",
        "_id": "1445"
      },
      "talkContentTextMapHash": 2106112618,
      "talkAssetPath": "",
      "talkAssetPathAlter": "",
      "talkAudioName": "",
      "actionBefore": "",
      "actionWhile": "",
      "actionAfter": "",
      "optionIcon": "",
      "iconPath": ""
    },
    {
      "id": 708120205,
      "talkRole": {
        "type": "TALK_ROLE_NPC",
        "_id": "1445"
      },
      "talkContentTextMapHash": 966525010,
      "talkAssetPath": "",
      "talkAssetPathAlter": "",
      "talkAudioName": "",
      "actionBefore": "",
      "actionWhile": "",
      "actionAfter": "",
      "optionIcon": "",
      "iconPath": ""
    }
  ]
}