{
  "talkId": 7090401,
  "KPGKDHAFHFE": "FREE",
  "dialogList": [
    {
      "id": 709040101,
      "nextDialogs": [
        709040102
      ],
      "talkShowType": "TALK_SHOW_FORCE_SELECT",
      "talkRole": {
        "type": "TALK_ROLE_PLAYER",
        "_id": ""
      },
      "talkContentTextMapHash": 2623060722,
      "talkAssetPath": "",
      "talkAssetPathAlter": "",
      "talkAudioName": "",
      "actionBefore": "",
      "actionWhile": "",
      "actionAfter": "",
      "optionIcon": "UI_Icon_Intee_TreasureBox",
      "iconPath": ""
    },
    {
      "id": 709040102,
      "nextDialogs": [
        709040103
      ],
      "talkRole": {
        "type": "TALK_ROLE_NPC",
        "_id": "1425"
      },
      "talkContentTextMapHash": 3863871250,
      "talkAssetPath": "",
      "talkAssetPathAlter": "",
      "talkAudioName": "",
      "actionBefore": "",
      "actionWhile": "",
      "actionAfter": "",
      "optionIcon": "",
      "iconPath": ""
    },
    {
      "id": 709040103,
      "talkRole": {
        "type": "TALK_ROLE_NPC",
        "_id": "1425"
      },
      "talkContentTextMapHash": 461593018,
      "talkAssetPath": "",
      "talkAssetPathAlter": "",
      "talkAudioName": "",
      "actionBefore": "",
      "actionWhile": "",
      "actionAfter": "",
      "optionIcon": "",
      "iconPath": ""
    }
  ]
}