{
  "talkId": 7091201,
  "KPGKDHAFHFE": "FREE",
  "dialogList": [
    {
      "id": 709120101,
      "nextDialogs": [
        709120102
      ],
      "talkShowType": "TALK_SHOW_FORCE_SELECT",
      "talkRole": {
        "type": "TALK_ROLE_PLAYER",
        "_id": ""
      },
      "talkContentTextMapHash": 653819874,
      "talkAssetPath": "",
      "talkAssetPathAlter": "",
      "talkAudioName": "",
      "actionBefore": "",
      "actionWhile": "",
      "actionAfter": "",
      "optionIcon": "UI_Icon_Intee_TreasureBox",
      "iconPath": ""
    },
    {
      "id": 709120102,
      "nextDialogs": [
        709120103
      ],
      "talkRole": {
        "type": "TALK_ROLE_NPC",
        "_id": "1604"
      },
      "talkContentTextMapHash": 3675506674,
      "talkAssetPath": "",
      "talkAssetPathAlter": "",
      "talkAudioName": "",
      "actionBefore": "",
      "actionWhile": "",
      "actionAfter": "",
      "optionIcon": "",
      "iconPath": ""
    },
    {
      "id": 709120103,
      "nextDialogs": [
        709120104
      ],
      "talkRole": {
        "type": "TALK_ROLE_NPC",
        "_id": "1604"
      },
      "talkContentTextMapHash": 2560525282,
      "talkAssetPath": "",
      "talkAssetPathAlter": "",
      "talkAudioName": "",
      "actionBefore": "",
      "actionWhile": "",
      "actionAfter": "",
      "optionIcon": "",
      "iconPath": ""
    },
    {
      "id": 709120104,
      "talkRole": {
        "type": "TALK_ROLE_NPC",
        "_id": "1604"
      },
      "talkContentTextMapHash": 3682459090,
      "talkAssetPath": "",
      "talkAssetPathAlter": "",
      "talkAudioName": "",
      "actionBefore": "",
      "actionWhile": "",
      "actionAfter": "",
      "optionIcon": "",
      "iconPath": ""
    }
  ]
}