{
  "talkId": 7092501,
  "KPGKDHAFHFE": "FREE",
  "dialogList": [
    {
      "id": 709250101,
      "nextDialogs": [
        709250102
      ],
      "talkShowType": "TALK_SHOW_FORCE_SELECT",
      "talkRole": {
        "type": "TALK_ROLE_PLAYER",
        "_id": ""
      },
      "talkContentTextMapHash": 1198812922,
      "talkAssetPath": "",
      "talkAssetPathAlter": "",
      "talkAudioName": "",
      "actionBefore": "",
      "actionWhile": "",
      "actionAfter": "",
      "optionIcon": "UI_Icon_Intee_TreasureBox",
      "iconPath": ""
    },
    {
      "id": 709250102,
      "nextDialogs": [
        709250103
      ],
      "talkRole": {
        "type": "TALK_ROLE_NPC",
        "_id": "1549"
      },
      "talkContentTextMapHash": 2889942138,
      "talkAssetPath": "",
      "talkAssetPathAlter": "",
      "talkAudioName": "",
      "actionBefore": "",
      "actionWhile": "",
      "actionAfter": "",
      "optionIcon": "",
      "iconPath": ""
    },
    {
      "id": 709250103,
      "talkRole": {
        "type": "TALK_ROLE_NPC",
        "_id": "1549"
      },
      "talkContentTextMapHash": 334385362,
      "talkAssetPath": "",
      "talkAssetPathAlter": "",
      "talkAudioName": "",
      "actionBefore": "",
      "actionWhile": "",
      "actionAfter": "",
      "optionIcon": "",
      "iconPath": ""
    }
  ]
}