{
  "talkId": 7093701,
  "KPGKDHAFHFE": "FREE",
  "dialogList": [
    {
      "id": 709370101,
      "nextDialogs": [
        709370102
      ],
      "talkShowType": "TALK_SHOW_FORCE_SELECT",
      "talkRole": {
        "type": "TALK_ROLE_PLAYER",
        "_id": ""
      },
      "talkContentTextMapHash": 1509324650,
      "talkAssetPath": "",
      "talkAssetPathAlter": "",
      "talkAudioName": "",
      "actionBefore": "",
      "actionWhile": "",
      "actionAfter": "",
      "optionIcon": "UI_Icon_Intee_TreasureBox",
      "iconPath": ""
    },
    {
      "id": 709370102,
      "nextDialogs": [
        709370103
      ],
      "talkRole": {
        "type": "TALK_ROLE_NPC",
        "_id": "1563"
      },
      "talkContentTextMapHash": 2852449322,
      "talkAssetPath": "",
      "talkAssetPathAlter": "",
      "talkAudioName": "",
      "actionBefore": "",
      "actionWhile": "",
      "actionAfter": "",
      "optionIcon": "",
      "iconPath": ""
    },
    {
      "id": 709370103,
      "nextDialogs": [
        709370104
      ],
      "talkRole": {
        "type": "TALK_ROLE_NPC",
        "_id": "1563"
      },
      "talkContentTextMapHash": 2179210858,
      "talkAssetPath": "",
      "talkAssetPathAlter": "",
      "talkAudioName": "",
      "actionBefore": "",
      "actionWhile": "",
      "actionAfter": "",
      "optionIcon": "",
      "iconPath": ""
    },
    {
      "id": 709370104,
      "talkRole": {
        "type": "TALK_ROLE_NPC",
        "_id": "1563"
      },
      "talkContentTextMapHash": 2774461114,
      "talkAssetPath": "",
      "talkAssetPathAlter": "",
      "talkAudioName": "",
      "actionBefore": "",
      "actionWhile": "",
      "actionAfter": "",
      "optionIcon": "",
      "iconPath": ""
    }
  ]
}