{
  "talkId": 7100854,
  "KPGKDHAFHFE": "FREE",
  "dialogList": [
    {
      "id": 710085401,
      "nextDialogs": [
        710085402
      ],
      "talkShowType": "TALK_SHOW_FORCE_SELECT",
      "talkRole": {
        "type": "TALK_ROLE_PLAYER",
        "_id": ""
      },
      "talkContentTextMapHash": 4262973858,
      "talkAssetPath": "",
      "talkAssetPathAlter": "",
      "talkAudioName": "",
      "actionBefore": "",
      "actionWhile": "",
      "actionAfter": "",
      "optionIcon": "",
      "iconPath": ""
    },
    {
      "id": 710085402,
      "talkRole": {
        "type": "TALK_ROLE_NPC",
        "_id": "20129"
      },
      "talkContentTextMapHash": 1571476570,
      "talkAssetPath": "",
      "talkAssetPathAlter": "",
      "talkAudioName": "",
      "actionBefore": "",
      "actionWhile": "",
      "actionAfter": "",
      "optionIcon": "",
      "iconPath": ""
    }
  ]
}