{
  "talkId": 7100201,
  "KPGKDHAFHFE": "FREE",
  "dialogList": [
    {
      "id": 710020101,
      "talkRole": {
        "type": "TALK_ROLE_NPC",
        "_id": "20039"
      },
      "talkContentTextMapHash": 3339272592,
      "talkAssetPath": "",
      "talkAssetPathAlter": "",
      "talkAudioName": "",
      "actionBefore": "",
      "actionWhile": "",
      "actionAfter": "",
      "optionIcon": "",
      "iconPath": ""
    }
  ]
}