{
  "talkId": 7101260,
  "KPGKDHAFHFE": "FREE",
  "dialogList": [
    {
      "id": 710126001,
      "talkRole": {
        "type": "TALK_ROLE_NPC",
        "_id": "20127"
      },
      "talkContentTextMapHash": 3980031087,
      "talkAssetPath": "",
      "talkAssetPathAlter": "",
      "talkAudioName": "",
      "actionBefore": "",
      "actionWhile": "",
      "actionAfter": "",
      "optionIcon": "",
      "iconPath": ""
    }
  ]
}