{
  "talkId": 7101261,
  "KPGKDHAFHFE": "FREE",
  "dialogList": [
    {
      "id": 710126101,
      "nextDialogs": [
        710126102
      ],
      "talkShowType": "TALK_SHOW_FORCE_SELECT",
      "talkRole": {
        "type": "TALK_ROLE_PLAYER",
        "_id": ""
      },
      "talkContentTextMapHash": 930460783,
      "talkAssetPath": "",
      "talkAssetPathAlter": "",
      "talkAudioName": "",
      "actionBefore": "",
      "actionWhile": "",
      "actionAfter": "",
      "optionIcon": "",
      "iconPath": ""
    },
    {
      "id": 710126102,
      "nextDialogs": [
        710126103
      ],
      "talkRole": {
        "type": "TALK_ROLE_NPC",
        "_id": "20127"
      },
      "talkContentTextMapHash": 1582243719,
      "talkAssetPath": "",
      "talkAssetPathAlter": "",
      "talkAudioName": "",
      "actionBefore": "",
      "actionWhile": "",
      "actionAfter": "",
      "optionIcon": "",
      "iconPath": ""
    },
    {
      "id": 710126103,
      "nextDialogs": [
        710126104
      ],
      "talkRole": {
        "type": "TALK_ROLE_NPC",
        "_id": "20127"
      },
      "talkContentTextMapHash": 1338328559,
      "talkAssetPath": "",
      "talkAssetPathAlter": "",
      "talkAudioName": "",
      "actionBefore": "",
      "actionWhile": "",
      "actionAfter": "",
      "optionIcon": "",
      "iconPath": ""
    },
    {
      "id": 710126104,
      "talkRole": {
        "type": "TALK_ROLE_NPC",
        "_id": "20127"
      },
      "talkContentTextMapHash": 690463927,
      "talkAssetPath": "",
      "talkAssetPathAlter": "",
      "talkAudioName": "",
      "actionBefore": "",
      "actionWhile": "",
      "actionAfter": "",
      "optionIcon": "",
      "iconPath": ""
    }
  ]
}