{
  "talkId": 7103721,
  "KPGKDHAFHFE": "FREE",
  "dialogList": [
    {
      "id": 710372101,
      "talkRole": {
        "type": "TALK_ROLE_NPC",
        "_id": "2188"
      },
      "talkContentTextMapHash": 3765654058,
      "talkAssetPath": "",
      "talkAssetPathAlter": "",
      "talkAudioName": "",
      "actionBefore": "",
      "actionWhile": "",
      "actionAfter": "",
      "optionIcon": "",
      "iconPath": ""
    }
  ]
}