{
  "talkId": 7103710,
  "KPGKDHAFHFE": "FREE",
  "dialogList": [
    {
      "id": 710371001,
      "nextDialogs": [
        710371002
      ],
      "talkRole": {
        "type": "TALK_ROLE_NPC",
        "_id": "20539"
      },
      "talkContentTextMapHash": 3635542266,
      "talkAssetPath": "",
      "talkAssetPathAlter": "",
      "talkAudioName": "",
      "actionBefore": "",
      "actionWhile": "",
      "actionAfter": "",
      "optionIcon": "",
      "iconPath": ""
    },
    {
      "id": 710371002,
      "nextDialogs": [
        710371003
      ],
      "talkRole": {
        "type": "TALK_ROLE_NPC",
        "_id": "20539"
      },
      "talkContentTextMapHash": 1891477906,
      "talkAssetPath": "",
      "talkAssetPathAlter": "",
      "talkAudioName": "",
      "actionBefore": "",
      "actionWhile": "",
      "actionAfter": "",
      "optionIcon": "",
      "iconPath": ""
    },
    {
      "id": 710371003,
      "talkRole": {
        "type": "TALK_ROLE_NPC",
        "_id": "20539"
      },
      "talkContentTextMapHash": 3844579602,
      "talkAssetPath": "",
      "talkAssetPathAlter": "",
      "talkAudioName": "",
      "actionBefore": "",
      "actionWhile": "",
      "actionAfter": "",
      "optionIcon": "",
      "iconPath": ""
    }
  ]
}