{
  "talkId": 7104112,
  "KPGKDHAFHFE": "FREE",
  "dialogList": [
    {
      "id": 710411201,
      "nextDialogs": [
        710411202,
        710411212,
        710411223,
        710411232
      ],
      "talkRole": {
        "type": "TALK_ROLE_NPC",
        "_id": "20523"
      },
      "talkContentTextMapHash": 849215946,
      "talkAssetPath": "",
      "talkAssetPathAlter": "",
      "talkAudioName": "",
      "actionBefore": "",
      "actionWhile": "",
      "actionAfter": "",
      "optionIcon": "",
      "iconPath": ""
    },
    {
      "id": 710411202,
      "nextDialogs": [
        710411203
      ],
      "talkShowType": "TALK_SHOW_FORCE_SELECT",
      "talkRole": {
        "type": "TALK_ROLE_PLAYER",
        "_id": ""
      },
      "talkContentTextMapHash": 2399620082,
      "talkAssetPath": "",
      "talkAssetPathAlter": "",
      "talkAudioName": "",
      "actionBefore": "",
      "actionWhile": "",
      "actionAfter": "",
      "optionIcon": "",
      "iconPath": ""
    },
    {
      "id": 710411203,
      "nextDialogs": [
        710411204
      ],
      "talkRole": {
        "type": "TALK_ROLE_NPC",
        "_id": "20523"
      },
      "talkContentTextMapHash": 745577170,
      "talkAssetPath": "",
      "talkAssetPathAlter": "",
      "talkAudioName": "",
      "actionBefore": "",
      "actionWhile": "",
      "actionAfter": "",
      "optionIcon": "",
      "iconPath": ""
    },
    {
      "id": 710411204,
      "nextDialogs": [
        710411234
      ],
      "talkRole": {
        "type": "TALK_ROLE_NPC",
        "_id": "20523"
      },
      "talkContentTextMapHash": 3211044866,
      "talkAssetPath": "",
      "talkAssetPathAlter": "",
      "talkAudioName": "",
      "actionBefore": "",
      "actionWhile": "",
      "actionAfter": "",
      "optionIcon": "",
      "iconPath": ""
    },
    {
      "id": 710411234,
      "nextDialogs": [
        710411205
      ],
      "talkRole": {
        "type": "TALK_ROLE_NPC",
        "_id": "20523"
      },
      "talkContentTextMapHash": 165000938,
      "talkAssetPath": "",
      "talkAssetPathAlter": "",
      "talkAudioName": "",
      "actionBefore": "",
      "actionWhile": "",
      "actionAfter": "",
      "optionIcon": "",
      "iconPath": ""
    },
    {
      "id": 710411205,
      "nextDialogs": [
        710411206
      ],
      "talkRole": {
        "type": "TALK_ROLE_NPC",
        "_id": "20523"
      },
      "talkContentTextMapHash": 3858232738,
      "talkAssetPath": "",
      "talkAssetPathAlter": "",
      "talkAudioName": "",
      "actionBefore": "",
      "actionWhile": "",
      "actionAfter": "",
      "optionIcon": "",
      "iconPath": ""
    },
    {
      "id": 710411206,
      "nextDialogs": [
        710411207
      ],
      "talkRole": {
        "type": "TALK_ROLE_NPC",
        "_id": "20523"
      },
      "talkContentTextMapHash": 1193240546,
      "talkAssetPath": "",
      "talkAssetPathAlter": "",
      "talkAudioName": "",
      "actionBefore": "",
      "actionWhile": "",
      "actionAfter": "",
      "optionIcon": "",
      "iconPath": ""
    },
    {
      "id": 710411207,
      "nextDialogs": [
        710411208
      ],
      "talkRole": {
        "type": "TALK_ROLE_NPC",
        "_id": "20523"
      },
      "talkContentTextMapHash": 4032758554,
      "talkAssetPath": "",
      "talkAssetPathAlter": "",
      "talkAudioName": "",
      "actionBefore": "",
      "actionWhile": "",
      "actionAfter": "",
      "optionIcon": "",
      "iconPath": ""
    },
    {
      "id": 710411208,
      "nextDialogs": [
        710411209
      ],
      "talkRole": {
        "type": "TALK_ROLE_NPC",
        "_id": "1005"
      },
      "talkContentTextMapHash": 214623810,
      "talkAssetPath": "",
      "talkAssetPathAlter": "",
      "talkAudioName": "",
      "actionBefore": "",
      "actionWhile": "",
      "actionAfter": "",
      "optionIcon": "",
      "iconPath": ""
    },
    {
      "id": 710411209,
      "nextDialogs": [
        710411210
      ],
      "talkRole": {
        "type": "TALK_ROLE_NPC",
        "_id": "20523"
      },
      "talkContentTextMapHash": 3545111450,
      "talkAssetPath": "",
      "talkAssetPathAlter": "",
      "talkAudioName": "",
      "actionBefore": "",
      "actionWhile": "",
      "actionAfter": "",
      "optionIcon": "",
      "iconPath": ""
    },
    {
      "id": 710411210,
      "nextDialogs": [
        710411211
      ],
      "talkRole": {
        "type": "TALK_ROLE_NPC",
        "_id": "20523"
      },
      "talkContentTextMapHash": 3621261746,
      "talkAssetPath": "",
      "talkAssetPathAlter": "",
      "talkAudioName": "",
      "actionBefore": "",
      "actionWhile": "",
      "actionAfter": "",
      "optionIcon": "",
      "iconPath": ""
    },
    {
      "id": 710411211,
      "talkRole": {
        "type": "TALK_ROLE_NPC",
        "_id": "1005"
      },
      "talkContentTextMapHash": 166944418,
      "talkAssetPath": "",
      "talkAssetPathAlter": "",
      "talkAudioName": "",
      "actionBefore": "",
      "actionWhile": "",
      "actionAfter": "",
      "optionIcon": "",
      "iconPath": ""
    },
    {
      "id": 710411212,
      "nextDialogs": [
        710411213
      ],
      "talkShowType": "TALK_SHOW_FORCE_SELECT",
      "talkRole": {
        "type": "TALK_ROLE_PLAYER",
        "_id": ""
      },
      "talkContentTextMapHash": 610262154,
      "talkAssetPath": "",
      "talkAssetPathAlter": "",
      "talkAudioName": "",
      "actionBefore": "",
      "actionWhile": "",
      "actionAfter": "",
      "optionIcon": "",
      "iconPath": ""
    },
    {
      "id": 710411213,
      "nextDialogs": [
        710411214
      ],
      "talkRole": {
        "type": "TALK_ROLE_NPC",
        "_id": "20523"
      },
      "talkContentTextMapHash": 1005661114,
      "talkAssetPath": "",
      "talkAssetPathAlter": "",
      "talkAudioName": "",
      "actionBefore": "",
      "actionWhile": "",
      "actionAfter": "",
      "optionIcon": "",
      "iconPath": ""
    },
    {
      "id": 710411214,
      "nextDialogs": [
        710411215
      ],
      "talkRole": {
        "type": "TALK_ROLE_NPC",
        "_id": "20523"
      },
      "talkContentTextMapHash": 3930295074,
      "talkAssetPath": "",
      "talkAssetPathAlter": "",
      "talkAudioName": "",
      "actionBefore": "",
      "actionWhile": "",
      "actionAfter": "",
      "optionIcon": "",
      "iconPath": ""
    },
    {
      "id": 710411215,
      "nextDialogs": [
        710411216
      ],
      "talkRole": {
        "type": "TALK_ROLE_NPC",
        "_id": "20523"
      },
      "talkContentTextMapHash": 1560732162,
      "talkAssetPath": "",
      "talkAssetPathAlter": "",
      "talkAudioName": "",
      "actionBefore": "",
      "actionWhile": "",
      "actionAfter": "",
      "optionIcon": "",
      "iconPath": ""
    },
    {
      "id": 710411216,
      "nextDialogs": [
        710411217,
        710411220
      ],
      "talkRole": {
        "type": "TALK_ROLE_NPC",
        "_id": "20523"
      },
      "talkContentTextMapHash": 297312474,
      "talkAssetPath": "",
      "talkAssetPathAlter": "",
      "talkAudioName": "",
      "actionBefore": "",
      "actionWhile": "",
      "actionAfter": "",
      "optionIcon": "",
      "iconPath": ""
    },
    {
      "id": 710411217,
      "nextDialogs": [
        710411218
      ],
      "talkShowType": "TALK_SHOW_FORCE_SELECT",
      "talkRole": {
        "type": "TALK_ROLE_PLAYER",
        "_id": ""
      },
      "talkContentTextMapHash": 2094425154,
      "talkAssetPath": "",
      "talkAssetPathAlter": "",
      "talkAudioName": "",
      "actionBefore": "",
      "actionWhile": "",
      "actionAfter": "",
      "optionIcon": "",
      "iconPath": ""
    },
    {
      "id": 710411218,
      "nextDialogs": [
        710411219
      ],
      "talkRole": {
        "type": "TALK_ROLE_NPC",
        "_id": "1005"
      },
      "talkContentTextMapHash": 2296352650,
      "talkAssetPath": "",
      "talkAssetPathAlter": "",
      "talkAudioName": "",
      "actionBefore": "",
      "actionWhile": "",
      "actionAfter": "",
      "optionIcon": "",
      "iconPath": ""
    },
    {
      "id": 710411219,
      "talkRole": {
        "type": "TALK_ROLE_NPC",
        "_id": "20523"
      },
      "talkContentTextMapHash": 3465453410,
      "talkAssetPath": "",
      "talkAssetPathAlter": "",
      "talkAudioName": "",
      "actionBefore": "",
      "actionWhile": "",
      "actionAfter": "",
      "optionIcon": "",
      "iconPath": ""
    },
    {
      "id": 710411220,
      "nextDialogs": [
        710411221
      ],
      "talkShowType": "TALK_SHOW_FORCE_SELECT",
      "talkRole": {
        "type": "TALK_ROLE_PLAYER",
        "_id": ""
      },
      "talkContentTextMapHash": 774026754,
      "talkAssetPath": "",
      "talkAssetPathAlter": "",
      "talkAudioName": "",
      "actionBefore": "",
      "actionWhile": "",
      "actionAfter": "",
      "optionIcon": "",
      "iconPath": ""
    },
    {
      "id": 710411221,
      "nextDialogs": [
        710411222
      ],
      "talkRole": {
        "type": "TALK_ROLE_NPC",
        "_id": "1005"
      },
      "talkContentTextMapHash": 2804427218,
      "talkAssetPath": "",
      "talkAssetPathAlter": "",
      "talkAudioName": "",
      "actionBefore": "",
      "actionWhile": "",
      "actionAfter": "",
      "optionIcon": "",
      "iconPath": ""
    },
    {
      "id": 710411222,
      "talkRole": {
        "type": "TALK_ROLE_NPC",
        "_id": "20523"
      },
      "talkContentTextMapHash": 3484816106,
      "talkAssetPath": "",
      "talkAssetPathAlter": "",
      "talkAudioName": "",
      "actionBefore": "",
      "actionWhile": "",
      "actionAfter": "",
      "optionIcon": "",
      "iconPath": ""
    },
    {
      "id": 710411223,
      "nextDialogs": [
        710411224
      ],
      "talkShowType": "TALK_SHOW_FORCE_SELECT",
      "talkRole": {
        "type": "TALK_ROLE_PLAYER",
        "_id": ""
      },
      "talkContentTextMapHash": 2410118354,
      "talkAssetPath": "",
      "talkAssetPathAlter": "",
      "talkAudioName": "",
      "actionBefore": "",
      "actionWhile": "",
      "actionAfter": "",
      "optionIcon": "",
      "iconPath": ""
    },
    {
      "id": 710411224,
      "nextDialogs": [
        710411225
      ],
      "talkRole": {
        "type": "TALK_ROLE_NPC",
        "_id": "20523"
      },
      "talkContentTextMapHash": 697649570,
      "talkAssetPath": "",
      "talkAssetPathAlter": "",
      "talkAudioName": "",
      "actionBefore": "",
      "actionWhile": "",
      "actionAfter": "",
      "optionIcon": "",
      "iconPath": ""
    },
    {
      "id": 710411225,
      "nextDialogs": [
        710411226
      ],
      "talkRole": {
        "type": "TALK_ROLE_NPC",
        "_id": "20523"
      },
      "talkContentTextMapHash": 2464048914,
      "talkAssetPath": "",
      "talkAssetPathAlter": "",
      "talkAudioName": "",
      "actionBefore": "",
      "actionWhile": "",
      "actionAfter": "",
      "optionIcon": "",
      "iconPath": ""
    },
    {
      "id": 710411226,
      "nextDialogs": [
        710411227
      ],
      "talkRole": {
        "type": "TALK_ROLE_NPC",
        "_id": "20523"
      },
      "talkContentTextMapHash": 1079152514,
      "talkAssetPath": "",
      "talkAssetPathAlter": "",
      "talkAudioName": "",
      "actionBefore": "",
      "actionWhile": "",
      "actionAfter": "",
      "optionIcon": "",
      "iconPath": ""
    },
    {
      "id": 710411227,
      "nextDialogs": [
        710411228
      ],
      "talkRole": {
        "type": "TALK_ROLE_NPC",
        "_id": "20523"
      },
      "talkContentTextMapHash": 2049355618,
      "talkAssetPath": "",
      "talkAssetPathAlter": "",
      "talkAudioName": "",
      "actionBefore": "",
      "actionWhile": "",
      "actionAfter": "",
      "optionIcon": "",
      "iconPath": ""
    },
    {
      "id": 710411228,
      "nextDialogs": [
        710411229
      ],
      "talkRole": {
        "type": "TALK_ROLE_NPC",
        "_id": "20523"
      },
      "talkContentTextMapHash": 924811882,
      "talkAssetPath": "",
      "talkAssetPathAlter": "",
      "talkAudioName": "",
      "actionBefore": "",
      "actionWhile": "",
      "actionAfter": "",
      "optionIcon": "",
      "iconPath": ""
    },
    {
      "id": 710411229,
      "nextDialogs": [
        710411230
      ],
      "talkShowType": "TALK_SHOW_FORCE_SELECT",
      "talkRole": {
        "type": "TALK_ROLE_PLAYER",
        "_id": ""
      },
      "talkContentTextMapHash": 4143969010,
      "talkAssetPath": "",
      "talkAssetPathAlter": "",
      "talkAudioName": "",
      "actionBefore": "",
      "actionWhile": "",
      "actionAfter": "",
      "optionIcon": "",
      "iconPath": ""
    },
    {
      "id": 710411230,
      "nextDialogs": [
        710411231
      ],
      "talkRole": {
        "type": "TALK_ROLE_NPC",
        "_id": "20523"
      },
      "talkContentTextMapHash": 415773194,
      "talkAssetPath": "",
      "talkAssetPathAlter": "",
      "talkAudioName": "",
      "actionBefore": "",
      "actionWhile": "",
      "actionAfter": "",
      "optionIcon": "",
      "iconPath": ""
    },
    {
      "id": 710411231,
      "talkRole": {
        "type": "TALK_ROLE_NPC",
        "_id": "20523"
      },
      "talkContentTextMapHash": 1922357186,
      "talkAssetPath": "",
      "talkAssetPathAlter": "",
      "talkAudioName": "",
      "actionBefore": "",
      "actionWhile": "",
      "actionAfter": "",
      "optionIcon": "",
      "iconPath": ""
    },
    {
      "id": 710411232,
      "nextDialogs": [
        710411233
      ],
      "talkShowType": "TALK_SHOW_FORCE_SELECT",
      "talkRole": {
        "type": "TALK_ROLE_PLAYER",
        "_id": ""
      },
      "talkContentTextMapHash": 312816690,
      "talkAssetPath": "",
      "talkAssetPathAlter": "",
      "talkAudioName": "",
      "actionBefore": "",
      "actionWhile": "",
      "actionAfter": "",
      "optionIcon": "",
      "iconPath": ""
    },
    {
      "id": 710411233,
      "talkRole": {
        "type": "TALK_ROLE_NPC",
        "_id": "20523"
      },
      "talkContentTextMapHash": 1518793474,
      "talkAssetPath": "",
      "talkAssetPathAlter": "",
      "talkAudioName": "",
      "actionBefore": "",
      "actionWhile": "",
      "actionAfter": "",
      "optionIcon": "",
      "iconPath": ""
    }
  ]
}