{
  "talkId": 7104515,
  "KPGKDHAFHFE": "FREE",
  "dialogList": [
    {
      "id": 710451501,
      "nextDialogs": [
        710451502
      ],
      "talkRole": {
        "type": "TALK_ROLE_NPC",
        "_id": "2617"
      },
      "talkContentTextMapHash": 2649411962,
      "talkAssetPath": "",
      "talkAssetPathAlter": "",
      "talkAudioName": "",
      "actionBefore": "",
      "actionWhile": "",
      "actionAfter": "",
      "optionIcon": "",
      "iconPath": ""
    },
    {
      "id": 710451502,
      "nextDialogs": [
        710451503
      ],
      "talkRole": {
        "type": "TALK_ROLE_NPC",
        "_id": "2617"
      },
      "talkContentTextMapHash": 299578794,
      "talkAssetPath": "",
      "talkAssetPathAlter": "",
      "talkAudioName": "",
      "actionBefore": "",
      "actionWhile": "",
      "actionAfter": "",
      "optionIcon": "",
      "iconPath": ""
    },
    {
      "id": 710451503,
      "nextDialogs": [
        710451504,
        710451505
      ],
      "talkRole": {
        "type": "TALK_ROLE_NPC",
        "_id": "2617"
      },
      "talkContentTextMapHash": 3954053834,
      "talkAssetPath": "",
      "talkAssetPathAlter": "",
      "talkAudioName": "",
      "actionBefore": "",
      "actionWhile": "",
      "actionAfter": "",
      "optionIcon": "",
      "iconPath": ""
    },
    {
      "id": 710451504,
      "nextDialogs": [
        710451506
      ],
      "talkShowType": "TALK_SHOW_FORCE_SELECT",
      "talkRole": {
        "type": "TALK_ROLE_PLAYER",
        "_id": ""
      },
      "talkContentTextMapHash": 3182803802,
      "talkAssetPath": "",
      "talkAssetPathAlter": "",
      "talkAudioName": "",
      "actionBefore": "",
      "actionWhile": "",
      "actionAfter": "",
      "optionIcon": "",
      "iconPath": ""
    },
    {
      "id": 710451506,
      "nextDialogs": [
        710451507
      ],
      "talkRole": {
        "type": "TALK_ROLE_NPC",
        "_id": "2617"
      },
      "talkContentTextMapHash": 2645574562,
      "talkAssetPath": "",
      "talkAssetPathAlter": "",
      "talkAudioName": "",
      "actionBefore": "",
      "actionWhile": "",
      "actionAfter": "",
      "optionIcon": "",
      "iconPath": ""
    },
    {
      "id": 710451507,
      "nextDialogs": [
        710451508
      ],
      "talkRole": {
        "type": "TALK_ROLE_NPC",
        "_id": "2617"
      },
      "talkContentTextMapHash": 2261342778,
      "talkAssetPath": "",
      "talkAssetPathAlter": "",
      "talkAudioName": "",
      "actionBefore": "",
      "actionWhile": "",
      "actionAfter": "",
      "optionIcon": "",
      "iconPath": ""
    },
    {
      "id": 710451508,
      "talkRole": {
        "type": "TALK_ROLE_NPC",
        "_id": "2617"
      },
      "talkContentTextMapHash": 1530120570,
      "talkAssetPath": "",
      "talkAssetPathAlter": "",
      "talkAudioName": "",
      "actionBefore": "",
      "actionWhile": "",
      "actionAfter": "",
      "optionIcon": "",
      "iconPath": ""
    },
    {
      "id": 710451505,
      "nextDialogs": [
        710451506
      ],
      "talkShowType": "TALK_SHOW_FORCE_SELECT",
      "talkRole": {
        "type": "TALK_ROLE_PLAYER",
        "_id": ""
      },
      "talkContentTextMapHash": 3573473954,
      "talkAssetPath": "",
      "talkAssetPathAlter": "",
      "talkAudioName": "",
      "actionBefore": "",
      "actionWhile": "",
      "actionAfter": "",
      "optionIcon": "",
      "iconPath": ""
    }
  ]
}