{
  "talkId": 7106604,
  "KPGKDHAFHFE": "FREE",
  "dialogList": [
    {
      "id": 710660401,
      "nextDialogs": [
        710660402
      ],
      "talkRole": {
        "type": "TALK_ROLE_NPC",
        "_id": "20220"
      },
      "talkContentTextMapHash": 3765446914,
      "talkAssetPath": "",
      "talkAssetPathAlter": "",
      "talkAudioName": "",
      "actionBefore": "",
      "actionWhile": "",
      "actionAfter": "",
      "optionIcon": "",
      "iconPath": ""
    },
    {
      "id": 710660402,
      "nextDialogs": [
        710660403
      ],
      "talkRole": {
        "type": "TALK_ROLE_NPC",
        "_id": "20220"
      },
      "talkContentTextMapHash": 4136099362,
      "talkAssetPath": "",
      "talkAssetPathAlter": "",
      "talkAudioName": "",
      "actionBefore": "",
      "actionWhile": "",
      "actionAfter": "",
      "optionIcon": "",
      "iconPath": ""
    },
    {
      "id": 710660403,
      "nextDialogs": [
        710660404
      ],
      "talkRole": {
        "type": "TALK_ROLE_NPC",
        "_id": "20220"
      },
      "talkContentTextMapHash": 805525386,
      "talkAssetPath": "",
      "talkAssetPathAlter": "",
      "talkAudioName": "",
      "actionBefore": "",
      "actionWhile": "",
      "actionAfter": "",
      "optionIcon": "",
      "iconPath": ""
    },
    {
      "id": 710660404,
      "nextDialogs": [
        710660405
      ],
      "talkRole": {
        "type": "TALK_ROLE_NPC",
        "_id": "20220"
      },
      "talkContentTextMapHash": 954384714,
      "talkAssetPath": "",
      "talkAssetPathAlter": "",
      "talkAudioName": "",
      "actionBefore": "",
      "actionWhile": "",
      "actionAfter": "",
      "optionIcon": "",
      "iconPath": ""
    },
    {
      "id": 710660405,
      "nextDialogs": [
        710660406
      ],
      "talkRole": {
        "type": "TALK_ROLE_NPC",
        "_id": "20220"
      },
      "talkContentTextMapHash": 3753749738,
      "talkAssetPath": "",
      "talkAssetPathAlter": "",
      "talkAudioName": "",
      "actionBefore": "",
      "actionWhile": "",
      "actionAfter": "",
      "optionIcon": "",
      "iconPath": ""
    },
    {
      "id": 710660406,
      "nextDialogs": [
        710660407
      ],
      "talkRole": {
        "type": "TALK_ROLE_NPC",
        "_id": "20220"
      },
      "talkContentTextMapHash": 3449304228,
      "talkAssetPath": "",
      "talkAssetPathAlter": "",
      "talkAudioName": "",
      "actionBefore": "",
      "actionWhile": "",
      "actionAfter": "",
      "optionIcon": "",
      "iconPath": ""
    },
    {
      "id": 710660407,
      "talkRole": {
        "type": "TALK_ROLE_NPC",
        "_id": "1005"
      },
      "talkContentTextMapHash": 444427938,
      "talkAssetPath": "",
      "talkAssetPathAlter": "",
      "talkAudioName": "",
      "actionBefore": "",
      "actionWhile": "",
      "actionAfter": "",
      "optionIcon": "",
      "iconPath": ""
    }
  ]
}