{
  "talkId": 7107906,
  "KPGKDHAFHFE": "FREE",
  "dialogList": [
    {
      "id": 710790601,
      "nextDialogs": [
        710790602
      ],
      "talkRole": {
        "type": "TALK_ROLE_NPC",
        "_id": "2219"
      },
      "talkContentTextMapHash": 1995189434,
      "talkAssetPath": "",
      "talkAssetPathAlter": "",
      "talkAudioName": "",
      "actionBefore": "",
      "actionWhile": "",
      "actionAfter": "",
      "optionIcon": "",
      "iconPath": ""
    },
    {
      "id": 710790602,
      "talkRole": {
        "type": "TALK_ROLE_NPC",
        "_id": "1005"
      },
      "talkContentTextMapHash": 3038889698,
      "talkAssetPath": "",
      "talkAssetPathAlter": "",
      "talkAudioName": "",
      "actionBefore": "DialogAction/D710790602_Before",
      "actionWhile": "",
      "actionAfter": "",
      "optionIcon": "",
      "iconPath": ""
    }
  ]
}