{
  "talkId": 7107903,
  "KPGKDHAFHFE": "FREE",
  "dialogList": [
    {
      "id": 710790301,
      "nextDialogs": [
        710790302
      ],
      "talkRole": {
        "type": "TALK_ROLE_NPC",
        "_id": "2216"
      },
      "talkContentTextMapHash": 440316162,
      "talkAssetPath": "",
      "talkAssetPathAlter": "",
      "talkAudioName": "",
      "actionBefore": "",
      "actionWhile": "",
      "actionAfter": "",
      "optionIcon": "",
      "iconPath": ""
    },
    {
      "id": 710790302,
      "talkRole": {
        "type": "TALK_ROLE_NPC",
        "_id": "1005"
      },
      "talkContentTextMapHash": 2702270666,
      "talkAssetPath": "",
      "talkAssetPathAlter": "",
      "talkAudioName": "",
      "actionBefore": "DialogAction/D710790302_Before",
      "actionWhile": "",
      "actionAfter": "",
      "optionIcon": "",
      "iconPath": ""
    }
  ]
}