{
  "talkId": 7107909,
  "KPGKDHAFHFE": "FREE",
  "dialogList": [
    {
      "id": 710790901,
      "nextDialogs": [
        710790902
      ],
      "talkRole": {
        "type": "TALK_ROLE_NPC",
        "_id": "2222"
      },
      "talkContentTextMapHash": 1746879602,
      "talkAssetPath": "",
      "talkAssetPathAlter": "",
      "talkAudioName": "",
      "actionBefore": "",
      "actionWhile": "",
      "actionAfter": "",
      "optionIcon": "",
      "iconPath": ""
    },
    {
      "id": 710790902,
      "talkRole": {
        "type": "TALK_ROLE_NPC",
        "_id": "1005"
      },
      "talkContentTextMapHash": 3904795114,
      "talkAssetPath": "",
      "talkAssetPathAlter": "",
      "talkAudioName": "",
      "actionBefore": "DialogAction/D710790902_Before",
      "actionWhile": "",
      "actionAfter": "",
      "optionIcon": "",
      "iconPath": ""
    }
  ]
}