{
  "talkId": 7108405,
  "KPGKDHAFHFE": "FREE",
  "dialogList": [
    {
      "id": 710840501,
      "nextDialogs": [
        710840502
      ],
      "talkRole": {
        "type": "TALK_ROLE_NPC",
        "_id": "2184"
      },
      "talkContentTextMapHash": 3790249794,
      "talkAssetPath": "",
      "talkAssetPathAlter": "",
      "talkAudioName": "",
      "actionBefore": "",
      "actionWhile": "",
      "actionAfter": "",
      "optionIcon": "",
      "iconPath": ""
    },
    {
      "id": 710840502,
      "talkRole": {
        "type": "TALK_ROLE_NPC",
        "_id": "2184"
      },
      "talkContentTextMapHash": 1001433778,
      "talkAssetPath": "",
      "talkAssetPathAlter": "",
      "talkAudioName": "",
      "actionBefore": "",
      "actionWhile": "",
      "actionAfter": "",
      "optionIcon": "",
      "iconPath": ""
    }
  ]
}