{
  "talkId": 7112303,
  "KPGKDHAFHFE": "FREE",
  "dialogList": [
    {
      "id": 711230301,
      "nextDialogs": [
        711230302
      ],
      "talkShowType": "TALK_SHOW_FORCE_SELECT",
      "talkRole": {
        "type": "TALK_ROLE_PLAYER",
        "_id": ""
      },
      "talkContentTextMapHash": 2651090066,
      "talkAssetPath": "",
      "talkAssetPathAlter": "",
      "talkAudioName": "",
      "actionBefore": "",
      "actionWhile": "",
      "actionAfter": "",
      "optionIcon": "UI_Icon_Intee_Mechanism",
      "iconPath": ""
    },
    {
      "id": 711230302,
      "talkRole": {
        "type": "TALK_ROLE_NPC",
        "_id": "2515"
      },
      "talkContentTextMapHash": 3310780770,
      "talkAssetPath": "",
      "talkAssetPathAlter": "",
      "talkAudioName": "",
      "actionBefore": "",
      "actionWhile": "",
      "actionAfter": "SimpleTalk/LerpOutNpcNoSteer_End",
      "optionIcon": "",
      "iconPath": ""
    }
  ]
}