{
  "talkId": 7165809,
  "KPGKDHAFHFE": "FREE",
  "dialogList": [
    {
      "id": 716580901,
      "nextDialogs": [
        716580902
      ],
      "talkRole": {
        "type": "TALK_ROLE_NPC",
        "_id": "30124"
      },
      "talkContentTextMapHash": 2637161146,
      "talkAssetPath": "",
      "talkAssetPathAlter": "",
      "talkAudioName": "",
      "actionBefore": "",
      "actionWhile": "",
      "actionAfter": "",
      "optionIcon": "",
      "iconPath": ""
    },
    {
      "id": 716580902,
      "nextDialogs": [
        716580903
      ],
      "talkRole": {
        "type": "TALK_ROLE_NPC",
        "_id": "30124"
      },
      "talkContentTextMapHash": 3225166866,
      "talkAssetPath": "",
      "talkAssetPathAlter": "",
      "talkAudioName": "",
      "actionBefore": "",
      "actionWhile": "",
      "actionAfter": "",
      "optionIcon": "",
      "iconPath": ""
    },
    {
      "id": 716580903,
      "nextDialogs": [
        716580904
      ],
      "talkRole": {
        "type": "TALK_ROLE_NPC",
        "_id": "30124"
      },
      "talkContentTextMapHash": 3225658530,
      "talkAssetPath": "",
      "talkAssetPathAlter": "",
      "talkAudioName": "",
      "actionBefore": "",
      "actionWhile": "",
      "actionAfter": "",
      "optionIcon": "",
      "iconPath": ""
    },
    {
      "id": 716580904,
      "nextDialogs": [
        716580905
      ],
      "talkRole": {
        "type": "TALK_ROLE_NPC",
        "_id": "30124"
      },
      "talkContentTextMapHash": 1994063178,
      "talkAssetPath": "",
      "talkAssetPathAlter": "",
      "talkAudioName": "",
      "actionBefore": "",
      "actionWhile": "",
      "actionAfter": "",
      "optionIcon": "",
      "iconPath": ""
    },
    {
      "id": 716580905,
      "nextDialogs": [
        716580906
      ],
      "talkShowType": "TALK_SHOW_FORCE_SELECT",
      "talkRole": {
        "type": "TALK_ROLE_PLAYER",
        "_id": ""
      },
      "talkContentTextMapHash": 1497917138,
      "talkAssetPath": "",
      "talkAssetPathAlter": "",
      "talkAudioName": "",
      "actionBefore": "",
      "actionWhile": "",
      "actionAfter": "",
      "optionIcon": "",
      "iconPath": ""
    },
    {
      "id": 716580906,
      "nextDialogs": [
        716580907
      ],
      "talkRole": {
        "type": "TALK_ROLE_NPC",
        "_id": "30124"
      },
      "talkContentTextMapHash": 1047581786,
      "talkAssetPath": "",
      "talkAssetPathAlter": "",
      "talkAudioName": "",
      "actionBefore": "",
      "actionWhile": "",
      "actionAfter": "",
      "optionIcon": "",
      "iconPath": ""
    },
    {
      "id": 716580907,
      "nextDialogs": [
        716580908
      ],
      "talkShowType": "TALK_SHOW_FORCE_SELECT",
      "talkRole": {
        "type": "TALK_ROLE_PLAYER",
        "_id": ""
      },
      "talkContentTextMapHash": 2630858282,
      "talkAssetPath": "",
      "talkAssetPathAlter": "",
      "talkAudioName": "",
      "actionBefore": "",
      "actionWhile": "",
      "actionAfter": "",
      "optionIcon": "",
      "iconPath": ""
    },
    {
      "id": 716580908,
      "nextDialogs": [
        716580909
      ],
      "talkRole": {
        "type": "TALK_ROLE_NPC",
        "_id": "30124"
      },
      "talkContentTextMapHash": 1817280482,
      "talkAssetPath": "",
      "talkAssetPathAlter": "",
      "talkAudioName": "",
      "actionBefore": "",
      "actionWhile": "",
      "actionAfter": "",
      "optionIcon": "",
      "iconPath": ""
    },
    {
      "id": 716580909,
      "nextDialogs": [
        716580910
      ],
      "talkRole": {
        "type": "TALK_ROLE_NPC",
        "_id": "30124"
      },
      "talkContentTextMapHash": 3360189458,
      "talkAssetPath": "",
      "talkAssetPathAlter": "",
      "talkAudioName": "",
      "actionBefore": "",
      "actionWhile": "",
      "actionAfter": "",
      "optionIcon": "",
      "iconPath": ""
    },
    {
      "id": 716580910,
      "talkRole": {
        "type": "TALK_ROLE_NPC",
        "_id": "30124"
      },
      "talkContentTextMapHash": 1153640642,
      "talkAssetPath": "",
      "talkAssetPathAlter": "",
      "talkAudioName": "",
      "actionBefore": "",
      "actionWhile": "",
      "actionAfter": "",
      "optionIcon": "",
      "iconPath": ""
    }
  ]
}