{
  "talkId": 7165817,
  "KPGKDHAFHFE": "FREE",
  "dialogList": [
    {
      "id": 716581701,
      "nextDialogs": [
        716581702
      ],
      "talkRole": {
        "type": "TALK_ROLE_NPC",
        "_id": "30130"
      },
      "talkContentTextMapHash": 2316618290,
      "talkAssetPath": "",
      "talkAssetPathAlter": "",
      "talkAudioName": "",
      "actionBefore": "",
      "actionWhile": "",
      "actionAfter": "",
      "optionIcon": "",
      "iconPath": ""
    },
    {
      "id": 716581702,
      "nextDialogs": [
        716581703
      ],
      "talkShowType": "TALK_SHOW_FORCE_SELECT",
      "talkRole": {
        "type": "TALK_ROLE_PLAYER",
        "_id": ""
      },
      "talkContentTextMapHash": 1855178154,
      "talkAssetPath": "",
      "talkAssetPathAlter": "",
      "talkAudioName": "",
      "actionBefore": "",
      "actionWhile": "",
      "actionAfter": "",
      "optionIcon": "",
      "iconPath": ""
    },
    {
      "id": 716581703,
      "nextDialogs": [
        716581704
      ],
      "talkRole": {
        "type": "TALK_ROLE_NPC",
        "_id": "30130"
      },
      "talkContentTextMapHash": 2569934322,
      "talkAssetPath": "",
      "talkAssetPathAlter": "",
      "talkAudioName": "",
      "actionBefore": "",
      "actionWhile": "",
      "actionAfter": "",
      "optionIcon": "",
      "iconPath": ""
    },
    {
      "id": 716581704,
      "nextDialogs": [
        716581705
      ],
      "talkRole": {
        "type": "TALK_ROLE_NPC",
        "_id": "30130"
      },
      "talkContentTextMapHash": 342252890,
      "talkAssetPath": "",
      "talkAssetPathAlter": "",
      "talkAudioName": "",
      "actionBefore": "",
      "actionWhile": "",
      "actionAfter": "",
      "optionIcon": "",
      "iconPath": ""
    },
    {
      "id": 716581705,
      "nextDialogs": [
        716581706
      ],
      "talkShowType": "TALK_SHOW_FORCE_SELECT",
      "talkRole": {
        "type": "TALK_ROLE_PLAYER",
        "_id": ""
      },
      "talkContentTextMapHash": 2823652618,
      "talkAssetPath": "",
      "talkAssetPathAlter": "",
      "talkAudioName": "",
      "actionBefore": "",
      "actionWhile": "",
      "actionAfter": "",
      "optionIcon": "",
      "iconPath": ""
    },
    {
      "id": 716581706,
      "nextDialogs": [
        716581707
      ],
      "talkRole": {
        "type": "TALK_ROLE_NPC",
        "_id": "30130"
      },
      "talkContentTextMapHash": 950946130,
      "talkAssetPath": "",
      "talkAssetPathAlter": "",
      "talkAudioName": "",
      "actionBefore": "",
      "actionWhile": "",
      "actionAfter": "",
      "optionIcon": "",
      "iconPath": ""
    },
    {
      "id": 716581707,
      "nextDialogs": [
        716581708
      ],
      "talkRole": {
        "type": "TALK_ROLE_NPC",
        "_id": "30130"
      },
      "talkContentTextMapHash": 2499980506,
      "talkAssetPath": "",
      "talkAssetPathAlter": "",
      "talkAudioName": "",
      "actionBefore": "",
      "actionWhile": "",
      "actionAfter": "",
      "optionIcon": "",
      "iconPath": ""
    },
    {
      "id": 716581708,
      "nextDialogs": [
        716581709
      ],
      "talkRole": {
        "type": "TALK_ROLE_NPC",
        "_id": "30130"
      },
      "talkContentTextMapHash": 186881578,
      "talkAssetPath": "",
      "talkAssetPathAlter": "",
      "talkAudioName": "",
      "actionBefore": "",
      "actionWhile": "",
      "actionAfter": "",
      "optionIcon": "",
      "iconPath": ""
    },
    {
      "id": 716581709,
      "nextDialogs": [
        716581710
      ],
      "talkRole": {
        "type": "TALK_ROLE_NPC",
        "_id": "30130"
      },
      "talkContentTextMapHash": 1404370770,
      "talkAssetPath": "",
      "talkAssetPathAlter": "",
      "talkAudioName": "",
      "actionBefore": "",
      "actionWhile": "",
      "actionAfter": "",
      "optionIcon": "",
      "iconPath": ""
    },
    {
      "id": 716581710,
      "nextDialogs": [
        716581711,
        716581712
      ],
      "talkRole": {
        "type": "TALK_ROLE_NPC",
        "_id": "30130"
      },
      "talkContentTextMapHash": 4261396994,
      "talkAssetPath": "",
      "talkAssetPathAlter": "",
      "talkAudioName": "",
      "actionBefore": "",
      "actionWhile": "",
      "actionAfter": "",
      "optionIcon": "",
      "iconPath": ""
    },
    {
      "id": 716581711,
      "nextDialogs": [
        716581713
      ],
      "talkShowType": "TALK_SHOW_FORCE_SELECT",
      "talkRole": {
        "type": "TALK_ROLE_PLAYER",
        "_id": ""
      },
      "talkContentTextMapHash": 956406922,
      "talkAssetPath": "",
      "talkAssetPathAlter": "",
      "talkAudioName": "",
      "actionBefore": "",
      "actionWhile": "",
      "actionAfter": "",
      "optionIcon": "",
      "iconPath": ""
    },
    {
      "id": 716581713,
      "nextDialogs": [
        716581714
      ],
      "talkRole": {
        "type": "TALK_ROLE_NPC",
        "_id": "30130"
      },
      "talkContentTextMapHash": 2287305970,
      "talkAssetPath": "",
      "talkAssetPathAlter": "",
      "talkAudioName": "",
      "actionBefore": "",
      "actionWhile": "",
      "actionAfter": "",
      "optionIcon": "",
      "iconPath": ""
    },
    {
      "id": 716581714,
      "nextDialogs": [
        716581715
      ],
      "talkRole": {
        "type": "TALK_ROLE_NPC",
        "_id": "30130"
      },
      "talkContentTextMapHash": 1337060482,
      "talkAssetPath": "",
      "talkAssetPathAlter": "",
      "talkAudioName": "",
      "actionBefore": "",
      "actionWhile": "",
      "actionAfter": "",
      "optionIcon": "",
      "iconPath": ""
    },
    {
      "id": 716581715,
      "nextDialogs": [
        716581716
      ],
      "talkRole": {
        "type": "TALK_ROLE_NPC",
        "_id": "30130"
      },
      "talkContentTextMapHash": 387950642,
      "talkAssetPath": "",
      "talkAssetPathAlter": "",
      "talkAudioName": "",
      "actionBefore": "",
      "actionWhile": "",
      "actionAfter": "",
      "optionIcon": "",
      "iconPath": ""
    },
    {
      "id": 716581716,
      "talkRole": {
        "type": "TALK_ROLE_NPC",
        "_id": "30130"
      },
      "talkContentTextMapHash": 3026301810,
      "talkAssetPath": "",
      "talkAssetPathAlter": "",
      "talkAudioName": "",
      "actionBefore": "",
      "actionWhile": "",
      "actionAfter": "",
      "optionIcon": "",
      "iconPath": ""
    },
    {
      "id": 716581712,
      "nextDialogs": [
        716581713
      ],
      "talkShowType": "TALK_SHOW_FORCE_SELECT",
      "talkRole": {
        "type": "TALK_ROLE_PLAYER",
        "_id": ""
      },
      "talkContentTextMapHash": 4196855594,
      "talkAssetPath": "",
      "talkAssetPathAlter": "",
      "talkAudioName": "",
      "actionBefore": "",
      "actionWhile": "",
      "actionAfter": "",
      "optionIcon": "",
      "iconPath": ""
    }
  ]
}