{
  "talkId": 7165815,
  "KPGKDHAFHFE": "FREE",
  "dialogList": [
    {
      "id": 716581501,
      "nextDialogs": [
        716581502
      ],
      "talkRole": {
        "type": "TALK_ROLE_NPC",
        "_id": "30130"
      },
      "talkContentTextMapHash": 3584251666,
      "talkAssetPath": "",
      "talkAssetPathAlter": "",
      "talkAudioName": "",
      "actionBefore": "",
      "actionWhile": "",
      "actionAfter": "",
      "optionIcon": "",
      "iconPath": ""
    },
    {
      "id": 716581502,
      "nextDialogs": [
        716581503
      ],
      "talkShowType": "TALK_SHOW_FORCE_SELECT",
      "talkRole": {
        "type": "TALK_ROLE_PLAYER",
        "_id": ""
      },
      "talkContentTextMapHash": 1174903482,
      "talkAssetPath": "",
      "talkAssetPathAlter": "",
      "talkAudioName": "",
      "actionBefore": "",
      "actionWhile": "",
      "actionAfter": "",
      "optionIcon": "",
      "iconPath": ""
    },
    {
      "id": 716581503,
      "nextDialogs": [
        716581504
      ],
      "talkRole": {
        "type": "TALK_ROLE_NPC",
        "_id": "30130"
      },
      "talkContentTextMapHash": 4213594098,
      "talkAssetPath": "",
      "talkAssetPathAlter": "",
      "talkAudioName": "",
      "actionBefore": "",
      "actionWhile": "",
      "actionAfter": "",
      "optionIcon": "",
      "iconPath": ""
    },
    {
      "id": 716581504,
      "nextDialogs": [
        716581505
      ],
      "talkShowType": "TALK_SHOW_FORCE_SELECT",
      "talkRole": {
        "type": "TALK_ROLE_PLAYER",
        "_id": ""
      },
      "talkContentTextMapHash": 3889460738,
      "talkAssetPath": "",
      "talkAssetPathAlter": "",
      "talkAudioName": "",
      "actionBefore": "",
      "actionWhile": "",
      "actionAfter": "",
      "optionIcon": "",
      "iconPath": ""
    },
    {
      "id": 716581505,
      "nextDialogs": [
        716581506
      ],
      "talkRole": {
        "type": "TALK_ROLE_NPC",
        "_id": "30130"
      },
      "talkContentTextMapHash": 3273443458,
      "talkAssetPath": "",
      "talkAssetPathAlter": "",
      "talkAudioName": "",
      "actionBefore": "",
      "actionWhile": "",
      "actionAfter": "",
      "optionIcon": "",
      "iconPath": ""
    },
    {
      "id": 716581506,
      "nextDialogs": [
        716581507
      ],
      "talkRole": {
        "type": "TALK_ROLE_NPC",
        "_id": "30130"
      },
      "talkContentTextMapHash": 1997327682,
      "talkAssetPath": "",
      "talkAssetPathAlter": "",
      "talkAudioName": "",
      "actionBefore": "",
      "actionWhile": "",
      "actionAfter": "",
      "optionIcon": "",
      "iconPath": ""
    },
    {
      "id": 716581507,
      "nextDialogs": [
        716581508
      ],
      "talkRole": {
        "type": "TALK_ROLE_NPC",
        "_id": "30130"
      },
      "talkContentTextMapHash": 3177318146,
      "talkAssetPath": "",
      "talkAssetPathAlter": "",
      "talkAudioName": "",
      "actionBefore": "",
      "actionWhile": "",
      "actionAfter": "",
      "optionIcon": "",
      "iconPath": ""
    },
    {
      "id": 716581508,
      "nextDialogs": [
        716581509
      ],
      "talkRole": {
        "type": "TALK_ROLE_NPC",
        "_id": "30130"
      },
      "talkContentTextMapHash": 1806549154,
      "talkAssetPath": "",
      "talkAssetPathAlter": "",
      "talkAudioName": "",
      "actionBefore": "",
      "actionWhile": "",
      "actionAfter": "",
      "optionIcon": "",
      "iconPath": ""
    },
    {
      "id": 716581509,
      "nextDialogs": [
        716581510
      ],
      "talkRole": {
        "type": "TALK_ROLE_NPC",
        "_id": "30130"
      },
      "talkContentTextMapHash": 3492093218,
      "talkAssetPath": "",
      "talkAssetPathAlter": "",
      "talkAudioName": "",
      "actionBefore": "",
      "actionWhile": "",
      "actionAfter": "",
      "optionIcon": "",
      "iconPath": ""
    },
    {
      "id": 716581510,
      "nextDialogs": [
        716581511
      ],
      "talkShowType": "TALK_SHOW_FORCE_SELECT",
      "talkRole": {
        "type": "TALK_ROLE_PLAYER",
        "_id": ""
      },
      "talkContentTextMapHash": 4221785114,
      "talkAssetPath": "",
      "talkAssetPathAlter": "",
      "talkAudioName": "",
      "actionBefore": "",
      "actionWhile": "",
      "actionAfter": "",
      "optionIcon": "",
      "iconPath": ""
    },
    {
      "id": 716581511,
      "nextDialogs": [
        716581512
      ],
      "talkRole": {
        "type": "TALK_ROLE_NPC",
        "_id": "30130"
      },
      "talkContentTextMapHash": 1138614298,
      "talkAssetPath": "",
      "talkAssetPathAlter": "",
      "talkAudioName": "",
      "actionBefore": "",
      "actionWhile": "",
      "actionAfter": "",
      "optionIcon": "",
      "iconPath": ""
    },
    {
      "id": 716581512,
      "nextDialogs": [
        716581513
      ],
      "talkRole": {
        "type": "TALK_ROLE_NPC",
        "_id": "30130"
      },
      "talkContentTextMapHash": 2643434378,
      "talkAssetPath": "",
      "talkAssetPathAlter": "",
      "talkAudioName": "",
      "actionBefore": "",
      "actionWhile": "",
      "actionAfter": "",
      "optionIcon": "",
      "iconPath": ""
    },
    {
      "id": 716581513,
      "nextDialogs": [
        716581514
      ],
      "talkRole": {
        "type": "TALK_ROLE_NPC",
        "_id": "30130"
      },
      "talkContentTextMapHash": 2339335962,
      "talkAssetPath": "",
      "talkAssetPathAlter": "",
      "talkAudioName": "",
      "actionBefore": "",
      "actionWhile": "",
      "actionAfter": "",
      "optionIcon": "",
      "iconPath": ""
    },
    {
      "id": 716581514,
      "nextDialogs": [
        716581515
      ],
      "talkRole": {
        "type": "TALK_ROLE_NPC",
        "_id": "30130"
      },
      "talkContentTextMapHash": 973399242,
      "talkAssetPath": "",
      "talkAssetPathAlter": "",
      "talkAudioName": "",
      "actionBefore": "",
      "actionWhile": "",
      "actionAfter": "",
      "optionIcon": "",
      "iconPath": ""
    },
    {
      "id": 716581515,
      "nextDialogs": [
        716581516
      ],
      "talkRole": {
        "type": "TALK_ROLE_NPC",
        "_id": "30130"
      },
      "talkContentTextMapHash": 4152375810,
      "talkAssetPath": "",
      "talkAssetPathAlter": "",
      "talkAudioName": "",
      "actionBefore": "",
      "actionWhile": "",
      "actionAfter": "",
      "optionIcon": "",
      "iconPath": ""
    },
    {
      "id": 716581516,
      "nextDialogs": [
        716581517
      ],
      "talkRole": {
        "type": "TALK_ROLE_NPC",
        "_id": "30130"
      },
      "talkContentTextMapHash": 20720106,
      "talkAssetPath": "",
      "talkAssetPathAlter": "",
      "talkAudioName": "",
      "actionBefore": "",
      "actionWhile": "",
      "actionAfter": "",
      "optionIcon": "",
      "iconPath": ""
    },
    {
      "id": 716581517,
      "nextDialogs": [
        716581518
      ],
      "talkShowType": "TALK_SHOW_FORCE_SELECT",
      "talkRole": {
        "type": "TALK_ROLE_PLAYER",
        "_id": ""
      },
      "talkContentTextMapHash": 2476753850,
      "talkAssetPath": "",
      "talkAssetPathAlter": "",
      "talkAudioName": "",
      "actionBefore": "",
      "actionWhile": "",
      "actionAfter": "",
      "optionIcon": "",
      "iconPath": ""
    },
    {
      "id": 716581518,
      "nextDialogs": [
        716581519
      ],
      "talkRole": {
        "type": "TALK_ROLE_NPC",
        "_id": "30130"
      },
      "talkContentTextMapHash": 1836371954,
      "talkAssetPath": "",
      "talkAssetPathAlter": "",
      "talkAudioName": "",
      "actionBefore": "",
      "actionWhile": "",
      "actionAfter": "",
      "optionIcon": "",
      "iconPath": ""
    },
    {
      "id": 716581519,
      "nextDialogs": [
        716581520
      ],
      "talkRole": {
        "type": "TALK_ROLE_NPC",
        "_id": "30130"
      },
      "talkContentTextMapHash": 1748145866,
      "talkAssetPath": "",
      "talkAssetPathAlter": "",
      "talkAudioName": "",
      "actionBefore": "",
      "actionWhile": "",
      "actionAfter": "",
      "optionIcon": "",
      "iconPath": ""
    },
    {
      "id": 716581520,
      "nextDialogs": [
        716581521
      ],
      "talkRole": {
        "type": "TALK_ROLE_NPC",
        "_id": "30130"
      },
      "talkContentTextMapHash": 3568597746,
      "talkAssetPath": "",
      "talkAssetPathAlter": "",
      "talkAudioName": "",
      "actionBefore": "",
      "actionWhile": "",
      "actionAfter": "",
      "optionIcon": "",
      "iconPath": ""
    },
    {
      "id": 716581521,
      "nextDialogs": [
        716581522
      ],
      "talkRole": {
        "type": "TALK_ROLE_NPC",
        "_id": "30130"
      },
      "talkContentTextMapHash": 3705384466,
      "talkAssetPath": "",
      "talkAssetPathAlter": "",
      "talkAudioName": "",
      "actionBefore": "",
      "actionWhile": "",
      "actionAfter": "",
      "optionIcon": "",
      "iconPath": ""
    },
    {
      "id": 716581522,
      "nextDialogs": [
        716581523
      ],
      "talkShowType": "TALK_SHOW_FORCE_SELECT",
      "talkRole": {
        "type": "TALK_ROLE_PLAYER",
        "_id": ""
      },
      "talkContentTextMapHash": 1422756922,
      "talkAssetPath": "",
      "talkAssetPathAlter": "",
      "talkAudioName": "",
      "actionBefore": "",
      "actionWhile": "",
      "actionAfter": "",
      "optionIcon": "",
      "iconPath": ""
    },
    {
      "id": 716581523,
      "nextDialogs": [
        716581524
      ],
      "talkRole": {
        "type": "TALK_ROLE_NPC",
        "_id": "30130"
      },
      "talkContentTextMapHash": 3988351402,
      "talkAssetPath": "",
      "talkAssetPathAlter": "",
      "talkAudioName": "",
      "actionBefore": "",
      "actionWhile": "",
      "actionAfter": "",
      "optionIcon": "",
      "iconPath": ""
    },
    {
      "id": 716581524,
      "nextDialogs": [
        716581525
      ],
      "talkRole": {
        "type": "TALK_ROLE_NPC",
        "_id": "30130"
      },
      "talkContentTextMapHash": 4077264058,
      "talkAssetPath": "",
      "talkAssetPathAlter": "",
      "talkAudioName": "",
      "actionBefore": "",
      "actionWhile": "",
      "actionAfter": "",
      "optionIcon": "",
      "iconPath": ""
    },
    {
      "id": 716581525,
      "talkRole": {
        "type": "TALK_ROLE_NPC",
        "_id": "30130"
      },
      "talkContentTextMapHash": 3081839506,
      "talkAssetPath": "",
      "talkAssetPathAlter": "",
      "talkAudioName": "",
      "actionBefore": "",
      "actionWhile": "",
      "actionAfter": "",
      "optionIcon": "",
      "iconPath": ""
    }
  ]
}