{
  "talkId": 7180901,
  "KPGKDHAFHFE": "FREE",
  "dialogList": [
    {
      "id": 718090101,
      "nextDialogs": [
        718090102
      ],
      "talkRole": {
        "type": "TALK_ROLE_NPC",
        "_id": "2205"
      },
      "talkContentTextMapHash": 2956837666,
      "talkAssetPath": "",
      "talkAssetPathAlter": "",
      "talkAudioName": "",
      "actionBefore": "",
      "actionWhile": "",
      "actionAfter": "",
      "optionIcon": "",
      "iconPath": ""
    },
    {
      "id": 718090102,
      "nextDialogs": [
        718090103
      ],
      "talkShowType": "TALK_SHOW_FORCE_SELECT",
      "talkRole": {
        "type": "TALK_ROLE_PLAYER",
        "_id": ""
      },
      "talkContentTextMapHash": 1545477098,
      "talkAssetPath": "",
      "talkAssetPathAlter": "",
      "talkAudioName": "",
      "actionBefore": "",
      "actionWhile": "",
      "actionAfter": "",
      "optionIcon": "",
      "iconPath": ""
    },
    {
      "id": 718090103,
      "nextDialogs": [
        718090104
      ],
      "talkRole": {
        "type": "TALK_ROLE_NPC",
        "_id": "2205"
      },
      "talkContentTextMapHash": 680561154,
      "talkAssetPath": "",
      "talkAssetPathAlter": "",
      "talkAudioName": "",
      "actionBefore": "",
      "actionWhile": "",
      "actionAfter": "",
      "optionIcon": "",
      "iconPath": ""
    },
    {
      "id": 718090104,
      "nextDialogs": [
        718090105
      ],
      "talkRole": {
        "type": "TALK_ROLE_NPC",
        "_id": "2205"
      },
      "talkContentTextMapHash": 2078376490,
      "talkAssetPath": "",
      "talkAssetPathAlter": "",
      "talkAudioName": "",
      "actionBefore": "",
      "actionWhile": "",
      "actionAfter": "",
      "optionIcon": "",
      "iconPath": ""
    },
    {
      "id": 718090105,
      "nextDialogs": [
        718090106
      ],
      "talkShowType": "TALK_SHOW_FORCE_SELECT",
      "talkRole": {
        "type": "TALK_ROLE_PLAYER",
        "_id": ""
      },
      "talkContentTextMapHash": 3698642698,
      "talkAssetPath": "",
      "talkAssetPathAlter": "",
      "talkAudioName": "",
      "actionBefore": "",
      "actionWhile": "",
      "actionAfter": "",
      "optionIcon": "",
      "iconPath": ""
    },
    {
      "id": 718090106,
      "nextDialogs": [
        718090107
      ],
      "talkRole": {
        "type": "TALK_ROLE_NPC",
        "_id": "2205"
      },
      "talkContentTextMapHash": 2708385386,
      "talkAssetPath": "",
      "talkAssetPathAlter": "",
      "talkAudioName": "",
      "actionBefore": "",
      "actionWhile": "",
      "actionAfter": "",
      "optionIcon": "",
      "iconPath": ""
    },
    {
      "id": 718090107,
      "nextDialogs": [
        718090108
      ],
      "talkRole": {
        "type": "TALK_ROLE_NPC",
        "_id": "2205"
      },
      "talkContentTextMapHash": 520014050,
      "talkAssetPath": "",
      "talkAssetPathAlter": "",
      "talkAudioName": "",
      "actionBefore": "",
      "actionWhile": "",
      "actionAfter": "",
      "optionIcon": "",
      "iconPath": ""
    },
    {
      "id": 718090108,
      "nextDialogs": [
        718090109
      ],
      "talkShowType": "TALK_SHOW_FORCE_SELECT",
      "talkRole": {
        "type": "TALK_ROLE_PLAYER",
        "_id": ""
      },
      "talkContentTextMapHash": 555987506,
      "talkAssetPath": "",
      "talkAssetPathAlter": "",
      "talkAudioName": "",
      "actionBefore": "",
      "actionWhile": "",
      "actionAfter": "",
      "optionIcon": "",
      "iconPath": ""
    },
    {
      "id": 718090109,
      "nextDialogs": [
        718090110
      ],
      "talkRole": {
        "type": "TALK_ROLE_NPC",
        "_id": "2205"
      },
      "talkContentTextMapHash": 2773428218,
      "talkAssetPath": "",
      "talkAssetPathAlter": "",
      "talkAudioName": "",
      "actionBefore": "",
      "actionWhile": "",
      "actionAfter": "",
      "optionIcon": "",
      "iconPath": ""
    },
    {
      "id": 718090110,
      "nextDialogs": [
        718090111
      ],
      "talkRole": {
        "type": "TALK_ROLE_NPC",
        "_id": "2205"
      },
      "talkContentTextMapHash": 1067328602,
      "talkAssetPath": "",
      "talkAssetPathAlter": "",
      "talkAudioName": "",
      "actionBefore": "",
      "actionWhile": "",
      "actionAfter": "",
      "optionIcon": "",
      "iconPath": ""
    },
    {
      "id": 718090111,
      "nextDialogs": [
        718090112
      ],
      "talkRole": {
        "type": "TALK_ROLE_NPC",
        "_id": "2205"
      },
      "talkContentTextMapHash": 802972506,
      "talkAssetPath": "",
      "talkAssetPathAlter": "",
      "talkAudioName": "",
      "actionBefore": "",
      "actionWhile": "",
      "actionAfter": "",
      "optionIcon": "",
      "iconPath": ""
    },
    {
      "id": 718090112,
      "nextDialogs": [
        718090113
      ],
      "talkRole": {
        "type": "TALK_ROLE_NPC",
        "_id": "2205"
      },
      "talkContentTextMapHash": 4022059626,
      "talkAssetPath": "",
      "talkAssetPathAlter": "",
      "talkAudioName": "",
      "actionBefore": "",
      "actionWhile": "",
      "actionAfter": "",
      "optionIcon": "",
      "iconPath": ""
    },
    {
      "id": 718090113,
      "talkRole": {
        "type": "TALK_ROLE_NPC",
        "_id": "2205"
      },
      "talkContentTextMapHash": 2740640010,
      "talkAssetPath": "",
      "talkAssetPathAlter": "",
      "talkAudioName": "",
      "actionBefore": "",
      "actionWhile": "",
      "actionAfter": "",
      "optionIcon": "",
      "iconPath": ""
    }
  ]
}