{
  "talkId": 7181103,
  "KPGKDHAFHFE": "FREE",
  "dialogList": [
    {
      "id": 718110301,
      "nextDialogs": [
        718110302
      ],
      "talkShowType": "TALK_SHOW_FORCE_SELECT",
      "talkRole": {
        "type": "TALK_ROLE_PLAYER",
        "_id": ""
      },
      "talkContentTextMapHash": 3683622946,
      "talkAssetPath": "",
      "talkAssetPathAlter": "",
      "talkAudioName": "",
      "actionBefore": "",
      "actionWhile": "",
      "actionAfter": "",
      "optionIcon": "",
      "iconPath": ""
    },
    {
      "id": 718110302,
      "nextDialogs": [
        718110303
      ],
      "talkRole": {
        "type": "TALK_ROLE_NPC",
        "_id": "1627"
      },
      "talkContentTextMapHash": 70260290,
      "talkAssetPath": "",
      "talkAssetPathAlter": "",
      "talkAudioName": "",
      "actionBefore": "",
      "actionWhile": "",
      "actionAfter": "",
      "optionIcon": "",
      "iconPath": ""
    },
    {
      "id": 718110303,
      "nextDialogs": [
        718110304
      ],
      "talkRole": {
        "type": "TALK_ROLE_NPC",
        "_id": "1627"
      },
      "talkContentTextMapHash": 462381218,
      "talkAssetPath": "",
      "talkAssetPathAlter": "",
      "talkAudioName": "",
      "actionBefore": "",
      "actionWhile": "",
      "actionAfter": "",
      "optionIcon": "",
      "iconPath": ""
    },
    {
      "id": 718110304,
      "nextDialogs": [
        718110305
      ],
      "talkRole": {
        "type": "TALK_ROLE_NPC",
        "_id": "1627"
      },
      "talkContentTextMapHash": 147506338,
      "talkAssetPath": "",
      "talkAssetPathAlter": "",
      "talkAudioName": "",
      "actionBefore": "",
      "actionWhile": "",
      "actionAfter": "",
      "optionIcon": "",
      "iconPath": ""
    },
    {
      "id": 718110305,
      "talkRole": {
        "type": "TALK_ROLE_NPC",
        "_id": "1627"
      },
      "talkContentTextMapHash": 3408458906,
      "talkAssetPath": "",
      "talkAssetPathAlter": "",
      "talkAudioName": "",
      "actionBefore": "",
      "actionWhile": "",
      "actionAfter": "",
      "optionIcon": "",
      "iconPath": ""
    }
  ]
}