{
  "talkId": 7190801,
  "KPGKDHAFHFE": "FREE",
  "dialogList": [
    {
      "id": 719080101,
      "nextDialogs": [
        719080102
      ],
      "talkShowType": "TALK_SHOW_FORCE_SELECT",
      "talkRole": {
        "type": "TALK_ROLE_PLAYER",
        "_id": ""
      },
      "talkContentTextMapHash": 3488388114,
      "talkAssetPath": "",
      "talkAssetPathAlter": "",
      "talkAudioName": "",
      "actionBefore": "",
      "actionWhile": "",
      "actionAfter": "",
      "optionIcon": "UI_Icon_Intee_TreasureBox",
      "iconPath": ""
    },
    {
      "id": 719080102,
      "nextDialogs": [
        719080103
      ],
      "talkRole": {
        "type": "TALK_ROLE_NPC",
        "_id": "2475"
      },
      "talkContentTextMapHash": 2498139506,
      "talkAssetPath": "",
      "talkAssetPathAlter": "",
      "talkAudioName": "",
      "actionBefore": "",
      "actionWhile": "SimpleTalk/RandomTalk",
      "actionAfter": "",
      "optionIcon": "",
      "iconPath": ""
    },
    {
      "id": 719080103,
      "nextDialogs": [
        719080104
      ],
      "talkRole": {
        "type": "TALK_ROLE_NPC",
        "_id": "2475"
      },
      "talkContentTextMapHash": 170452818,
      "talkAssetPath": "",
      "talkAssetPathAlter": "",
      "talkAudioName": "",
      "actionBefore": "",
      "actionWhile": "SimpleTalk/RandomTalk",
      "actionAfter": "",
      "optionIcon": "",
      "iconPath": ""
    },
    {
      "id": 719080104,
      "talkRole": {
        "type": "TALK_ROLE_NPC",
        "_id": "2475"
      },
      "talkContentTextMapHash": 3675386306,
      "talkAssetPath": "",
      "talkAssetPathAlter": "",
      "talkAudioName": "",
      "actionBefore": "",
      "actionWhile": "",
      "actionAfter": "",
      "optionIcon": "",
      "iconPath": ""
    }
  ]
}