{
  "talkId": 7190401,
  "KPGKDHAFHFE": "FREE",
  "dialogList": [
    {
      "id": 719040101,
      "nextDialogs": [
        719040102
      ],
      "talkShowType": "TALK_SHOW_FORCE_SELECT",
      "talkRole": {
        "type": "TALK_ROLE_PLAYER",
        "_id": ""
      },
      "talkContentTextMapHash": 1557673650,
      "talkAssetPath": "",
      "talkAssetPathAlter": "",
      "talkAudioName": "",
      "actionBefore": "",
      "actionWhile": "",
      "actionAfter": "",
      "optionIcon": "UI_Icon_Intee_TreasureBox",
      "iconPath": ""
    },
    {
      "id": 719040102,
      "nextDialogs": [
        719040103
      ],
      "talkRole": {
        "type": "TALK_ROLE_NPC",
        "_id": "2039"
      },
      "talkContentTextMapHash": 836861826,
      "talkAssetPath": "",
      "talkAssetPathAlter": "",
      "talkAudioName": "",
      "actionBefore": "",
      "actionWhile": "",
      "actionAfter": "",
      "optionIcon": "",
      "iconPath": ""
    },
    {
      "id": 719040103,
      "nextDialogs": [
        719040104
      ],
      "talkRole": {
        "type": "TALK_ROLE_NPC",
        "_id": "2039"
      },
      "talkContentTextMapHash": 768419418,
      "talkAssetPath": "",
      "talkAssetPathAlter": "",
      "talkAudioName": "",
      "actionBefore": "",
      "actionWhile": "",
      "actionAfter": "",
      "optionIcon": "",
      "iconPath": ""
    },
    {
      "id": 719040104,
      "nextDialogs": [
        719040105
      ],
      "talkRole": {
        "type": "TALK_ROLE_NPC",
        "_id": "2039"
      },
      "talkContentTextMapHash": 3792110146,
      "talkAssetPath": "",
      "talkAssetPathAlter": "",
      "talkAudioName": "",
      "actionBefore": "",
      "actionWhile": "",
      "actionAfter": "",
      "optionIcon": "",
      "iconPath": ""
    },
    {
      "id": 719040105,
      "talkRole": {
        "type": "TALK_ROLE_NPC",
        "_id": "2039"
      },
      "talkContentTextMapHash": 1455402650,
      "talkAssetPath": "",
      "talkAssetPathAlter": "",
      "talkAudioName": "",
      "actionBefore": "",
      "actionWhile": "",
      "actionAfter": "",
      "optionIcon": "",
      "iconPath": ""
    }
  ]
}