{
  "talkId": 7192001,
  "KPGKDHAFHFE": "FREE",
  "dialogList": [
    {
      "id": 719200101,
      "nextDialogs": [
        719200102
      ],
      "talkShowType": "TALK_SHOW_FORCE_SELECT",
      "talkRole": {
        "type": "TALK_ROLE_PLAYER",
        "_id": ""
      },
      "talkContentTextMapHash": 27698842,
      "talkAssetPath": "",
      "talkAssetPathAlter": "",
      "talkAudioName": "",
      "actionBefore": "",
      "actionWhile": "",
      "actionAfter": "",
      "optionIcon": "UI_Icon_Intee_TreasureBox",
      "iconPath": ""
    },
    {
      "id": 719200102,
      "nextDialogs": [
        719200103
      ],
      "talkRole": {
        "type": "TALK_ROLE_NPC",
        "_id": "2306"
      },
      "talkContentTextMapHash": 588426242,
      "talkAssetPath": "",
      "talkAssetPathAlter": "",
      "talkAudioName": "",
      "actionBefore": "",
      "actionWhile": "",
      "actionAfter": "",
      "optionIcon": "",
      "iconPath": ""
    },
    {
      "id": 719200103,
      "nextDialogs": [
        719200104
      ],
      "talkRole": {
        "type": "TALK_ROLE_NPC",
        "_id": "2306"
      },
      "talkContentTextMapHash": 273398538,
      "talkAssetPath": "",
      "talkAssetPathAlter": "",
      "talkAudioName": "",
      "actionBefore": "",
      "actionWhile": "",
      "actionAfter": "",
      "optionIcon": "",
      "iconPath": ""
    },
    {
      "id": 719200104,
      "nextDialogs": [
        719200105
      ],
      "talkRole": {
        "type": "TALK_ROLE_NPC",
        "_id": "2306"
      },
      "talkContentTextMapHash": 239070402,
      "talkAssetPath": "",
      "talkAssetPathAlter": "",
      "talkAudioName": "",
      "actionBefore": "",
      "actionWhile": "",
      "actionAfter": "",
      "optionIcon": "",
      "iconPath": ""
    },
    {
      "id": 719200105,
      "nextDialogs": [
        719200106
      ],
      "talkRole": {
        "type": "TALK_ROLE_NPC",
        "_id": "2306"
      },
      "talkContentTextMapHash": 120230602,
      "talkAssetPath": "",
      "talkAssetPathAlter": "",
      "talkAudioName": "",
      "actionBefore": "",
      "actionWhile": "",
      "actionAfter": "",
      "optionIcon": "",
      "iconPath": ""
    },
    {
      "id": 719200106,
      "talkRole": {
        "type": "TALK_ROLE_NPC",
        "_id": "2306"
      },
      "talkContentTextMapHash": 1238973290,
      "talkAssetPath": "",
      "talkAssetPathAlter": "",
      "talkAudioName": "",
      "actionBefore": "",
      "actionWhile": "",
      "actionAfter": "",
      "optionIcon": "",
      "iconPath": ""
    }
  ]
}