{
  "talkId": 7195201,
  "KPGKDHAFHFE": "FREE",
  "dialogList": [
    {
      "id": 719520101,
      "nextDialogs": [
        719520102
      ],
      "talkShowType": "TALK_SHOW_FORCE_SELECT",
      "talkRole": {
        "type": "TALK_ROLE_PLAYER",
        "_id": ""
      },
      "talkContentTextMapHash": 1193703778,
      "talkAssetPath": "",
      "talkAssetPathAlter": "",
      "talkAudioName": "",
      "actionBefore": "",
      "actionWhile": "",
      "actionAfter": "",
      "optionIcon": "UI_Icon_Intee_TreasureBox",
      "iconPath": ""
    },
    {
      "id": 719520102,
      "nextDialogs": [
        719520103
      ],
      "talkRole": {
        "type": "TALK_ROLE_NPC",
        "_id": "1624"
      },
      "talkContentTextMapHash": 130075034,
      "talkAssetPath": "",
      "talkAssetPathAlter": "",
      "talkAudioName": "",
      "actionBefore": "",
      "actionWhile": "",
      "actionAfter": "",
      "optionIcon": "",
      "iconPath": ""
    },
    {
      "id": 719520103,
      "nextDialogs": [
        719520104
      ],
      "talkRole": {
        "type": "TALK_ROLE_NPC",
        "_id": "1624"
      },
      "talkContentTextMapHash": 2461328634,
      "talkAssetPath": "",
      "talkAssetPathAlter": "",
      "talkAudioName": "",
      "actionBefore": "",
      "actionWhile": "",
      "actionAfter": "",
      "optionIcon": "",
      "iconPath": ""
    },
    {
      "id": 719520104,
      "talkRole": {
        "type": "TALK_ROLE_NPC",
        "_id": "1624"
      },
      "talkContentTextMapHash": 2429150578,
      "talkAssetPath": "",
      "talkAssetPathAlter": "",
      "talkAudioName": "",
      "actionBefore": "",
      "actionWhile": "",
      "actionAfter": "",
      "optionIcon": "",
      "iconPath": ""
    }
  ]
}