{
  "talkId": 7195601,
  "KPGKDHAFHFE": "FREE",
  "dialogList": [
    {
      "id": 719560101,
      "nextDialogs": [
        719560102
      ],
      "talkShowType": "TALK_SHOW_FORCE_SELECT",
      "talkRole": {
        "type": "TALK_ROLE_PLAYER",
        "_id": ""
      },
      "talkContentTextMapHash": 673111434,
      "talkAssetPath": "",
      "talkAssetPathAlter": "",
      "talkAudioName": "",
      "actionBefore": "",
      "actionWhile": "",
      "actionAfter": "SimpleTalk/SteerOnly",
      "optionIcon": "UI_Icon_Intee_TreasureBox",
      "iconPath": ""
    },
    {
      "id": 719560102,
      "nextDialogs": [
        719560103
      ],
      "talkRole": {
        "type": "TALK_ROLE_NPC",
        "_id": "2259"
      },
      "talkContentTextMapHash": 2224628130,
      "talkAssetPath": "",
      "talkAssetPathAlter": "",
      "talkAudioName": "",
      "actionBefore": "",
      "actionWhile": "SimpleTalk/Greet",
      "actionAfter": "",
      "optionIcon": "",
      "iconPath": ""
    },
    {
      "id": 719560103,
      "nextDialogs": [
        719560104
      ],
      "talkRole": {
        "type": "TALK_ROLE_NPC",
        "_id": "2259"
      },
      "talkContentTextMapHash": 1517232090,
      "talkAssetPath": "",
      "talkAssetPathAlter": "",
      "talkAudioName": "",
      "actionBefore": "",
      "actionWhile": "SimpleTalk/RandomTalk",
      "actionAfter": "",
      "optionIcon": "",
      "iconPath": ""
    },
    {
      "id": 719560104,
      "nextDialogs": [
        719560105
      ],
      "talkRole": {
        "type": "TALK_ROLE_NPC",
        "_id": "2259"
      },
      "talkContentTextMapHash": 1852462290,
      "talkAssetPath": "",
      "talkAssetPathAlter": "",
      "talkAudioName": "",
      "actionBefore": "",
      "actionWhile": "",
      "actionAfter": "",
      "optionIcon": "",
      "iconPath": ""
    },
    {
      "id": 719560105,
      "talkRole": {
        "type": "TALK_ROLE_NPC",
        "_id": "2259"
      },
      "talkContentTextMapHash": 839430210,
      "talkAssetPath": "",
      "talkAssetPathAlter": "",
      "talkAudioName": "",
      "actionBefore": "",
      "actionWhile": "SimpleTalk/RandomTalk",
      "actionAfter": "",
      "optionIcon": "",
      "iconPath": ""
    }
  ]
}