{
  "talkId": 7195001,
  "KPGKDHAFHFE": "FREE",
  "dialogList": [
    {
      "id": 719500101,
      "nextDialogs": [
        719500102
      ],
      "talkShowType": "TALK_SHOW_FORCE_SELECT",
      "talkRole": {
        "type": "TALK_ROLE_PLAYER",
        "_id": ""
      },
      "talkContentTextMapHash": 937898514,
      "talkAssetPath": "",
      "talkAssetPathAlter": "",
      "talkAudioName": "",
      "actionBefore": "",
      "actionWhile": "",
      "actionAfter": "",
      "optionIcon": "UI_Icon_Intee_TreasureBox",
      "iconPath": ""
    },
    {
      "id": 719500102,
      "nextDialogs": [
        719500103
      ],
      "talkRole": {
        "type": "TALK_ROLE_NPC",
        "_id": "2142"
      },
      "talkContentTextMapHash": 1301016474,
      "talkAssetPath": "",
      "talkAssetPathAlter": "",
      "talkAudioName": "",
      "actionBefore": "",
      "actionWhile": "",
      "actionAfter": "",
      "optionIcon": "",
      "iconPath": ""
    },
    {
      "id": 719500103,
      "nextDialogs": [
        719500104
      ],
      "talkRole": {
        "type": "TALK_ROLE_NPC",
        "_id": "2142"
      },
      "talkContentTextMapHash": 2918130362,
      "talkAssetPath": "",
      "talkAssetPathAlter": "",
      "talkAudioName": "",
      "actionBefore": "",
      "actionWhile": "",
      "actionAfter": "",
      "optionIcon": "",
      "iconPath": ""
    },
    {
      "id": 719500104,
      "nextDialogs": [
        719500105
      ],
      "talkRole": {
        "type": "TALK_ROLE_NPC",
        "_id": "2142"
      },
      "talkContentTextMapHash": 2832293594,
      "talkAssetPath": "",
      "talkAssetPathAlter": "",
      "talkAudioName": "",
      "actionBefore": "",
      "actionWhile": "",
      "actionAfter": "",
      "optionIcon": "",
      "iconPath": ""
    },
    {
      "id": 719500105,
      "talkRole": {
        "type": "TALK_ROLE_NPC",
        "_id": "2142"
      },
      "talkContentTextMapHash": 3481567858,
      "talkAssetPath": "",
      "talkAssetPathAlter": "",
      "talkAudioName": "",
      "actionBefore": "",
      "actionWhile": "",
      "actionAfter": "",
      "optionIcon": "",
      "iconPath": ""
    }
  ]
}