{
  "talkId": 7200401,
  "KPGKDHAFHFE": "FREE",
  "dialogList": [
    {
      "id": 720040101,
      "talkRole": {
        "type": "TALK_ROLE_NPC",
        "_id": "2004"
      },
      "talkContentTextMapHash": 1616379278,
      "talkAssetPath": "",
      "talkAssetPathAlter": "",
      "talkAudioName": "",
      "actionBefore": "",
      "actionWhile": "TEST/LerpInNpc",
      "actionAfter": "",
      "optionIcon": "",
      "iconPath": ""
    }
  ]
}