{
  "talkId": 7201501,
  "KPGKDHAFHFE": "FREE",
  "dialogList": [
    {
      "id": 720150101,
      "nextDialogs": [
        720150102
      ],
      "talkRole": {
        "type": "TALK_ROLE_NPC",
        "_id": "2015"
      },
      "talkContentTextMapHash": 2266557606,
      "talkAssetPath": "",
      "talkAssetPathAlter": "",
      "talkAudioName": "",
      "actionBefore": "",
      "actionWhile": "TEST/LerpInNpcNoSteer",
      "actionAfter": "",
      "optionIcon": "",
      "iconPath": ""
    },
    {
      "id": 720150102,
      "nextDialogs": [
        720150103
      ],
      "talkRole": {
        "type": "TALK_ROLE_NPC",
        "_id": "2001"
      },
      "talkContentTextMapHash": 3744085934,
      "talkAssetPath": "",
      "talkAssetPathAlter": "",
      "talkAudioName": "",
      "actionBefore": "",
      "actionWhile": "",
      "actionAfter": "",
      "optionIcon": "",
      "iconPath": ""
    },
    {
      "id": 720150103,
      "nextDialogs": [
        720150104
      ],
      "talkRole": {
        "type": "TALK_ROLE_NPC",
        "_id": "2015"
      },
      "talkContentTextMapHash": 1752957150,
      "talkAssetPath": "",
      "talkAssetPathAlter": "",
      "talkAudioName": "",
      "actionBefore": "",
      "actionWhile": "",
      "actionAfter": "",
      "optionIcon": "",
      "iconPath": ""
    },
    {
      "id": 720150104,
      "nextDialogs": [
        720150105
      ],
      "talkRole": {
        "type": "TALK_ROLE_NPC",
        "_id": "2001"
      },
      "talkContentTextMapHash": 3584449574,
      "talkAssetPath": "",
      "talkAssetPathAlter": "",
      "talkAudioName": "",
      "actionBefore": "",
      "actionWhile": "",
      "actionAfter": "",
      "optionIcon": "",
      "iconPath": ""
    },
    {
      "id": 720150105,
      "nextDialogs": [
        720150106
      ],
      "talkRole": {
        "type": "TALK_ROLE_NPC",
        "_id": "2015"
      },
      "talkContentTextMapHash": 2127306382,
      "talkAssetPath": "",
      "talkAssetPathAlter": "",
      "talkAudioName": "",
      "actionBefore": "",
      "actionWhile": "",
      "actionAfter": "",
      "optionIcon": "",
      "iconPath": ""
    },
    {
      "id": 720150106,
      "nextDialogs": [
        720150107
      ],
      "talkRole": {
        "type": "TALK_ROLE_NPC",
        "_id": "2001"
      },
      "talkContentTextMapHash": 690373374,
      "talkAssetPath": "",
      "talkAssetPathAlter": "",
      "talkAudioName": "",
      "actionBefore": "",
      "actionWhile": "",
      "actionAfter": "",
      "optionIcon": "",
      "iconPath": ""
    },
    {
      "id": 720150107,
      "nextDialogs": [
        720150108
      ],
      "talkRole": {
        "type": "TALK_ROLE_NPC",
        "_id": "2015"
      },
      "talkContentTextMapHash": 1476961822,
      "talkAssetPath": "",
      "talkAssetPathAlter": "",
      "talkAudioName": "",
      "actionBefore": "",
      "actionWhile": "",
      "actionAfter": "",
      "optionIcon": "",
      "iconPath": ""
    },
    {
      "id": 720150108,
      "nextDialogs": [
        720150109
      ],
      "talkRole": {
        "type": "TALK_ROLE_NPC",
        "_id": "2001"
      },
      "talkContentTextMapHash": 43377702,
      "talkAssetPath": "",
      "talkAssetPathAlter": "",
      "talkAudioName": "",
      "actionBefore": "",
      "actionWhile": "",
      "actionAfter": "",
      "optionIcon": "",
      "iconPath": ""
    },
    {
      "id": 720150109,
      "talkRole": {
        "type": "TALK_ROLE_NPC",
        "_id": "2015"
      },
      "talkContentTextMapHash": 667414214,
      "talkAssetPath": "",
      "talkAssetPathAlter": "",
      "talkAudioName": "",
      "actionBefore": "",
      "actionWhile": "",
      "actionAfter": "TEST/LerpOutNpcNoSteer",
      "optionIcon": "",
      "iconPath": ""
    }
  ]
}