{
  "talkId": 7218401,
  "KPGKDHAFHFE": "FREE",
  "dialogList": [
    {
      "id": 721840101,
      "nextDialogs": [
        721840102
      ],
      "talkRole": {
        "type": "TALK_ROLE_NPC",
        "_id": "3044"
      },
      "talkContentTextMapHash": 849176650,
      "talkAssetPath": "",
      "talkAssetPathAlter": "",
      "talkAudioName": "",
      "actionBefore": "",
      "actionWhile": "SimpleTalk/Downcast_Start",
      "actionAfter": "",
      "optionIcon": "",
      "iconPath": ""
    },
    {
      "id": 721840102,
      "nextDialogs": [
        721840103
      ],
      "talkShowType": "TALK_SHOW_FORCE_SELECT",
      "talkRole": {
        "type": "TALK_ROLE_PLAYER",
        "_id": ""
      },
      "talkContentTextMapHash": 1066966330,
      "talkAssetPath": "",
      "talkAssetPathAlter": "",
      "talkAudioName": "",
      "actionBefore": "",
      "actionWhile": "",
      "actionAfter": "",
      "optionIcon": "",
      "iconPath": ""
    },
    {
      "id": 721840103,
      "nextDialogs": [
        721840104
      ],
      "talkRole": {
        "type": "TALK_ROLE_NPC",
        "_id": "3044"
      },
      "talkContentTextMapHash": 642123370,
      "talkAssetPath": "",
      "talkAssetPathAlter": "",
      "talkAudioName": "",
      "actionBefore": "",
      "actionWhile": "SimpleTalk/Greet",
      "actionAfter": "",
      "optionIcon": "",
      "iconPath": ""
    },
    {
      "id": 721840104,
      "nextDialogs": [
        721840105
      ],
      "talkRole": {
        "type": "TALK_ROLE_NPC",
        "_id": "3044"
      },
      "talkContentTextMapHash": 3406006882,
      "talkAssetPath": "",
      "talkAssetPathAlter": "",
      "talkAudioName": "",
      "actionBefore": "",
      "actionWhile": "",
      "actionAfter": "",
      "optionIcon": "",
      "iconPath": ""
    },
    {
      "id": 721840105,
      "nextDialogs": [
        721840106
      ],
      "talkRole": {
        "type": "TALK_ROLE_NPC",
        "_id": "3044"
      },
      "talkContentTextMapHash": 102432250,
      "talkAssetPath": "",
      "talkAssetPathAlter": "",
      "talkAudioName": "",
      "actionBefore": "",
      "actionWhile": "SimpleTalk/RandomTalk",
      "actionAfter": "",
      "optionIcon": "",
      "iconPath": ""
    },
    {
      "id": 721840106,
      "nextDialogs": [
        721840107
      ],
      "talkRole": {
        "type": "TALK_ROLE_NPC",
        "_id": "3044"
      },
      "talkContentTextMapHash": 2652651778,
      "talkAssetPath": "",
      "talkAssetPathAlter": "",
      "talkAudioName": "",
      "actionBefore": "",
      "actionWhile": "",
      "actionAfter": "",
      "optionIcon": "",
      "iconPath": ""
    },
    {
      "id": 721840107,
      "nextDialogs": [
        721840108
      ],
      "talkRole": {
        "type": "TALK_ROLE_NPC",
        "_id": "3044"
      },
      "talkContentTextMapHash": 1752712890,
      "talkAssetPath": "",
      "talkAssetPathAlter": "",
      "talkAudioName": "",
      "actionBefore": "",
      "actionWhile": "",
      "actionAfter": "",
      "optionIcon": "",
      "iconPath": ""
    },
    {
      "id": 721840108,
      "nextDialogs": [
        721840109
      ],
      "talkRole": {
        "type": "TALK_ROLE_NPC",
        "_id": "3044"
      },
      "talkContentTextMapHash": 4101233762,
      "talkAssetPath": "",
      "talkAssetPathAlter": "",
      "talkAudioName": "",
      "actionBefore": "",
      "actionWhile": "SimpleTalk/Shrug",
      "actionAfter": "",
      "optionIcon": "",
      "iconPath": ""
    },
    {
      "id": 721840109,
      "nextDialogs": [
        721840110
      ],
      "talkRole": {
        "type": "TALK_ROLE_NPC",
        "_id": "3044"
      },
      "talkContentTextMapHash": 674723602,
      "talkAssetPath": "",
      "talkAssetPathAlter": "",
      "talkAudioName": "",
      "actionBefore": "",
      "actionWhile": "SimpleTalk/Downcast",
      "actionAfter": "",
      "optionIcon": "",
      "iconPath": ""
    },
    {
      "id": 721840110,
      "nextDialogs": [
        721840111,
        721840113
      ],
      "talkRole": {
        "type": "TALK_ROLE_NPC",
        "_id": "3044"
      },
      "talkContentTextMapHash": 964658346,
      "talkAssetPath": "",
      "talkAssetPathAlter": "",
      "talkAudioName": "",
      "actionBefore": "",
      "actionWhile": "SimpleTalk/Standby",
      "actionAfter": "",
      "optionIcon": "",
      "iconPath": ""
    },
    {
      "id": 721840111,
      "nextDialogs": [
        721840112
      ],
      "talkRole": {
        "type": "TALK_ROLE_PLAYER",
        "_id": ""
      },
      "talkContentTextMapHash": 2841427306,
      "talkAssetPath": "",
      "talkAssetPathAlter": "",
      "talkAudioName": "",
      "actionBefore": "",
      "actionWhile": "",
      "actionAfter": "",
      "optionIcon": "",
      "iconPath": ""
    },
    {
      "id": 721840112,
      "nextDialogs": [
        721840116
      ],
      "talkRole": {
        "type": "TALK_ROLE_NPC",
        "_id": "3044"
      },
      "talkContentTextMapHash": 3495609914,
      "talkAssetPath": "",
      "talkAssetPathAlter": "",
      "talkAudioName": "",
      "actionBefore": "",
      "actionWhile": "SimpleTalk/Forerke",
      "actionAfter": "",
      "optionIcon": "",
      "iconPath": ""
    },
    {
      "id": 721840116,
      "nextDialogs": [
        721840117
      ],
      "talkRole": {
        "type": "TALK_ROLE_NPC",
        "_id": "3044"
      },
      "talkContentTextMapHash": 1078512130,
      "talkAssetPath": "",
      "talkAssetPathAlter": "",
      "talkAudioName": "",
      "actionBefore": "",
      "actionWhile": "",
      "actionAfter": "",
      "optionIcon": "",
      "iconPath": ""
    },
    {
      "id": 721840117,
      "nextDialogs": [
        721840118
      ],
      "talkRole": {
        "type": "TALK_ROLE_NPC",
        "_id": "3044"
      },
      "talkContentTextMapHash": 1715307794,
      "talkAssetPath": "",
      "talkAssetPathAlter": "",
      "talkAudioName": "",
      "actionBefore": "",
      "actionWhile": "SimpleTalk/RandomTalk",
      "actionAfter": "",
      "optionIcon": "",
      "iconPath": ""
    },
    {
      "id": 721840118,
      "talkRole": {
        "type": "TALK_ROLE_NPC",
        "_id": "3044"
      },
      "talkContentTextMapHash": 1668234066,
      "talkAssetPath": "",
      "talkAssetPathAlter": "",
      "talkAudioName": "",
      "actionBefore": "",
      "actionWhile": "SimpleTalk/Standby",
      "actionAfter": "",
      "optionIcon": "",
      "iconPath": ""
    },
    {
      "id": 721840113,
      "nextDialogs": [
        721840114
      ],
      "talkRole": {
        "type": "TALK_ROLE_PLAYER",
        "_id": ""
      },
      "talkContentTextMapHash": 878068714,
      "talkAssetPath": "",
      "talkAssetPathAlter": "",
      "talkAudioName": "",
      "actionBefore": "",
      "actionWhile": "",
      "actionAfter": "",
      "optionIcon": "",
      "iconPath": ""
    },
    {
      "id": 721840114,
      "nextDialogs": [
        721840115
      ],
      "talkRole": {
        "type": "TALK_ROLE_NPC",
        "_id": "3044"
      },
      "talkContentTextMapHash": 2194445098,
      "talkAssetPath": "",
      "talkAssetPathAlter": "",
      "talkAudioName": "",
      "actionBefore": "",
      "actionWhile": "SimpleTalk/Forerke",
      "actionAfter": "",
      "optionIcon": "",
      "iconPath": ""
    },
    {
      "id": 721840115,
      "nextDialogs": [
        721840116
      ],
      "talkRole": {
        "type": "TALK_ROLE_NPC",
        "_id": "3044"
      },
      "talkContentTextMapHash": 89521386,
      "talkAssetPath": "",
      "talkAssetPathAlter": "",
      "talkAudioName": "",
      "actionBefore": "",
      "actionWhile": "SimpleTalk/RandomTalk",
      "actionAfter": "",
      "optionIcon": "",
      "iconPath": ""
    }
  ]
}