{
  "talkId": 7223706,
  "KPGKDHAFHFE": "FREE",
  "dialogList": [
    {
      "id": 722370601,
      "talkRole": {
        "type": "TALK_ROLE_NPC",
        "_id": "20479"
      },
      "talkContentTextMapHash": 1471580946,
      "talkAssetPath": "",
      "talkAssetPathAlter": "",
      "talkAudioName": "",
      "actionBefore": "",
      "actionWhile": "",
      "actionAfter": "",
      "optionIcon": "",
      "iconPath": ""
    }
  ]
}