{
  "talkId": 7223405,
  "KPGKDHAFHFE": "FREE",
  "dialogList": [
    {
      "id": 722340501,
      "nextDialogs": [
        722340502
      ],
      "talkRole": {
        "type": "TALK_ROLE_NPC",
        "_id": "20491"
      },
      "talkContentTextMapHash": 1995239458,
      "talkRoleNameTextMapHash": 1266661899,
      "talkAssetPath": "",
      "talkAssetPathAlter": "",
      "talkAudioName": "",
      "actionBefore": "",
      "actionWhile": "",
      "actionAfter": "",
      "optionIcon": "",
      "iconPath": ""
    },
    {
      "id": 722340502,
      "nextDialogs": [
        722340503
      ],
      "talkRole": {
        "type": "TALK_ROLE_NPC",
        "_id": "20491"
      },
      "talkContentTextMapHash": 2765501922,
      "talkRoleNameTextMapHash": 1476884923,
      "talkAssetPath": "",
      "talkAssetPathAlter": "",
      "talkAudioName": "",
      "actionBefore": "",
      "actionWhile": "",
      "actionAfter": "",
      "optionIcon": "",
      "iconPath": ""
    },
    {
      "id": 722340503,
      "talkRole": {
        "type": "TALK_ROLE_NPC",
        "_id": "20491"
      },
      "talkContentTextMapHash": 3579843962,
      "talkRoleNameTextMapHash": 4268866931,
      "talkAssetPath": "",
      "talkAssetPathAlter": "",
      "talkAudioName": "",
      "actionBefore": "",
      "actionWhile": "",
      "actionAfter": "",
      "optionIcon": "",
      "iconPath": ""
    }
  ]
}