{
  "talkId": 7265809,
  "KPGKDHAFHFE": "FREE",
  "dialogList": [
    {
      "id": 726580701,
      "nextDialogs": [
        726580702
      ],
      "talkShowType": "TALK_SHOW_FORCE_SELECT",
      "talkRole": {
        "type": "TALK_ROLE_PLAYER",
        "_id": ""
      },
      "talkContentTextMapHash": 2766294914,
      "talkAssetPath": "",
      "talkAssetPathAlter": "",
      "talkAudioName": "",
      "actionBefore": "",
      "actionWhile": "",
      "actionAfter": "",
      "optionIcon": "",
      "iconPath": ""
    },
    {
      "id": 726580702,
      "talkRole": {
        "type": "TALK_ROLE_NPC",
        "_id": "30083"
      },
      "talkContentTextMapHash": 3384077210,
      "talkAssetPath": "",
      "talkAssetPathAlter": "",
      "talkAudioName": "",
      "actionBefore": "",
      "actionWhile": "",
      "actionAfter": "",
      "optionIcon": "",
      "iconPath": ""
    }
  ]
}