{
  "talkId": 7265702,
  "KPGKDHAFHFE": "FREE",
  "dialogList": [
    {
      "id": 726570201,
      "nextDialogs": [
        726570202
      ],
      "talkRole": {
        "type": "TALK_ROLE_NPC",
        "_id": "3098"
      },
      "talkContentTextMapHash": 3711885354,
      "talkAssetPath": "",
      "talkAssetPathAlter": "",
      "talkAudioName": "",
      "actionBefore": "",
      "actionWhile": "",
      "actionAfter": "",
      "optionIcon": "",
      "iconPath": ""
    },
    {
      "id": 726570202,
      "nextDialogs": [
        726570203
      ],
      "talkRole": {
        "type": "TALK_ROLE_NPC",
        "_id": "3098"
      },
      "talkContentTextMapHash": 1129457306,
      "talkAssetPath": "",
      "talkAssetPathAlter": "",
      "talkAudioName": "",
      "actionBefore": "",
      "actionWhile": "",
      "actionAfter": "",
      "optionIcon": "",
      "iconPath": ""
    },
    {
      "id": 726570203,
      "nextDialogs": [
        726570204
      ],
      "talkRole": {
        "type": "TALK_ROLE_NPC",
        "_id": "3098"
      },
      "talkContentTextMapHash": 3825524762,
      "talkAssetPath": "",
      "talkAssetPathAlter": "",
      "talkAudioName": "",
      "actionBefore": "",
      "actionWhile": "",
      "actionAfter": "",
      "optionIcon": "",
      "iconPath": ""
    },
    {
      "id": 726570204,
      "nextDialogs": [
        726570205
      ],
      "talkRole": {
        "type": "TALK_ROLE_NPC",
        "_id": "3098"
      },
      "talkContentTextMapHash": 1626652794,
      "talkAssetPath": "",
      "talkAssetPathAlter": "",
      "talkAudioName": "",
      "actionBefore": "",
      "actionWhile": "",
      "actionAfter": "",
      "optionIcon": "",
      "iconPath": ""
    },
    {
      "id": 726570205,
      "nextDialogs": [
        726570206
      ],
      "talkRole": {
        "type": "TALK_ROLE_NPC",
        "_id": "3098"
      },
      "talkContentTextMapHash": 283859706,
      "talkAssetPath": "",
      "talkAssetPathAlter": "",
      "talkAudioName": "",
      "actionBefore": "",
      "actionWhile": "",
      "actionAfter": "",
      "optionIcon": "",
      "iconPath": ""
    },
    {
      "id": 726570206,
      "talkRole": {
        "type": "TALK_ROLE_NPC",
        "_id": "3098"
      },
      "talkContentTextMapHash": 1233292050,
      "talkAssetPath": "",
      "talkAssetPathAlter": "",
      "talkAudioName": "",
      "actionBefore": "",
      "actionWhile": "",
      "actionAfter": "",
      "optionIcon": "",
      "iconPath": ""
    }
  ]
}