{
  "talkId": 7265802,
  "KPGKDHAFHFE": "FREE",
  "dialogList": [
    {
      "id": 726580201,
      "talkRole": {
        "type": "TALK_ROLE_NPC",
        "_id": "30083"
      },
      "talkContentTextMapHash": 529684538,
      "talkAssetPath": "",
      "talkAssetPathAlter": "",
      "talkAudioName": "",
      "actionBefore": "",
      "actionWhile": "",
      "actionAfter": "",
      "optionIcon": "",
      "iconPath": ""
    }
  ]
}