{
  "talkId": 7266414,
  "KPGKDHAFHFE": "FREE",
  "dialogList": [
    {
      "id": 726641401,
      "nextDialogs": [
        726641402
      ],
      "talkRole": {
        "type": "TALK_ROLE_NPC",
        "_id": "30066"
      },
      "talkContentTextMapHash": 844469826,
      "talkAssetPath": "",
      "talkAssetPathAlter": "",
      "talkAudioName": "",
      "actionBefore": "",
      "actionWhile": "",
      "actionAfter": "",
      "optionIcon": "",
      "iconPath": ""
    },
    {
      "id": 726641402,
      "nextDialogs": [
        726641403
      ],
      "talkRole": {
        "type": "TALK_ROLE_NPC",
        "_id": "30066"
      },
      "talkContentTextMapHash": 2761025618,
      "talkAssetPath": "",
      "talkAssetPathAlter": "",
      "talkAudioName": "",
      "actionBefore": "",
      "actionWhile": "",
      "actionAfter": "",
      "optionIcon": "",
      "iconPath": ""
    },
    {
      "id": 726641403,
      "talkRole": {
        "type": "TALK_ROLE_NPC",
        "_id": "30066"
      },
      "talkContentTextMapHash": 2070532266,
      "talkAssetPath": "",
      "talkAssetPathAlter": "",
      "talkAudioName": "",
      "actionBefore": "",
      "actionWhile": "",
      "actionAfter": "",
      "optionIcon": "",
      "iconPath": ""
    }
  ]
}