{
  "talkId": 7268602,
  "KPGKDHAFHFE": "FREE",
  "dialogList": [
    {
      "id": 726860201,
      "nextDialogs": [
        726860202
      ],
      "talkRole": {
        "type": "TALK_ROLE_NPC",
        "_id": "30191"
      },
      "talkContentTextMapHash": 1523479010,
      "talkAssetPath": "",
      "talkAssetPathAlter": "",
      "talkAudioName": "",
      "actionBefore": "",
      "actionWhile": "",
      "actionAfter": "",
      "optionIcon": "",
      "iconPath": ""
    },
    {
      "id": 726860202,
      "nextDialogs": [
        726860203
      ],
      "talkRole": {
        "type": "TALK_ROLE_NPC",
        "_id": "30191"
      },
      "talkContentTextMapHash": 1334819314,
      "talkAssetPath": "",
      "talkAssetPathAlter": "",
      "talkAudioName": "",
      "actionBefore": "",
      "actionWhile": "",
      "actionAfter": "",
      "optionIcon": "",
      "iconPath": ""
    },
    {
      "id": 726860203,
      "talkRole": {
        "type": "TALK_ROLE_NPC",
        "_id": "30191"
      },
      "talkContentTextMapHash": 2146355210,
      "talkAssetPath": "",
      "talkAssetPathAlter": "",
      "talkAudioName": "",
      "actionBefore": "",
      "actionWhile": "",
      "actionAfter": "",
      "optionIcon": "",
      "iconPath": ""
    }
  ]
}