{
  "talkId": 7268454,
  "KPGKDHAFHFE": "FREE",
  "dialogList": [
    {
      "id": 726845401,
      "nextDialogs": [
        726845402
      ],
      "talkShowType": "TALK_SHOW_FORCE_SELECT",
      "talkRole": {
        "type": "TALK_ROLE_PLAYER",
        "_id": ""
      },
      "talkContentTextMapHash": 1034577282,
      "talkAssetPath": "",
      "talkAssetPathAlter": "",
      "talkAudioName": "",
      "actionBefore": "",
      "actionWhile": "",
      "actionAfter": "",
      "optionIcon": "",
      "iconPath": ""
    },
    {
      "id": 726845402,
      "nextDialogs": [
        726845403
      ],
      "talkRole": {
        "type": "TALK_ROLE_NPC",
        "_id": "30162"
      },
      "talkContentTextMapHash": 925322802,
      "talkRoleNameTextMapHash": 2230170435,
      "talkAssetPath": "",
      "talkAssetPathAlter": "",
      "talkAudioName": "",
      "actionBefore": "",
      "actionWhile": "",
      "actionAfter": "",
      "optionIcon": "",
      "iconPath": ""
    },
    {
      "id": 726845403,
      "nextDialogs": [
        726845404
      ],
      "talkRole": {
        "type": "TALK_ROLE_NPC",
        "_id": "30162"
      },
      "talkContentTextMapHash": 1809214890,
      "talkRoleNameTextMapHash": 3316238051,
      "talkAssetPath": "",
      "talkAssetPathAlter": "",
      "talkAudioName": "",
      "actionBefore": "",
      "actionWhile": "",
      "actionAfter": "",
      "optionIcon": "",
      "iconPath": ""
    },
    {
      "id": 726845404,
      "talkRole": {
        "type": "TALK_ROLE_NPC",
        "_id": "30162"
      },
      "talkContentTextMapHash": 3449429226,
      "talkRoleNameTextMapHash": 4208552331,
      "talkAssetPath": "",
      "talkAssetPathAlter": "",
      "talkAudioName": "",
      "actionBefore": "",
      "actionWhile": "",
      "actionAfter": "",
      "optionIcon": "",
      "iconPath": ""
    }
  ]
}