{
  "talkId": 7269406,
  "KPGKDHAFHFE": "FREE",
  "dialogList": [
    {
      "id": 726940601,
      "nextDialogs": [
        726940602
      ],
      "talkRole": {
        "type": "TALK_ROLE_NPC",
        "_id": "12522"
      },
      "talkContentTextMapHash": 27332042,
      "talkAssetPath": "",
      "talkAssetPathAlter": "",
      "talkAudioName": "",
      "actionBefore": "",
      "actionWhile": "",
      "actionAfter": "",
      "optionIcon": "",
      "iconPath": ""
    },
    {
      "id": 726940602,
      "talkRole": {
        "type": "TALK_ROLE_NPC",
        "_id": "12522"
      },
      "talkContentTextMapHash": 1488663610,
      "talkAssetPath": "",
      "talkAssetPathAlter": "",
      "talkAudioName": "",
      "actionBefore": "",
      "actionWhile": "",
      "actionAfter": "",
      "optionIcon": "",
      "iconPath": ""
    }
  ]
}