{
  "talkId": 7273001,
  "KPGKDHAFHFE": "FREE",
  "dialogList": [
    {
      "id": 727300101,
      "nextDialogs": [
        727300102,
        727300105,
        727300124
      ],
      "talkRole": {
        "type": "TALK_ROLE_NPC",
        "_id": "13087"
      },
      "talkContentTextMapHash": 3425867186,
      "talkAssetPath": "",
      "talkAssetPathAlter": "",
      "talkAudioName": "",
      "actionBefore": "SimpleTalk/PaimonInTalk_Start",
      "actionWhile": "",
      "actionAfter": "",
      "optionIcon": "",
      "iconPath": ""
    },
    {
      "id": 727300102,
      "nextDialogs": [
        727300103
      ],
      "talkRole": {
        "type": "TALK_ROLE_PLAYER",
        "_id": ""
      },
      "talkContentTextMapHash": 3149511210,
      "talkAssetPath": "",
      "talkAssetPathAlter": "",
      "talkAudioName": "",
      "actionBefore": "",
      "actionWhile": "",
      "actionAfter": "",
      "optionIcon": "UI_Icon_Intee_ElectroherculesBattle",
      "iconPath": ""
    },
    {
      "id": 727300103,
      "nextDialogs": [
        727300104
      ],
      "talkRole": {
        "type": "TALK_ROLE_NPC",
        "_id": "13087"
      },
      "talkContentTextMapHash": 1676806594,
      "talkAssetPath": "",
      "talkAssetPathAlter": "",
      "talkAudioName": "",
      "actionBefore": "",
      "actionWhile": "",
      "actionAfter": "",
      "optionIcon": "",
      "iconPath": ""
    },
    {
      "id": 727300104,
      "talkRole": {
        "type": "TALK_ROLE_NPC",
        "_id": "13087"
      },
      "talkContentTextMapHash": 2194003754,
      "talkAssetPath": "",
      "talkAssetPathAlter": "",
      "talkAudioName": "",
      "actionBefore": "",
      "actionWhile": "",
      "actionAfter": "UI/open_OnikabutoActivity_Page1",
      "optionIcon": "",
      "iconPath": ""
    },
    {
      "id": 727300105,
      "nextDialogs": [
        727300106
      ],
      "talkRole": {
        "type": "TALK_ROLE_PLAYER",
        "_id": ""
      },
      "talkContentTextMapHash": 3636425306,
      "talkAssetPath": "",
      "talkAssetPathAlter": "",
      "talkAudioName": "",
      "actionBefore": "",
      "actionWhile": "",
      "actionAfter": "",
      "optionIcon": "",
      "iconPath": ""
    },
    {
      "id": 727300106,
      "nextDialogs": [
        727300107
      ],
      "talkRole": {
        "type": "TALK_ROLE_NPC",
        "_id": "13087"
      },
      "talkContentTextMapHash": 120655258,
      "talkAssetPath": "",
      "talkAssetPathAlter": "",
      "talkAudioName": "",
      "actionBefore": "",
      "actionWhile": "SimpleTalk/Think",
      "actionAfter": "",
      "optionIcon": "",
      "iconPath": ""
    },
    {
      "id": 727300107,
      "nextDialogs": [
        727300108
      ],
      "talkRole": {
        "type": "TALK_ROLE_NPC",
        "_id": "13087"
      },
      "talkContentTextMapHash": 978373002,
      "talkAssetPath": "",
      "talkAssetPathAlter": "",
      "talkAudioName": "",
      "actionBefore": "",
      "actionWhile": "",
      "actionAfter": "",
      "optionIcon": "",
      "iconPath": ""
    },
    {
      "id": 727300108,
      "nextDialogs": [
        727300109
      ],
      "talkRole": {
        "type": "TALK_ROLE_NPC",
        "_id": "1005"
      },
      "talkContentTextMapHash": 2704924266,
      "talkAssetPath": "",
      "talkAssetPathAlter": "",
      "talkAudioName": "",
      "actionBefore": "",
      "actionWhile": "",
      "actionAfter": "",
      "optionIcon": "",
      "iconPath": ""
    },
    {
      "id": 727300109,
      "nextDialogs": [
        727300110
      ],
      "talkRole": {
        "type": "TALK_ROLE_NPC",
        "_id": "13087"
      },
      "talkContentTextMapHash": 1409570018,
      "talkAssetPath": "",
      "talkAssetPathAlter": "",
      "talkAudioName": "",
      "actionBefore": "",
      "actionWhile": "SimpleTalk/PutHand",
      "actionAfter": "",
      "optionIcon": "",
      "iconPath": ""
    },
    {
      "id": 727300110,
      "nextDialogs": [
        727300111
      ],
      "talkRole": {
        "type": "TALK_ROLE_NPC",
        "_id": "13087"
      },
      "talkContentTextMapHash": 3855891282,
      "talkAssetPath": "",
      "talkAssetPathAlter": "",
      "talkAudioName": "",
      "actionBefore": "",
      "actionWhile": "",
      "actionAfter": "",
      "optionIcon": "",
      "iconPath": ""
    },
    {
      "id": 727300111,
      "nextDialogs": [
        727300112
      ],
      "talkRole": {
        "type": "TALK_ROLE_NPC",
        "_id": "13087"
      },
      "talkContentTextMapHash": 3350042802,
      "talkAssetPath": "",
      "talkAssetPathAlter": "",
      "talkAudioName": "",
      "actionBefore": "",
      "actionWhile": "",
      "actionAfter": "",
      "optionIcon": "",
      "iconPath": ""
    },
    {
      "id": 727300112,
      "nextDialogs": [
        727300113
      ],
      "talkRole": {
        "type": "TALK_ROLE_NPC",
        "_id": "13087"
      },
      "talkContentTextMapHash": 1384740210,
      "talkAssetPath": "",
      "talkAssetPathAlter": "",
      "talkAudioName": "",
      "actionBefore": "",
      "actionWhile": "",
      "actionAfter": "",
      "optionIcon": "",
      "iconPath": ""
    },
    {
      "id": 727300113,
      "nextDialogs": [
        727300114
      ],
      "talkRole": {
        "type": "TALK_ROLE_NPC",
        "_id": "13087"
      },
      "talkContentTextMapHash": 1261947794,
      "talkAssetPath": "",
      "talkAssetPathAlter": "",
      "talkAudioName": "",
      "actionBefore": "",
      "actionWhile": "SimpleTalk/Akimbo",
      "actionAfter": "",
      "optionIcon": "",
      "iconPath": ""
    },
    {
      "id": 727300114,
      "nextDialogs": [
        727300115
      ],
      "talkRole": {
        "type": "TALK_ROLE_NPC",
        "_id": "1005"
      },
      "talkContentTextMapHash": 1011678250,
      "talkAssetPath": "",
      "talkAssetPathAlter": "",
      "talkAudioName": "",
      "actionBefore": "",
      "actionWhile": "",
      "actionAfter": "",
      "optionIcon": "",
      "iconPath": ""
    },
    {
      "id": 727300115,
      "nextDialogs": [
        727300116
      ],
      "talkRole": {
        "type": "TALK_ROLE_NPC",
        "_id": "1005"
      },
      "talkContentTextMapHash": 4117416410,
      "talkAssetPath": "",
      "talkAssetPathAlter": "",
      "talkAudioName": "",
      "actionBefore": "",
      "actionWhile": "",
      "actionAfter": "",
      "optionIcon": "",
      "iconPath": ""
    },
    {
      "id": 727300116,
      "nextDialogs": [
        727300117
      ],
      "talkRole": {
        "type": "TALK_ROLE_NPC",
        "_id": "13087"
      },
      "talkContentTextMapHash": 1802652706,
      "talkAssetPath": "",
      "talkAssetPathAlter": "",
      "talkAudioName": "",
      "actionBefore": "",
      "actionWhile": "SimpleTalk/RandomTalk",
      "actionAfter": "",
      "optionIcon": "",
      "iconPath": ""
    },
    {
      "id": 727300117,
      "nextDialogs": [
        727300118
      ],
      "talkRole": {
        "type": "TALK_ROLE_NPC",
        "_id": "1005"
      },
      "talkContentTextMapHash": 342961938,
      "talkAssetPath": "",
      "talkAssetPathAlter": "",
      "talkAudioName": "",
      "actionBefore": "",
      "actionWhile": "",
      "actionAfter": "",
      "optionIcon": "",
      "iconPath": ""
    },
    {
      "id": 727300118,
      "nextDialogs": [
        727300119
      ],
      "talkRole": {
        "type": "TALK_ROLE_NPC",
        "_id": "13087"
      },
      "talkContentTextMapHash": 1685626770,
      "talkAssetPath": "",
      "talkAssetPathAlter": "",
      "talkAudioName": "",
      "actionBefore": "",
      "actionWhile": "SimpleTalk/Think",
      "actionAfter": "",
      "optionIcon": "",
      "iconPath": ""
    },
    {
      "id": 727300119,
      "nextDialogs": [
        727300120
      ],
      "talkRole": {
        "type": "TALK_ROLE_NPC",
        "_id": "13087"
      },
      "talkContentTextMapHash": 3021915866,
      "talkAssetPath": "",
      "talkAssetPathAlter": "",
      "talkAudioName": "",
      "actionBefore": "",
      "actionWhile": "",
      "actionAfter": "",
      "optionIcon": "",
      "iconPath": ""
    },
    {
      "id": 727300120,
      "nextDialogs": [
        727300121
      ],
      "talkRole": {
        "type": "TALK_ROLE_NPC",
        "_id": "13087"
      },
      "talkContentTextMapHash": 3733441330,
      "talkAssetPath": "",
      "talkAssetPathAlter": "",
      "talkAudioName": "",
      "actionBefore": "",
      "actionWhile": "SimpleTalk/Happy",
      "actionAfter": "",
      "optionIcon": "",
      "iconPath": ""
    },
    {
      "id": 727300121,
      "nextDialogs": [
        727300122
      ],
      "talkRole": {
        "type": "TALK_ROLE_NPC",
        "_id": "1005"
      },
      "talkContentTextMapHash": 1123927082,
      "talkAssetPath": "",
      "talkAssetPathAlter": "",
      "talkAudioName": "",
      "actionBefore": "",
      "actionWhile": "",
      "actionAfter": "",
      "optionIcon": "",
      "iconPath": ""
    },
    {
      "id": 727300122,
      "nextDialogs": [
        727300123
      ],
      "talkRole": {
        "type": "TALK_ROLE_NPC",
        "_id": "1005"
      },
      "talkContentTextMapHash": 489489962,
      "talkAssetPath": "",
      "talkAssetPathAlter": "",
      "talkAudioName": "",
      "actionBefore": "",
      "actionWhile": "",
      "actionAfter": "",
      "optionIcon": "",
      "iconPath": ""
    },
    {
      "id": 727300123,
      "talkRole": {
        "type": "TALK_ROLE_NPC",
        "_id": "13087"
      },
      "talkContentTextMapHash": 566692434,
      "talkAssetPath": "",
      "talkAssetPathAlter": "",
      "talkAudioName": "",
      "actionBefore": "",
      "actionWhile": "",
      "actionAfter": "SimpleTalk/Idle_End",
      "optionIcon": "",
      "iconPath": ""
    },
    {
      "id": 727300124,
      "nextDialogs": [
        727300125
      ],
      "talkRole": {
        "type": "TALK_ROLE_PLAYER",
        "_id": ""
      },
      "talkContentTextMapHash": 1270696690,
      "talkAssetPath": "",
      "talkAssetPathAlter": "",
      "talkAudioName": "",
      "actionBefore": "",
      "actionWhile": "",
      "actionAfter": "",
      "optionIcon": "",
      "iconPath": ""
    },
    {
      "id": 727300125,
      "talkRole": {
        "type": "TALK_ROLE_NPC",
        "_id": "13087"
      },
      "talkContentTextMapHash": 1810344274,
      "talkAssetPath": "",
      "talkAssetPathAlter": "",
      "talkAudioName": "",
      "actionBefore": "",
      "actionWhile": "",
      "actionAfter": "",
      "optionIcon": "",
      "iconPath": ""
    }
  ]
}