{
  "talkId": 7280101,
  "KPGKDHAFHFE": "FREE",
  "dialogList": [
    {
      "id": 728010101,
      "nextDialogs": [
        728010102
      ],
      "talkRole": {
        "type": "TALK_ROLE_NPC",
        "_id": "3052"
      },
      "talkContentTextMapHash": 2621836026,
      "talkAssetPath": "",
      "talkAssetPathAlter": "",
      "talkAudioName": "",
      "actionBefore": "",
      "actionWhile": "",
      "actionAfter": "",
      "optionIcon": "",
      "iconPath": ""
    },
    {
      "id": 728010102,
      "nextDialogs": [
        728010103
      ],
      "talkShowType": "TALK_SHOW_FORCE_SELECT",
      "talkRole": {
        "type": "TALK_ROLE_PLAYER",
        "_id": ""
      },
      "talkContentTextMapHash": 750805642,
      "talkAssetPath": "",
      "talkAssetPathAlter": "",
      "talkAudioName": "",
      "actionBefore": "",
      "actionWhile": "",
      "actionAfter": "",
      "optionIcon": "",
      "iconPath": ""
    },
    {
      "id": 728010103,
      "nextDialogs": [
        728010104
      ],
      "talkRole": {
        "type": "TALK_ROLE_NPC",
        "_id": "3052"
      },
      "talkContentTextMapHash": 759479738,
      "talkAssetPath": "",
      "talkAssetPathAlter": "",
      "talkAudioName": "",
      "actionBefore": "",
      "actionWhile": "",
      "actionAfter": "",
      "optionIcon": "",
      "iconPath": ""
    },
    {
      "id": 728010104,
      "nextDialogs": [
        728010105
      ],
      "talkRole": {
        "type": "TALK_ROLE_NPC",
        "_id": "3052"
      },
      "talkContentTextMapHash": 2426293082,
      "talkAssetPath": "",
      "talkAssetPathAlter": "",
      "talkAudioName": "",
      "actionBefore": "",
      "actionWhile": "",
      "actionAfter": "",
      "optionIcon": "",
      "iconPath": ""
    },
    {
      "id": 728010105,
      "nextDialogs": [
        728010106
      ],
      "talkRole": {
        "type": "TALK_ROLE_NPC",
        "_id": "3052"
      },
      "talkContentTextMapHash": 1229367034,
      "talkAssetPath": "",
      "talkAssetPathAlter": "",
      "talkAudioName": "",
      "actionBefore": "",
      "actionWhile": "",
      "actionAfter": "",
      "optionIcon": "",
      "iconPath": ""
    },
    {
      "id": 728010106,
      "nextDialogs": [
        728010107
      ],
      "talkRole": {
        "type": "TALK_ROLE_NPC",
        "_id": "3052"
      },
      "talkContentTextMapHash": 2022943690,
      "talkAssetPath": "",
      "talkAssetPathAlter": "",
      "talkAudioName": "",
      "actionBefore": "",
      "actionWhile": "",
      "actionAfter": "",
      "optionIcon": "",
      "iconPath": ""
    },
    {
      "id": 728010107,
      "nextDialogs": [
        728010108
      ],
      "talkRole": {
        "type": "TALK_ROLE_NPC",
        "_id": "3052"
      },
      "talkContentTextMapHash": 1912895058,
      "talkAssetPath": "",
      "talkAssetPathAlter": "",
      "talkAudioName": "",
      "actionBefore": "",
      "actionWhile": "",
      "actionAfter": "",
      "optionIcon": "",
      "iconPath": ""
    },
    {
      "id": 728010108,
      "nextDialogs": [
        728010109
      ],
      "talkRole": {
        "type": "TALK_ROLE_NPC",
        "_id": "3052"
      },
      "talkContentTextMapHash": 1175344570,
      "talkAssetPath": "",
      "talkAssetPathAlter": "",
      "talkAudioName": "",
      "actionBefore": "",
      "actionWhile": "",
      "actionAfter": "",
      "optionIcon": "",
      "iconPath": ""
    },
    {
      "id": 728010109,
      "nextDialogs": [
        728010110,
        728010112
      ],
      "talkRole": {
        "type": "TALK_ROLE_NPC",
        "_id": "3052"
      },
      "talkContentTextMapHash": 1230059746,
      "talkAssetPath": "",
      "talkAssetPathAlter": "",
      "talkAudioName": "",
      "actionBefore": "",
      "actionWhile": "",
      "actionAfter": "",
      "optionIcon": "",
      "iconPath": ""
    },
    {
      "id": 728010110,
      "nextDialogs": [
        728010111
      ],
      "talkShowType": "TALK_SHOW_FORCE_SELECT",
      "talkRole": {
        "type": "TALK_ROLE_PLAYER",
        "_id": ""
      },
      "talkContentTextMapHash": 1196631522,
      "talkAssetPath": "",
      "talkAssetPathAlter": "",
      "talkAudioName": "",
      "actionBefore": "",
      "actionWhile": "",
      "actionAfter": "",
      "optionIcon": "",
      "iconPath": ""
    },
    {
      "id": 728010111,
      "nextDialogs": [
        728010114
      ],
      "talkRole": {
        "type": "TALK_ROLE_NPC",
        "_id": "3052"
      },
      "talkContentTextMapHash": 2986763426,
      "talkAssetPath": "",
      "talkAssetPathAlter": "",
      "talkAudioName": "",
      "actionBefore": "",
      "actionWhile": "",
      "actionAfter": "",
      "optionIcon": "",
      "iconPath": ""
    },
    {
      "id": 728010114,
      "nextDialogs": [
        728010115
      ],
      "talkRole": {
        "type": "TALK_ROLE_NPC",
        "_id": "3052"
      },
      "talkContentTextMapHash": 3406382114,
      "talkAssetPath": "",
      "talkAssetPathAlter": "",
      "talkAudioName": "",
      "actionBefore": "",
      "actionWhile": "",
      "actionAfter": "",
      "optionIcon": "",
      "iconPath": ""
    },
    {
      "id": 728010115,
      "nextDialogs": [
        728010116
      ],
      "talkRole": {
        "type": "TALK_ROLE_NPC",
        "_id": "3052"
      },
      "talkContentTextMapHash": 3518344210,
      "talkAssetPath": "",
      "talkAssetPathAlter": "",
      "talkAudioName": "",
      "actionBefore": "",
      "actionWhile": "",
      "actionAfter": "",
      "optionIcon": "",
      "iconPath": ""
    },
    {
      "id": 728010116,
      "nextDialogs": [
        728010117
      ],
      "talkRole": {
        "type": "TALK_ROLE_NPC",
        "_id": "3052"
      },
      "talkContentTextMapHash": 1040688066,
      "talkAssetPath": "",
      "talkAssetPathAlter": "",
      "talkAudioName": "",
      "actionBefore": "",
      "actionWhile": "",
      "actionAfter": "",
      "optionIcon": "",
      "iconPath": ""
    },
    {
      "id": 728010117,
      "nextDialogs": [
        728010118
      ],
      "talkRole": {
        "type": "TALK_ROLE_NPC",
        "_id": "3052"
      },
      "talkContentTextMapHash": 1163192170,
      "talkAssetPath": "",
      "talkAssetPathAlter": "",
      "talkAudioName": "",
      "actionBefore": "",
      "actionWhile": "",
      "actionAfter": "",
      "optionIcon": "",
      "iconPath": ""
    },
    {
      "id": 728010118,
      "nextDialogs": [
        728010119
      ],
      "talkShowType": "TALK_SHOW_FORCE_SELECT",
      "talkRole": {
        "type": "TALK_ROLE_PLAYER",
        "_id": ""
      },
      "talkContentTextMapHash": 455140770,
      "talkAssetPath": "",
      "talkAssetPathAlter": "",
      "talkAudioName": "",
      "actionBefore": "",
      "actionWhile": "",
      "actionAfter": "",
      "optionIcon": "",
      "iconPath": ""
    },
    {
      "id": 728010119,
      "nextDialogs": [
        728010120
      ],
      "talkRole": {
        "type": "TALK_ROLE_NPC",
        "_id": "3052"
      },
      "talkContentTextMapHash": 2571955114,
      "talkAssetPath": "",
      "talkAssetPathAlter": "",
      "talkAudioName": "",
      "actionBefore": "",
      "actionWhile": "",
      "actionAfter": "",
      "optionIcon": "",
      "iconPath": ""
    },
    {
      "id": 728010120,
      "nextDialogs": [
        728010121
      ],
      "talkShowType": "TALK_SHOW_FORCE_SELECT",
      "talkRole": {
        "type": "TALK_ROLE_PLAYER",
        "_id": ""
      },
      "talkContentTextMapHash": 3861889394,
      "talkAssetPath": "",
      "talkAssetPathAlter": "",
      "talkAudioName": "",
      "actionBefore": "",
      "actionWhile": "",
      "actionAfter": "",
      "optionIcon": "",
      "iconPath": ""
    },
    {
      "id": 728010121,
      "nextDialogs": [
        728010122
      ],
      "talkRole": {
        "type": "TALK_ROLE_NPC",
        "_id": "3052"
      },
      "talkContentTextMapHash": 978331202,
      "talkAssetPath": "",
      "talkAssetPathAlter": "",
      "talkAudioName": "",
      "actionBefore": "",
      "actionWhile": "",
      "actionAfter": "",
      "optionIcon": "",
      "iconPath": ""
    },
    {
      "id": 728010122,
      "nextDialogs": [
        728010123
      ],
      "talkRole": {
        "type": "TALK_ROLE_NPC",
        "_id": "3052"
      },
      "talkContentTextMapHash": 1134239114,
      "talkAssetPath": "",
      "talkAssetPathAlter": "",
      "talkAudioName": "",
      "actionBefore": "",
      "actionWhile": "",
      "actionAfter": "",
      "optionIcon": "",
      "iconPath": ""
    },
    {
      "id": 728010123,
      "talkRole": {
        "type": "TALK_ROLE_NPC",
        "_id": "3052"
      },
      "talkContentTextMapHash": 246912530,
      "talkAssetPath": "",
      "talkAssetPathAlter": "",
      "talkAudioName": "",
      "actionBefore": "",
      "actionWhile": "",
      "actionAfter": "",
      "optionIcon": "",
      "iconPath": ""
    },
    {
      "id": 728010112,
      "nextDialogs": [
        728010113
      ],
      "talkShowType": "TALK_SHOW_FORCE_SELECT",
      "talkRole": {
        "type": "TALK_ROLE_PLAYER",
        "_id": ""
      },
      "talkContentTextMapHash": 831478290,
      "talkAssetPath": "",
      "talkAssetPathAlter": "",
      "talkAudioName": "",
      "actionBefore": "",
      "actionWhile": "",
      "actionAfter": "",
      "optionIcon": "",
      "iconPath": ""
    },
    {
      "id": 728010113,
      "nextDialogs": [
        728010114
      ],
      "talkRole": {
        "type": "TALK_ROLE_NPC",
        "_id": "3052"
      },
      "talkContentTextMapHash": 2347676714,
      "talkAssetPath": "",
      "talkAssetPathAlter": "",
      "talkAudioName": "",
      "actionBefore": "",
      "actionWhile": "",
      "actionAfter": "",
      "optionIcon": "",
      "iconPath": ""
    }
  ]
}