{
  "talkId": 7290501,
  "KPGKDHAFHFE": "FREE",
  "dialogList": [
    {
      "id": 729050101,
      "nextDialogs": [
        729050102
      ],
      "talkShowType": "TALK_SHOW_FORCE_SELECT",
      "talkRole": {
        "type": "TALK_ROLE_PLAYER",
        "_id": ""
      },
      "talkContentTextMapHash": 339191730,
      "talkAssetPath": "",
      "talkAssetPathAlter": "",
      "talkAudioName": "",
      "actionBefore": "",
      "actionWhile": "",
      "actionAfter": "",
      "optionIcon": "UI_Icon_Intee_TreasureBox",
      "iconPath": ""
    },
    {
      "id": 729050102,
      "nextDialogs": [
        729050103
      ],
      "talkRole": {
        "type": "TALK_ROLE_NPC",
        "_id": "3078"
      },
      "talkContentTextMapHash": 1440686554,
      "talkAssetPath": "",
      "talkAssetPathAlter": "",
      "talkAudioName": "",
      "actionBefore": "",
      "actionWhile": "",
      "actionAfter": "",
      "optionIcon": "",
      "iconPath": ""
    },
    {
      "id": 729050103,
      "nextDialogs": [
        729050104
      ],
      "talkRole": {
        "type": "TALK_ROLE_NPC",
        "_id": "3078"
      },
      "talkContentTextMapHash": 429495450,
      "talkAssetPath": "",
      "talkAssetPathAlter": "",
      "talkAudioName": "",
      "actionBefore": "",
      "actionWhile": "",
      "actionAfter": "",
      "optionIcon": "",
      "iconPath": ""
    },
    {
      "id": 729050104,
      "talkRole": {
        "type": "TALK_ROLE_NPC",
        "_id": "3078"
      },
      "talkContentTextMapHash": 1617124930,
      "talkAssetPath": "",
      "talkAssetPathAlter": "",
      "talkAudioName": "",
      "actionBefore": "",
      "actionWhile": "",
      "actionAfter": "",
      "optionIcon": "",
      "iconPath": ""
    }
  ]
}