{
  "talkId": 7292501,
  "KPGKDHAFHFE": "FREE",
  "dialogList": [
    {
      "id": 729250101,
      "nextDialogs": [
        729250102
      ],
      "talkShowType": "TALK_SHOW_FORCE_SELECT",
      "talkRole": {
        "type": "TALK_ROLE_PLAYER",
        "_id": ""
      },
      "talkContentTextMapHash": 4249996426,
      "talkAssetPath": "",
      "talkAssetPathAlter": "",
      "talkAudioName": "",
      "actionBefore": "",
      "actionWhile": "",
      "actionAfter": "",
      "optionIcon": "UI_Icon_Intee_TreasureBox",
      "iconPath": ""
    },
    {
      "id": 729250102,
      "nextDialogs": [
        729250103
      ],
      "talkRole": {
        "type": "TALK_ROLE_NPC",
        "_id": "3034"
      },
      "talkContentTextMapHash": 2784348330,
      "talkAssetPath": "",
      "talkAssetPathAlter": "",
      "talkAudioName": "",
      "actionBefore": "",
      "actionWhile": "",
      "actionAfter": "",
      "optionIcon": "",
      "iconPath": ""
    },
    {
      "id": 729250103,
      "nextDialogs": [
        729250104
      ],
      "talkRole": {
        "type": "TALK_ROLE_NPC",
        "_id": "3034"
      },
      "talkContentTextMapHash": 1552980354,
      "talkAssetPath": "",
      "talkAssetPathAlter": "",
      "talkAudioName": "",
      "actionBefore": "",
      "actionWhile": "",
      "actionAfter": "",
      "optionIcon": "",
      "iconPath": ""
    },
    {
      "id": 729250104,
      "talkRole": {
        "type": "TALK_ROLE_NPC",
        "_id": "3034"
      },
      "talkContentTextMapHash": 1050695162,
      "talkAssetPath": "",
      "talkAssetPathAlter": "",
      "talkAudioName": "",
      "actionBefore": "",
      "actionWhile": "",
      "actionAfter": "",
      "optionIcon": "",
      "iconPath": ""
    }
  ]
}