{
  "talkId": 7292001,
  "KPGKDHAFHFE": "FREE",
  "dialogList": [
    {
      "id": 729200101,
      "nextDialogs": [
        729200102
      ],
      "talkShowType": "TALK_SHOW_FORCE_SELECT",
      "talkRole": {
        "type": "TALK_ROLE_PLAYER",
        "_id": ""
      },
      "talkContentTextMapHash": 4072689634,
      "talkAssetPath": "",
      "talkAssetPathAlter": "",
      "talkAudioName": "",
      "actionBefore": "",
      "actionWhile": "",
      "actionAfter": "",
      "optionIcon": "UI_Icon_Intee_TreasureBox",
      "iconPath": ""
    },
    {
      "id": 729200102,
      "nextDialogs": [
        729200103
      ],
      "talkRole": {
        "type": "TALK_ROLE_NPC",
        "_id": "3045"
      },
      "talkContentTextMapHash": 2702697826,
      "talkAssetPath": "",
      "talkAssetPathAlter": "",
      "talkAudioName": "",
      "actionBefore": "",
      "actionWhile": "",
      "actionAfter": "",
      "optionIcon": "",
      "iconPath": ""
    },
    {
      "id": 729200103,
      "nextDialogs": [
        729200104
      ],
      "talkRole": {
        "type": "TALK_ROLE_NPC",
        "_id": "3045"
      },
      "talkContentTextMapHash": 3104319594,
      "talkAssetPath": "",
      "talkAssetPathAlter": "",
      "talkAudioName": "",
      "actionBefore": "",
      "actionWhile": "",
      "actionAfter": "",
      "optionIcon": "",
      "iconPath": ""
    },
    {
      "id": 729200104,
      "nextDialogs": [
        729200105
      ],
      "talkRole": {
        "type": "TALK_ROLE_NPC",
        "_id": "3045"
      },
      "talkContentTextMapHash": 1239332210,
      "talkAssetPath": "",
      "talkAssetPathAlter": "",
      "talkAudioName": "",
      "actionBefore": "",
      "actionWhile": "",
      "actionAfter": "",
      "optionIcon": "",
      "iconPath": ""
    },
    {
      "id": 729200105,
      "talkRole": {
        "type": "TALK_ROLE_NPC",
        "_id": "3045"
      },
      "talkContentTextMapHash": 3710917794,
      "talkAssetPath": "",
      "talkAssetPathAlter": "",
      "talkAudioName": "",
      "actionBefore": "",
      "actionWhile": "",
      "actionAfter": "",
      "optionIcon": "",
      "iconPath": ""
    }
  ]
}