{
  "talkId": 7293901,
  "KPGKDHAFHFE": "FREE",
  "dialogList": [
    {
      "id": 729390101,
      "nextDialogs": [
        729390102
      ],
      "talkShowType": "TALK_SHOW_FORCE_SELECT",
      "talkRole": {
        "type": "TALK_ROLE_PLAYER",
        "_id": ""
      },
      "talkContentTextMapHash": 2451759058,
      "talkAssetPath": "",
      "talkAssetPathAlter": "",
      "talkAudioName": "",
      "actionBefore": "",
      "actionWhile": "",
      "actionAfter": "",
      "optionIcon": "UI_Icon_Intee_TreasureBox",
      "iconPath": ""
    },
    {
      "id": 729390102,
      "nextDialogs": [
        729390103
      ],
      "talkRole": {
        "type": "TALK_ROLE_NPC",
        "_id": "3145"
      },
      "talkContentTextMapHash": 3413494914,
      "talkAssetPath": "",
      "talkAssetPathAlter": "",
      "talkAudioName": "",
      "actionBefore": "",
      "actionWhile": "",
      "actionAfter": "",
      "optionIcon": "",
      "iconPath": ""
    },
    {
      "id": 729390103,
      "nextDialogs": [
        729390104
      ],
      "talkRole": {
        "type": "TALK_ROLE_NPC",
        "_id": "3145"
      },
      "talkContentTextMapHash": 528723138,
      "talkAssetPath": "",
      "talkAssetPathAlter": "",
      "talkAudioName": "",
      "actionBefore": "",
      "actionWhile": "",
      "actionAfter": "",
      "optionIcon": "",
      "iconPath": ""
    },
    {
      "id": 729390104,
      "talkRole": {
        "type": "TALK_ROLE_NPC",
        "_id": "3145"
      },
      "talkContentTextMapHash": 2006446730,
      "talkAssetPath": "",
      "talkAssetPathAlter": "",
      "talkAudioName": "",
      "actionBefore": "",
      "actionWhile": "",
      "actionAfter": "",
      "optionIcon": "",
      "iconPath": ""
    }
  ]
}