{
  "talkId": 7293301,
  "KPGKDHAFHFE": "FREE",
  "dialogList": [
    {
      "id": 729330101,
      "nextDialogs": [
        729330102
      ],
      "talkShowType": "TALK_SHOW_FORCE_SELECT",
      "talkRole": {
        "type": "TALK_ROLE_PLAYER",
        "_id": ""
      },
      "talkContentTextMapHash": 3875155986,
      "talkAssetPath": "",
      "talkAssetPathAlter": "",
      "talkAudioName": "",
      "actionBefore": "",
      "actionWhile": "",
      "actionAfter": "",
      "optionIcon": "UI_Icon_Intee_TreasureBox",
      "iconPath": ""
    },
    {
      "id": 729330102,
      "nextDialogs": [
        729330103
      ],
      "talkRole": {
        "type": "TALK_ROLE_NPC",
        "_id": "3086"
      },
      "talkContentTextMapHash": 3371455442,
      "talkAssetPath": "",
      "talkAssetPathAlter": "",
      "talkAudioName": "",
      "actionBefore": "",
      "actionWhile": "",
      "actionAfter": "",
      "optionIcon": "",
      "iconPath": ""
    },
    {
      "id": 729330103,
      "talkRole": {
        "type": "TALK_ROLE_NPC",
        "_id": "3086"
      },
      "talkContentTextMapHash": 4170687754,
      "talkAssetPath": "",
      "talkAssetPathAlter": "",
      "talkAudioName": "",
      "actionBefore": "",
      "actionWhile": "",
      "actionAfter": "",
      "optionIcon": "",
      "iconPath": ""
    }
  ]
}