{
  "talkId": 7310807,
  "KPGKDHAFHFE": "FREE",
  "dialogList": [
    {
      "id": 731080701,
      "talkRole": {
        "type": "TALK_ROLE_NPC",
        "_id": "20576"
      },
      "talkContentTextMapHash": 3387359866,
      "talkAssetPath": "",
      "talkAssetPathAlter": "",
      "talkAudioName": "",
      "actionBefore": "",
      "actionWhile": "",
      "actionAfter": "",
      "optionIcon": "",
      "iconPath": ""
    }
  ]
}