{
  "talkId": 7311701,
  "KPGKDHAFHFE": "FREE",
  "dialogList": [
    {
      "id": 731170101,
      "nextDialogs": [
        731170102
      ],
      "talkRole": {
        "type": "TALK_ROLE_NPC",
        "_id": "20769"
      },
      "talkContentTextMapHash": 3625397042,
      "talkAssetPath": "",
      "talkAssetPathAlter": "",
      "talkAudioName": "",
      "actionBefore": "",
      "actionWhile": "",
      "actionAfter": "",
      "optionIcon": "",
      "iconPath": ""
    },
    {
      "id": 731170102,
      "nextDialogs": [
        731170103
      ],
      "talkRole": {
        "type": "TALK_ROLE_NPC",
        "_id": "20769"
      },
      "talkContentTextMapHash": 3046959970,
      "talkAssetPath": "",
      "talkAssetPathAlter": "",
      "talkAudioName": "",
      "actionBefore": "",
      "actionWhile": "",
      "actionAfter": "",
      "optionIcon": "",
      "iconPath": ""
    },
    {
      "id": 731170103,
      "talkRole": {
        "type": "TALK_ROLE_NPC",
        "_id": "20769"
      },
      "talkContentTextMapHash": 3193359610,
      "talkAssetPath": "",
      "talkAssetPathAlter": "",
      "talkAudioName": "",
      "actionBefore": "",
      "actionWhile": "",
      "actionAfter": "",
      "optionIcon": "",
      "iconPath": ""
    }
  ]
}