{
  "talkId": 7322060,
  "KPGKDHAFHFE": "FREE",
  "dialogList": [
    {
      "id": 732206001,
      "nextDialogs": [
        732206002
      ],
      "talkRole": {
        "type": "TALK_ROLE_NPC",
        "_id": "4294"
      },
      "talkContentTextMapHash": 1754442922,
      "talkAssetPath": "",
      "talkAssetPathAlter": "",
      "talkAudioName": "",
      "actionBefore": "",
      "actionWhile": "",
      "actionAfter": "",
      "optionIcon": "",
      "iconPath": ""
    },
    {
      "id": 732206002,
      "nextDialogs": [
        732206003
      ],
      "talkRole": {
        "type": "TALK_ROLE_NPC",
        "_id": "4294"
      },
      "talkContentTextMapHash": 465276738,
      "talkAssetPath": "",
      "talkAssetPathAlter": "",
      "talkAudioName": "",
      "actionBefore": "",
      "actionWhile": "",
      "actionAfter": "",
      "optionIcon": "",
      "iconPath": ""
    },
    {
      "id": 732206003,
      "nextDialogs": [
        732206004,
        732206006,
        732206013
      ],
      "talkRole": {
        "type": "TALK_ROLE_NPC",
        "_id": "4294"
      },
      "talkContentTextMapHash": 1058947706,
      "talkAssetPath": "",
      "talkAssetPathAlter": "",
      "talkAudioName": "",
      "actionBefore": "",
      "actionWhile": "",
      "actionAfter": "",
      "optionIcon": "",
      "iconPath": ""
    },
    {
      "id": 732206004,
      "nextDialogs": [
        732206005
      ],
      "talkRole": {
        "type": "TALK_ROLE_PLAYER",
        "_id": ""
      },
      "talkContentTextMapHash": 3182212986,
      "talkAssetPath": "",
      "talkAssetPathAlter": "",
      "talkAudioName": "",
      "actionBefore": "",
      "actionWhile": "",
      "actionAfter": "",
      "optionIcon": "",
      "iconPath": ""
    },
    {
      "id": 732206005,
      "nextDialogs": [
        732206009
      ],
      "talkRole": {
        "type": "TALK_ROLE_NPC",
        "_id": "4294"
      },
      "talkContentTextMapHash": 1397442722,
      "talkAssetPath": "",
      "talkAssetPathAlter": "",
      "talkAudioName": "",
      "actionBefore": "",
      "actionWhile": "",
      "actionAfter": "",
      "optionIcon": "",
      "iconPath": ""
    },
    {
      "id": 732206009,
      "nextDialogs": [
        732206010
      ],
      "talkRole": {
        "type": "TALK_ROLE_NPC",
        "_id": "4294"
      },
      "talkContentTextMapHash": 2530284146,
      "talkAssetPath": "",
      "talkAssetPathAlter": "",
      "talkAudioName": "",
      "actionBefore": "",
      "actionWhile": "",
      "actionAfter": "",
      "optionIcon": "",
      "iconPath": ""
    },
    {
      "id": 732206010,
      "nextDialogs": [
        732206015
      ],
      "talkRole": {
        "type": "TALK_ROLE_NPC",
        "_id": "4294"
      },
      "talkContentTextMapHash": 416230538,
      "talkAssetPath": "",
      "talkAssetPathAlter": "",
      "talkAudioName": "",
      "actionBefore": "",
      "actionWhile": "",
      "actionAfter": "",
      "optionIcon": "",
      "iconPath": ""
    },
    {
      "id": 732206015,
      "nextDialogs": [
        732206016
      ],
      "talkShowType": "TALK_SHOW_FORCE_SELECT",
      "talkRole": {
        "type": "TALK_ROLE_PLAYER",
        "_id": ""
      },
      "talkContentTextMapHash": 3049367466,
      "talkAssetPath": "",
      "talkAssetPathAlter": "",
      "talkAudioName": "",
      "actionBefore": "",
      "actionWhile": "",
      "actionAfter": "",
      "optionIcon": "",
      "iconPath": ""
    },
    {
      "id": 732206016,
      "nextDialogs": [
        732206017
      ],
      "talkRole": {
        "type": "TALK_ROLE_NPC",
        "_id": "4294"
      },
      "talkContentTextMapHash": 1138701282,
      "talkAssetPath": "",
      "talkAssetPathAlter": "",
      "talkAudioName": "",
      "actionBefore": "",
      "actionWhile": "",
      "actionAfter": "",
      "optionIcon": "",
      "iconPath": ""
    },
    {
      "id": 732206017,
      "nextDialogs": [
        732206018
      ],
      "talkRole": {
        "type": "TALK_ROLE_NPC",
        "_id": "4294"
      },
      "talkContentTextMapHash": 242684554,
      "talkAssetPath": "",
      "talkAssetPathAlter": "",
      "talkAudioName": "",
      "actionBefore": "",
      "actionWhile": "",
      "actionAfter": "",
      "optionIcon": "",
      "iconPath": ""
    },
    {
      "id": 732206018,
      "nextDialogs": [
        732206019
      ],
      "talkRole": {
        "type": "TALK_ROLE_NPC",
        "_id": "4294"
      },
      "talkContentTextMapHash": 3763672202,
      "talkAssetPath": "",
      "talkAssetPathAlter": "",
      "talkAudioName": "",
      "actionBefore": "",
      "actionWhile": "",
      "actionAfter": "",
      "optionIcon": "",
      "iconPath": ""
    },
    {
      "id": 732206019,
      "nextDialogs": [
        732206020
      ],
      "talkShowType": "TALK_SHOW_FORCE_SELECT",
      "talkRole": {
        "type": "TALK_ROLE_PLAYER",
        "_id": ""
      },
      "talkContentTextMapHash": 3106578706,
      "talkAssetPath": "",
      "talkAssetPathAlter": "",
      "talkAudioName": "",
      "actionBefore": "",
      "actionWhile": "",
      "actionAfter": "",
      "optionIcon": "",
      "iconPath": ""
    },
    {
      "id": 732206020,
      "nextDialogs": [
        732206021
      ],
      "talkRole": {
        "type": "TALK_ROLE_NPC",
        "_id": "4294"
      },
      "talkContentTextMapHash": 92576722,
      "talkAssetPath": "",
      "talkAssetPathAlter": "",
      "talkAudioName": "",
      "actionBefore": "",
      "actionWhile": "",
      "actionAfter": "",
      "optionIcon": "",
      "iconPath": ""
    },
    {
      "id": 732206021,
      "nextDialogs": [
        732206022
      ],
      "talkRole": {
        "type": "TALK_ROLE_NPC",
        "_id": "4294"
      },
      "talkContentTextMapHash": 2583432242,
      "talkAssetPath": "",
      "talkAssetPathAlter": "",
      "talkAudioName": "",
      "actionBefore": "",
      "actionWhile": "",
      "actionAfter": "",
      "optionIcon": "",
      "iconPath": ""
    },
    {
      "id": 732206022,
      "nextDialogs": [
        732206023
      ],
      "talkShowType": "TALK_SHOW_FORCE_SELECT",
      "talkRole": {
        "type": "TALK_ROLE_PLAYER",
        "_id": ""
      },
      "talkContentTextMapHash": 4291462498,
      "talkAssetPath": "",
      "talkAssetPathAlter": "",
      "talkAudioName": "",
      "actionBefore": "",
      "actionWhile": "",
      "actionAfter": "",
      "optionIcon": "",
      "iconPath": ""
    },
    {
      "id": 732206023,
      "talkRole": {
        "type": "TALK_ROLE_NPC",
        "_id": "4294"
      },
      "talkContentTextMapHash": 885438802,
      "talkAssetPath": "",
      "talkAssetPathAlter": "",
      "talkAudioName": "",
      "actionBefore": "",
      "actionWhile": "",
      "actionAfter": "",
      "optionIcon": "",
      "iconPath": ""
    },
    {
      "id": 732206006,
      "nextDialogs": [
        732206007
      ],
      "talkRole": {
        "type": "TALK_ROLE_PLAYER",
        "_id": ""
      },
      "talkContentTextMapHash": 4096434922,
      "talkAssetPath": "",
      "talkAssetPathAlter": "",
      "talkAudioName": "",
      "actionBefore": "",
      "actionWhile": "",
      "actionAfter": "",
      "optionIcon": "",
      "iconPath": ""
    },
    {
      "id": 732206007,
      "nextDialogs": [
        732206008
      ],
      "talkRole": {
        "type": "TALK_ROLE_NPC",
        "_id": "4294"
      },
      "talkContentTextMapHash": 2230488394,
      "talkAssetPath": "",
      "talkAssetPathAlter": "",
      "talkAudioName": "",
      "actionBefore": "",
      "actionWhile": "",
      "actionAfter": "",
      "optionIcon": "",
      "iconPath": ""
    },
    {
      "id": 732206008,
      "nextDialogs": [
        732206009
      ],
      "talkRole": {
        "type": "TALK_ROLE_NPC",
        "_id": "4294"
      },
      "talkContentTextMapHash": 2056746218,
      "talkAssetPath": "",
      "talkAssetPathAlter": "",
      "talkAudioName": "",
      "actionBefore": "",
      "actionWhile": "",
      "actionAfter": "",
      "optionIcon": "",
      "iconPath": ""
    },
    {
      "id": 732206013,
      "nextDialogs": [
        732206014
      ],
      "talkRole": {
        "type": "TALK_ROLE_PLAYER",
        "_id": ""
      },
      "talkContentTextMapHash": 3374235506,
      "talkAssetPath": "",
      "talkAssetPathAlter": "",
      "talkAudioName": "",
      "actionBefore": "",
      "actionWhile": "",
      "actionAfter": "",
      "optionIcon": "",
      "iconPath": ""
    },
    {
      "id": 732206014,
      "talkRole": {
        "type": "TALK_ROLE_NPC",
        "_id": "4294"
      },
      "talkContentTextMapHash": 4191039954,
      "talkAssetPath": "",
      "talkAssetPathAlter": "",
      "talkAudioName": "",
      "actionBefore": "",
      "actionWhile": "",
      "actionAfter": "",
      "optionIcon": "",
      "iconPath": ""
    }
  ]
}