{
  "talkId": 7322057,
  "KPGKDHAFHFE": "FREE",
  "dialogList": [
    {
      "id": 732205701,
      "nextDialogs": [
        732205702,
        732205706,
        732205712,
        732205717
      ],
      "talkRole": {
        "type": "TALK_ROLE_NPC",
        "_id": "4291"
      },
      "talkContentTextMapHash": 3318111354,
      "talkAssetPath": "",
      "talkAssetPathAlter": "",
      "talkAudioName": "",
      "actionBefore": "",
      "actionWhile": "",
      "actionAfter": "",
      "optionIcon": "",
      "iconPath": ""
    },
    {
      "id": 732205702,
      "nextDialogs": [
        732205703
      ],
      "talkRole": {
        "type": "TALK_ROLE_PLAYER",
        "_id": ""
      },
      "talkContentTextMapHash": 4007607258,
      "talkAssetPath": "",
      "talkAssetPathAlter": "",
      "talkAudioName": "",
      "actionBefore": "",
      "actionWhile": "",
      "actionAfter": "",
      "optionIcon": "",
      "iconPath": ""
    },
    {
      "id": 732205703,
      "nextDialogs": [
        732205704
      ],
      "talkRole": {
        "type": "TALK_ROLE_NPC",
        "_id": "4291"
      },
      "talkContentTextMapHash": 3286446770,
      "talkAssetPath": "",
      "talkAssetPathAlter": "",
      "talkAudioName": "",
      "actionBefore": "",
      "actionWhile": "",
      "actionAfter": "",
      "optionIcon": "",
      "iconPath": ""
    },
    {
      "id": 732205704,
      "nextDialogs": [
        732205705
      ],
      "talkRole": {
        "type": "TALK_ROLE_NPC",
        "_id": "4291"
      },
      "talkContentTextMapHash": 2511567386,
      "talkAssetPath": "",
      "talkAssetPathAlter": "",
      "talkAudioName": "",
      "actionBefore": "",
      "actionWhile": "",
      "actionAfter": "",
      "optionIcon": "",
      "iconPath": ""
    },
    {
      "id": 732205705,
      "talkRole": {
        "type": "TALK_ROLE_NPC",
        "_id": "4291"
      },
      "talkContentTextMapHash": 660758010,
      "talkAssetPath": "",
      "talkAssetPathAlter": "",
      "talkAudioName": "",
      "actionBefore": "",
      "actionWhile": "",
      "actionAfter": "",
      "optionIcon": "",
      "iconPath": ""
    },
    {
      "id": 732205706,
      "nextDialogs": [
        732205707
      ],
      "talkRole": {
        "type": "TALK_ROLE_PLAYER",
        "_id": ""
      },
      "talkContentTextMapHash": 1636957938,
      "talkAssetPath": "",
      "talkAssetPathAlter": "",
      "talkAudioName": "",
      "actionBefore": "",
      "actionWhile": "",
      "actionAfter": "",
      "optionIcon": "",
      "iconPath": ""
    },
    {
      "id": 732205707,
      "nextDialogs": [
        732205708
      ],
      "talkRole": {
        "type": "TALK_ROLE_NPC",
        "_id": "4291"
      },
      "talkContentTextMapHash": 820436370,
      "talkAssetPath": "",
      "talkAssetPathAlter": "",
      "talkAudioName": "",
      "actionBefore": "",
      "actionWhile": "",
      "actionAfter": "",
      "optionIcon": "",
      "iconPath": ""
    },
    {
      "id": 732205708,
      "nextDialogs": [
        732205709
      ],
      "talkRole": {
        "type": "TALK_ROLE_NPC",
        "_id": "4291"
      },
      "talkContentTextMapHash": 492410898,
      "talkAssetPath": "",
      "talkAssetPathAlter": "",
      "talkAudioName": "",
      "actionBefore": "",
      "actionWhile": "",
      "actionAfter": "",
      "optionIcon": "",
      "iconPath": ""
    },
    {
      "id": 732205709,
      "nextDialogs": [
        732205710
      ],
      "talkRole": {
        "type": "TALK_ROLE_NPC",
        "_id": "4291"
      },
      "talkContentTextMapHash": 584879218,
      "talkAssetPath": "",
      "talkAssetPathAlter": "",
      "talkAudioName": "",
      "actionBefore": "",
      "actionWhile": "",
      "actionAfter": "",
      "optionIcon": "",
      "iconPath": ""
    },
    {
      "id": 732205710,
      "nextDialogs": [
        732205711
      ],
      "talkRole": {
        "type": "TALK_ROLE_NPC",
        "_id": "4291"
      },
      "talkContentTextMapHash": 546577482,
      "talkAssetPath": "",
      "talkAssetPathAlter": "",
      "talkAudioName": "",
      "actionBefore": "",
      "actionWhile": "",
      "actionAfter": "",
      "optionIcon": "",
      "iconPath": ""
    },
    {
      "id": 732205711,
      "talkRole": {
        "type": "TALK_ROLE_NPC",
        "_id": "4291"
      },
      "talkContentTextMapHash": 400562834,
      "talkAssetPath": "",
      "talkAssetPathAlter": "",
      "talkAudioName": "",
      "actionBefore": "",
      "actionWhile": "",
      "actionAfter": "",
      "optionIcon": "",
      "iconPath": ""
    },
    {
      "id": 732205712,
      "nextDialogs": [
        732205713
      ],
      "talkRole": {
        "type": "TALK_ROLE_PLAYER",
        "_id": ""
      },
      "talkContentTextMapHash": 3370057226,
      "talkAssetPath": "",
      "talkAssetPathAlter": "",
      "talkAudioName": "",
      "actionBefore": "",
      "actionWhile": "",
      "actionAfter": "",
      "optionIcon": "",
      "iconPath": ""
    },
    {
      "id": 732205713,
      "nextDialogs": [
        732205714
      ],
      "talkRole": {
        "type": "TALK_ROLE_NPC",
        "_id": "4291"
      },
      "talkContentTextMapHash": 3381364322,
      "talkAssetPath": "",
      "talkAssetPathAlter": "",
      "talkAudioName": "",
      "actionBefore": "",
      "actionWhile": "",
      "actionAfter": "",
      "optionIcon": "",
      "iconPath": ""
    },
    {
      "id": 732205714,
      "nextDialogs": [
        732205715
      ],
      "talkRole": {
        "type": "TALK_ROLE_NPC",
        "_id": "4291"
      },
      "talkContentTextMapHash": 3135329530,
      "talkAssetPath": "",
      "talkAssetPathAlter": "",
      "talkAudioName": "",
      "actionBefore": "",
      "actionWhile": "",
      "actionAfter": "",
      "optionIcon": "",
      "iconPath": ""
    },
    {
      "id": 732205715,
      "nextDialogs": [
        732205716
      ],
      "talkRole": {
        "type": "TALK_ROLE_NPC",
        "_id": "4291"
      },
      "talkContentTextMapHash": 483443418,
      "talkAssetPath": "",
      "talkAssetPathAlter": "",
      "talkAudioName": "",
      "actionBefore": "",
      "actionWhile": "",
      "actionAfter": "",
      "optionIcon": "",
      "iconPath": ""
    },
    {
      "id": 732205716,
      "talkRole": {
        "type": "TALK_ROLE_NPC",
        "_id": "4291"
      },
      "talkContentTextMapHash": 2759229138,
      "talkAssetPath": "",
      "talkAssetPathAlter": "",
      "talkAudioName": "",
      "actionBefore": "",
      "actionWhile": "",
      "actionAfter": "",
      "optionIcon": "",
      "iconPath": ""
    },
    {
      "id": 732205717,
      "nextDialogs": [
        732205718
      ],
      "talkRole": {
        "type": "TALK_ROLE_PLAYER",
        "_id": ""
      },
      "talkContentTextMapHash": 3685764866,
      "talkAssetPath": "",
      "talkAssetPathAlter": "",
      "talkAudioName": "",
      "actionBefore": "",
      "actionWhile": "",
      "actionAfter": "",
      "optionIcon": "",
      "iconPath": ""
    },
    {
      "id": 732205718,
      "talkRole": {
        "type": "TALK_ROLE_NPC",
        "_id": "4291"
      },
      "talkContentTextMapHash": 953457050,
      "talkAssetPath": "",
      "talkAssetPathAlter": "",
      "talkAudioName": "",
      "actionBefore": "",
      "actionWhile": "",
      "actionAfter": "",
      "optionIcon": "",
      "iconPath": ""
    }
  ]
}