{
  "talkId": 7323618,
  "KPGKDHAFHFE": "FREE",
  "dialogList": [
    {
      "id": 732361801,
      "talkRole": {
        "type": "TALK_ROLE_NPC",
        "_id": "4279"
      },
      "talkContentTextMapHash": 3533614946,
      "talkRoleNameTextMapHash": 3664051059,
      "talkAssetPath": "",
      "talkAssetPathAlter": "",
      "talkAudioName": "",
      "actionBefore": "",
      "actionWhile": "",
      "actionAfter": "",
      "optionIcon": "",
      "iconPath": ""
    }
  ]
}