{
  "talkId": 7323610,
  "KPGKDHAFHFE": "FREE",
  "dialogList": [
    {
      "id": 732361001,
      "nextDialogs": [
        732361002
      ],
      "talkRole": {
        "type": "TALK_ROLE_NPC",
        "_id": "4271"
      },
      "talkContentTextMapHash": 2019782162,
      "talkRoleNameTextMapHash": 1721988643,
      "talkAssetPath": "",
      "talkAssetPathAlter": "",
      "talkAudioName": "",
      "actionBefore": "",
      "actionWhile": "",
      "actionAfter": "",
      "optionIcon": "",
      "iconPath": ""
    },
    {
      "id": 732361002,
      "nextDialogs": [
        732361003
      ],
      "talkRole": {
        "type": "TALK_ROLE_NPC",
        "_id": "4271"
      },
      "talkContentTextMapHash": 3010211234,
      "talkRoleNameTextMapHash": 1408585163,
      "talkAssetPath": "",
      "talkAssetPathAlter": "",
      "talkAudioName": "",
      "actionBefore": "",
      "actionWhile": "",
      "actionAfter": "",
      "optionIcon": "",
      "iconPath": ""
    },
    {
      "id": 732361003,
      "nextDialogs": [
        732361004
      ],
      "talkRole": {
        "type": "TALK_ROLE_NPC",
        "_id": "4271"
      },
      "talkContentTextMapHash": 1391267882,
      "talkRoleNameTextMapHash": 805427379,
      "talkAssetPath": "",
      "talkAssetPathAlter": "",
      "talkAudioName": "",
      "actionBefore": "",
      "actionWhile": "",
      "actionAfter": "",
      "optionIcon": "",
      "iconPath": ""
    },
    {
      "id": 732361004,
      "nextDialogs": [
        732361005
      ],
      "talkRole": {
        "type": "TALK_ROLE_NPC",
        "_id": "4271"
      },
      "talkContentTextMapHash": 2528168322,
      "talkRoleNameTextMapHash": 3337692411,
      "talkAssetPath": "",
      "talkAssetPathAlter": "",
      "talkAudioName": "",
      "actionBefore": "",
      "actionWhile": "",
      "actionAfter": "",
      "optionIcon": "",
      "iconPath": ""
    },
    {
      "id": 732361005,
      "talkRole": {
        "type": "TALK_ROLE_NPC",
        "_id": "4271"
      },
      "talkContentTextMapHash": 641413354,
      "talkRoleNameTextMapHash": 1940634819,
      "talkAssetPath": "",
      "talkAssetPathAlter": "",
      "talkAudioName": "",
      "actionBefore": "",
      "actionWhile": "",
      "actionAfter": "",
      "optionIcon": "",
      "iconPath": ""
    }
  ]
}