{
  "talkId": 7368615,
  "KPGKDHAFHFE": "FREE",
  "dialogList": [
    {
      "id": 736861501,
      "nextDialogs": [
        736861502
      ],
      "talkRole": {
        "type": "TALK_ROLE_NPC",
        "_id": "13081"
      },
      "talkContentTextMapHash": 559837650,
      "talkAssetPath": "",
      "talkAssetPathAlter": "",
      "talkAudioName": "",
      "actionBefore": "",
      "actionWhile": "",
      "actionAfter": "",
      "optionIcon": "",
      "iconPath": ""
    },
    {
      "id": 736861502,
      "nextDialogs": [
        736861503
      ],
      "talkRole": {
        "type": "TALK_ROLE_NPC",
        "_id": "13080"
      },
      "talkContentTextMapHash": 3084515810,
      "talkAssetPath": "",
      "talkAssetPathAlter": "",
      "talkAudioName": "",
      "actionBefore": "",
      "actionWhile": "",
      "actionAfter": "",
      "optionIcon": "",
      "iconPath": ""
    },
    {
      "id": 736861503,
      "nextDialogs": [
        736861504
      ],
      "talkRole": {
        "type": "TALK_ROLE_NPC",
        "_id": "13081"
      },
      "talkContentTextMapHash": 3480189266,
      "talkAssetPath": "",
      "talkAssetPathAlter": "",
      "talkAudioName": "",
      "actionBefore": "",
      "actionWhile": "",
      "actionAfter": "",
      "optionIcon": "",
      "iconPath": ""
    },
    {
      "id": 736861504,
      "nextDialogs": [
        736861505
      ],
      "talkRole": {
        "type": "TALK_ROLE_NPC",
        "_id": "13080"
      },
      "talkContentTextMapHash": 512336874,
      "talkAssetPath": "",
      "talkAssetPathAlter": "",
      "talkAudioName": "",
      "actionBefore": "",
      "actionWhile": "",
      "actionAfter": "",
      "optionIcon": "",
      "iconPath": ""
    },
    {
      "id": 736861505,
      "nextDialogs": [
        736861506
      ],
      "talkRole": {
        "type": "TALK_ROLE_NPC",
        "_id": "13080"
      },
      "talkContentTextMapHash": 2397226410,
      "talkAssetPath": "",
      "talkAssetPathAlter": "",
      "talkAudioName": "",
      "actionBefore": "",
      "actionWhile": "",
      "actionAfter": "",
      "optionIcon": "",
      "iconPath": ""
    },
    {
      "id": 736861506,
      "talkRole": {
        "type": "TALK_ROLE_NPC",
        "_id": "13081"
      },
      "talkContentTextMapHash": 2602349954,
      "talkAssetPath": "",
      "talkAssetPathAlter": "",
      "talkAudioName": "",
      "actionBefore": "",
      "actionWhile": "",
      "actionAfter": "",
      "optionIcon": "",
      "iconPath": ""
    }
  ]
}