{
  "talkId": 7390801,
  "KPGKDHAFHFE": "FREE",
  "dialogList": [
    {
      "id": 739080101,
      "nextDialogs": [
        739080102
      ],
      "talkShowType": "TALK_SHOW_FORCE_SELECT",
      "talkRole": {
        "type": "TALK_ROLE_PLAYER",
        "_id": ""
      },
      "talkContentTextMapHash": 2610637426,
      "talkAssetPath": "",
      "talkAssetPathAlter": "",
      "talkAudioName": "",
      "actionBefore": "",
      "actionWhile": "",
      "actionAfter": "",
      "optionIcon": "UI_Icon_Intee_TreasureBox",
      "iconPath": ""
    },
    {
      "id": 739080102,
      "nextDialogs": [
        739080103
      ],
      "talkRole": {
        "type": "TALK_ROLE_NPC",
        "_id": "4124"
      },
      "talkContentTextMapHash": 2658931994,
      "talkAssetPath": "",
      "talkAssetPathAlter": "",
      "talkAudioName": "",
      "actionBefore": "",
      "actionWhile": "",
      "actionAfter": "",
      "optionIcon": "",
      "iconPath": ""
    },
    {
      "id": 739080103,
      "nextDialogs": [
        739080104
      ],
      "talkRole": {
        "type": "TALK_ROLE_NPC",
        "_id": "4124"
      },
      "talkContentTextMapHash": 3333829322,
      "talkAssetPath": "",
      "talkAssetPathAlter": "",
      "talkAudioName": "",
      "actionBefore": "",
      "actionWhile": "",
      "actionAfter": "",
      "optionIcon": "",
      "iconPath": ""
    },
    {
      "id": 739080104,
      "nextDialogs": [
        739080105
      ],
      "talkRole": {
        "type": "TALK_ROLE_NPC",
        "_id": "4124"
      },
      "talkContentTextMapHash": 253531058,
      "talkAssetPath": "",
      "talkAssetPathAlter": "",
      "talkAudioName": "",
      "actionBefore": "",
      "actionWhile": "",
      "actionAfter": "",
      "optionIcon": "",
      "iconPath": ""
    },
    {
      "id": 739080105,
      "talkRole": {
        "type": "TALK_ROLE_NPC",
        "_id": "4124"
      },
      "talkContentTextMapHash": 3849562178,
      "talkAssetPath": "",
      "talkAssetPathAlter": "",
      "talkAudioName": "",
      "actionBefore": "",
      "actionWhile": "",
      "actionAfter": "",
      "optionIcon": "",
      "iconPath": ""
    }
  ]
}