{
  "talkId": 7390501,
  "KPGKDHAFHFE": "FREE",
  "dialogList": [
    {
      "id": 739050101,
      "nextDialogs": [
        739050102
      ],
      "talkShowType": "TALK_SHOW_FORCE_SELECT",
      "talkRole": {
        "type": "TALK_ROLE_PLAYER",
        "_id": ""
      },
      "talkContentTextMapHash": 2792411226,
      "talkAssetPath": "",
      "talkAssetPathAlter": "",
      "talkAudioName": "",
      "actionBefore": "",
      "actionWhile": "",
      "actionAfter": "",
      "optionIcon": "UI_Icon_Intee_TreasureBox",
      "iconPath": ""
    },
    {
      "id": 739050102,
      "nextDialogs": [
        739050103
      ],
      "talkRole": {
        "type": "TALK_ROLE_NPC",
        "_id": "4115"
      },
      "talkContentTextMapHash": 3779146642,
      "talkAssetPath": "",
      "talkAssetPathAlter": "",
      "talkAudioName": "",
      "actionBefore": "",
      "actionWhile": "",
      "actionAfter": "",
      "optionIcon": "",
      "iconPath": ""
    },
    {
      "id": 739050103,
      "talkRole": {
        "type": "TALK_ROLE_NPC",
        "_id": "4115"
      },
      "talkContentTextMapHash": 3111388522,
      "talkAssetPath": "",
      "talkAssetPathAlter": "",
      "talkAudioName": "",
      "actionBefore": "",
      "actionWhile": "",
      "actionAfter": "",
      "optionIcon": "",
      "iconPath": ""
    }
  ]
}