{
  "talkId": 7390101,
  "KPGKDHAFHFE": "FREE",
  "dialogList": [
    {
      "id": 739010101,
      "nextDialogs": [
        739010102
      ],
      "talkShowType": "TALK_SHOW_FORCE_SELECT",
      "talkRole": {
        "type": "TALK_ROLE_PLAYER",
        "_id": ""
      },
      "talkContentTextMapHash": 864624674,
      "talkAssetPath": "",
      "talkAssetPathAlter": "",
      "talkAudioName": "",
      "actionBefore": "",
      "actionWhile": "",
      "actionAfter": "",
      "optionIcon": "UI_Icon_Intee_TreasureBox",
      "iconPath": ""
    },
    {
      "id": 739010102,
      "nextDialogs": [
        739010103
      ],
      "talkRole": {
        "type": "TALK_ROLE_NPC",
        "_id": "4301"
      },
      "talkContentTextMapHash": 3956712882,
      "talkAssetPath": "",
      "talkAssetPathAlter": "",
      "talkAudioName": "",
      "actionBefore": "",
      "actionWhile": "",
      "actionAfter": "",
      "optionIcon": "",
      "iconPath": ""
    },
    {
      "id": 739010103,
      "talkRole": {
        "type": "TALK_ROLE_NPC",
        "_id": "4301"
      },
      "talkContentTextMapHash": 636350794,
      "talkAssetPath": "",
      "talkAssetPathAlter": "",
      "talkAudioName": "",
      "actionBefore": "",
      "actionWhile": "",
      "actionAfter": "",
      "optionIcon": "",
      "iconPath": ""
    }
  ]
}