{
  "talkId": 7392701,
  "KPGKDHAFHFE": "FREE",
  "dialogList": [
    {
      "id": 739270101,
      "nextDialogs": [
        739270102
      ],
      "talkShowType": "TALK_SHOW_FORCE_SELECT",
      "talkRole": {
        "type": "TALK_ROLE_PLAYER",
        "_id": ""
      },
      "talkContentTextMapHash": 1460237106,
      "talkAssetPath": "",
      "talkAssetPathAlter": "",
      "talkAudioName": "",
      "actionBefore": "",
      "actionWhile": "",
      "actionAfter": "",
      "optionIcon": "UI_Icon_Intee_TreasureBox",
      "iconPath": ""
    },
    {
      "id": 739270102,
      "nextDialogs": [
        739270103
      ],
      "talkRole": {
        "type": "TALK_ROLE_NPC",
        "_id": "4023"
      },
      "talkContentTextMapHash": 891836442,
      "talkAssetPath": "",
      "talkAssetPathAlter": "",
      "talkAudioName": "",
      "actionBefore": "",
      "actionWhile": "",
      "actionAfter": "",
      "optionIcon": "",
      "iconPath": ""
    },
    {
      "id": 739270103,
      "nextDialogs": [
        739270104
      ],
      "talkRole": {
        "type": "TALK_ROLE_NPC",
        "_id": "4023"
      },
      "talkContentTextMapHash": 1895021578,
      "talkAssetPath": "",
      "talkAssetPathAlter": "",
      "talkAudioName": "",
      "actionBefore": "",
      "actionWhile": "",
      "actionAfter": "",
      "optionIcon": "",
      "iconPath": ""
    },
    {
      "id": 739270104,
      "talkRole": {
        "type": "TALK_ROLE_NPC",
        "_id": "4023"
      },
      "talkContentTextMapHash": 3782331042,
      "talkAssetPath": "",
      "talkAssetPathAlter": "",
      "talkAudioName": "",
      "actionBefore": "",
      "actionWhile": "",
      "actionAfter": "",
      "optionIcon": "",
      "iconPath": ""
    }
  ]
}