{
  "talkId": 7393201,
  "KPGKDHAFHFE": "FREE",
  "dialogList": [
    {
      "id": 739320101,
      "nextDialogs": [
        739320102
      ],
      "talkShowType": "TALK_SHOW_FORCE_SELECT",
      "talkRole": {
        "type": "TALK_ROLE_PLAYER",
        "_id": ""
      },
      "talkContentTextMapHash": 1734489002,
      "talkAssetPath": "",
      "talkAssetPathAlter": "",
      "talkAudioName": "",
      "actionBefore": "",
      "actionWhile": "",
      "actionAfter": "",
      "optionIcon": "UI_Icon_Intee_TreasureBox",
      "iconPath": ""
    },
    {
      "id": 739320102,
      "nextDialogs": [
        739320103
      ],
      "talkRole": {
        "type": "TALK_ROLE_NPC",
        "_id": "4043"
      },
      "talkContentTextMapHash": 2163529786,
      "talkAssetPath": "",
      "talkAssetPathAlter": "",
      "talkAudioName": "",
      "actionBefore": "",
      "actionWhile": "",
      "actionAfter": "",
      "optionIcon": "",
      "iconPath": ""
    },
    {
      "id": 739320103,
      "talkRole": {
        "type": "TALK_ROLE_NPC",
        "_id": "4043"
      },
      "talkContentTextMapHash": 1984012018,
      "talkAssetPath": "",
      "talkAssetPathAlter": "",
      "talkAudioName": "",
      "actionBefore": "",
      "actionWhile": "",
      "actionAfter": "",
      "optionIcon": "",
      "iconPath": ""
    }
  ]
}