{
  "talkId": 7393001,
  "KPGKDHAFHFE": "FREE",
  "dialogList": [
    {
      "id": 739300101,
      "nextDialogs": [
        739300102
      ],
      "talkShowType": "TALK_SHOW_FORCE_SELECT",
      "talkRole": {
        "type": "TALK_ROLE_PLAYER",
        "_id": ""
      },
      "talkContentTextMapHash": 818006970,
      "talkAssetPath": "",
      "talkAssetPathAlter": "",
      "talkAudioName": "",
      "actionBefore": "",
      "actionWhile": "",
      "actionAfter": "",
      "optionIcon": "UI_Icon_Intee_TreasureBox",
      "iconPath": ""
    },
    {
      "id": 739300102,
      "talkRole": {
        "type": "TALK_ROLE_NPC",
        "_id": "4030"
      },
      "talkContentTextMapHash": 3408775946,
      "talkAssetPath": "",
      "talkAssetPathAlter": "",
      "talkAudioName": "",
      "actionBefore": "",
      "actionWhile": "",
      "actionAfter": "",
      "optionIcon": "",
      "iconPath": ""
    }
  ]
}