{
  "talkId": 7395101,
  "KPGKDHAFHFE": "FREE",
  "dialogList": [
    {
      "id": 739510101,
      "nextDialogs": [
        739510102
      ],
      "talkShowType": "TALK_SHOW_FORCE_SELECT",
      "talkRole": {
        "type": "TALK_ROLE_PLAYER",
        "_id": ""
      },
      "talkContentTextMapHash": 950048994,
      "talkAssetPath": "",
      "talkAssetPathAlter": "",
      "talkAudioName": "",
      "actionBefore": "",
      "actionWhile": "",
      "actionAfter": "",
      "optionIcon": "UI_Icon_Intee_TreasureBox",
      "iconPath": ""
    },
    {
      "id": 739510102,
      "nextDialogs": [
        739510103
      ],
      "talkRole": {
        "type": "TALK_ROLE_NPC",
        "_id": "4328"
      },
      "talkContentTextMapHash": 1746387194,
      "talkAssetPath": "",
      "talkAssetPathAlter": "",
      "talkAudioName": "",
      "actionBefore": "",
      "actionWhile": "",
      "actionAfter": "",
      "optionIcon": "",
      "iconPath": ""
    },
    {
      "id": 739510103,
      "nextDialogs": [
        739510104
      ],
      "talkRole": {
        "type": "TALK_ROLE_NPC",
        "_id": "4328"
      },
      "talkContentTextMapHash": 1710074922,
      "talkAssetPath": "",
      "talkAssetPathAlter": "",
      "talkAudioName": "",
      "actionBefore": "",
      "actionWhile": "",
      "actionAfter": "",
      "optionIcon": "",
      "iconPath": ""
    },
    {
      "id": 739510104,
      "talkRole": {
        "type": "TALK_ROLE_NPC",
        "_id": "4328"
      },
      "talkContentTextMapHash": 3062470002,
      "talkAssetPath": "",
      "talkAssetPathAlter": "",
      "talkAudioName": "",
      "actionBefore": "",
      "actionWhile": "",
      "actionAfter": "",
      "optionIcon": "",
      "iconPath": ""
    }
  ]
}