{
  "talkId": 7395301,
  "KPGKDHAFHFE": "FREE",
  "dialogList": [
    {
      "id": 739530101,
      "nextDialogs": [
        739530102
      ],
      "talkShowType": "TALK_SHOW_FORCE_SELECT",
      "talkRole": {
        "type": "TALK_ROLE_PLAYER",
        "_id": ""
      },
      "talkContentTextMapHash": 2003489930,
      "talkAssetPath": "",
      "talkAssetPathAlter": "",
      "talkAudioName": "",
      "actionBefore": "",
      "actionWhile": "",
      "actionAfter": "",
      "optionIcon": "UI_Icon_Intee_TreasureBox",
      "iconPath": ""
    },
    {
      "id": 739530102,
      "nextDialogs": [
        739530103
      ],
      "talkRole": {
        "type": "TALK_ROLE_NPC",
        "_id": "4333"
      },
      "talkContentTextMapHash": 1501911786,
      "talkAssetPath": "",
      "talkAssetPathAlter": "",
      "talkAudioName": "",
      "actionBefore": "",
      "actionWhile": "",
      "actionAfter": "",
      "optionIcon": "",
      "iconPath": ""
    },
    {
      "id": 739530103,
      "talkRole": {
        "type": "TALK_ROLE_NPC",
        "_id": "4333"
      },
      "talkContentTextMapHash": 205054282,
      "talkAssetPath": "",
      "talkAssetPathAlter": "",
      "talkAudioName": "",
      "actionBefore": "",
      "actionWhile": "",
      "actionAfter": "",
      "optionIcon": "",
      "iconPath": ""
    }
  ]
}