{
  "talkId": 7400013,
  "KPGKDHAFHFE": "FREE",
  "dialogList": [
    {
      "id": 740001301,
      "nextDialogs": [
        740001302,
        740001307,
        740001313,
        740001320
      ],
      "talkRole": {
        "type": "TALK_ROLE_PLAYER",
        "_id": ""
      },
      "talkContentTextMapHash": 397599034,
      "talkAssetPath": "",
      "talkAssetPathAlter": "",
      "talkAudioName": "",
      "actionBefore": "",
      "actionWhile": "",
      "actionAfter": "",
      "optionIcon": "",
      "iconPath": ""
    },
    {
      "id": 740001302,
      "nextDialogs": [
        740001303
      ],
      "talkRole": {
        "type": "TALK_ROLE_PLAYER",
        "_id": ""
      },
      "talkContentTextMapHash": 160408226,
      "talkAssetPath": "",
      "talkAssetPathAlter": "",
      "talkAudioName": "",
      "actionBefore": "",
      "actionWhile": "",
      "actionAfter": "",
      "optionIcon": "",
      "iconPath": ""
    },
    {
      "id": 740001303,
      "nextDialogs": [
        740001304
      ],
      "talkRole": {
        "type": "TALK_ROLE_NPC",
        "_id": "21235"
      },
      "talkContentTextMapHash": 375686490,
      "talkRoleNameTextMapHash": 13001627,
      "talkAssetPath": "",
      "talkAssetPathAlter": "",
      "talkAudioName": "",
      "actionBefore": "",
      "actionWhile": "",
      "actionAfter": "",
      "optionIcon": "",
      "iconPath": ""
    },
    {
      "id": 740001304,
      "nextDialogs": [
        740001305
      ],
      "talkRole": {
        "type": "TALK_ROLE_NPC",
        "_id": "21235"
      },
      "talkContentTextMapHash": 4203863970,
      "talkRoleNameTextMapHash": 1545002483,
      "talkAssetPath": "",
      "talkAssetPathAlter": "",
      "talkAudioName": "",
      "actionBefore": "",
      "actionWhile": "",
      "actionAfter": "",
      "optionIcon": "",
      "iconPath": ""
    },
    {
      "id": 740001305,
      "nextDialogs": [
        740001306
      ],
      "talkRole": {
        "type": "TALK_ROLE_NPC",
        "_id": "21235"
      },
      "talkContentTextMapHash": 2419921154,
      "talkRoleNameTextMapHash": 2804766171,
      "talkAssetPath": "",
      "talkAssetPathAlter": "",
      "talkAudioName": "",
      "actionBefore": "",
      "actionWhile": "",
      "actionAfter": "",
      "optionIcon": "",
      "iconPath": ""
    },
    {
      "id": 740001306,
      "talkRole": {
        "type": "TALK_ROLE_NPC",
        "_id": "21235"
      },
      "talkContentTextMapHash": 979709586,
      "talkRoleNameTextMapHash": 2624985587,
      "talkAssetPath": "",
      "talkAssetPathAlter": "",
      "talkAudioName": "",
      "actionBefore": "",
      "actionWhile": "",
      "actionAfter": "",
      "optionIcon": "",
      "iconPath": ""
    },
    {
      "id": 740001307,
      "nextDialogs": [
        740001308
      ],
      "talkRole": {
        "type": "TALK_ROLE_PLAYER",
        "_id": ""
      },
      "talkContentTextMapHash": 759840378,
      "talkAssetPath": "",
      "talkAssetPathAlter": "",
      "talkAudioName": "",
      "actionBefore": "",
      "actionWhile": "",
      "actionAfter": "",
      "optionIcon": "",
      "iconPath": ""
    },
    {
      "id": 740001308,
      "nextDialogs": [
        740001309
      ],
      "talkRole": {
        "type": "TALK_ROLE_NPC",
        "_id": "21235"
      },
      "talkContentTextMapHash": 4006466658,
      "talkRoleNameTextMapHash": 973343451,
      "talkAssetPath": "",
      "talkAssetPathAlter": "",
      "talkAudioName": "",
      "actionBefore": "",
      "actionWhile": "",
      "actionAfter": "",
      "optionIcon": "",
      "iconPath": ""
    },
    {
      "id": 740001309,
      "nextDialogs": [
        740001310
      ],
      "talkRole": {
        "type": "TALK_ROLE_NPC",
        "_id": "21235"
      },
      "talkContentTextMapHash": 472645290,
      "talkRoleNameTextMapHash": 363397819,
      "talkAssetPath": "",
      "talkAssetPathAlter": "",
      "talkAudioName": "",
      "actionBefore": "",
      "actionWhile": "",
      "actionAfter": "",
      "optionIcon": "",
      "iconPath": ""
    },
    {
      "id": 740001310,
      "nextDialogs": [
        740001311
      ],
      "talkRole": {
        "type": "TALK_ROLE_NPC",
        "_id": "21235"
      },
      "talkContentTextMapHash": 704775858,
      "talkRoleNameTextMapHash": 2897286299,
      "talkAssetPath": "",
      "talkAssetPathAlter": "",
      "talkAudioName": "",
      "actionBefore": "",
      "actionWhile": "",
      "actionAfter": "",
      "optionIcon": "",
      "iconPath": ""
    },
    {
      "id": 740001311,
      "nextDialogs": [
        740001312
      ],
      "talkRole": {
        "type": "TALK_ROLE_NPC",
        "_id": "21235"
      },
      "talkContentTextMapHash": 4140937186,
      "talkRoleNameTextMapHash": 488872355,
      "talkAssetPath": "",
      "talkAssetPathAlter": "",
      "talkAudioName": "",
      "actionBefore": "",
      "actionWhile": "",
      "actionAfter": "",
      "optionIcon": "",
      "iconPath": ""
    },
    {
      "id": 740001312,
      "talkRole": {
        "type": "TALK_ROLE_NPC",
        "_id": "21235"
      },
      "talkContentTextMapHash": 3401583186,
      "talkRoleNameTextMapHash": 1376022643,
      "talkAssetPath": "",
      "talkAssetPathAlter": "",
      "talkAudioName": "",
      "actionBefore": "",
      "actionWhile": "",
      "actionAfter": "",
      "optionIcon": "",
      "iconPath": ""
    },
    {
      "id": 740001313,
      "nextDialogs": [
        740001314
      ],
      "talkRole": {
        "type": "TALK_ROLE_PLAYER",
        "_id": ""
      },
      "talkContentTextMapHash": 1277480130,
      "talkAssetPath": "",
      "talkAssetPathAlter": "",
      "talkAudioName": "",
      "actionBefore": "",
      "actionWhile": "",
      "actionAfter": "",
      "optionIcon": "",
      "iconPath": ""
    },
    {
      "id": 740001314,
      "nextDialogs": [
        740001315
      ],
      "talkRole": {
        "type": "TALK_ROLE_NPC",
        "_id": "21235"
      },
      "talkContentTextMapHash": 4063657418,
      "talkRoleNameTextMapHash": 1660019059,
      "talkAssetPath": "",
      "talkAssetPathAlter": "",
      "talkAudioName": "",
      "actionBefore": "",
      "actionWhile": "",
      "actionAfter": "",
      "optionIcon": "",
      "iconPath": ""
    },
    {
      "id": 740001315,
      "nextDialogs": [
        740001316
      ],
      "talkRole": {
        "type": "TALK_ROLE_NPC",
        "_id": "21235"
      },
      "talkContentTextMapHash": 732233842,
      "talkRoleNameTextMapHash": 2804511187,
      "talkAssetPath": "",
      "talkAssetPathAlter": "",
      "talkAudioName": "",
      "actionBefore": "",
      "actionWhile": "",
      "actionAfter": "",
      "optionIcon": "",
      "iconPath": ""
    },
    {
      "id": 740001316,
      "nextDialogs": [
        740001317
      ],
      "talkRole": {
        "type": "TALK_ROLE_NPC",
        "_id": "21235"
      },
      "talkContentTextMapHash": 2440480322,
      "talkRoleNameTextMapHash": 632746107,
      "talkAssetPath": "",
      "talkAssetPathAlter": "",
      "talkAudioName": "",
      "actionBefore": "",
      "actionWhile": "",
      "actionAfter": "",
      "optionIcon": "",
      "iconPath": ""
    },
    {
      "id": 740001317,
      "nextDialogs": [
        740001318
      ],
      "talkRole": {
        "type": "TALK_ROLE_NPC",
        "_id": "21235"
      },
      "talkContentTextMapHash": 4143564506,
      "talkRoleNameTextMapHash": 306781819,
      "talkAssetPath": "",
      "talkAssetPathAlter": "",
      "talkAudioName": "",
      "actionBefore": "",
      "actionWhile": "",
      "actionAfter": "",
      "optionIcon": "",
      "iconPath": ""
    },
    {
      "id": 740001318,
      "nextDialogs": [
        740001319
      ],
      "talkRole": {
        "type": "TALK_ROLE_NPC",
        "_id": "21235"
      },
      "talkContentTextMapHash": 45837426,
      "talkRoleNameTextMapHash": 3796347787,
      "talkAssetPath": "",
      "talkAssetPathAlter": "",
      "talkAudioName": "",
      "actionBefore": "",
      "actionWhile": "",
      "actionAfter": "",
      "optionIcon": "",
      "iconPath": ""
    },
    {
      "id": 740001319,
      "talkRole": {
        "type": "TALK_ROLE_NPC",
        "_id": "21235"
      },
      "talkContentTextMapHash": 210784410,
      "talkRoleNameTextMapHash": 1254202827,
      "talkAssetPath": "",
      "talkAssetPathAlter": "",
      "talkAudioName": "",
      "actionBefore": "",
      "actionWhile": "",
      "actionAfter": "",
      "optionIcon": "",
      "iconPath": ""
    },
    {
      "id": 740001320,
      "talkRole": {
        "type": "TALK_ROLE_PLAYER",
        "_id": ""
      },
      "talkContentTextMapHash": 1271490322,
      "talkAssetPath": "",
      "talkAssetPathAlter": "",
      "talkAudioName": "",
      "actionBefore": "",
      "actionWhile": "",
      "actionAfter": "",
      "optionIcon": "",
      "iconPath": ""
    }
  ]
}