{
  "talkId": 7403402,
  "KPGKDHAFHFE": "FREE",
  "dialogList": [
    {
      "id": 740340201,
      "nextDialogs": [
        740340202
      ],
      "talkShowType": "TALK_SHOW_FORCE_SELECT",
      "talkRole": {
        "type": "TALK_ROLE_PLAYER",
        "_id": ""
      },
      "talkContentTextMapHash": 1159385218,
      "talkAssetPath": "",
      "talkAssetPathAlter": "",
      "talkAudioName": "",
      "actionBefore": "",
      "actionWhile": "",
      "actionAfter": "",
      "optionIcon": "",
      "iconPath": ""
    },
    {
      "id": 740340202,
      "nextDialogs": [
        740340203
      ],
      "talkRole": {
        "type": "TALK_ROLE_NPC",
        "_id": "5084"
      },
      "talkContentTextMapHash": 2321494650,
      "talkAssetPath": "",
      "talkAssetPathAlter": "",
      "talkAudioName": "",
      "actionBefore": "",
      "actionWhile": "",
      "actionAfter": "",
      "optionIcon": "",
      "iconPath": ""
    },
    {
      "id": 740340203,
      "talkRole": {
        "type": "TALK_ROLE_NPC",
        "_id": "5084"
      },
      "talkContentTextMapHash": 981053426,
      "talkAssetPath": "",
      "talkAssetPathAlter": "",
      "talkAudioName": "",
      "actionBefore": "",
      "actionWhile": "",
      "actionAfter": "",
      "optionIcon": "",
      "iconPath": ""
    }
  ]
}