{
  "talkId": 7403403,
  "KPGKDHAFHFE": "FREE",
  "dialogList": [
    {
      "id": 740340301,
      "nextDialogs": [
        740340302
      ],
      "talkShowType": "TALK_SHOW_FORCE_SELECT",
      "talkRole": {
        "type": "TALK_ROLE_PLAYER",
        "_id": ""
      },
      "talkContentTextMapHash": 3264215282,
      "talkAssetPath": "",
      "talkAssetPathAlter": "",
      "talkAudioName": "",
      "actionBefore": "",
      "actionWhile": "",
      "actionAfter": "",
      "optionIcon": "",
      "iconPath": ""
    },
    {
      "id": 740340302,
      "nextDialogs": [
        740340303
      ],
      "talkRole": {
        "type": "TALK_ROLE_NPC",
        "_id": "5084"
      },
      "talkContentTextMapHash": 1387588922,
      "talkAssetPath": "",
      "talkAssetPathAlter": "",
      "talkAudioName": "",
      "actionBefore": "",
      "actionWhile": "",
      "actionAfter": "",
      "optionIcon": "",
      "iconPath": ""
    },
    {
      "id": 740340303,
      "talkRole": {
        "type": "TALK_ROLE_NPC",
        "_id": "5084"
      },
      "talkContentTextMapHash": 2014106530,
      "talkAssetPath": "",
      "talkAssetPathAlter": "",
      "talkAudioName": "",
      "actionBefore": "",
      "actionWhile": "",
      "actionAfter": "",
      "optionIcon": "",
      "iconPath": ""
    }
  ]
}