{
  "talkId": 7406054,
  "KPGKDHAFHFE": "FREE",
  "dialogList": [
    {
      "id": 740605401,
      "nextDialogs": [
        740605402
      ],
      "talkRole": {
        "type": "TALK_ROLE_NPC",
        "_id": "5296"
      },
      "talkContentTextMapHash": 2414073146,
      "talkAssetPath": "",
      "talkAssetPathAlter": "",
      "talkAudioName": "",
      "actionBefore": "",
      "actionWhile": "",
      "actionAfter": "",
      "optionIcon": "",
      "iconPath": ""
    },
    {
      "id": 740605402,
      "nextDialogs": [
        740605403
      ],
      "talkRole": {
        "type": "TALK_ROLE_NPC",
        "_id": "5296"
      },
      "talkContentTextMapHash": 2962673322,
      "talkRoleNameTextMapHash": 548075323,
      "talkAssetPath": "",
      "talkAssetPathAlter": "",
      "talkAudioName": "",
      "actionBefore": "",
      "actionWhile": "",
      "actionAfter": "",
      "optionIcon": "",
      "iconPath": ""
    },
    {
      "id": 740605403,
      "nextDialogs": [
        740605404
      ],
      "talkRole": {
        "type": "TALK_ROLE_NPC",
        "_id": "5296"
      },
      "talkContentTextMapHash": 1287662562,
      "talkRoleNameTextMapHash": 893718027,
      "talkAssetPath": "",
      "talkAssetPathAlter": "",
      "talkAudioName": "",
      "actionBefore": "",
      "actionWhile": "",
      "actionAfter": "",
      "optionIcon": "",
      "iconPath": ""
    },
    {
      "id": 740605404,
      "talkRole": {
        "type": "TALK_ROLE_NPC",
        "_id": "5296"
      },
      "talkContentTextMapHash": 705939602,
      "talkRoleNameTextMapHash": 737431275,
      "talkAssetPath": "",
      "talkAssetPathAlter": "",
      "talkAudioName": "",
      "actionBefore": "",
      "actionWhile": "",
      "actionAfter": "",
      "optionIcon": "",
      "iconPath": ""
    }
  ]
}