{
  "talkId": 7408203,
  "KPGKDHAFHFE": "FREE",
  "dialogList": [
    {
      "id": 740820301,
      "talkRole": {
        "type": "TALK_ROLE_NPC",
        "_id": "5265"
      },
      "talkContentTextMapHash": 833889330,
      "talkRoleNameTextMapHash": 1074558523,
      "talkAssetPath": "",
      "talkAssetPathAlter": "",
      "talkAudioName": "",
      "actionBefore": "",
      "actionWhile": "",
      "actionAfter": "",
      "optionIcon": "",
      "iconPath": ""
    }
  ]
}