{
  "talkId": 7408002,
  "KPGKDHAFHFE": "FREE",
  "dialogList": [
    {
      "id": 740800201,
      "nextDialogs": [
        740800202
      ],
      "talkRole": {
        "type": "TALK_ROLE_BLACK_SCREEN",
        "_id": ""
      },
      "talkContentTextMapHash": 3013981050,
      "talkAssetPath": "",
      "talkAssetPathAlter": "",
      "talkAudioName": "",
      "actionBefore": "",
      "actionWhile": "",
      "actionAfter": "",
      "optionIcon": "",
      "iconPath": ""
    },
    {
      "id": 740800202,
      "talkRole": {
        "type": "TALK_ROLE_NPC",
        "_id": "5269"
      },
      "talkContentTextMapHash": 4156751026,
      "talkAssetPath": "",
      "talkAssetPathAlter": "",
      "talkAudioName": "",
      "actionBefore": "",
      "actionWhile": "",
      "actionAfter": "",
      "optionIcon": "",
      "iconPath": ""
    }
  ]
}