{
  "talkId": 7409111,
  "KPGKDHAFHFE": "FREE",
  "dialogList": [
    {
      "id": 740911101,
      "nextDialogs": [
        740911102
      ],
      "talkRole": {
        "type": "TALK_ROLE_NPC",
        "_id": "5227"
      },
      "talkContentTextMapHash": 2606059466,
      "talkRoleNameTextMapHash": 39522603,
      "talkAssetPath": "",
      "talkAssetPathAlter": "",
      "talkAudioName": "",
      "actionBefore": "",
      "actionWhile": "",
      "actionAfter": "",
      "optionIcon": "",
      "iconPath": ""
    },
    {
      "id": 740911102,
      "talkRole": {
        "type": "TALK_ROLE_NPC",
        "_id": "1005"
      },
      "talkContentTextMapHash": 1987743834,
      "talkRoleNameTextMapHash": 2574183083,
      "talkAssetPath": "",
      "talkAssetPathAlter": "",
      "talkAudioName": "",
      "actionBefore": "",
      "actionWhile": "",
      "actionAfter": "",
      "optionIcon": "",
      "iconPath": ""
    }
  ]
}