{
  "talkId": 7410832,
  "KPGKDHAFHFE": "FREE",
  "dialogList": [
    {
      "id": 741083201,
      "talkRole": {
        "type": "TALK_ROLE_NPC",
        "_id": "21128"
      },
      "talkContentTextMapHash": 1051485954,
      "talkAssetPath": "",
      "talkAssetPathAlter": "",
      "talkAudioName": "",
      "actionBefore": "",
      "actionWhile": "",
      "actionAfter": "",
      "optionIcon": "",
      "iconPath": ""
    }
  ]
}