{
  "talkId": 7410834,
  "KPGKDHAFHFE": "FREE",
  "dialogList": [
    {
      "id": 741083401,
      "nextDialogs": [
        741083402
      ],
      "talkShowType": "TALK_SHOW_FORCE_SELECT",
      "talkRole": {
        "type": "TALK_ROLE_PLAYER",
        "_id": ""
      },
      "talkContentTextMapHash": 1935759002,
      "talkAssetPath": "",
      "talkAssetPathAlter": "",
      "talkAudioName": "",
      "actionBefore": "",
      "actionWhile": "",
      "actionAfter": "",
      "optionIcon": "UI_Icon_Intee_Mechanism",
      "iconPath": ""
    },
    {
      "id": 741083402,
      "talkRole": {
        "type": "TALK_ROLE_NPC",
        "_id": "21129"
      },
      "talkContentTextMapHash": 2035246018,
      "talkAssetPath": "",
      "talkAssetPathAlter": "",
      "talkAudioName": "",
      "actionBefore": "",
      "actionWhile": "",
      "actionAfter": "",
      "optionIcon": "",
      "iconPath": ""
    }
  ]
}