{
  "talkId": 7410830,
  "KPGKDHAFHFE": "FREE",
  "dialogList": [
    {
      "id": 741083001,
      "nextDialogs": [
        741083002
      ],
      "talkShowType": "TALK_SHOW_FORCE_SELECT",
      "talkRole": {
        "type": "TALK_ROLE_PLAYER",
        "_id": ""
      },
      "talkContentTextMapHash": 3458025098,
      "talkAssetPath": "",
      "talkAssetPathAlter": "",
      "talkAudioName": "",
      "actionBefore": "",
      "actionWhile": "",
      "actionAfter": "",
      "optionIcon": "UI_Icon_Intee_Mechanism",
      "iconPath": ""
    },
    {
      "id": 741083002,
      "talkRole": {
        "type": "TALK_ROLE_NPC",
        "_id": "21128"
      },
      "talkContentTextMapHash": 1680381394,
      "talkAssetPath": "",
      "talkAssetPathAlter": "",
      "talkAudioName": "",
      "actionBefore": "",
      "actionWhile": "",
      "actionAfter": "",
      "optionIcon": "",
      "iconPath": ""
    }
  ]
}