{
  "talkId": 7490301,
  "KPGKDHAFHFE": "FREE",
  "dialogList": [
    {
      "id": 749030101,
      "nextDialogs": [
        749030102
      ],
      "talkShowType": "TALK_SHOW_FORCE_SELECT",
      "talkRole": {
        "type": "TALK_ROLE_PLAYER",
        "_id": ""
      },
      "talkContentTextMapHash": 1681898130,
      "talkAssetPath": "",
      "talkAssetPathAlter": "",
      "talkAudioName": "",
      "actionBefore": "",
      "actionWhile": "",
      "actionAfter": "",
      "optionIcon": "UI_Icon_Intee_TreasureBox",
      "iconPath": ""
    },
    {
      "id": 749030102,
      "nextDialogs": [
        749030103
      ],
      "talkRole": {
        "type": "TALK_ROLE_NPC",
        "_id": "5114"
      },
      "talkContentTextMapHash": 3949741218,
      "talkAssetPath": "",
      "talkAssetPathAlter": "",
      "talkAudioName": "",
      "actionBefore": "",
      "actionWhile": "",
      "actionAfter": "",
      "optionIcon": "",
      "iconPath": ""
    },
    {
      "id": 749030103,
      "nextDialogs": [
        749030104
      ],
      "talkRole": {
        "type": "TALK_ROLE_NPC",
        "_id": "5114"
      },
      "talkContentTextMapHash": 1340956530,
      "talkAssetPath": "",
      "talkAssetPathAlter": "",
      "talkAudioName": "",
      "actionBefore": "",
      "actionWhile": "",
      "actionAfter": "",
      "optionIcon": "",
      "iconPath": ""
    },
    {
      "id": 749030104,
      "talkRole": {
        "type": "TALK_ROLE_NPC",
        "_id": "5114"
      },
      "talkContentTextMapHash": 2920243562,
      "talkAssetPath": "",
      "talkAssetPathAlter": "",
      "talkAudioName": "",
      "actionBefore": "",
      "actionWhile": "",
      "actionAfter": "",
      "optionIcon": "",
      "iconPath": ""
    }
  ]
}