{
  "talkId": 7491701,
  "KPGKDHAFHFE": "FREE",
  "dialogList": [
    {
      "id": 749170101,
      "nextDialogs": [
        749170102
      ],
      "talkShowType": "TALK_SHOW_FORCE_SELECT",
      "talkRole": {
        "type": "TALK_ROLE_PLAYER",
        "_id": ""
      },
      "talkContentTextMapHash": 855386818,
      "talkAssetPath": "",
      "talkAssetPathAlter": "",
      "talkAudioName": "",
      "actionBefore": "",
      "actionWhile": "",
      "actionAfter": "",
      "optionIcon": "UI_Icon_Intee_TreasureBox",
      "iconPath": ""
    },
    {
      "id": 749170102,
      "talkRole": {
        "type": "TALK_ROLE_NPC",
        "_id": "5045"
      },
      "talkContentTextMapHash": 3290325338,
      "talkAssetPath": "",
      "talkAssetPathAlter": "",
      "talkAudioName": "",
      "actionBefore": "",
      "actionWhile": "",
      "actionAfter": "",
      "optionIcon": "",
      "iconPath": ""
    }
  ]
}