{
  "talkId": 7492601,
  "KPGKDHAFHFE": "FREE",
  "dialogList": [
    {
      "id": 749260101,
      "nextDialogs": [
        749260102
      ],
      "talkShowType": "TALK_SHOW_FORCE_SELECT",
      "talkRole": {
        "type": "TALK_ROLE_PLAYER",
        "_id": ""
      },
      "talkContentTextMapHash": 295720818,
      "talkAssetPath": "",
      "talkAssetPathAlter": "",
      "talkAudioName": "",
      "actionBefore": "",
      "actionWhile": "",
      "actionAfter": "",
      "optionIcon": "UI_Icon_Intee_TreasureBox",
      "iconPath": ""
    },
    {
      "id": 749260102,
      "nextDialogs": [
        749260103
      ],
      "talkRole": {
        "type": "TALK_ROLE_NPC",
        "_id": "5028"
      },
      "talkContentTextMapHash": 1934169786,
      "talkAssetPath": "",
      "talkAssetPathAlter": "",
      "talkAudioName": "",
      "actionBefore": "",
      "actionWhile": "",
      "actionAfter": "",
      "optionIcon": "",
      "iconPath": ""
    },
    {
      "id": 749260103,
      "talkRole": {
        "type": "TALK_ROLE_NPC",
        "_id": "5028"
      },
      "talkContentTextMapHash": 3022032554,
      "talkAssetPath": "",
      "talkAssetPathAlter": "",
      "talkAudioName": "",
      "actionBefore": "",
      "actionWhile": "",
      "actionAfter": "",
      "optionIcon": "",
      "iconPath": ""
    }
  ]
}