{
  "talkId": 7494801,
  "KPGKDHAFHFE": "FREE",
  "dialogList": [
    {
      "id": 749480101,
      "nextDialogs": [
        749480102
      ],
      "talkShowType": "TALK_SHOW_FORCE_SELECT",
      "talkRole": {
        "type": "TALK_ROLE_PLAYER",
        "_id": ""
      },
      "talkContentTextMapHash": 2964604098,
      "talkAssetPath": "",
      "talkAssetPathAlter": "",
      "talkAudioName": "",
      "actionBefore": "",
      "actionWhile": "",
      "actionAfter": "",
      "optionIcon": "UI_Icon_Intee_TreasureBox",
      "iconPath": ""
    },
    {
      "id": 749480102,
      "nextDialogs": [
        749480103
      ],
      "talkRole": {
        "type": "TALK_ROLE_NPC",
        "_id": "5199"
      },
      "talkContentTextMapHash": 3674029650,
      "talkAssetPath": "",
      "talkAssetPathAlter": "",
      "talkAudioName": "",
      "actionBefore": "",
      "actionWhile": "",
      "actionAfter": "",
      "optionIcon": "",
      "iconPath": ""
    },
    {
      "id": 749480103,
      "nextDialogs": [
        749480104
      ],
      "talkRole": {
        "type": "TALK_ROLE_NPC",
        "_id": "5199"
      },
      "talkContentTextMapHash": 4215568546,
      "talkAssetPath": "",
      "talkAssetPathAlter": "",
      "talkAudioName": "",
      "actionBefore": "",
      "actionWhile": "",
      "actionAfter": "",
      "optionIcon": "",
      "iconPath": ""
    },
    {
      "id": 749480104,
      "talkRole": {
        "type": "TALK_ROLE_NPC",
        "_id": "5199"
      },
      "talkContentTextMapHash": 2115093490,
      "talkAssetPath": "",
      "talkAssetPathAlter": "",
      "talkAudioName": "",
      "actionBefore": "",
      "actionWhile": "",
      "actionAfter": "",
      "optionIcon": "",
      "iconPath": ""
    }
  ]
}