{
  "talkId": 7494001,
  "KPGKDHAFHFE": "FREE",
  "dialogList": [
    {
      "id": 749400101,
      "nextDialogs": [
        749400102
      ],
      "talkShowType": "TALK_SHOW_FORCE_SELECT",
      "talkRole": {
        "type": "TALK_ROLE_PLAYER",
        "_id": ""
      },
      "talkContentTextMapHash": 1121892634,
      "talkAssetPath": "",
      "talkAssetPathAlter": "",
      "talkAudioName": "",
      "actionBefore": "",
      "actionWhile": "",
      "actionAfter": "SimpleTalk/SteerOnly",
      "optionIcon": "UI_Icon_Intee_TreasureBox",
      "iconPath": ""
    },
    {
      "id": 749400102,
      "nextDialogs": [
        749400103
      ],
      "talkRole": {
        "type": "TALK_ROLE_NPC",
        "_id": "5209"
      },
      "talkContentTextMapHash": 2942771362,
      "talkAssetPath": "",
      "talkAssetPathAlter": "",
      "talkAudioName": "",
      "actionBefore": "",
      "actionWhile": "SimpleTalk/RandomTalk",
      "actionAfter": "",
      "optionIcon": "",
      "iconPath": ""
    },
    {
      "id": 749400103,
      "talkRole": {
        "type": "TALK_ROLE_NPC",
        "_id": "5209"
      },
      "talkContentTextMapHash": 4002767610,
      "talkAssetPath": "",
      "talkAssetPathAlter": "",
      "talkAudioName": "",
      "actionBefore": "",
      "actionWhile": "",
      "actionAfter": "",
      "optionIcon": "",
      "iconPath": ""
    }
  ]
}