{
  "talkId": 7900419,
  "KPGKDHAFHFE": "FREE",
  "dialogList": [
    {
      "id": 790041901,
      "talkRole": {
        "type": "TALK_ROLE_NPC",
        "_id": "2003055"
      },
      "talkContentTextMapHash": 2503997442,
      "talkRoleNameTextMapHash": 42480163,
      "talkAssetPath": "",
      "talkAssetPathAlter": "",
      "talkAudioName": "",
      "actionBefore": "",
      "actionWhile": "",
      "actionAfter": "",
      "optionIcon": "",
      "iconPath": ""
    }
  ]
}