{
  "talkId": 7902430,
  "KPGKDHAFHFE": "FREE",
  "dialogList": [
    {
      "id": 790243001,
      "nextDialogs": [
        790243002
      ],
      "talkRole": {
        "type": "TALK_ROLE_NPC",
        "_id": "20621"
      },
      "talkContentTextMapHash": 1909083906,
      "talkRoleNameTextMapHash": 1414905635,
      "talkAssetPath": "",
      "talkAssetPathAlter": "",
      "talkAudioName": "",
      "actionBefore": "",
      "actionWhile": "TEST/LerpInNpcNoSteer",
      "actionAfter": "",
      "optionIcon": "",
      "iconPath": ""
    },
    {
      "id": 790243002,
      "talkRole": {
        "type": "TALK_ROLE_NPC",
        "_id": "20621"
      },
      "talkContentTextMapHash": 1755085042,
      "talkRoleNameTextMapHash": 1050647603,
      "talkAssetPath": "",
      "talkAssetPathAlter": "",
      "talkAudioName": "",
      "actionBefore": "",
      "actionWhile": "",
      "actionAfter": "TEST/LerpOutNpcNoSteer",
      "optionIcon": "",
      "iconPath": ""
    }
  ]
}