{
  "talkId": 7902321,
  "KPGKDHAFHFE": "FREE",
  "dialogList": [
    {
      "id": 790232101,
      "nextDialogs": [
        790232102,
        790232105,
        790232107
      ],
      "talkRole": {
        "type": "TALK_ROLE_NPC",
        "_id": "20622"
      },
      "talkContentTextMapHash": 3868978138,
      "talkRoleNameTextMapHash": 3182280923,
      "talkAssetPath": "",
      "talkAssetPathAlter": "",
      "talkAudioName": "",
      "actionBefore": "",
      "actionWhile": "TEST/LerpInNpcNoSteer",
      "actionAfter": "",
      "optionIcon": "",
      "iconPath": ""
    },
    {
      "id": 790232102,
      "nextDialogs": [
        790232103
      ],
      "talkShowType": "TALK_SHOW_FORCE_SELECT",
      "talkRole": {
        "type": "TALK_ROLE_PLAYER",
        "_id": ""
      },
      "talkContentTextMapHash": 3131728818,
      "talkAssetPath": "",
      "talkAssetPathAlter": "",
      "talkAudioName": "",
      "actionBefore": "",
      "actionWhile": "",
      "actionAfter": "",
      "optionIcon": "",
      "iconPath": ""
    },
    {
      "id": 790232103,
      "nextDialogs": [
        790232104
      ],
      "talkRole": {
        "type": "TALK_ROLE_NPC",
        "_id": "20622"
      },
      "talkContentTextMapHash": 2982950378,
      "talkRoleNameTextMapHash": 973113195,
      "talkAssetPath": "",
      "talkAssetPathAlter": "",
      "talkAudioName": "",
      "actionBefore": "",
      "actionWhile": "",
      "actionAfter": "",
      "optionIcon": "",
      "iconPath": ""
    },
    {
      "id": 790232104,
      "talkRole": {
        "type": "TALK_ROLE_NPC",
        "_id": "20622"
      },
      "talkContentTextMapHash": 1093979994,
      "talkRoleNameTextMapHash": 1611934963,
      "talkAssetPath": "",
      "talkAssetPathAlter": "",
      "talkAudioName": "",
      "actionBefore": "",
      "actionWhile": "",
      "actionAfter": "TEST/LerpOutNpcNoSteer",
      "optionIcon": "",
      "iconPath": ""
    },
    {
      "id": 790232105,
      "nextDialogs": [
        790232106
      ],
      "talkShowType": "TALK_SHOW_FORCE_SELECT",
      "talkRole": {
        "type": "TALK_ROLE_PLAYER",
        "_id": ""
      },
      "talkContentTextMapHash": 1563368178,
      "talkAssetPath": "",
      "talkAssetPathAlter": "",
      "talkAudioName": "",
      "actionBefore": "",
      "actionWhile": "",
      "actionAfter": "",
      "optionIcon": "",
      "iconPath": ""
    },
    {
      "id": 790232106,
      "talkRole": {
        "type": "TALK_ROLE_NPC",
        "_id": "20622"
      },
      "talkContentTextMapHash": 23196714,
      "talkRoleNameTextMapHash": 1392324547,
      "talkAssetPath": "",
      "talkAssetPathAlter": "",
      "talkAudioName": "",
      "actionBefore": "",
      "actionWhile": "",
      "actionAfter": "TEST/LerpOutNpcNoSteer",
      "optionIcon": "",
      "iconPath": ""
    },
    {
      "id": 790232107,
      "talkShowType": "TALK_SHOW_FORCE_SELECT",
      "talkRole": {
        "type": "TALK_ROLE_PLAYER",
        "_id": ""
      },
      "talkContentTextMapHash": 2464319714,
      "talkAssetPath": "",
      "talkAssetPathAlter": "",
      "talkAudioName": "",
      "actionBefore": "",
      "actionWhile": "",
      "actionAfter": "TEST/LerpOutNpcNoSteer",
      "optionIcon": "",
      "iconPath": ""
    }
  ]
}