{
  "talkId": 6909708,
  "KPGKDHAFHFE": "FREE",
  "dialogList": [
    {
      "id": 690970301,
      "nextDialogs": [
        690970302
      ],
      "talkShowType": "TALK_SHOW_FORCE_SELECT",
      "talkRole": {
        "type": "TALK_ROLE_PLAYER",
        "_id": ""
      },
      "talkContentTextMapHash": 294776778,
      "talkAssetPath": "",
      "talkAssetPathAlter": "",
      "talkAudioName": "",
      "actionBefore": "",
      "actionWhile": "",
      "actionAfter": "",
      "optionIcon": "",
      "iconPath": ""
    },
    {
      "id": 690970302,
      "nextDialogs": [
        690970303
      ],
      "talkRole": {
        "type": "TALK_ROLE_NPC",
        "_id": "9097"
      },
      "talkContentTextMapHash": 293443818,
      "talkAssetPath": "",
      "talkAssetPathAlter": "",
      "talkAudioName": "",
      "actionBefore": "",
      "actionWhile": "",
      "actionAfter": "",
      "optionIcon": "",
      "iconPath": ""
    },
    {
      "id": 690970303,
      "nextDialogs": [
        690970304
      ],
      "talkRole": {
        "type": "TALK_ROLE_NPC",
        "_id": "9097"
      },
      "talkContentTextMapHash": 2261399986,
      "talkAssetPath": "",
      "talkAssetPathAlter": "",
      "talkAudioName": "",
      "actionBefore": "",
      "actionWhile": "",
      "actionAfter": "",
      "optionIcon": "",
      "iconPath": ""
    },
    {
      "id": 690970304,
      "nextDialogs": [
        690970305
      ],
      "talkShowType": "TALK_SHOW_FORCE_SELECT",
      "talkRole": {
        "type": "TALK_ROLE_PLAYER",
        "_id": ""
      },
      "talkContentTextMapHash": 258012242,
      "talkAssetPath": "",
      "talkAssetPathAlter": "",
      "talkAudioName": "",
      "actionBefore": "",
      "actionWhile": "",
      "actionAfter": "",
      "optionIcon": "",
      "iconPath": ""
    },
    {
      "id": 690970305,
      "nextDialogs": [
        690970306
      ],
      "talkRole": {
        "type": "TALK_ROLE_NPC",
        "_id": "9097"
      },
      "talkContentTextMapHash": 1099462290,
      "talkAssetPath": "",
      "talkAssetPathAlter": "",
      "talkAudioName": "",
      "actionBefore": "",
      "actionWhile": "",
      "actionAfter": "",
      "optionIcon": "",
      "iconPath": ""
    },
    {
      "id": 690970306,
      "nextDialogs": [
        690970307
      ],
      "talkRole": {
        "type": "TALK_ROLE_NPC",
        "_id": "9097"
      },
      "talkContentTextMapHash": 214391122,
      "talkAssetPath": "",
      "talkAssetPathAlter": "",
      "talkAudioName": "",
      "actionBefore": "",
      "actionWhile": "",
      "actionAfter": "",
      "optionIcon": "",
      "iconPath": ""
    },
    {
      "id": 690970307,
      "nextDialogs": [
        690970308,
        690970312
      ],
      "talkRole": {
        "type": "TALK_ROLE_NPC",
        "_id": "9097"
      },
      "talkContentTextMapHash": 807402586,
      "talkAssetPath": "",
      "talkAssetPathAlter": "",
      "talkAudioName": "",
      "actionBefore": "",
      "actionWhile": "",
      "actionAfter": "",
      "optionIcon": "",
      "iconPath": ""
    },
    {
      "id": 690970308,
      "nextDialogs": [
        690970309
      ],
      "talkShowType": "TALK_SHOW_FORCE_SELECT",
      "talkRole": {
        "type": "TALK_ROLE_PLAYER",
        "_id": ""
      },
      "talkContentTextMapHash": 3801738026,
      "talkAssetPath": "",
      "talkAssetPathAlter": "",
      "talkAudioName": "",
      "actionBefore": "",
      "actionWhile": "",
      "actionAfter": "",
      "optionIcon": "",
      "iconPath": ""
    },
    {
      "id": 690970309,
      "nextDialogs": [
        690970310
      ],
      "talkRole": {
        "type": "TALK_ROLE_NPC",
        "_id": "9097"
      },
      "talkContentTextMapHash": 3175168202,
      "talkAssetPath": "",
      "talkAssetPathAlter": "",
      "talkAudioName": "",
      "actionBefore": "",
      "actionWhile": "",
      "actionAfter": "",
      "optionIcon": "",
      "iconPath": ""
    },
    {
      "id": 690970310,
      "nextDialogs": [
        690970311
      ],
      "talkRole": {
        "type": "TALK_ROLE_NPC",
        "_id": "9097"
      },
      "talkContentTextMapHash": 733188642,
      "talkAssetPath": "",
      "talkAssetPathAlter": "",
      "talkAudioName": "",
      "actionBefore": "",
      "actionWhile": "",
      "actionAfter": "",
      "optionIcon": "",
      "iconPath": ""
    },
    {
      "id": 690970311,
      "nextDialogs": [
        690970314
      ],
      "talkRole": {
        "type": "TALK_ROLE_NPC",
        "_id": "9097"
      },
      "talkContentTextMapHash": 3493368626,
      "talkAssetPath": "",
      "talkAssetPathAlter": "",
      "talkAudioName": "",
      "actionBefore": "",
      "actionWhile": "",
      "actionAfter": "",
      "optionIcon": "",
      "iconPath": ""
    },
    {
      "id": 690970314,
      "nextDialogs": [
        690970315
      ],
      "talkRole": {
        "type": "TALK_ROLE_NPC",
        "_id": "9097"
      },
      "talkContentTextMapHash": 3337099434,
      "talkAssetPath": "",
      "talkAssetPathAlter": "",
      "talkAudioName": "",
      "actionBefore": "",
      "actionWhile": "",
      "actionAfter": "",
      "optionIcon": "",
      "iconPath": ""
    },
    {
      "id": 690970315,
      "nextDialogs": [
        690970316
      ],
      "talkRole": {
        "type": "TALK_ROLE_NPC",
        "_id": "9097"
      },
      "talkContentTextMapHash": 209466458,
      "talkAssetPath": "",
      "talkAssetPathAlter": "",
      "talkAudioName": "",
      "actionBefore": "",
      "actionWhile": "",
      "actionAfter": "",
      "optionIcon": "",
      "iconPath": ""
    },
    {
      "id": 690970316,
      "nextDialogs": [
        690970317
      ],
      "talkRole": {
        "type": "TALK_ROLE_NPC",
        "_id": "9097"
      },
      "talkContentTextMapHash": 3400369946,
      "talkAssetPath": "",
      "talkAssetPathAlter": "",
      "talkAudioName": "",
      "actionBefore": "",
      "actionWhile": "",
      "actionAfter": "",
      "optionIcon": "",
      "iconPath": ""
    },
    {
      "id": 690970317,
      "nextDialogs": [
        690970318
      ],
      "talkRole": {
        "type": "TALK_ROLE_NPC",
        "_id": "9097"
      },
      "talkContentTextMapHash": 3707338594,
      "talkAssetPath": "",
      "talkAssetPathAlter": "",
      "talkAudioName": "",
      "actionBefore": "",
      "actionWhile": "",
      "actionAfter": "",
      "optionIcon": "",
      "iconPath": ""
    },
    {
      "id": 690970318,
      "nextDialogs": [
        690970319
      ],
      "talkRole": {
        "type": "TALK_ROLE_NPC",
        "_id": "9097"
      },
      "talkContentTextMapHash": 640721834,
      "talkAssetPath": "",
      "talkAssetPathAlter": "",
      "talkAudioName": "",
      "actionBefore": "",
      "actionWhile": "",
      "actionAfter": "",
      "optionIcon": "",
      "iconPath": ""
    },
    {
      "id": 690970319,
      "nextDialogs": [
        690970320
      ],
      "talkRole": {
        "type": "TALK_ROLE_NPC",
        "_id": "9097"
      },
      "talkContentTextMapHash": 1280138210,
      "talkAssetPath": "",
      "talkAssetPathAlter": "",
      "talkAudioName": "",
      "actionBefore": "",
      "actionWhile": "",
      "actionAfter": "",
      "optionIcon": "",
      "iconPath": ""
    },
    {
      "id": 690970320,
      "nextDialogs": [
        690970321
      ],
      "talkShowType": "TALK_SHOW_FORCE_SELECT",
      "talkRole": {
        "type": "TALK_ROLE_PLAYER",
        "_id": ""
      },
      "talkContentTextMapHash": 1708402546,
      "talkAssetPath": "",
      "talkAssetPathAlter": "",
      "talkAudioName": "",
      "actionBefore": "",
      "actionWhile": "",
      "actionAfter": "",
      "optionIcon": "",
      "iconPath": ""
    },
    {
      "id": 690970321,
      "nextDialogs": [
        690970322
      ],
      "talkRole": {
        "type": "TALK_ROLE_NPC",
        "_id": "9097"
      },
      "talkContentTextMapHash": 4116706018,
      "talkAssetPath": "",
      "talkAssetPathAlter": "",
      "talkAudioName": "",
      "actionBefore": "",
      "actionWhile": "",
      "actionAfter": "",
      "optionIcon": "",
      "iconPath": ""
    },
    {
      "id": 690970322,
      "nextDialogs": [
        690970323
      ],
      "talkRole": {
        "type": "TALK_ROLE_NPC",
        "_id": "9097"
      },
      "talkContentTextMapHash": 3697507898,
      "talkAssetPath": "",
      "talkAssetPathAlter": "",
      "talkAudioName": "",
      "actionBefore": "",
      "actionWhile": "",
      "actionAfter": "",
      "optionIcon": "",
      "iconPath": ""
    },
    {
      "id": 690970323,
      "nextDialogs": [
        690970324
      ],
      "talkRole": {
        "type": "TALK_ROLE_NPC",
        "_id": "9097"
      },
      "talkContentTextMapHash": 1246820786,
      "talkAssetPath": "",
      "talkAssetPathAlter": "",
      "talkAudioName": "",
      "actionBefore": "",
      "actionWhile": "",
      "actionAfter": "",
      "optionIcon": "",
      "iconPath": ""
    },
    {
      "id": 690970324,
      "nextDialogs": [
        690970325
      ],
      "talkRole": {
        "type": "TALK_ROLE_NPC",
        "_id": "9097"
      },
      "talkContentTextMapHash": 270532082,
      "talkAssetPath": "",
      "talkAssetPathAlter": "",
      "talkAudioName": "",
      "actionBefore": "",
      "actionWhile": "",
      "actionAfter": "",
      "optionIcon": "",
      "iconPath": ""
    },
    {
      "id": 690970325,
      "nextDialogs": [
        690970326
      ],
      "talkShowType": "TALK_SHOW_FORCE_SELECT",
      "talkRole": {
        "type": "TALK_ROLE_PLAYER",
        "_id": ""
      },
      "talkContentTextMapHash": 2210186386,
      "talkAssetPath": "",
      "talkAssetPathAlter": "",
      "talkAudioName": "",
      "actionBefore": "",
      "actionWhile": "",
      "actionAfter": "",
      "optionIcon": "",
      "iconPath": ""
    },
    {
      "id": 690970326,
      "nextDialogs": [
        690970327
      ],
      "talkRole": {
        "type": "TALK_ROLE_NPC",
        "_id": "9097"
      },
      "talkContentTextMapHash": 2729649626,
      "talkAssetPath": "",
      "talkAssetPathAlter": "",
      "talkAudioName": "",
      "actionBefore": "",
      "actionWhile": "",
      "actionAfter": "",
      "optionIcon": "",
      "iconPath": ""
    },
    {
      "id": 690970327,
      "talkRole": {
        "type": "TALK_ROLE_NPC",
        "_id": "9097"
      },
      "talkContentTextMapHash": 2378327554,
      "talkAssetPath": "",
      "talkAssetPathAlter": "",
      "talkAudioName": "",
      "actionBefore": "",
      "actionWhile": "",
      "actionAfter": "",
      "optionIcon": "",
      "iconPath": ""
    },
    {
      "id": 690970312,
      "nextDialogs": [
        690970313
      ],
      "talkShowType": "TALK_SHOW_FORCE_SELECT",
      "talkRole": {
        "type": "TALK_ROLE_PLAYER",
        "_id": ""
      },
      "talkContentTextMapHash": 3735386938,
      "talkAssetPath": "",
      "talkAssetPathAlter": "",
      "talkAudioName": "",
      "actionBefore": "",
      "actionWhile": "",
      "actionAfter": "",
      "optionIcon": "",
      "iconPath": ""
    },
    {
      "id": 690970313,
      "nextDialogs": [
        690970314
      ],
      "talkRole": {
        "type": "TALK_ROLE_NPC",
        "_id": "9097"
      },
      "talkContentTextMapHash": 1490958578,
      "talkAssetPath": "",
      "talkAssetPathAlter": "",
      "talkAudioName": "",
      "actionBefore": "",
      "actionWhile": "",
      "actionAfter": "",
      "optionIcon": "",
      "iconPath": ""
    }
  ]
}