{
  "talkId": 8159101,
  "KPGKDHAFHFE": "FREE",
  "dialogList": [
    {
      "id": 815910101,
      "talkRole": {
        "type": "TALK_ROLE_PLAYER",
        "_id": ""
      },
      "talkContentTextMapHash": 3131102527,
      "talkAssetPath": "",
      "talkAssetPathAlter": "",
      "talkAudioName": "",
      "actionBefore": "",
      "actionWhile": "",
      "actionAfter": "",
      "optionIcon": "UI_Icon_Intee_TalkSpecial",
      "iconPath": ""
    }
  ]
}