{
  "talkId": 6931203,
  "KPGKDHAFHFE": "FREE",
  "dialogList": [
    {
      "id": 693120301,
      "nextDialogs": [
        693120302
      ],
      "talkRole": {
        "type": "TALK_ROLE_NPC",
        "_id": "9312"
      },
      "talkContentTextMapHash": 3344701410,
      "talkAssetPath": "",
      "talkAssetPathAlter": "",
      "talkAudioName": "",
      "actionBefore": "",
      "actionWhile": "",
      "actionAfter": "",
      "optionIcon": "",
      "iconPath": ""
    },
    {
      "id": 693120302,
      "nextDialogs": [
        693120303
      ],
      "talkRole": {
        "type": "TALK_ROLE_NPC",
        "_id": "9312"
      },
      "talkContentTextMapHash": 1584264946,
      "talkAssetPath": "",
      "talkAssetPathAlter": "",
      "talkAudioName": "",
      "actionBefore": "",
      "actionWhile": "",
      "actionAfter": "",
      "optionIcon": "",
      "iconPath": ""
    },
    {
      "id": 693120303,
      "talkRole": {
        "type": "TALK_ROLE_NPC",
        "_id": "9312"
      },
      "talkContentTextMapHash": 686743002,
      "talkAssetPath": "",
      "talkAssetPathAlter": "",
      "talkAudioName": "",
      "actionBefore": "",
      "actionWhile": "",
      "actionAfter": "",
      "optionIcon": "",
      "iconPath": ""
    }
  ]
}