{
  "talkId": 6933402,
  "KPGKDHAFHFE": "FREE",
  "dialogList": [
    {
      "id": 693340201,
      "nextDialogs": [
        693340202
      ],
      "talkRole": {
        "type": "TALK_ROLE_NPC",
        "_id": "9334"
      },
      "talkContentTextMapHash": 3233520746,
      "talkAssetPath": "",
      "talkAssetPathAlter": "",
      "talkAudioName": "",
      "actionBefore": "",
      "actionWhile": "",
      "actionAfter": "",
      "optionIcon": "",
      "iconPath": ""
    },
    {
      "id": 693340202,
      "nextDialogs": [
        693340203
      ],
      "talkRole": {
        "type": "TALK_ROLE_NPC",
        "_id": "9334"
      },
      "talkContentTextMapHash": 1134276850,
      "talkAssetPath": "",
      "talkAssetPathAlter": "",
      "talkAudioName": "",
      "actionBefore": "",
      "actionWhile": "",
      "actionAfter": "",
      "optionIcon": "",
      "iconPath": ""
    },
    {
      "id": 693340203,
      "talkRole": {
        "type": "TALK_ROLE_NPC",
        "_id": "9334"
      },
      "talkContentTextMapHash": 3820276210,
      "talkAssetPath": "",
      "talkAssetPathAlter": "",
      "talkAudioName": "",
      "actionBefore": "",
      "actionWhile": "",
      "actionAfter": "",
      "optionIcon": "",
      "iconPath": ""
    }
  ]
}