{
  "talkId": 6950009,
  "KPGKDHAFHFE": "FREE",
  "dialogList": [
    {
      "id": 695000901,
      "nextDialogs": [
        695000902
      ],
      "talkShowType": "TALK_SHOW_FORCE_SELECT",
      "talkRole": {
        "type": "TALK_ROLE_PLAYER",
        "_id": ""
      },
      "talkContentTextMapHash": 4185851594,
      "talkAssetPath": "",
      "talkAssetPathAlter": "",
      "talkAudioName": "",
      "actionBefore": "",
      "actionWhile": "",
      "actionAfter": "",
      "optionIcon": "",
      "iconPath": ""
    },
    {
      "id": 695000902,
      "talkRole": {
        "type": "TALK_ROLE_NPC",
        "_id": "9500"
      },
      "talkContentTextMapHash": 1278887186,
      "talkAssetPath": "",
      "talkAssetPathAlter": "",
      "talkAudioName": "",
      "actionBefore": "",
      "actionWhile": "SimpleTalk/Standby",
      "actionAfter": "",
      "optionIcon": "",
      "iconPath": ""
    }
  ]
}