{
  "talkId": 6518709,
  "KPGKDHAFHFE": "FREE",
  "dialogList": [
    {
      "id": 651870901,
      "talkRole": {
        "type": "TALK_ROLE_NPC",
        "_id": "5187"
      },
      "talkContentTextMapHash": 363276682,
      "talkAssetPath": "",
      "talkAssetPathAlter": "",
      "talkAudioName": "",
      "actionBefore": "GCG/ClearWorldChallengeTalk",
      "actionWhile": "",
      "actionAfter": "",
      "optionIcon": "",
      "iconPath": ""
    }
  ]
}