{
  "talkId": 6930301,
  "KPGKDHAFHFE": "FREE",
  "dialogList": [
    {
      "id": 693030101,
      "nextDialogs": [
        693030102
      ],
      "talkRole": {
        "type": "TALK_ROLE_NPC",
        "_id": "9303"
      },
      "talkContentTextMapHash": 4288813866,
      "talkAssetPath": "",
      "talkAssetPathAlter": "",
      "talkAudioName": "",
      "actionBefore": "",
      "actionWhile": "",
      "actionAfter": "",
      "optionIcon": "",
      "iconPath": ""
    },
    {
      "id": 693030102,
      "nextDialogs": [
        693030103
      ],
      "talkRole": {
        "type": "TALK_ROLE_NPC",
        "_id": "9303"
      },
      "talkContentTextMapHash": 1560107978,
      "talkAssetPath": "",
      "talkAssetPathAlter": "",
      "talkAudioName": "",
      "actionBefore": "",
      "actionWhile": "",
      "actionAfter": "",
      "optionIcon": "",
      "iconPath": ""
    },
    {
      "id": 693030103,
      "talkRole": {
        "type": "TALK_ROLE_NPC",
        "_id": "9303"
      },
      "talkContentTextMapHash": 3802627218,
      "talkAssetPath": "",
      "talkAssetPathAlter": "",
      "talkAudioName": "",
      "actionBefore": "",
      "actionWhile": "",
      "actionAfter": "",
      "optionIcon": "",
      "iconPath": ""
    }
  ]
}