{
  "talkId": 6934103,
  "KPGKDHAFHFE": "FREE",
  "dialogList": [
    {
      "id": 693410301,
      "nextDialogs": [
        693410302
      ],
      "talkRole": {
        "type": "TALK_ROLE_NPC",
        "_id": "9341"
      },
      "talkContentTextMapHash": 3498608642,
      "talkAssetPath": "",
      "talkAssetPathAlter": "",
      "talkAudioName": "",
      "actionBefore": "",
      "actionWhile": "",
      "actionAfter": "",
      "optionIcon": "",
      "iconPath": ""
    },
    {
      "id": 693410302,
      "nextDialogs": [
        693410303
      ],
      "talkRole": {
        "type": "TALK_ROLE_NPC",
        "_id": "9341"
      },
      "talkContentTextMapHash": 4175005778,
      "talkAssetPath": "",
      "talkAssetPathAlter": "",
      "talkAudioName": "",
      "actionBefore": "",
      "actionWhile": "",
      "actionAfter": "",
      "optionIcon": "",
      "iconPath": ""
    },
    {
      "id": 693410303,
      "talkRole": {
        "type": "TALK_ROLE_NPC",
        "_id": "9341"
      },
      "talkContentTextMapHash": 2259093394,
      "talkAssetPath": "",
      "talkAssetPathAlter": "",
      "talkAudioName": "",
      "actionBefore": "",
      "actionWhile": "",
      "actionAfter": "",
      "optionIcon": "",
      "iconPath": ""
    }
  ]
}