{
  "talkId": 6524210,
  "KPGKDHAFHFE": "FREE",
  "dialogList": [
    {
      "id": 652421001,
      "talkRole": {
        "type": "TALK_ROLE_NPC",
        "_id": "5242"
      },
      "talkContentTextMapHash": 3104979722,
      "talkAssetPath": "",
      "talkAssetPathAlter": "",
      "talkAudioName": "",
      "actionBefore": "GCG/ClearWorldChallengeTalk",
      "actionWhile": "",
      "actionAfter": "",
      "optionIcon": "",
      "iconPath": ""
    }
  ]
}