{
  "talkId": 6933302,
  "KPGKDHAFHFE": "FREE",
  "dialogList": [
    {
      "id": 693330201,
      "nextDialogs": [
        693330202
      ],
      "talkRole": {
        "type": "TALK_ROLE_NPC",
        "_id": "9333"
      },
      "talkContentTextMapHash": 1808796226,
      "talkAssetPath": "",
      "talkAssetPathAlter": "",
      "talkAudioName": "",
      "actionBefore": "",
      "actionWhile": "",
      "actionAfter": "",
      "optionIcon": "",
      "iconPath": ""
    },
    {
      "id": 693330202,
      "nextDialogs": [
        693330203
      ],
      "talkRole": {
        "type": "TALK_ROLE_NPC",
        "_id": "9333"
      },
      "talkContentTextMapHash": 1941408170,
      "talkAssetPath": "",
      "talkAssetPathAlter": "",
      "talkAudioName": "",
      "actionBefore": "",
      "actionWhile": "",
      "actionAfter": "",
      "optionIcon": "",
      "iconPath": ""
    },
    {
      "id": 693330203,
      "talkRole": {
        "type": "TALK_ROLE_NPC",
        "_id": "9333"
      },
      "talkContentTextMapHash": 1126161378,
      "talkAssetPath": "",
      "talkAssetPathAlter": "",
      "talkAudioName": "",
      "actionBefore": "",
      "actionWhile": "",
      "actionAfter": "",
      "optionIcon": "",
      "iconPath": ""
    }
  ]
}