{
  "talkId": 6956617,
  "KPGKDHAFHFE": "FREE",
  "dialogList": [
    {
      "id": 695661701,
      "talkRole": {
        "type": "TALK_ROLE_NPC",
        "_id": "9566"
      },
      "talkContentTextMapHash": 3560030986,
      "talkAssetPath": "",
      "talkAssetPathAlter": "",
      "talkAudioName": "",
      "actionBefore": "",
      "actionWhile": "",
      "actionAfter": "",
      "optionIcon": "",
      "iconPath": ""
    }
  ]
}