{
  "talkId": 6936902,
  "KPGKDHAFHFE": "FREE",
  "dialogList": [
    {
      "id": 693690201,
      "nextDialogs": [
        693690202
      ],
      "talkRole": {
        "type": "TALK_ROLE_NPC",
        "_id": "9369"
      },
      "talkContentTextMapHash": 3852902234,
      "talkAssetPath": "",
      "talkAssetPathAlter": "",
      "talkAudioName": "",
      "actionBefore": "",
      "actionWhile": "",
      "actionAfter": "",
      "optionIcon": "",
      "iconPath": ""
    },
    {
      "id": 693690202,
      "nextDialogs": [
        693690203
      ],
      "talkRole": {
        "type": "TALK_ROLE_NPC",
        "_id": "9369"
      },
      "talkContentTextMapHash": 3624725610,
      "talkAssetPath": "",
      "talkAssetPathAlter": "",
      "talkAudioName": "",
      "actionBefore": "",
      "actionWhile": "",
      "actionAfter": "",
      "optionIcon": "",
      "iconPath": ""
    },
    {
      "id": 693690203,
      "talkRole": {
        "type": "TALK_ROLE_NPC",
        "_id": "9369"
      },
      "talkContentTextMapHash": 3421211234,
      "talkAssetPath": "",
      "talkAssetPathAlter": "",
      "talkAudioName": "",
      "actionBefore": "",
      "actionWhile": "",
      "actionAfter": "",
      "optionIcon": "",
      "iconPath": ""
    }
  ]
}