{
  "talkId": 6933801,
  "KPGKDHAFHFE": "FREE",
  "dialogList": [
    {
      "id": 693380101,
      "nextDialogs": [
        693380102
      ],
      "talkRole": {
        "type": "TALK_ROLE_NPC",
        "_id": "9338"
      },
      "talkContentTextMapHash": 2484186362,
      "talkAssetPath": "",
      "talkAssetPathAlter": "",
      "talkAudioName": "",
      "actionBefore": "",
      "actionWhile": "",
      "actionAfter": "",
      "optionIcon": "",
      "iconPath": ""
    },
    {
      "id": 693380102,
      "nextDialogs": [
        693380103
      ],
      "talkRole": {
        "type": "TALK_ROLE_NPC",
        "_id": "9338"
      },
      "talkContentTextMapHash": 2451508458,
      "talkAssetPath": "",
      "talkAssetPathAlter": "",
      "talkAudioName": "",
      "actionBefore": "",
      "actionWhile": "",
      "actionAfter": "",
      "optionIcon": "",
      "iconPath": ""
    },
    {
      "id": 693380103,
      "talkRole": {
        "type": "TALK_ROLE_NPC",
        "_id": "9338"
      },
      "talkContentTextMapHash": 1673111362,
      "talkAssetPath": "",
      "talkAssetPathAlter": "",
      "talkAudioName": "",
      "actionBefore": "",
      "actionWhile": "",
      "actionAfter": "",
      "optionIcon": "",
      "iconPath": ""
    }
  ]
}