{
  "talkId": 6931201,
  "KPGKDHAFHFE": "FREE",
  "dialogList": [
    {
      "id": 693120101,
      "nextDialogs": [
        693120102
      ],
      "talkRole": {
        "type": "TALK_ROLE_NPC",
        "_id": "9312"
      },
      "talkContentTextMapHash": 674141978,
      "talkAssetPath": "",
      "talkAssetPathAlter": "",
      "talkAudioName": "",
      "actionBefore": "",
      "actionWhile": "",
      "actionAfter": "",
      "optionIcon": "",
      "iconPath": ""
    },
    {
      "id": 693120102,
      "nextDialogs": [
        693120103
      ],
      "talkRole": {
        "type": "TALK_ROLE_NPC",
        "_id": "9312"
      },
      "talkContentTextMapHash": 3019129586,
      "talkAssetPath": "",
      "talkAssetPathAlter": "",
      "talkAudioName": "",
      "actionBefore": "",
      "actionWhile": "",
      "actionAfter": "",
      "optionIcon": "",
      "iconPath": ""
    },
    {
      "id": 693120103,
      "talkRole": {
        "type": "TALK_ROLE_NPC",
        "_id": "9312"
      },
      "talkContentTextMapHash": 2954960074,
      "talkAssetPath": "",
      "talkAssetPathAlter": "",
      "talkAudioName": "",
      "actionBefore": "",
      "actionWhile": "",
      "actionAfter": "",
      "optionIcon": "",
      "iconPath": ""
    }
  ]
}