{
  "talkId": 6938002,
  "KPGKDHAFHFE": "FREE",
  "dialogList": [
    {
      "id": 693800201,
      "nextDialogs": [
        693800202
      ],
      "talkRole": {
        "type": "TALK_ROLE_NPC",
        "_id": "9380"
      },
      "talkContentTextMapHash": 929223322,
      "talkAssetPath": "",
      "talkAssetPathAlter": "",
      "talkAudioName": "",
      "actionBefore": "",
      "actionWhile": "",
      "actionAfter": "",
      "optionIcon": "",
      "iconPath": ""
    },
    {
      "id": 693800202,
      "nextDialogs": [
        693800203
      ],
      "talkRole": {
        "type": "TALK_ROLE_NPC",
        "_id": "9380"
      },
      "talkContentTextMapHash": 225010706,
      "talkAssetPath": "",
      "talkAssetPathAlter": "",
      "talkAudioName": "",
      "actionBefore": "",
      "actionWhile": "",
      "actionAfter": "",
      "optionIcon": "",
      "iconPath": ""
    },
    {
      "id": 693800203,
      "talkRole": {
        "type": "TALK_ROLE_NPC",
        "_id": "9380"
      },
      "talkContentTextMapHash": 948210770,
      "talkAssetPath": "",
      "talkAssetPathAlter": "",
      "talkAudioName": "",
      "actionBefore": "",
      "actionWhile": "",
      "actionAfter": "",
      "optionIcon": "",
      "iconPath": ""
    }
  ]
}