{
  "talkId": 6956916,
  "KPGKDHAFHFE": "FREE",
  "dialogList": [
    {
      "id": 695691601,
      "talkRole": {
        "type": "TALK_ROLE_NPC",
        "_id": "9569"
      },
      "talkContentTextMapHash": 2227947714,
      "talkAssetPath": "",
      "talkAssetPathAlter": "",
      "talkAudioName": "",
      "actionBefore": "",
      "actionWhile": "",
      "actionAfter": "",
      "optionIcon": "",
      "iconPath": ""
    }
  ]
}