{
  "talkId": 6930403,
  "KPGKDHAFHFE": "FREE",
  "dialogList": [
    {
      "id": 693040301,
      "nextDialogs": [
        693040302
      ],
      "talkRole": {
        "type": "TALK_ROLE_NPC",
        "_id": "9304"
      },
      "talkContentTextMapHash": 118090354,
      "talkAssetPath": "",
      "talkAssetPathAlter": "",
      "talkAudioName": "",
      "actionBefore": "",
      "actionWhile": "",
      "actionAfter": "",
      "optionIcon": "",
      "iconPath": ""
    },
    {
      "id": 693040302,
      "nextDialogs": [
        693040303
      ],
      "talkRole": {
        "type": "TALK_ROLE_NPC",
        "_id": "9304"
      },
      "talkContentTextMapHash": 3164516002,
      "talkAssetPath": "",
      "talkAssetPathAlter": "",
      "talkAudioName": "",
      "actionBefore": "",
      "actionWhile": "",
      "actionAfter": "",
      "optionIcon": "",
      "iconPath": ""
    },
    {
      "id": 693040303,
      "talkRole": {
        "type": "TALK_ROLE_NPC",
        "_id": "9304"
      },
      "talkContentTextMapHash": 4275628778,
      "talkAssetPath": "",
      "talkAssetPathAlter": "",
      "talkAudioName": "",
      "actionBefore": "",
      "actionWhile": "",
      "actionAfter": "",
      "optionIcon": "",
      "iconPath": ""
    }
  ]
}