{
  "talkId": 6936603,
  "KPGKDHAFHFE": "FREE",
  "dialogList": [
    {
      "id": 693660301,
      "nextDialogs": [
        693660302
      ],
      "talkRole": {
        "type": "TALK_ROLE_NPC",
        "_id": "9366"
      },
      "talkContentTextMapHash": 1457267362,
      "talkAssetPath": "",
      "talkAssetPathAlter": "",
      "talkAudioName": "",
      "actionBefore": "",
      "actionWhile": "",
      "actionAfter": "",
      "optionIcon": "",
      "iconPath": ""
    },
    {
      "id": 693660302,
      "nextDialogs": [
        693660303
      ],
      "talkRole": {
        "type": "TALK_ROLE_NPC",
        "_id": "9366"
      },
      "talkContentTextMapHash": 1255676578,
      "talkAssetPath": "",
      "talkAssetPathAlter": "",
      "talkAudioName": "",
      "actionBefore": "",
      "actionWhile": "",
      "actionAfter": "",
      "optionIcon": "",
      "iconPath": ""
    },
    {
      "id": 693660303,
      "talkRole": {
        "type": "TALK_ROLE_NPC",
        "_id": "9366"
      },
      "talkContentTextMapHash": 3256029274,
      "talkAssetPath": "",
      "talkAssetPathAlter": "",
      "talkAudioName": "",
      "actionBefore": "",
      "actionWhile": "",
      "actionAfter": "",
      "optionIcon": "",
      "iconPath": ""
    }
  ]
}