{
  "talkId": 6957010,
  "KPGKDHAFHFE": "FREE",
  "dialogList": [
    {
      "id": 695701001,
      "talkRole": {
        "type": "TALK_ROLE_NPC",
        "_id": "9570"
      },
      "talkContentTextMapHash": 4003153762,
      "talkAssetPath": "",
      "talkAssetPathAlter": "",
      "talkAudioName": "",
      "actionBefore": "",
      "actionWhile": "",
      "actionAfter": "",
      "optionIcon": "",
      "iconPath": ""
    }
  ]
}