{
  "talkId": 6935202,
  "KPGKDHAFHFE": "FREE",
  "dialogList": [
    {
      "id": 693520201,
      "nextDialogs": [
        693520202
      ],
      "talkRole": {
        "type": "TALK_ROLE_NPC",
        "_id": "9352"
      },
      "talkContentTextMapHash": 4110790658,
      "talkAssetPath": "",
      "talkAssetPathAlter": "",
      "talkAudioName": "",
      "actionBefore": "",
      "actionWhile": "",
      "actionAfter": "",
      "optionIcon": "",
      "iconPath": ""
    },
    {
      "id": 693520202,
      "nextDialogs": [
        693520203
      ],
      "talkRole": {
        "type": "TALK_ROLE_NPC",
        "_id": "9352"
      },
      "talkContentTextMapHash": 3103278274,
      "talkAssetPath": "",
      "talkAssetPathAlter": "",
      "talkAudioName": "",
      "actionBefore": "",
      "actionWhile": "",
      "actionAfter": "",
      "optionIcon": "",
      "iconPath": ""
    },
    {
      "id": 693520203,
      "talkRole": {
        "type": "TALK_ROLE_NPC",
        "_id": "9352"
      },
      "talkContentTextMapHash": 965460242,
      "talkAssetPath": "",
      "talkAssetPathAlter": "",
      "talkAudioName": "",
      "actionBefore": "",
      "actionWhile": "",
      "actionAfter": "",
      "optionIcon": "",
      "iconPath": ""
    }
  ]
}