{
  "talkId": 6932201,
  "KPGKDHAFHFE": "FREE",
  "dialogList": [
    {
      "id": 693220101,
      "nextDialogs": [
        693220102
      ],
      "talkRole": {
        "type": "TALK_ROLE_NPC",
        "_id": "9322"
      },
      "talkContentTextMapHash": 1185386794,
      "talkAssetPath": "",
      "talkAssetPathAlter": "",
      "talkAudioName": "",
      "actionBefore": "",
      "actionWhile": "",
      "actionAfter": "",
      "optionIcon": "",
      "iconPath": ""
    },
    {
      "id": 693220102,
      "nextDialogs": [
        693220103
      ],
      "talkRole": {
        "type": "TALK_ROLE_NPC",
        "_id": "9322"
      },
      "talkContentTextMapHash": 353245354,
      "talkAssetPath": "",
      "talkAssetPathAlter": "",
      "talkAudioName": "",
      "actionBefore": "",
      "actionWhile": "",
      "actionAfter": "",
      "optionIcon": "",
      "iconPath": ""
    },
    {
      "id": 693220103,
      "talkRole": {
        "type": "TALK_ROLE_NPC",
        "_id": "9322"
      },
      "talkContentTextMapHash": 2636978858,
      "talkAssetPath": "",
      "talkAssetPathAlter": "",
      "talkAudioName": "",
      "actionBefore": "",
      "actionWhile": "",
      "actionAfter": "",
      "optionIcon": "",
      "iconPath": ""
    }
  ]
}