{
  "luaDataPath": "",
  "dontUseDefaultFinish": true,
  "entityBan": "",
  "disableNpcLod": true,
  "isAutoBanNpc": true,
  "isBanWidgetPet": true,
  "protectNpcMobileLod": true,
  "startFade": {
    "startFadeOutDuration": 0.0
  },
  "endFade": {
    "startFadeOutDuration": 0.0
  },
  "actors": [
    {
      "alias": "Avatar",
      "visible": true,
      "bornPointName": "",
      "relativePosNpcAlias": "",
      "_bindMovingTargetKey": ""
    },
    {
      "configID": 20794,
      "alias": "20794",
      "visible": true,
      "bornPointName": "Q7303622_N20794",
      "relativePosNpcAlias": "",
      "_bindMovingTargetKey": ""
    }
  ],
  "group": [
    [
      {
        "$type": "MoleMole.Config.ConfigTimeProtectAction",
        "type": "TIME_PROTECT",
        "duration": 0.10000000149011612
      },
      {
        "$type": "EFHODGEJOHJ",
        "type": "CAMERA_MOVE",
        "duration": 1.0,
        "actionId": 108,
        "camPosOffset": {
          "x": -619.656982421875,
          "y": -131.36300659179688,
          "z": 3826.6259765625
        },
        "camForwardTargetOffset": {
          "x": -619.8259887695312,
          "y": -131.33900451660156,
          "z": 3827.611083984375
        },
        "cameraBlendType": "EaseInOutQuad",
        "MDKBPBJCMHH": {},
        "needZAxisRotate": true,
        "openCameraDither": false,
        "targetNpcAlias": "",
        "closeTreeLeafDither": true,
        "PHGBNNGCJKJ": "",
        "NFILMKCFHEB": "",
        "BGPNGHDAECF": ""
      },
      {
        "$type": "MoleMole.Config.ConfigVisibleInterAction",
        "type": "VISIBLE",
        "duration": 1.0,
        "aliasList": [
          "Avatar"
        ],
        "actionId": 110,
        "useDither": true,
        "_extraParam": ""
      },
      {
        "$type": "MoleMole.Config.ConfigLuaAction",
        "type": "LUA_ACTION",
        "delayTime": 0.10000000149011612,
        "duration": 0.10000000149011612,
        "invoke": true,
        "invokeAlias": "73286",
        "invokeParam": 1
      }
    ],
    [
      {
        "$type": "MJFAIFFAGOF",
        "type": "DIALOG",
        "aliasList": [
          "20794"
        ],
        "dialogID": 730362601,
        "protectTime": 0.5
      }
    ],
    [
      {
        "$type": "MoleMole.Config.ConfigTimeProtectAction",
        "type": "TIME_PROTECT",
        "duration": 1.0
      },
      {
        "$type": "EFHODGEJOHJ",
        "type": "CAMERA_MOVE",
        "duration": 1.0,
        "actionId": 112,
        "cameraPosType": "EXIT",
        "camPosOffset": {
          "x": -619.656982421875,
          "y": -131.36300659179688,
          "z": 3826.6259765625
        },
        "camTargetType": "Other",
        "camForwardTargetOffset": {
          "x": 358.625,
          "y": 350.27099609375
        },
        "cameraBlendType": "EaseInOutQuad",
        "MDKBPBJCMHH": {},
        "needZAxisRotate": true,
        "openCameraDither": false,
        "targetNpcAlias": "",
        "closeTreeLeafDither": true,
        "PHGBNNGCJKJ": "",
        "NFILMKCFHEB": "",
        "BGPNGHDAECF": ""
      },
      {
        "$type": "MoleMole.Config.ConfigVisibleInterAction",
        "type": "VISIBLE",
        "duration": 1.0,
        "aliasList": [
          "Avatar"
        ],
        "actionId": 111,
        "isVisible": true,
        "useDither": true,
        "_extraParam": ""
      },
      {
        "$type": "MoleMole.Config.ConfigLuaAction",
        "type": "LUA_ACTION",
        "delayTime": 0.10000000149011612,
        "duration": 0.10000000149011612,
        "invoke": true,
        "invokeAlias": "73286"
      }
    ]
  ],
  "groupId": [
    {
      "grpId": 2757933193,
      "nextGrpId": 2757933194
    },
    {
      "index": 1,
      "grpId": 2757933194,
      "nextGrpId": 2757933195
    },
    {
      "index": 2,
      "grpId": 2757933195,
      "nextGrpId": 2757933196
    }
  ]
}