{
  "luaDataPath": "",
  "dontUseDefaultFinish": true,
  "entityBan": "",
  "disableNpcLod": true,
  "isAutoBanNpc": true,
  "isBanWidgetPet": true,
  "protectNpcMobileLod": true,
  "startFade": {
    "startFadeOutDuration": 0.0
  },
  "endFade": {
    "startFadeOutDuration": 0.0
  },
  "actors": [
    {
      "alias": "Avatar",
      "visible": true,
      "bornPointName": "",
      "relativePosNpcAlias": "",
      "_bindMovingTargetKey": ""
    },
    {
      "configID": 20789,
      "alias": "20789",
      "visible": true,
      "bornPointName": "Q7303622_N20789",
      "relativePosNpcAlias": "",
      "_bindMovingTargetKey": ""
    }
  ],
  "group": [
    [
      {
        "$type": "MoleMole.Config.ConfigTimeProtectAction",
        "type": "TIME_PROTECT",
        "duration": 0.10000000149011612
      },
      {
        "$type": "EFHODGEJOHJ",
        "type": "CAMERA_MOVE",
        "duration": 1.0,
        "actionId": 112,
        "camPosOffset": {
          "x": -621.6599731445312,
          "y": -130.8730010986328,
          "z": 3826.344970703125
        },
        "camForwardTargetOffset": {
          "x": -622.3870239257812,
          "y": -130.76199340820312,
          "z": 3827.02197265625
        },
        "cameraBlendType": "EaseInOutQuad",
        "storyDither": true,
        "MDKBPBJCMHH": {},
        "needZAxisRotate": true,
        "openCameraDither": false,
        "targetNpcAlias": "",
        "closeTreeLeafDither": true,
        "PHGBNNGCJKJ": "",
        "NFILMKCFHEB": "",
        "BGPNGHDAECF": ""
      },
      {
        "$type": "MoleMole.Config.ConfigVisibleInterAction",
        "type": "VISIBLE",
        "duration": 1.0,
        "aliasList": [
          "Avatar"
        ],
        "actionId": 116,
        "useDither": true,
        "_extraParam": ""
      },
      {
        "$type": "MoleMole.Config.ConfigLuaAction",
        "type": "LUA_ACTION",
        "delayTime": 0.10000000149011612,
        "duration": 0.10000000149011612,
        "invoke": true,
        "invokeAlias": "73286",
        "invokeParam": 1
      }
    ],
    [
      {
        "$type": "MJFAIFFAGOF",
        "type": "DIALOG",
        "aliasList": [
          "20789"
        ],
        "dialogID": 730362101,
        "protectTime": 0.5
      }
    ],
    [
      {
        "$type": "MoleMole.Config.ConfigTimeProtectAction",
        "type": "TIME_PROTECT",
        "duration": 1.0
      },
      {
        "$type": "EFHODGEJOHJ",
        "type": "CAMERA_MOVE",
        "duration": 1.0,
        "actionId": 119,
        "cameraPosType": "EXIT",
        "camTargetType": "Other",
        "cameraBlendType": "EaseInOutQuad",
        "MDKBPBJCMHH": {},
        "openCameraDither": false,
        "targetNpcAlias": "",
        "closeTreeLeafDither": true,
        "PHGBNNGCJKJ": "",
        "NFILMKCFHEB": "",
        "BGPNGHDAECF": ""
      },
      {
        "$type": "MoleMole.Config.ConfigVisibleInterAction",
        "type": "VISIBLE",
        "duration": 1.0,
        "aliasList": [
          "Avatar"
        ],
        "actionId": 117,
        "isVisible": true,
        "useDither": true,
        "_extraParam": ""
      },
      {
        "$type": "MoleMole.Config.ConfigLuaAction",
        "type": "LUA_ACTION",
        "delayTime": 0.10000000149011612,
        "duration": 0.10000000149011612,
        "invoke": true,
        "invokeAlias": "73286"
      }
    ]
  ],
  "groupId": [
    {
      "grpId": 2757928388,
      "nextGrpId": 2757928389
    },
    {
      "index": 1,
      "grpId": 2757928389,
      "nextGrpId": 2757928390
    },
    {
      "index": 2,
      "grpId": 2757928390,
      "nextGrpId": 2757928391
    }
  ]
}