{
  "soundBankPackageName": "Banks",
  "externalSourcePackageName": "External",
  "streamedMusicPackageName": "Music",
  "streamedFilePackageName": "Streamed",
  "nSoundBankSplitBits": 5,
  "nExternalSourceSplitBits": 5,
  "nStreamedMusicSplitBits": 5,
  "nStreamedFileSplitBits": 5,
  "packageFileExtension": "pck",
  "incrementalResources": {
    "sfxFiles": [
      "Other_AIO.pck"
    ],
    "voFiles": [
      "External_AIO.pck"
    ]
  },
  "PACGLFKEMHO": {}
}