{
  "id": 5900016,
  "beginCond": [
    {
      "type": "QUEST_COND_IS_CUR_BLOSSOM_TALK"
    }
  ],
  "priority": 1,
  "initDialog": 590001601,
  "npcId": [
    3079
  ],
  "performCfg": "",
  "loadType": "TALK_BLOSSOM",
  "assetIndex": 12447476953271842250,
  "prePerformCfg": ""
}