{
  "id": 5900023,
  "beginCond": [
    {
      "type": "QUEST_COND_IS_CUR_BLOSSOM_TALK"
    }
  ],
  "priority": 1,
  "initDialog": 590002301,
  "npcId": [
    3113
  ],
  "performCfg": "",
  "loadType": "TALK_BLOSSOM",
  "assetIndex": 3450434164762802076,
  "prePerformCfg": ""
}