{
  "id": 5900097,
  "beginCond": [
    {
      "type": "QUEST_COND_IS_CUR_BLOSSOM_TALK"
    }
  ],
  "priority": 1,
  "initDialog": 590009701,
  "npcId": [
    4363
  ],
  "performCfg": "",
  "loadType": "TALK_BLOSSOM",
  "assetIndex": 8613522211612405264,
  "prePerformCfg": ""
}