{
  "id": 5900177,
  "beginCond": [
    {
      "type": "QUEST_COND_IS_CUR_BLOSSOM_TALK"
    }
  ],
  "priority": 1,
  "initDialog": 590017701,
  "npcId": [
    5187
  ],
  "performCfg": "",
  "loadType": "TALK_BLOSSOM",
  "assetIndex": 2700481304015349324,
  "prePerformCfg": ""
}