{
  "id": 5900110,
  "beginCond": [
    {
      "type": "QUEST_COND_IS_CUR_BLOSSOM_TALK"
    }
  ],
  "priority": 1,
  "initDialog": 590011001,
  "npcId": [
    4413
  ],
  "performCfg": "",
  "loadType": "TALK_BLOSSOM",
  "assetIndex": 3911571733907250688,
  "prePerformCfg": ""
}