{
  "id": 5900173,
  "beginCond": [
    {
      "type": "QUEST_COND_IS_CUR_BLOSSOM_TALK"
    }
  ],
  "priority": 1,
  "initDialog": 590017301,
  "npcId": [
    5187
  ],
  "performCfg": "",
  "loadType": "TALK_BLOSSOM",
  "assetIndex": 5090241772707323024,
  "prePerformCfg": ""
}