{
  "id": 5900145,
  "beginCond": [
    {
      "type": "QUEST_COND_IS_CUR_BLOSSOM_TALK"
    }
  ],
  "priority": 1,
  "initDialog": 590014501,
  "npcId": [
    5129
  ],
  "performCfg": "",
  "loadType": "TALK_BLOSSOM",
  "assetIndex": 5085966074263341858,
  "prePerformCfg": ""
}