{
  "id": 5900166,
  "beginCond": [
    {
      "type": "QUEST_COND_IS_CUR_BLOSSOM_TALK"
    }
  ],
  "priority": 1,
  "initDialog": 590016601,
  "npcId": [
    5216
  ],
  "performCfg": "",
  "loadType": "TALK_BLOSSOM",
  "assetIndex": 10428578826348705366,
  "prePerformCfg": ""
}