{
  "id": 5900054,
  "beginCond": [
    {
      "type": "QUEST_COND_IS_CUR_BLOSSOM_TALK"
    }
  ],
  "priority": 1,
  "initDialog": 590005401,
  "npcId": [
    3145
  ],
  "performCfg": "",
  "loadType": "TALK_BLOSSOM",
  "assetIndex": 10582994625844592139,
  "prePerformCfg": ""
}