{
  "id": 5900104,
  "beginCond": [
    {
      "type": "QUEST_COND_IS_CUR_BLOSSOM_TALK"
    }
  ],
  "priority": 1,
  "initDialog": 590010401,
  "npcId": [
    4363
  ],
  "performCfg": "",
  "loadType": "TALK_BLOSSOM",
  "assetIndex": 6324928355517073156,
  "prePerformCfg": ""
}