{
  "id": 5900158,
  "beginCond": [
    {
      "type": "QUEST_COND_IS_CUR_BLOSSOM_TALK"
    }
  ],
  "priority": 1,
  "initDialog": 590015801,
  "npcId": [
    5255
  ],
  "performCfg": "",
  "loadType": "TALK_BLOSSOM",
  "assetIndex": 5518186517904108112,
  "prePerformCfg": ""
}