{
  "luaDataPath": "",
  "entityBan": "",
  "disableNpcLod": true,
  "startFade": {
    "startFadeOutDuration": 0.0
  },
  "endFade": {
    "startFadeOutDuration": 0.0
  },
  "actors": [
    {
      "alias": "Avatar",
      "visible": true,
      "bornPointName": "",
      "relativePosNpcAlias": "",
      "_bindMovingTargetKey": ""
    },
    {
      "configID": 2434,
      "alias": "2434",
      "visible": true,
      "bornPointName": "",
      "relativePosNpcAlias": "",
      "_bindMovingTargetKey": ""
    }
  ],
  "group": [
    [
      {
        "$type": "NPCNMEOCADD",
        "type": "LOOK_AT",
        "aliasList": [
          "Avatar"
        ],
        "enableHead": true,
        "headTurnTime": 0.5,
        "targetNpcAlias": "2434",
        "targetNpcLookAtPoint": "",
        "BHGPHGNFCBF": ""
      },
      {
        "$type": "IEKHMHNHENB",
        "type": "STEER_TO",
        "duration": 0.777999997138977,
        "aliasList": [
          "2434"
        ],
        "steerType": "TO_TARGET_ADVANCED",
        "useSteerAnim": true,
        "targetNpcAlias": "Avatar",
        "BHGPHGNFCBF": ""
      },
      {
        "$type": "NPCNMEOCADD",
        "type": "LOOK_AT",
        "aliasList": [
          "2434"
        ],
        "enableHead": true,
        "headTurnTime": 0.5,
        "targetNpcAlias": "Avatar",
        "targetNpcLookAtPoint": "",
        "BHGPHGNFCBF": ""
      },
      {
        "$type": "MoleMole.Config.ConfigTimeProtectAction",
        "type": "TIME_PROTECT",
        "duration": 0.4000000059604645
      },
      {
        "$type": "IEKHMHNHENB",
        "type": "STEER_TO",
        "duration": 0.777999997138977,
        "aliasList": [
          "Avatar"
        ],
        "steerType": "TO_TARGET_ADVANCED",
        "useSteerAnim": true,
        "targetNpcAlias": "2434",
        "BHGPHGNFCBF": ""
      },
      {
        "$type": "EFHODGEJOHJ",
        "type": "CAMERA_FOCUS",
        "delayTime": 0.30000001192092896,
        "duration": 0.10000000149011612,
        "targetNpcAlias": "",
        "PHGBNNGCJKJ": "",
        "NFILMKCFHEB": "",
        "BGPNGHDAECF": ""
      }
    ],
    [
      {
        "$type": "ICHLNKHGCAG",
        "type": "EMO_SYNC",
        "aliasList": [
          "2434"
        ],
        "dataPath": "Cs_Emo_Avatar_Simple_Common_Set/Cs_Emo_Avatar_Talk/Cs_Emo_Coop_Common/Cs_Emo_Coop_BeiDou_01/Cs_Emo_190515401",
        "phonemePath": "",
        "emotionPath": "",
        "mateDataPath": "",
        "matePhonemePath": "",
        "mateEmotionPath": "",
        "dataPathHashList": [
          9641018760867939789,
          2153809431973219740,
          6388060688185301861,
          7017163849918037061
        ],
        "PACNIGOOENN": "",
        "PIBDNPHIAGC": ""
      },
      {
        "$type": "EDCHPJLDKIN",
        "type": "BODY_LANG",
        "aliasList": [
          "2434"
        ],
        "bodyLangParam": 1230,
        "forceDoFreeStyle": true,
        "canDoRepeatFreeStyle": false,
        "eventPatternSuiteKey": ""
      },
      {
        "$type": "MJFAIFFAGOF",
        "type": "DIALOG",
        "aliasList": [
          "2434"
        ],
        "dialogID": 190515401,
        "protectTime": 0.5
      }
    ],
    [
      {
        "$type": "EDCHPJLDKIN",
        "type": "BODY_LANG",
        "aliasList": [
          "2434"
        ],
        "isContinue": true,
        "forceDoFreeStyle": true,
        "canDoRepeatFreeStyle": false,
        "eventPatternSuiteKey": ""
      },
      {
        "$type": "MoleMole.Config.ConfigTimeProtectAction",
        "type": "TIME_PROTECT",
        "duration": 1.5
      },
      {
        "$type": "IEKHMHNHENB",
        "type": "STEER_TO",
        "delayTime": 1.246999979019165,
        "duration": 0.800000011920929,
        "aliasList": [
          "2434"
        ],
        "steerType": "RETURN",
        "useSteerAnim": true,
        "targetNpcAlias": "",
        "BHGPHGNFCBF": ""
      }
    ]
  ],
  "groupId": [
    {
      "grpId": 1781899628,
      "nextGrpId": 1781899629
    },
    {
      "index": 1,
      "grpId": 1781899629,
      "nextGrpId": 1781899630
    },
    {
      "index": 2,
      "grpId": 1781899630,
      "nextGrpId": 1781899631
    }
  ],
  "freeStyleDic": {
    "2434": [
      1230
    ]
  }
}