[
  {},
  {
    "endTimeOfDay": 2.0785460121330012e-41
  },
  {
    "showCrowd": true
  },
  {
    "endTimeOfDay": 3.4423221929578807e+26
  },
  {},
  {
    "startTimeOfDay": 4.849843618811937e-20,
    "showCrowd": true
  },
  {
    "startTimeOfDay": 421.42218017578125,
    "showCrowd": true
  },
  {
    "startTimeOfDay": -6.125347237678876e-36
  },
  {
    "showCrowd": true
  },
  {
    "endTimeOfDay": 9.295992580846125e+18
  },
  {
    "startTimeOfDay": 6.98689252815939e-37,
    "endTimeOfDay": 1.1133001048837325e+17,
    "showCrowd": true
  },
  {
    "showCrowd": true
  },
  {
    "endTimeOfDay": -7.573105014279924e-29
  },
  {
    "startTimeOfDay": -1.9338969772574776e-21,
    "showCrowd": true
  },
  {},
  {
    "endTimeOfDay": 3.490679225742466e+26
  },
  {},
  {
    "startTimeOfDay": -778574692876288.0,
    "showCrowd": true
  },
  {
    "startTimeOfDay": 421.20440673828125,
    "showCrowd": true
  },
  {
    "startTimeOfDay": 1.5379771110192032e+23
  },
  {
    "endTimeOfDay": 9.42300686049926e-38,
    "showCrowd": true
  },
  {
    "startTimeOfDay": 7.42895482448195e+27,
    "endTimeOfDay": 4.299832096618604e-29,
    "showCrowd": true
  },
  {
    "startTimeOfDay": 421.1758117675781,
    "showCrowd": true
  },
  {
    "startTimeOfDay": 9.61235694387002e+21
  },
  {
    "startTimeOfDay": 2.3872520638237584e-41,
    "endTimeOfDay": 3.761697165417026e-37,
    "showCrowd": true
  },
  {
    "startTimeOfDay": 3.143486537737772e-08
  },
  {
    "startTimeOfDay": -1.595123766466837e-23,
    "endTimeOfDay": 323516992.0
  },
  {},
  {
    "startTimeOfDay": 20.0,
    "showCrowd": false
  },
  {
    "startTimeOfDay": 2.3694278276172396e-38
  },
  {
    "startTimeOfDay": 9.221664934028756e-41,
    "endTimeOfDay": 2.663229388581745e-38
  },
  {
    "endTimeOfDay": 2.9020016785925223e-38
  },
  {
    "startTimeOfDay": 2.350988701644575e-38
  },
  {
    "startTimeOfDay": -3.0509010429113914e-08
  },
  {},
  {},
  {
    "startTimeOfDay": 1.0158630215412122e-34,
    "showCrowd": true
  },
  {
    "startTimeOfDay": -323206938624.0,
    "endTimeOfDay": -4.69366551094635e-29
  },
  {
    "startTimeOfDay": 1.4171171578707968e+17,
    "showCrowd": true
  },
  {
    "startTimeOfDay": 7.294960369108594e-07
  },
  {
    "showCrowd": true
  },
  {
    "startTimeOfDay": 3.445783885701448e+17,
    "showCrowd": true
  },
  {
    "startTimeOfDay": 9.247460890541655e+23
  },
  {
    "endTimeOfDay": 4.389818568876598e+34,
    "showCrowd": true
  },
  {
    "startTimeOfDay": -2811275509760.0,
    "showCrowd": true
  },
  {
    "startTimeOfDay": 1.4863084881210134e-34,
    "showCrowd": true
  },
  {
    "showCrowd": true
  },
  {
    "startTimeOfDay": 427.8123474121094,
    "showCrowd": true
  },
  {
    "startTimeOfDay": -4.495174214529637e+37
  },
  {
    "endTimeOfDay": 1.5951243975555612e-23,
    "showCrowd": true
  },
  {
    "startTimeOfDay": 4620.6298828125,
    "endTimeOfDay": 2.1444467968840827e+19
  },
  {
    "startTimeOfDay": 428.2016906738281,
    "showCrowd": true
  },
  {},
  {},
  {
    "startTimeOfDay": 3.9199361942958375e+19,
    "showCrowd": true
  },
  {
    "endTimeOfDay": -205349264.0
  },
  {},
  {
    "startTimeOfDay": -1.5924951241584596e-23,
    "endTimeOfDay": 2.7228935943360743e-38,
    "showCrowd": true
  },
  {},
  {
    "startTimeOfDay": -3.003527382361426e-08
  },
  {},
  {
    "startTimeOfDay": 2.902147693892505e-38,
    "endTimeOfDay": 7.42688186092153e-44
  },
  {
    "startTimeOfDay": 2.4063296213767693e-38
  },
  {
    "startTimeOfDay": -3.6805427074432373
  },
  {
    "startTimeOfDay": 2.3864112847451635e-41,
    "showCrowd": true
  },
  {},
  {
    "startTimeOfDay": 2.902145451814962e-38
  },
  {
    "endTimeOfDay": 2.350988701644575e-38
  },
  {
    "showCrowd": true
  },
  {
    "showCrowd": true
  },
  {
    "startTimeOfDay": -2.485954848775762e-32,
    "showCrowd": true
  },
  {},
  {
    "startTimeOfDay": -3.003527382361426e-08
  },
  {},
  {
    "startTimeOfDay": 2.7001300613025034e-38,
    "endTimeOfDay": 1.7482935807208927e-18
  },
  {},
  {
    "startTimeOfDay": 2.9026258169285326e-38
  },
  {
    "startTimeOfDay": 2.350988701644575e-38,
    "endTimeOfDay": -16640.52734375
  },
  {
    "startTimeOfDay": 5.106207729215387e-38,
    "showCrowd": false
  },
  {
    "startTimeOfDay": -1.5900541567753704e-30
  },
  {
    "startTimeOfDay": 5.142941927678584e-38,
    "endTimeOfDay": 3.1227656017785683e-39
  },
  {
    "startTimeOfDay": 2.7076805376879784e-38
  },
  {
    "startTimeOfDay": 1.748276209928029e-18,
    "showCrowd": false
  },
  {
    "startTimeOfDay": 2.854617611800457e-38
  },
  {
    "endTimeOfDay": 2.350988981904268e-38,
    "showCrowd": true
  },
  {},
  {
    "startTimeOfDay": 6.488011889823903e-43
  },
  {},
  {
    "startTimeOfDay": 1.664532380848234e-40
  },
  {},
  {
    "endTimeOfDay": 1.6681197049169055e-40,
    "showCrowd": false
  },
  {},
  {
    "startTimeOfDay": -1.5752937834482259e+38
  },
  {
    "showCrowd": true
  },
  {
    "endTimeOfDay": 7.714341985815581e-38
  },
  {},
  {},
  {},
  {
    "startTimeOfDay": -8.013067187179656e-35
  },
  {
    "startTimeOfDay": 2.902146012334348e-38,
    "showCrowd": true
  },
  {
    "startTimeOfDay": 2.350988701644575e-38
  },
  {
    "showCrowd": true
  },
  {
    "startTimeOfDay": 9.66497635308624e-38
  },
  {
    "endTimeOfDay": 1.67888167712292e-40,
    "showCrowd": false
  },
  {},
  {
    "startTimeOfDay": -9.450530096809787e-34
  },
  {
    "startTimeOfDay": 2.902146012334348e-38,
    "showCrowd": true
  },
  {
    "startTimeOfDay": 2.350988701644575e-38
  },
  {
    "startTimeOfDay": -35479651090432.0
  },
  {
    "startTimeOfDay": 3.1227656017785683e-39
  },
  {
    "startTimeOfDay": 2.700587725380952e-38
  },
  {
    "showCrowd": true
  },
  {},
  {
    "startTimeOfDay": -1.5900541567753704e-30
  },
  {
    "startTimeOfDay": 8.706159178608643e-38,
    "endTimeOfDay": 3.1227656017785683e-39
  },
  {
    "startTimeOfDay": 2.707680817947671e-38
  },
  {
    "endTimeOfDay": 1.748276209928029e-18,
    "showCrowd": false
  },
  {
    "startTimeOfDay": 2.542376644603594e-38
  },
  {
    "startTimeOfDay": -2248147200.0,
    "endTimeOfDay": 6.250433336424302e-33,
    "showCrowd": true
  },
  {},
  {
    "startTimeOfDay": 7.604840039658153e-38
  },
  {
    "endTimeOfDay": -2270079462932480.0
  },
  {
    "startTimeOfDay": 7.604840039658153e-38
  },
  {
    "startTimeOfDay": -9080317851729920.0,
    "endTimeOfDay": -2248147200.0
  },
  {
    "startTimeOfDay": 2.957234137823578e-38
  },
  {
    "startTimeOfDay": -35970355200.0,
    "endTimeOfDay": 2.384638081668407e-38
  },
  {
    "startTimeOfDay": 6.700512458691949e+31,
    "endTimeOfDay": 8.282179487399575e-19,
    "showCrowd": true
  },
  {
    "showCrowd": true
  },
  {},
  {
    "endTimeOfDay": 7.824645474694601e-38,
    "showCrowd": true
  },
  {
    "startTimeOfDay": 6.700512458691949e+31,
    "endTimeOfDay": 8.282179487399575e-19,
    "showCrowd": true
  },
  {
    "startTimeOfDay": -575525683200.0,
    "showCrowd": true
  },
  {
    "startTimeOfDay": 2264989952.0,
    "showCrowd": true
  },
  {
    "startTimeOfDay": 7.681350243919886e+31,
    "endTimeOfDay": 8.155154048932096e-38
  },
  {},
  {
    "endTimeOfDay": 7.824646595733373e-38,
    "showCrowd": true
  },
  {
    "startTimeOfDay": 6.700512458691949e+31,
    "endTimeOfDay": 1.1769684942066156e-32,
    "showCrowd": true
  },
  {
    "endTimeOfDay": -9208413028352.0,
    "showCrowd": true
  },
  {
    "endTimeOfDay": -141879966433280.0,
    "showCrowd": true
  },
  {},
  {
    "endTimeOfDay": 8.669534281425663e-38,
    "showCrowd": true
  },
  {
    "startTimeOfDay": 2.4076948246347306e-35
  },
  {
    "showCrowd": true
  },
  {
    "endTimeOfDay": -2270079462932480.0,
    "showCrowd": true
  },
  {},
  {
    "endTimeOfDay": 8.706281932354117e-38,
    "showCrowd": true
  },
  {
    "startTimeOfDay": 2.4076953986065816e-35
  },
  {
    "startTimeOfDay": 6.553857170948144e-27,
    "showCrowd": true
  },
  {
    "startTimeOfDay": 1.748276209928029e-18
  },
  {},
  {
    "startTimeOfDay": -549596352.0
  },
  {
    "startTimeOfDay": -1.5172605085066587e-36
  },
  {
    "endTimeOfDay": 3.1227656017785683e-39
  },
  {
    "startTimeOfDay": 2.7076805376879784e-38
  },
  {
    "startTimeOfDay": 1.748276416723182e-18,
    "showCrowd": false
  },
  {
    "startTimeOfDay": 2.7076802574282855e-38
  },
  {
    "startTimeOfDay": 1.748276416723182e-18,
    "endTimeOfDay": 3.4818008078197894e+26,
    "showCrowd": true
  },
  {
    "startTimeOfDay": 9.50080358812226e-43
  },
  {
    "startTimeOfDay": -1.791107071143737e-15
  },
  {
    "endTimeOfDay": 1.0097419586828951e-28
  },
  {
    "startTimeOfDay": 9.528829557408756e-43
  },
  {
    "endTimeOfDay": 2.4429817037499563e-40,
    "showCrowd": false
  },
  {},
  {
    "startTimeOfDay": 4.026434507036848e-37
  },
  {
    "endTimeOfDay": 1.7886444872088038e-34,
    "showCrowd": true
  },
  {
    "startTimeOfDay": 3529.0712890625,
    "endTimeOfDay": 421.1758117675781,
    "showCrowd": true
  },
  {},
  {},
  {
    "startTimeOfDay": 3.3598983523962716e+18,
    "showCrowd": true
  },
  {
    "startTimeOfDay": 3.878937926382201e+30
  },
  {
    "endTimeOfDay": -1.833273774156375e-18
  },
  {
    "endTimeOfDay": 2.1638112264579488e-23
  },
  {
    "endTimeOfDay": -4.0172018772797773e-29,
    "showCrowd": true
  },
  {
    "startTimeOfDay": 3587.984130859375,
    "endTimeOfDay": 428.2016906738281,
    "showCrowd": true
  },
  {
    "endTimeOfDay": -138696944.0,
    "showCrowd": true
  },
  {
    "showCrowd": true
  },
  {
    "showCrowd": true
  },
  {
    "endTimeOfDay": 7.160940202898154e-15
  },
  {},
  {
    "startTimeOfDay": 4.790489243697517e-37
  },
  {
    "startTimeOfDay": -3.6805427074432373
  },
  {
    "startTimeOfDay": 1.0773884188221248e-33,
    "showCrowd": true
  },
  {
    "startTimeOfDay": 3.6573889918877726e-43,
    "showCrowd": false
  },
  {},
  {
    "startTimeOfDay": 6.56384735475567e-27,
    "endTimeOfDay": 2.4501563518872994e-40
  },
  {
    "startTimeOfDay": -1.5900541567753704e-30
  },
  {
    "startTimeOfDay": 9.59939558495584e-38,
    "endTimeOfDay": 4.5139969585694725e-36
  },
  {},
  {
    "startTimeOfDay": -1.5900541567753704e-30
  },
  {
    "startTimeOfDay": 4.490487071553027e-36,
    "endTimeOfDay": 3.1227656017785683e-39
  },
  {
    "startTimeOfDay": 2.700587725380952e-38
  },
  {
    "endTimeOfDay": 1.748276416723182e-18,
    "showCrowd": false
  },
  {
    "startTimeOfDay": 2.7076802574282855e-38
  },
  {
    "startTimeOfDay": 1.748276416723182e-18,
    "endTimeOfDay": 1.0773405725286265e-33,
    "showCrowd": true
  },
  {
    "startTimeOfDay": 1.6913672464400542e-42
  },
  {},
  {
    "startTimeOfDay": 591446976.0
  },
  {},
  {
    "startTimeOfDay": 1.0430810881700836e-08,
    "endTimeOfDay": 6.555351816928123e-10
  },
  {
    "startTimeOfDay": 2.9020885590973104e-38
  },
  {
    "showCrowd": true
  },
  {},
  {},
  {},
  {
    "startTimeOfDay": -6.229313743701857e-34
  },
  {},
  {},
  {
    "startTimeOfDay": 4.482787030468671e-09,
    "showCrowd": true
  },
  {
    "startTimeOfDay": 428.2016906738281,
    "showCrowd": true
  },
  {
    "startTimeOfDay": 6.790647958081016e-21
  },
  {
    "startTimeOfDay": 1.7586295727276454e-42
  },
  {},
  {
    "startTimeOfDay": 591446976.0
  },
  {},
  {
    "startTimeOfDay": 1.0430810881700836e-08,
    "endTimeOfDay": 6.555351816928123e-10
  },
  {
    "startTimeOfDay": 2.9020885590973104e-38
  },
  {},
  {
    "showCrowd": false
  },
  {},
  {},
  {
    "startTimeOfDay": -6.229313743701857e-34
  },
  {},
  {},
  {
    "startTimeOfDay": 4.482787030468671e-09,
    "showCrowd": true
  },
  {
    "startTimeOfDay": 428.2016906738281,
    "showCrowd": true
  },
  {
    "startTimeOfDay": 6.176058339479838e-33
  },
  {
    "startTimeOfDay": 2.4076121726881884e-35
  },
  {
    "startTimeOfDay": 6.29105915587269e-33,
    "endTimeOfDay": 2.507553536986044e-40,
    "showCrowd": true
  },
  {
    "endTimeOfDay": 6.293692263218532e-33,
    "showCrowd": true
  },
  {
    "startTimeOfDay": -0.5234377384185791
  },
  {
    "showCrowd": true
  },
  {
    "showCrowd": true
  },
  {
    "startTimeOfDay": 2.4077622663272217e-35
  },
  {
    "endTimeOfDay": 6.391493393206946e-33
  },
  {
    "startTimeOfDay": 2.4077645622146256e-35
  },
  {
    "startTimeOfDay": 6.290872546144497e-33,
    "endTimeOfDay": 4.412422617450627e-40,
    "showCrowd": true
  },
  {
    "showCrowd": true
  },
  {
    "startTimeOfDay": -9.74992051138076e+24,
    "endTimeOfDay": -2.5311895877396344e+24,
    "showCrowd": true
  },
  {
    "startTimeOfDay": -3.899968204552304e+25,
    "endTimeOfDay": -7.98702603788115e-06,
    "showCrowd": true
  },
  {},
  {
    "showCrowd": true
  },
  {
    "startTimeOfDay": 2.4077737457642414e-35
  },
  {
    "startTimeOfDay": 6.290872546144497e-33,
    "endTimeOfDay": 4.581026848678189e-40,
    "showCrowd": true
  },
  {},
  {
    "showCrowd": true
  },
  {
    "showCrowd": true
  },
  {
    "startTimeOfDay": 2.407779198496826e-35
  },
  {
    "startTimeOfDay": 1.0812157859217948e-22
  },
  {
    "startTimeOfDay": 1.0411647589933391e-42
  },
  {
    "startTimeOfDay": -2.4379291907712343e+24
  },
  {
    "endTimeOfDay": 1.0097419586828951e-28
  },
  {
    "startTimeOfDay": 1.0439673559219887e-42
  },
  {
    "endTimeOfDay": 2.676157768213606e-40,
    "showCrowd": false
  },
  {},
  {
    "startTimeOfDay": 4.026434507036848e-37
  },
  {
    "startTimeOfDay": 7.682169576732503e-25,
    "endTimeOfDay": 8.766369632161084e+25,
    "showCrowd": true
  },
  {
    "startTimeOfDay": 421.1758117675781,
    "showCrowd": true
  },
  {
    "startTimeOfDay": -2.0157058315817267e-06,
    "endTimeOfDay": -52980736000.0
  },
  {
    "startTimeOfDay": 3.2382187834501317e+28
  },
  {},
  {
    "startTimeOfDay": 1.230834547818496e+19,
    "showCrowd": true
  },
  {
    "startTimeOfDay": 1.6269444860376571e+37
  },
  {
    "startTimeOfDay": 7.509089378944511e-15
  },
  {
    "startTimeOfDay": 1.2116473426524495e-14
  },
  {
    "endTimeOfDay": -2.8852172931667356e-29,
    "showCrowd": true
  },
  {
    "startTimeOfDay": 3589.41748046875,
    "endTimeOfDay": 428.2016906738281,
    "showCrowd": true
  },
  {
    "startTimeOfDay": -138696944.0,
    "endTimeOfDay": 3.518217633604889e-38,
    "showCrowd": true
  },
  {
    "startTimeOfDay": 2.351198055635145e-38
  },
  {},
  {},
  {
    "startTimeOfDay": 4.790489243697517e-37
  },
  {
    "startTimeOfDay": -3.6806037425994873
  },
  {
    "startTimeOfDay": 1.0773884188221248e-33,
    "showCrowd": true
  },
  {
    "startTimeOfDay": 3.6573889918877726e-43,
    "showCrowd": false
  },
  {},
  {
    "startTimeOfDay": 2.718539760007417e-38
  },
  {
    "showCrowd": true
  },
  {},
  {
    "startTimeOfDay": -6.360216627101482e-30
  },
  {
    "startTimeOfDay": 9.618049670112931e-38,
    "endTimeOfDay": 3.996779444207666e-36
  },
  {},
  {
    "startTimeOfDay": -3.003527382361426e-08
  },
  {},
  {
    "startTimeOfDay": 4.2796916269097806e-40,
    "endTimeOfDay": 2.3534283622709645e-38
  },
  {
    "startTimeOfDay": -1.6362308055343046e+32,
    "endTimeOfDay": 1.748276416723182e-18,
    "showCrowd": false
  },
  {
    "startTimeOfDay": 2.700587725380952e-38
  },
  {
    "endTimeOfDay": 1.748276416723182e-18,
    "showCrowd": false
  },
  {
    "startTimeOfDay": 2.909718629235559e-38
  },
  {
    "endTimeOfDay": 5.605193857299268e-45
  },
  {
    "startTimeOfDay": 2.066659732236076e-09
  },
  {
    "startTimeOfDay": -3.347066884380844e+24,
    "endTimeOfDay": -2.221275544893625e-32
  },
  {
    "startTimeOfDay": 2.5939449325581946e-37,
    "endTimeOfDay": 4.866649209872634e-36
  },
  {},
  {},
  {},
  {
    "startTimeOfDay": 591446976.0
  },
  {},
  {
    "startTimeOfDay": 1.0430810881700836e-08,
    "endTimeOfDay": 6.555351816928123e-10
  },
  {
    "startTimeOfDay": 2.9020885590973104e-38
  },
  {},
  {
    "showCrowd": false
  },
  {},
  {},
  {
    "startTimeOfDay": -6.229313743701857e-34
  },
  {},
  {},
  {
    "startTimeOfDay": 4.482787030468671e-09,
    "showCrowd": true
  },
  {
    "startTimeOfDay": 428.2016906738281,
    "showCrowd": true
  },
  {
    "startTimeOfDay": 6.790647958081016e-21
  },
  {
    "startTimeOfDay": 1.7516230804060213e-42
  },
  {},
  {
    "startTimeOfDay": 591446976.0
  },
  {},
  {
    "startTimeOfDay": 1.0430810881700836e-08,
    "endTimeOfDay": 6.555351816928123e-10
  },
  {
    "startTimeOfDay": 2.9020885590973104e-38
  },
  {
    "startTimeOfDay": 5.605193857299268e-45,
    "endTimeOfDay": 2166620416.0
  },
  {},
  {},
  {},
  {
    "startTimeOfDay": 4.482787030468671e-09,
    "showCrowd": true
  },
  {
    "startTimeOfDay": 428.2016906738281,
    "showCrowd": true
  },
  {
    "startTimeOfDay": 6.176058339479838e-33
  },
  {
    "startTimeOfDay": 2.4076308267733455e-35
  },
  {},
  {
    "endTimeOfDay": 2.5348687676914347e-38
  },
  {
    "showCrowd": true
  },
  {},
  {
    "endTimeOfDay": 3.614814854048533e-37,
    "showCrowd": true
  },
  {
    "startTimeOfDay": 2.407753082777606e-35
  },
  {
    "startTimeOfDay": 6.38603909941913e-33,
    "endTimeOfDay": 4.297628247253138e-40
  },
  {
    "endTimeOfDay": 3.996948765903707e-36,
    "showCrowd": true
  },
  {
    "startTimeOfDay": 2.407756526608712e-35
  },
  {
    "endTimeOfDay": 6.38735712245999e-33
  },
  {
    "startTimeOfDay": 2.4077662841301786e-35
  },
  {},
  {
    "showCrowd": true
  },
  {
    "showCrowd": true
  },
  {
    "startTimeOfDay": 2.4077668581020296e-35
  },
  {
    "startTimeOfDay": 6.303097687393048e-33,
    "endTimeOfDay": 4.491343746961401e-40,
    "showCrowd": true
  },
  {
    "startTimeOfDay": 6.398077630939489e-33,
    "endTimeOfDay": 4.4949310710300725e-40
  },
  {
    "endTimeOfDay": 5.3370162718975906e-36,
    "showCrowd": true
  },
  {
    "startTimeOfDay": 2.407772310834614e-35
  },
  {
    "endTimeOfDay": 6.303097687393048e-33
  },
  {
    "startTimeOfDay": 2.4077783375390493e-35
  },
  {
    "startTimeOfDay": 6.394692207209121e-33
  },
  {
    "startTimeOfDay": 2.407778624524975e-35
  },
  {
    "endTimeOfDay": 1.65291050065689e-27
  },
  {
    "startTimeOfDay": 2.3512434577053893e-38
  },
  {
    "endTimeOfDay": 1.0773405725286265e-33
  },
  {
    "startTimeOfDay": 3.332638072780496e-40,
    "endTimeOfDay": 3.037191522298671e-29
  },
  {
    "startTimeOfDay": 1.3032075718220799e-42
  },
  {},
  {
    "startTimeOfDay": 3.3398127209178393e-40
  },
  {},
  {
    "startTimeOfDay": 4.197183173330335e-40,
    "endTimeOfDay": 2.3534283622709645e-38
  },
  {
    "startTimeOfDay": -1.0182170134031711e-28,
    "endTimeOfDay": 1.7482768303134885e-18
  },
  {},
  {
    "startTimeOfDay": 2.707680817947671e-38
  },
  {
    "startTimeOfDay": 1.7482766235183353e-18,
    "showCrowd": false
  },
  {
    "startTimeOfDay": 2.700587725380952e-38
  },
  {
    "endTimeOfDay": 1.7482766235183353e-18,
    "showCrowd": false
  },
  {
    "startTimeOfDay": 2.909718909495252e-38
  },
  {
    "startTimeOfDay": 4.203895392974451e-45,
    "endTimeOfDay": 1.5791592945656534e-33
  },
  {
    "startTimeOfDay": 7.443894621146319e+27,
    "endTimeOfDay": -1.143660819644611e-19
  },
  {},
  {
    "showCrowd": true
  },
  {
    "startTimeOfDay": -12532.646484375
  },
  {
    "endTimeOfDay": -3.807560663354573e+16,
    "showCrowd": true
  },
  {
    "startTimeOfDay": -5835822989312.0,
    "showCrowd": true
  },
  {
    "endTimeOfDay": 1.4863066514110903e-34
  },
  {
    "endTimeOfDay": -52980690944.0
  },
  {
    "startTimeOfDay": 7.251335260275737e+18
  },
  {},
  {
    "startTimeOfDay": 1.2736468917761868e+19,
    "showCrowd": true
  },
  {
    "startTimeOfDay": 9.470063296831545e+26
  },
  {
    "startTimeOfDay": -0.0001290051732212305,
    "endTimeOfDay": -52982562816.0,
    "showCrowd": true
  },
  {
    "endTimeOfDay": -1.779222682263369e-29,
    "showCrowd": true
  },
  {
    "showCrowd": true
  },
  {
    "showCrowd": true
  },
  {
    "startTimeOfDay": 1.1520092163419156e-36,
    "endTimeOfDay": 3.6737785787265156e-39,
    "showCrowd": true
  },
  {
    "showCrowd": true
  },
  {
    "startTimeOfDay": -2.5842137021584545e-29,
    "endTimeOfDay": 2.861831179534086e-33
  },
  {
    "startTimeOfDay": 7.42895482448195e+27,
    "endTimeOfDay": 3.6573889918877726e-43
  },
  {},
  {},
  {
    "startTimeOfDay": 2.718600576360769e-38
  },
  {
    "startTimeOfDay": 1.7482766235183353e-18,
    "showCrowd": false
  },
  {
    "startTimeOfDay": -131.420166015625
  },
  {
    "startTimeOfDay": -1.5914925857025846e-30,
    "endTimeOfDay": 5.605193857299268e-45
  },
  {
    "startTimeOfDay": 2.066659732236076e-09
  },
  {
    "startTimeOfDay": -3.365956350312323e+24,
    "endTimeOfDay": -2.221275544893625e-32
  },
  {
    "startTimeOfDay": 2.5939449325581946e-37,
    "endTimeOfDay": 5.078238193020646e-36
  },
  {},
  {},
  {},
  {
    "startTimeOfDay": 591446976.0
  },
  {},
  {
    "startTimeOfDay": 1.0430810881700836e-08,
    "endTimeOfDay": 6.555351816928123e-10
  },
  {
    "startTimeOfDay": 2.9020885590973104e-38
  },
  {
    "startTimeOfDay": 5.605193857299268e-45
  },
  {
    "startTimeOfDay": -6.229313743701857e-34
  },
  {},
  {},
  {
    "startTimeOfDay": 4.482787030468671e-09,
    "showCrowd": true
  },
  {
    "startTimeOfDay": 428.2016906738281,
    "showCrowd": true
  },
  {
    "startTimeOfDay": 6.790647958081016e-21
  },
  {
    "startTimeOfDay": 1.7446165880843973e-42
  },
  {},
  {
    "startTimeOfDay": 591446976.0
  },
  {},
  {
    "startTimeOfDay": 1.0430810881700836e-08,
    "endTimeOfDay": 6.555351816928123e-10
  },
  {
    "startTimeOfDay": 2.9020885590973104e-38
  },
  {
    "endTimeOfDay": 5.605193857299268e-45,
    "showCrowd": true
  },
  {
    "showCrowd": true
  },
  {
    "startTimeOfDay": 7.443436551597481e+27,
    "endTimeOfDay": 4.482787030468671e-09,
    "showCrowd": true
  },
  {
    "startTimeOfDay": 428.2016906738281,
    "showCrowd": true
  },
  {
    "startTimeOfDay": 6.176058339479838e-33
  },
  {
    "startTimeOfDay": 2.407689945873997e-35
  },
  {
    "endTimeOfDay": 6.34409819566576e-33
  },
  {
    "startTimeOfDay": 2.4076908068317737e-35
  },
  {
    "startTimeOfDay": 6.343157800185103e-33,
    "showCrowd": true
  },
  {
    "endTimeOfDay": -536.000244140625
  },
  {
    "startTimeOfDay": 2.5349875978012094e-38,
    "endTimeOfDay": 2.407750786890202e-35
  },
  {
    "endTimeOfDay": 6.382843224152832e-33
  },
  {
    "startTimeOfDay": 2.407751934833904e-35
  },
  {
    "showCrowd": true
  },
  {
    "endTimeOfDay": -9080321072955392.0,
    "showCrowd": true
  },
  {},
  {
    "endTimeOfDay": 5.078580782469204e-36,
    "showCrowd": true
  },
  {
    "startTimeOfDay": 2.407769440975359e-35
  },
  {},
  {
    "showCrowd": true
  },
  {
    "startTimeOfDay": 5.242800227487629e-36,
    "endTimeOfDay": 5.2197459306279045e-36
  },
  {
    "startTimeOfDay": -3.7192995114825286e+19,
    "showCrowd": true
  },
  {},
  {
    "endTimeOfDay": 5.219538583296735e-36,
    "showCrowd": true
  },
  {
    "startTimeOfDay": 2.4077708759049865e-35
  },
  {
    "startTimeOfDay": 6.33808039927352e-33,
    "showCrowd": true
  },
  {
    "showCrowd": true
  },
  {},
  {
    "endTimeOfDay": 1.110928526354015e-36,
    "showCrowd": true
  },
  {
    "startTimeOfDay": 2.407778050553124e-35
  },
  {
    "startTimeOfDay": 7.032899594253247e-21
  },
  {
    "startTimeOfDay": 1.7670373635135943e-42
  },
  {},
  {
    "startTimeOfDay": 591446976.0
  },
  {},
  {
    "startTimeOfDay": 1.0430810881700836e-08,
    "endTimeOfDay": 6.555351816928123e-10
  },
  {
    "startTimeOfDay": 2.9020885590973104e-38
  },
  {
    "endTimeOfDay": 5.605193857299268e-45,
    "showCrowd": true
  },
  {
    "showCrowd": true
  },
  {
    "startTimeOfDay": 7.443436551597481e+27,
    "endTimeOfDay": 4.482787030468671e-09,
    "showCrowd": true
  },
  {
    "startTimeOfDay": 428.2016906738281,
    "showCrowd": true
  },
  {
    "startTimeOfDay": 6.790647958081016e-21
  },
  {
    "startTimeOfDay": 1.792260735871441e-42
  },
  {},
  {
    "startTimeOfDay": -19075.0546875
  },
  {
    "startTimeOfDay": -9.901294689226292e-41,
    "showCrowd": true
  },
  {},
  {
    "startTimeOfDay": -3.003527382361426e-08
  },
  {},
  {
    "startTimeOfDay": 6.260211980055205e-33,
    "endTimeOfDay": 2.4113800109039955e-35
  },
  {
    "startTimeOfDay": 554222026752.0
  },
  {},
  {
    "endTimeOfDay": 2.5405431856928716e-38,
    "showCrowd": true
  },
  {},
  {
    "endTimeOfDay": 2.534827008997198e-38,
    "showCrowd": true
  },
  {},
  {
    "endTimeOfDay": 2.5411889040252325e-38,
    "showCrowd": true
  },
  {
    "startTimeOfDay": -541163520.0
  },
  {
    "startTimeOfDay": 8.375546347765403e-38
  },
  {},
  {
    "endTimeOfDay": 4.404810174124236e-19,
    "showCrowd": true
  },
  {},
  {
    "endTimeOfDay": -2.4688136432152777e-36
  },
  {
    "endTimeOfDay": 1.6017966059030554e+28
  },
  {
    "startTimeOfDay": 7.681350243919886e+31,
    "endTimeOfDay": 2.9094081575478032e-37
  },
  {},
  {
    "endTimeOfDay": 6.290494183900326e-33,
    "showCrowd": true
  },
  {
    "startTimeOfDay": -4.649059974409027e-16,
    "endTimeOfDay": 2.53480374744269e-38,
    "showCrowd": true
  },
  {
    "endTimeOfDay": 1.939910061967367e-37
  },
  {
    "startTimeOfDay": -2114176.5,
    "endTimeOfDay": -1.0081041848539342e-34,
    "showCrowd": true
  },
  {
    "startTimeOfDay": -8456706.0,
    "showCrowd": true
  },
  {},
  {
    "endTimeOfDay": 1.0256050825022206e-32,
    "showCrowd": true
  },
  {
    "startTimeOfDay": 2.461192137813243e-38,
    "endTimeOfDay": 2.534867926912356e-38
  },
  {
    "showCrowd": true
  },
  {},
  {
    "endTimeOfDay": 6.25981818944768e-33,
    "showCrowd": true
  },
  {
    "startTimeOfDay": -4.129195211359455e-31,
    "endTimeOfDay": 6.237457348159163e-33,
    "showCrowd": true
  },
  {},
  {
    "startTimeOfDay": 5.143648742623989e-38,
    "endTimeOfDay": 2.534770396539239e-38
  },
  {
    "startTimeOfDay": -2.580747007099659e-32
  },
  {
    "startTimeOfDay": 2.534770957058625e-38
  },
  {
    "startTimeOfDay": 2.461192137813243e-38,
    "endTimeOfDay": 2.534920055215229e-38,
    "showCrowd": true
  },
  {
    "startTimeOfDay": 9.464107056561784e-37,
    "endTimeOfDay": -3.993566496988263e+28
  },
  {
    "showCrowd": false
  },
  {
    "endTimeOfDay": 5.572295943195109e-36,
    "showCrowd": true
  },
  {
    "startTimeOfDay": 2.407775180693869e-35
  },
  {
    "startTimeOfDay": 6.40033237604116e-33,
    "showCrowd": true
  },
  {
    "startTimeOfDay": -2.5919381378453857e+27
  },
  {
    "showCrowd": true
  },
  {
    "endTimeOfDay": 4.541566283922802e-40
  },
  {
    "endTimeOfDay": 2.535305692552611e-38,
    "showCrowd": true
  },
  {
    "showCrowd": false
  },
  {
    "endTimeOfDay": 6.333946332578472e-33,
    "showCrowd": true
  },
  {
    "startTimeOfDay": 2.461192698332629e-38
  },
  {
    "startTimeOfDay": -9.480297546914716e-38,
    "endTimeOfDay": -1.7811665284722675e+38,
    "showCrowd": true
  },
  {
    "showCrowd": true
  }
]