{
  "id": 134012801,
  "area": {},
  "actors": {},
  "NCFALBLLBCH": {},
  "JCEMKFJHGAD": {},
  "JJICJMFLMAP": {
    "$type": "EAGDBFAKNOF",
    "LAIJGANGJCB": {
      "$type": "PKDFNNPOMLO"
    },
    "sceneId": 3,
    "shape": {
      "$type": "EIILDICPJEK",
      "FDLOABBOBNG": {
        "x": 3400.334716796875,
        "y": 443.3837890625,
        "z": 3007.080078125
      },
      "radius": 30.0
    }
  },
  "COCBHINKMIH": {},
  "GNFFDFPLJLK": {
    "EDEEFBOMBJD": [
      {
        "id": 1,
        "FOOPHPFOAPO": [
          {
            "$type": "CKOGNFMHFLM",
            "id": 1
          },
          {
            "$type": "MILHNEGMIIN",
            "id": 2,
            "JEJPFELBMEG": {
              "$type": "COICJMMOLJK",
              "MHBOACALHCJ": true
            }
          },
          {
            "$type": "IHHCOEFMDBC",
            "id": 9,
            "IPCABBFFJHA": {
              "$type": "JMIJHNDECDN",
              "MEAHJECMAPM": 4012807
            }
          },
          {
            "$type": "IHHCOEFMDBC",
            "id": 29,
            "IPCABBFFJHA": {
              "$type": "GGFPMEHDNMN",
              "MEKHGEHEFHI": {
                "$type": "HELEGKKIPLP",
                "targetPos": {
                  "x": 3403.188232421875,
                  "y": 443.3595886230469,
                  "z": 3006.3955078125
                }
              },
              "GPGMBJMPEPJ": {
                "EBHKKKPJEND": 0.5,
                "duration": 5.0,
                "IMHJNADCMLN": true,
                "EMAPCJIBKKK": true,
                "KMIJIAHHFDO": true,
                "HMEBNDFICFD": 0.0,
                "MNANOEKELNM": 0.0,
                "GFFAAOHEPCL": "STORY_CAM_KEEP_ROT_XY"
              }
            }
          },
          {
            "$type": "IHHCOEFMDBC",
            "id": 33,
            "IPCABBFFJHA": {
              "$type": "JFIEANFABJC",
              "NPPEPAOGHJP": {
                "$type": "EIILDICPJEK",
                "FDLOABBOBNG": {
                  "x": 3400.155029296875,
                  "y": 443.37158203125,
                  "z": 3006.5341796875
                },
                "radius": 20.0
              },
              "KIHLPFDMFAI": 3,
              "EDBGJKJNEKM": 0.5,
              "NFMADOJJIPJ": {
                "$type": "MPJKHJJNCMF"
              },
              "FDNKOBIHCHO": 1
            }
          },
          {
            "$type": "BEINMJICELC",
            "id": 35
          },
          {
            "$type": "IHHCOEFMDBC",
            "id": 56,
            "IPCABBFFJHA": {
              "$type": "PCOFMMJHBHA",
              "GFIHLLKMKMN": {
                "$type": "CCIMIMBOHPC",
                "npcId": 13587,
                "questId": 40128
              },
              "IDELFHFEFDL": {
                "DJMNHLNMJPI": 1,
                "EIHOCKAKOEK": true,
                "LEPHJDGGODL": ""
              },
              "duration": 2.0,
              "DGECEMMBKEC": "STORY_FREESTYLE_END_NATURAL"
            }
          },
          {
            "$type": "IHHCOEFMDBC",
            "id": 61,
            "IPCABBFFJHA": {
              "$type": "MCIJGDAILBH",
              "questId": 4012809
            }
          },
          {
            "$type": "IHHCOEFMDBC",
            "id": 86,
            "IPCABBFFJHA": {
              "$type": "DPIBFPOIJDD",
              "GFIHLLKMKMN": {
                "$type": "CCIMIMBOHPC",
                "npcId": 13587,
                "questId": 40128
              },
              "PPLGNENMNNN": {
                "routes": [
                  {
                    "x": 3403.588134765625,
                    "y": 443.3489990234375,
                    "z": 3006.281982421875
                  },
                  {
                    "x": 3403.015869140625,
                    "y": 443.4010314941406,
                    "z": 3005.9169921875
                  },
                  {
                    "x": 3401.816650390625,
                    "y": 443.36639404296875,
                    "z": 3006.186279296875
                  }
                ],
                "DDELPBCPLMD": "STORY_TASK_WALK",
                "GDLAFEKAMIH": 2.0
              }
            }
          },
          {
            "$type": "IHHCOEFMDBC",
            "id": 89,
            "IPCABBFFJHA": {
              "$type": "GOHMLKDPNMP",
              "GFIHLLKMKMN": {
                "$type": "CCIMIMBOHPC",
                "npcId": 13587,
                "questId": 40128
              },
              "AFKKCFMEOBI": {
                "$type": "GLPDIECMBEC",
                "target": {
                  "$type": "MPJKHJJNCMF"
                }
              }
            }
          },
          {
            "$type": "IHHCOEFMDBC",
            "id": 95,
            "IPCABBFFJHA": {
              "$type": "JMIJHNDECDN",
              "MEAHJECMAPM": 4012802
            }
          },
          {
            "$type": "IHHCOEFMDBC",
            "id": 100,
            "IPCABBFFJHA": {
              "$type": "HOBPBLGPMJF",
              "DMFPIBCOIPK": 3.0
            }
          },
          {
            "$type": "IHHCOEFMDBC",
            "id": 107,
            "IPCABBFFJHA": {
              "$type": "NFADLJGJABD",
              "JNGNPEALPPD": 4012809
            }
          },
          {
            "$type": "MILHNEGMIIN",
            "id": 109,
            "JEJPFELBMEG": {
              "$type": "COICJMMOLJK",
              "MHBOACALHCJ": true
            }
          },
          {
            "$type": "IHHCOEFMDBC",
            "id": 111,
            "IPCABBFFJHA": {
              "$type": "JFIEANFABJC",
              "NPPEPAOGHJP": {
                "$type": "EIILDICPJEK",
                "FDLOABBOBNG": {
                  "x": 3400.155029296875,
                  "y": 443.37158203125,
                  "z": 3006.5341796875
                },
                "radius": 20.0
              },
              "KIHLPFDMFAI": 3,
              "EDBGJKJNEKM": 0.5,
              "NFMADOJJIPJ": {
                "$type": "MPJKHJJNCMF"
              },
              "FDNKOBIHCHO": 1
            }
          },
          {
            "$type": "FIFEFLIOOOH",
            "id": 38,
            "source": 35,
            "target": 9
          },
          {
            "$type": "FIFEFLIOOOH",
            "id": 91,
            "source": 89,
            "target": 56
          },
          {
            "$type": "HCIMIJBPBAH",
            "id": 96,
            "source": 33,
            "target": 95,
            "EJMANKGMAFK": "OnEnter"
          },
          {
            "$type": "FIFEFLIOOOH",
            "id": 97,
            "source": 95,
            "target": 35
          },
          {
            "$type": "FIFEFLIOOOH",
            "id": 98,
            "source": 56,
            "target": 2
          },
          {
            "$type": "FIFEFLIOOOH",
            "id": 101,
            "source": 35,
            "target": 100
          },
          {
            "$type": "FIFEFLIOOOH",
            "id": 102,
            "source": 100,
            "target": 86
          },
          {
            "$type": "FIFEFLIOOOH",
            "id": 104,
            "source": 1,
            "target": 33
          },
          {
            "$type": "FIFEFLIOOOH",
            "id": 105,
            "source": 100,
            "target": 61
          },
          {
            "$type": "FIFEFLIOOOH",
            "id": 106,
            "source": 86,
            "target": 89
          },
          {
            "$type": "FIFEFLIOOOH",
            "id": 108,
            "source": 61,
            "target": 107
          },
          {
            "$type": "HCIMIJBPBAH",
            "id": 110,
            "source": 107,
            "target": 109,
            "EJMANKGMAFK": "OnStart"
          },
          {
            "$type": "HCIMIJBPBAH",
            "id": 112,
            "source": 111,
            "target": 29,
            "EJMANKGMAFK": "OnEnter"
          },
          {
            "$type": "FIFEFLIOOOH",
            "id": 113,
            "source": 100,
            "target": 111
          }
        ]
      }
    ]
  }
}