{
  "luaDataPath": "",
  "isSimpleTalk": true,
  "startBlackKeepTime": 0.6000000238418579,
  "entityBan": "",
  "disableNpcLod": true,
  "startFade": {
    "startFadeInDuration": 0.4000000059604645,
    "startFadeOutDuration": 0.4000000059604645
  },
  "endFade": {
    "startFadeOutDuration": 0.0
  },
  "actors": [
    {
      "alias": "Avatar",
      "visible": true,
      "bornPointName": "Q41336_MainActor04",
      "relativePosNpcAlias": "",
      "_bindMovingTargetKey": ""
    },
    {
      "configID": 204001,
      "alias": "204001",
      "visible": true,
      "bornPointName": "Q41336_DeGui",
      "relativePosNpcAlias": "",
      "_bindMovingTargetKey": ""
    },
    {
      "configID": 201701,
      "alias": "201701",
      "visible": true,
      "bornPointName": "Q41336_LinLin04",
      "relativePosNpcAlias": "",
      "_bindMovingTargetKey": ""
    }
  ],
  "group": [
    [
      {
        "$type": "EFHODGEJOHJ",
        "type": "CAMERA_FOCUS",
        "duration": 0.10000000149011612,
        "targetNpcAlias": "",
        "PHGBNNGCJKJ": "",
        "NFILMKCFHEB": "",
        "BGPNGHDAECF": ""
      },
      {
        "$type": "MoleMole.Config.ConfigTimeProtectAction",
        "type": "TIME_PROTECT",
        "duration": 0.10000000149011612
      }
    ],
    [
      {
        "$type": "MJFAIFFAGOF",
        "type": "DIALOG",
        "aliasList": [
          "204001"
        ],
        "dialogID": 413360701
      },
      {
        "$type": "IEKHMHNHENB",
        "type": "STEER_TO",
        "duration": 0.5,
        "aliasList": [
          "204001"
        ],
        "steerType": "TO_TARGET",
        "useSteerAnim": true,
        "interruptFreestyle": true,
        "forceSteer": true,
        "targetNpcAlias": "201701",
        "BHGPHGNFCBF": ""
      }
    ],
    [
      {
        "$type": "MJFAIFFAGOF",
        "type": "DIALOG",
        "aliasList": [
          "201701"
        ],
        "dialogID": 413360702
      }
    ],
    [
      {
        "$type": "MJFAIFFAGOF",
        "type": "DIALOG",
        "aliasList": [
          "201701"
        ],
        "dialogID": 413360703
      }
    ],
    [
      {
        "$type": "MJFAIFFAGOF",
        "type": "DIALOG",
        "aliasList": [
          "204001"
        ],
        "dialogID": 413360704
      }
    ],
    [
      {
        "$type": "MJFAIFFAGOF",
        "type": "DIALOG",
        "aliasList": [
          "204001"
        ],
        "dialogID": 413360705
      }
    ],
    [
      {
        "$type": "MJFAIFFAGOF",
        "type": "DIALOG",
        "aliasList": [
          "204001"
        ],
        "dialogID": 413360706
      },
      {
        "$type": "MoleMole.Config.ConfigEmojiBubbleAction",
        "type": "EMOJI_BUBBLE",
        "delayTime": 0.3677988052368164,
        "aliasList": [
          "204001"
        ],
        "pattarnName": "EmojiBubble_Emoji_Happy"
      }
    ],
    [
      {
        "$type": "MJFAIFFAGOF",
        "type": "DIALOG",
        "aliasList": [
          "201701"
        ],
        "dialogID": 413360707
      }
    ],
    [
      {
        "$type": "MJFAIFFAGOF",
        "type": "DIALOG",
        "aliasList": [
          "201701"
        ],
        "dialogID": 413360708
      }
    ],
    [
      {
        "$type": "MJFAIFFAGOF",
        "type": "DIALOG",
        "aliasList": [
          "204001"
        ],
        "dialogID": 413360709
      }
    ],
    [
      {
        "$type": "MJFAIFFAGOF",
        "type": "DIALOG",
        "aliasList": [
          "204001"
        ],
        "dialogID": 413360710
      }
    ],
    [
      {
        "$type": "MJFAIFFAGOF",
        "type": "DIALOG",
        "aliasList": [
          "201701"
        ],
        "dialogID": 413360711
      },
      {
        "$type": "IEKHMHNHENB",
        "type": "STEER_TO",
        "duration": 0.5,
        "aliasList": [
          "201701"
        ],
        "steerType": "TO_TARGET",
        "useSteerAnim": true,
        "interruptFreestyle": true,
        "forceSteer": true,
        "targetNpcAlias": "Avatar",
        "BHGPHGNFCBF": ""
      }
    ],
    [
      {
        "$type": "MoleMole.Config.ConfigSimpleBlackScreenAction",
        "type": "SIMPLE_BLACK_SCREEN",
        "durationToBlack": 0.4000000059604645,
        "durationKeepBlack": 0.6000000238418579,
        "durationFromBlack": 0.4000000059604645,
        "textMapID": ""
      },
      {
        "$type": "MoleMole.Config.ConfigTimeProtectAction",
        "type": "TIME_PROTECT",
        "duration": 0.10000000149011612
      }
    ]
  ],
  "groupId": [
    {
      "grpId": 1205324535,
      "nextGrpId": 1205324536
    },
    {
      "index": 1,
      "grpId": 1205324536,
      "nextGrpId": 1205324537
    },
    {
      "index": 2,
      "grpId": 1205324537,
      "nextGrpId": 1205324538
    },
    {
      "index": 3,
      "grpId": 1205324538,
      "nextGrpId": 1205324539
    },
    {
      "index": 4,
      "grpId": 1205324539,
      "nextGrpId": 1205324540
    },
    {
      "index": 5,
      "grpId": 1205324540,
      "nextGrpId": 1205324541
    },
    {
      "index": 6,
      "grpId": 1205324541,
      "nextGrpId": 1205324542
    },
    {
      "index": 7,
      "grpId": 1205324542,
      "nextGrpId": 1205324543
    },
    {
      "index": 8,
      "grpId": 1205324543,
      "nextGrpId": 3005322265
    },
    {
      "index": 9,
      "grpId": 3005322265,
      "nextGrpId": 3005322266
    },
    {
      "index": 10,
      "grpId": 3005322266,
      "nextGrpId": 3005322267
    },
    {
      "index": 11,
      "grpId": 3005322267,
      "nextGrpId": 3005322268
    },
    {
      "index": 12,
      "grpId": 3005322268,
      "nextGrpId": 3005322269
    }
  ],
  "freeStyleDic": {
    "204001": [],
    "201701": []
  }
}