{
  "luaDataPath": "",
  "isSimpleTalk": true,
  "startBlackKeepTime": 0.6000000238418579,
  "entityBan": "",
  "disableNpcLod": true,
  "startFade": {
    "startFadeInDuration": 0.4000000059604645,
    "startFadeOutDuration": 0.4000000059604645
  },
  "endFade": {
    "startFadeOutDuration": 0.0
  },
  "actors": [
    {
      "alias": "Avatar",
      "visible": true,
      "bornPointName": "Q41336_MainActor06",
      "relativePosNpcAlias": "",
      "_bindMovingTargetKey": ""
    },
    {
      "configID": 203201,
      "alias": "203201",
      "visible": true,
      "bornPointName": "Q41336_BiBo",
      "relativePosNpcAlias": "",
      "_bindMovingTargetKey": ""
    },
    {
      "configID": 201701,
      "alias": "201701",
      "visible": true,
      "bornPointName": "Q41336_LinLin06",
      "relativePosNpcAlias": "",
      "_bindMovingTargetKey": ""
    }
  ],
  "group": [
    [
      {
        "$type": "EFHODGEJOHJ",
        "type": "CAMERA_FOCUS",
        "duration": 0.10000000149011612,
        "targetNpcAlias": "",
        "PHGBNNGCJKJ": "",
        "NFILMKCFHEB": "",
        "BGPNGHDAECF": ""
      },
      {
        "$type": "MoleMole.Config.ConfigTimeProtectAction",
        "type": "TIME_PROTECT",
        "duration": 0.10000000149011612
      }
    ],
    [
      {
        "$type": "MJFAIFFAGOF",
        "type": "DIALOG",
        "delayTime": 0.28333327174186707,
        "aliasList": [
          "203201"
        ],
        "dialogID": 413360901
      },
      {
        "$type": "IEKHMHNHENB",
        "type": "STEER_TO",
        "delayTime": 0.008333300240337849,
        "duration": 0.10000000149011612,
        "aliasList": [
          "203201"
        ],
        "steerType": "ABSOLUTE",
        "useAngle": true,
        "steerDir": {
          "x": -453.724853515625,
          "y": 205.34103393554688,
          "z": 387.57049560546875
        },
        "steerAngle": 180.0,
        "useSteerAnim": true,
        "interruptFreestyle": true,
        "forceSteer": true,
        "targetNpcAlias": "201701",
        "BHGPHGNFCBF": ""
      }
    ],
    [
      {
        "$type": "MJFAIFFAGOF",
        "type": "DIALOG",
        "aliasList": [
          "201701"
        ],
        "dialogID": 413360902
      }
    ],
    [
      {
        "$type": "MJFAIFFAGOF",
        "type": "DIALOG",
        "aliasList": [
          "203201"
        ],
        "dialogID": 413360903
      }
    ],
    [
      {
        "$type": "MJFAIFFAGOF",
        "type": "DIALOG",
        "aliasList": [
          "203201"
        ],
        "dialogID": 413360904
      }
    ],
    [
      {
        "$type": "MJFAIFFAGOF",
        "type": "DIALOG",
        "aliasList": [
          "201701"
        ],
        "dialogID": 413360905
      }
    ],
    [
      {
        "$type": "MJFAIFFAGOF",
        "type": "DIALOG",
        "aliasList": [
          "203201"
        ],
        "dialogID": 413360906
      }
    ],
    [
      {
        "$type": "MJFAIFFAGOF",
        "type": "DIALOG",
        "aliasList": [
          "203201"
        ],
        "dialogID": 413360907
      }
    ],
    [
      {
        "$type": "MJFAIFFAGOF",
        "type": "DIALOG",
        "aliasList": [
          "201701"
        ],
        "dialogID": 413360908
      }
    ],
    [
      {
        "$type": "EFHODGEJOHJ",
        "type": "CAMERA_MOVE",
        "delayTime": 1.808333158493042,
        "duration": 1.0,
        "camPosOffset": {
          "x": -452.057861328125,
          "y": 204.36325073242188,
          "z": 376.2491455078125
        },
        "camForwardTargetOffset": {
          "x": -452.18463134765625,
          "y": 204.19308471679688,
          "z": 377.22637939453125
        },
        "camFov": 30.0,
        "lerpPattern": 6,
        "cameraBlendType": "EaseInOutCubic",
        "MDKBPBJCMHH": {},
        "targetNpcAlias": "",
        "PHGBNNGCJKJ": "",
        "NFILMKCFHEB": "",
        "BGPNGHDAECF": ""
      },
      {
        "$type": "MJFAIFFAGOF",
        "type": "DIALOG",
        "duration": 2.0,
        "aliasList": [
          "203201"
        ],
        "dialogID": 413360909,
        "protectTime": 2.0
      },
      {
        "$type": "MoleMole.Config.ConfigBlackScreenAction",
        "type": "BLACK_SCREEN",
        "delayTime": 1.1333330869674683,
        "duration": 1.5,
        "aliasList": [
          "203201"
        ],
        "durationToBlack": 0.4000000059604645,
        "durationKeepBlack": 0.5,
        "durationFromBlack": 0.4000000059604645,
        "inteePos": "",
        "textMapID": ""
      },
      {
        "$type": "MoleMole.Config.ConfigVisibleInterAction",
        "type": "VISIBLE",
        "delayTime": 1.6813676357269287,
        "duration": 0.20000000298023224,
        "aliasList": [
          "203201"
        ],
        "_extraParam": ""
      },
      {
        "$type": "MJFAIFFAGOF",
        "type": "DIALOG_CLEAR",
        "delayTime": 1.2147016525268555,
        "duration": 0.20000000298023224,
        "aliasList": [
          "203201"
        ]
      }
    ],
    [
      {
        "$type": "IEKHMHNHENB",
        "type": "STEER_TO",
        "delayTime": 0.8150777816772461,
        "duration": 0.5,
        "aliasList": [
          "Avatar"
        ],
        "steerType": "TO_TARGET",
        "useSteerAnim": true,
        "interruptFreestyle": true,
        "forceSteer": true,
        "targetNpcAlias": "201701",
        "BHGPHGNFCBF": ""
      },
      {
        "$type": "MJFAIFFAGOF",
        "type": "DIALOG",
        "aliasList": [
          "201701"
        ],
        "dialogID": 413360910,
        "protectTime": 1.5
      },
      {
        "$type": "IEKHMHNHENB",
        "type": "STEER_TO",
        "duration": 0.5,
        "aliasList": [
          "201701"
        ],
        "steerType": "TO_TARGET",
        "useSteerAnim": true,
        "interruptFreestyle": true,
        "forceSteer": true,
        "targetNpcAlias": "Avatar",
        "BHGPHGNFCBF": ""
      }
    ],
    [
      {
        "$type": "MJFAIFFAGOF",
        "type": "DIALOG",
        "aliasList": [
          "201701"
        ],
        "dialogID": 413360911
      }
    ],
    [
      {
        "$type": "MJFAIFFAGOF",
        "type": "DIALOG",
        "aliasList": [
          "201701"
        ],
        "dialogID": 413360912
      }
    ],
    [
      {
        "$type": "OBCDECFOOBC",
        "type": "DIALOG_SELECT",
        "delayTime": 0.4000000059604645,
        "aliasList": [
          "Avatar"
        ],
        "dialogIDList": [
          413360914
        ],
        "grpIDList": [
          3005381852
        ],
        "useGrpId": true
      },
      {
        "$type": "MJFAIFFAGOF",
        "type": "DIALOG",
        "aliasList": [
          "201701"
        ],
        "dialogID": 413360913
      }
    ],
    [
      {
        "$type": "MJFAIFFAGOF",
        "type": "DIALOG",
        "aliasList": [
          "201701"
        ],
        "dialogID": 413360915
      }
    ],
    [
      {
        "$type": "MJFAIFFAGOF",
        "type": "DIALOG",
        "aliasList": [
          "201701"
        ],
        "dialogID": 413360916
      }
    ],
    [
      {
        "$type": "MoleMole.Config.ConfigSimpleBlackScreenAction",
        "type": "SIMPLE_BLACK_SCREEN",
        "durationToBlack": 0.5,
        "durationKeepBlack": 4.0,
        "durationFromBlack": 0.5,
        "textMapID": ""
      },
      {
        "$type": "MoleMole.Config.ConfigTimeProtectAction",
        "type": "TIME_PROTECT",
        "duration": 0.10000000149011612
      },
      {
        "$type": "MoleMole.Config.ConfigVisibleInterAction",
        "type": "VISIBLE",
        "delayTime": 0.37760409712791443,
        "aliasList": [
          "203201"
        ],
        "isVisible": true,
        "_extraParam": ""
      }
    ]
  ],
  "groupId": [
    {
      "grpId": 1205326457,
      "nextGrpId": 1205326458
    },
    {
      "index": 1,
      "grpId": 1205326458,
      "nextGrpId": 1205326459
    },
    {
      "index": 2,
      "grpId": 1205326459,
      "nextGrpId": 1205326460
    },
    {
      "index": 3,
      "grpId": 1205326460,
      "nextGrpId": 1205326461
    },
    {
      "index": 4,
      "grpId": 1205326461,
      "nextGrpId": 1205326462
    },
    {
      "index": 5,
      "grpId": 1205326462,
      "nextGrpId": 1205326463
    },
    {
      "index": 6,
      "grpId": 1205326463,
      "nextGrpId": 1205326464
    },
    {
      "index": 7,
      "grpId": 1205326464,
      "nextGrpId": 1205326465
    },
    {
      "index": 8,
      "grpId": 1205326465,
      "nextGrpId": 3005381847
    },
    {
      "index": 9,
      "grpId": 3005381847,
      "nextGrpId": 3005381848
    },
    {
      "index": 10,
      "grpId": 3005381848,
      "nextGrpId": 3005381849
    },
    {
      "index": 11,
      "grpId": 3005381849,
      "nextGrpId": 3005381850
    },
    {
      "index": 12,
      "grpId": 3005381850,
      "nextGrpId": 3005381851
    },
    {
      "index": 13,
      "grpId": 3005381851,
      "nextGrpId": 3005381852
    },
    {
      "index": 14,
      "grpId": 3005381852,
      "nextGrpId": 3005381853
    },
    {
      "index": 15,
      "grpId": 3005381853,
      "nextGrpId": 3005381854
    },
    {
      "index": 16,
      "grpId": 3005381854,
      "nextGrpId": 3005381855
    }
  ],
  "freeStyleDic": {
    "203201": [],
    "201701": []
  }
}