{
  "luaDataPath": "",
  "isSimpleTalk": true,
  "entityBan": "",
  "disableNpcLod": true,
  "protectNpcMobileLod": true,
  "startFade": {
    "startFadeOutDuration": 0.0
  },
  "endFade": {
    "startFadeOutDuration": 0.0
  },
  "actors": [
    {
      "alias": "Avatar",
      "visible": true,
      "bornPointName": "N10000005_T7326601",
      "relativePosType": "AVATAR_NEW",
      "relativePosNpcAlias": "",
      "_bindMovingTargetKey": ""
    },
    {
      "configID": 4284,
      "alias": "4284",
      "visible": true,
      "bornPointName": "",
      "forceCreateDaily": true,
      "relativePosType": "AVATAR_NEW",
      "relativePosNpcAlias": "",
      "_bindMovingTargetKey": ""
    },
    {
      "configID": 20883,
      "alias": "20883",
      "visible": true,
      "bornPointName": "N20883_T7326601",
      "relativePosType": "AVATAR_NEW",
      "relativePosNpcAlias": "",
      "_bindMovingTargetKey": ""
    },
    {
      "configID": 1005,
      "alias": "1005",
      "visible": true,
      "bornPointName": "Q7323827_N1005",
      "relativePosType": "AVATAR_NEW",
      "relativePosNpcAlias": "",
      "_bindMovingTargetKey": ""
    }
  ],
  "group": [
    [
      {
        "$type": "EFHODGEJOHJ",
        "type": "CAMERA_FOCUS",
        "duration": 0.10000000149011612,
        "actionId": 103,
        "targetNpcAlias": "",
        "PHGBNNGCJKJ": "",
        "NFILMKCFHEB": "",
        "BGPNGHDAECF": ""
      },
      {
        "$type": "MoleMole.Config.ConfigTimeProtectAction",
        "type": "TIME_PROTECT",
        "duration": 0.10000000149011612,
        "actionId": 104
      },
      {
        "$type": "IEKHMHNHENB",
        "type": "STEER_TO",
        "delayTime": 0.30000001192092896,
        "duration": 0.800000011920929,
        "aliasList": [
          "Avatar"
        ],
        "actionId": 208,
        "steerType": "TO_TARGET_ADVANCED",
        "useSteerAnim": true,
        "interruptFreestyle": true,
        "forceSteer": true,
        "targetNpcAlias": "4284",
        "fixInterNull": true,
        "BHGPHGNFCBF": ""
      },
      {
        "$type": "IEKHMHNHENB",
        "type": "STEER_TO",
        "delayTime": 0.30000001192092896,
        "duration": 0.800000011920929,
        "aliasList": [
          "4284"
        ],
        "actionId": 209,
        "steerType": "TO_LOCAL_AVATAR_ADVANCED",
        "useSteerAnim": true,
        "interruptFreestyle": true,
        "forceSteer": true,
        "targetNpcAlias": "",
        "fixInterNull": true,
        "BHGPHGNFCBF": ""
      },
      {
        "$type": "IEKHMHNHENB",
        "type": "STEER_TO",
        "delayTime": 0.30000001192092896,
        "duration": 0.800000011920929,
        "aliasList": [
          "20883"
        ],
        "actionId": 210,
        "steerType": "TO_LOCAL_AVATAR_ADVANCED",
        "useSteerAnim": true,
        "interruptFreestyle": true,
        "forceSteer": true,
        "targetNpcAlias": "",
        "fixInterNull": true,
        "BHGPHGNFCBF": ""
      }
    ],
    [
      {
        "$type": "MJFAIFFAGOF",
        "type": "DIALOG",
        "aliasList": [
          "4284"
        ],
        "actionId": 107,
        "dialogID": 732382901,
        "protectTime": 0.5
      }
    ],
    [
      {
        "$type": "MJFAIFFAGOF",
        "type": "DIALOG",
        "aliasList": [
          "20883"
        ],
        "actionId": 109,
        "dialogID": 732382902,
        "protectTime": 0.5
      }
    ],
    [
      {
        "$type": "MJFAIFFAGOF",
        "type": "DIALOG",
        "aliasList": [
          "4284"
        ],
        "actionId": 111,
        "dialogID": 732382903,
        "protectTime": 0.5
      }
    ],
    [
      {
        "$type": "MJFAIFFAGOF",
        "type": "DIALOG",
        "aliasList": [
          "20883"
        ],
        "actionId": 113,
        "dialogID": 732382904,
        "protectTime": 0.5
      }
    ],
    [
      {
        "$type": "MJFAIFFAGOF",
        "type": "DIALOG",
        "aliasList": [
          "4284"
        ],
        "actionId": 115,
        "dialogID": 732382905,
        "protectTime": 0.5
      }
    ],
    [
      {
        "$type": "MJFAIFFAGOF",
        "type": "DIALOG",
        "aliasList": [
          "20883"
        ],
        "actionId": 117,
        "dialogID": 732382906,
        "protectTime": 0.5
      }
    ],
    [
      {
        "$type": "MJFAIFFAGOF",
        "type": "DIALOG",
        "aliasList": [
          "4284"
        ],
        "actionId": 119,
        "dialogID": 732382907,
        "protectTime": 0.5
      }
    ],
    [
      {
        "$type": "MJFAIFFAGOF",
        "type": "DIALOG",
        "aliasList": [
          "20883"
        ],
        "actionId": 121,
        "dialogID": 732382908,
        "protectTime": 0.5
      }
    ],
    [
      {
        "$type": "MJFAIFFAGOF",
        "type": "DIALOG",
        "aliasList": [
          "4284"
        ],
        "actionId": 123,
        "dialogID": 732382909,
        "protectTime": 0.5
      }
    ],
    [
      {
        "$type": "MJFAIFFAGOF",
        "type": "DIALOG",
        "aliasList": [
          "20883"
        ],
        "actionId": 125,
        "dialogID": 732382910,
        "protectTime": 0.5
      }
    ],
    [
      {
        "$type": "MJFAIFFAGOF",
        "type": "DIALOG",
        "aliasList": [
          "1005"
        ],
        "actionId": 127,
        "dialogID": 732382911,
        "protectTime": 0.5
      }
    ],
    [
      {
        "$type": "MJFAIFFAGOF",
        "type": "DIALOG",
        "aliasList": [
          "1005"
        ],
        "actionId": 129,
        "dialogID": 732382912,
        "protectTime": 0.5
      },
      {
        "$type": "OBCDECFOOBC",
        "type": "DIALOG_SELECT",
        "delayTime": 0.4000000059604645,
        "aliasList": [
          "Avatar"
        ],
        "actionId": 130,
        "dialogIDList": [
          732382913,
          732382915
        ],
        "grpIDList": [
          820288393,
          820288394
        ],
        "useGrpId": true,
        "countDownGrpId": 857744906
      }
    ],
    [
      {
        "$type": "MJFAIFFAGOF",
        "type": "DIALOG",
        "aliasList": [
          "1005"
        ],
        "actionId": 132,
        "dialogID": 732382914,
        "protectTime": 0.5
      }
    ],
    [
      {
        "$type": "MJFAIFFAGOF",
        "type": "DIALOG",
        "aliasList": [
          "1005"
        ],
        "actionId": 134,
        "dialogID": 732382916,
        "protectTime": 0.5
      }
    ],
    [
      {
        "$type": "MJFAIFFAGOF",
        "type": "DIALOG",
        "aliasList": [
          "4284"
        ],
        "actionId": 136,
        "dialogID": 732382917,
        "protectTime": 0.5
      }
    ],
    [
      {
        "$type": "MJFAIFFAGOF",
        "type": "DIALOG",
        "aliasList": [
          "4284"
        ],
        "actionId": 138,
        "dialogID": 732382918,
        "protectTime": 0.5
      }
    ],
    [
      {
        "$type": "MJFAIFFAGOF",
        "type": "DIALOG",
        "aliasList": [
          "4284"
        ],
        "actionId": 140,
        "dialogID": 732382919,
        "protectTime": 0.5
      }
    ],
    [
      {
        "$type": "MJFAIFFAGOF",
        "type": "DIALOG",
        "aliasList": [
          "1005"
        ],
        "actionId": 142,
        "dialogID": 732382920,
        "protectTime": 0.5
      },
      {
        "$type": "OBCDECFOOBC",
        "type": "DIALOG_SELECT",
        "delayTime": 0.4000000059604645,
        "aliasList": [
          "Avatar"
        ],
        "actionId": 143,
        "dialogIDList": [
          732382921,
          732382924
        ],
        "grpIDList": [
          820288420,
          820288422
        ],
        "useGrpId": true,
        "countDownGrpId": 857744906
      }
    ],
    [
      {
        "$type": "MJFAIFFAGOF",
        "type": "DIALOG",
        "aliasList": [
          "4284"
        ],
        "actionId": 145,
        "dialogID": 732382922,
        "protectTime": 0.5
      }
    ],
    [
      {
        "$type": "MJFAIFFAGOF",
        "type": "DIALOG",
        "aliasList": [
          "4284"
        ],
        "actionId": 147,
        "dialogID": 732382923,
        "protectTime": 0.5
      }
    ],
    [
      {
        "$type": "MJFAIFFAGOF",
        "type": "DIALOG",
        "aliasList": [
          "4284"
        ],
        "actionId": 149,
        "dialogID": 732382925,
        "protectTime": 0.5
      }
    ],
    [
      {
        "$type": "MJFAIFFAGOF",
        "type": "DIALOG",
        "aliasList": [
          "4284"
        ],
        "actionId": 151,
        "dialogID": 732382926,
        "protectTime": 0.5
      }
    ],
    [
      {
        "$type": "MJFAIFFAGOF",
        "type": "DIALOG",
        "aliasList": [
          "4284"
        ],
        "actionId": 153,
        "dialogID": 732382927,
        "protectTime": 0.5
      }
    ],
    [
      {
        "$type": "MJFAIFFAGOF",
        "type": "DIALOG",
        "aliasList": [
          "1005"
        ],
        "actionId": 155,
        "dialogID": 732382928,
        "protectTime": 0.5
      }
    ],
    [
      {
        "$type": "MJFAIFFAGOF",
        "type": "DIALOG",
        "aliasList": [
          "4284"
        ],
        "actionId": 157,
        "dialogID": 732382929,
        "protectTime": 0.5
      }
    ],
    [
      {
        "$type": "MJFAIFFAGOF",
        "type": "DIALOG",
        "aliasList": [
          "4284"
        ],
        "actionId": 159,
        "dialogID": 732382930,
        "protectTime": 0.5
      }
    ],
    [
      {
        "$type": "MJFAIFFAGOF",
        "type": "DIALOG",
        "aliasList": [
          "4284"
        ],
        "actionId": 161,
        "dialogID": 732382931,
        "protectTime": 0.5
      }
    ],
    [
      {
        "$type": "MJFAIFFAGOF",
        "type": "DIALOG",
        "aliasList": [
          "4284"
        ],
        "actionId": 163,
        "dialogID": 732382932,
        "protectTime": 0.5
      }
    ],
    [
      {
        "$type": "MJFAIFFAGOF",
        "type": "DIALOG",
        "aliasList": [
          "4284"
        ],
        "actionId": 165,
        "dialogID": 732382933,
        "protectTime": 0.5
      }
    ],
    [
      {
        "$type": "MJFAIFFAGOF",
        "type": "DIALOG",
        "aliasList": [
          "4284"
        ],
        "actionId": 167,
        "dialogID": 732382934,
        "protectTime": 0.5
      }
    ],
    [
      {
        "$type": "MJFAIFFAGOF",
        "type": "DIALOG",
        "aliasList": [
          "1005"
        ],
        "actionId": 169,
        "dialogID": 732382935,
        "protectTime": 0.5
      }
    ],
    [
      {
        "$type": "MJFAIFFAGOF",
        "type": "DIALOG",
        "aliasList": [
          "4284"
        ],
        "actionId": 171,
        "dialogID": 732382936,
        "protectTime": 0.5
      }
    ],
    [
      {
        "$type": "MJFAIFFAGOF",
        "type": "DIALOG",
        "aliasList": [
          "1005"
        ],
        "actionId": 173,
        "dialogID": 732382937,
        "protectTime": 0.5
      }
    ],
    [
      {
        "$type": "MJFAIFFAGOF",
        "type": "DIALOG",
        "aliasList": [
          "4284"
        ],
        "actionId": 175,
        "dialogID": 732382938,
        "protectTime": 0.5
      }
    ],
    [
      {
        "$type": "MJFAIFFAGOF",
        "type": "DIALOG",
        "aliasList": [
          "4284"
        ],
        "actionId": 177,
        "dialogID": 732382939,
        "protectTime": 0.5
      }
    ],
    [
      {
        "$type": "MJFAIFFAGOF",
        "type": "DIALOG",
        "aliasList": [
          "1005"
        ],
        "actionId": 179,
        "dialogID": 732382940,
        "protectTime": 0.5
      }
    ],
    [
      {
        "$type": "MJFAIFFAGOF",
        "type": "DIALOG",
        "aliasList": [
          "4284"
        ],
        "actionId": 181,
        "dialogID": 732382941,
        "protectTime": 0.5
      }
    ],
    [
      {
        "$type": "MJFAIFFAGOF",
        "type": "DIALOG",
        "aliasList": [
          "4284"
        ],
        "actionId": 183,
        "dialogID": 732382942,
        "protectTime": 0.5
      }
    ],
    [
      {
        "$type": "MJFAIFFAGOF",
        "type": "DIALOG",
        "aliasList": [
          "4284"
        ],
        "actionId": 185,
        "dialogID": 732382943,
        "protectTime": 0.5
      }
    ],
    [
      {
        "$type": "MJFAIFFAGOF",
        "type": "DIALOG",
        "aliasList": [
          "20883"
        ],
        "actionId": 187,
        "dialogID": 732382944,
        "protectTime": 0.5
      }
    ],
    [
      {
        "$type": "MJFAIFFAGOF",
        "type": "DIALOG",
        "aliasList": [
          "4284"
        ],
        "actionId": 189,
        "dialogID": 732382945,
        "protectTime": 0.5
      }
    ],
    [
      {
        "$type": "MJFAIFFAGOF",
        "type": "DIALOG",
        "aliasList": [
          "4284"
        ],
        "actionId": 191,
        "dialogID": 732382946,
        "protectTime": 0.5
      }
    ],
    [
      {
        "$type": "MJFAIFFAGOF",
        "type": "DIALOG",
        "aliasList": [
          "1005"
        ],
        "actionId": 193,
        "dialogID": 732382947,
        "protectTime": 0.5
      }
    ],
    [
      {
        "$type": "MJFAIFFAGOF",
        "type": "DIALOG",
        "aliasList": [
          "4284"
        ],
        "actionId": 195,
        "dialogID": 732382948,
        "protectTime": 0.5
      }
    ],
    [
      {
        "$type": "MJFAIFFAGOF",
        "type": "DIALOG",
        "aliasList": [
          "4284"
        ],
        "actionId": 197,
        "dialogID": 732382949,
        "protectTime": 0.5
      }
    ],
    [
      {
        "$type": "MJFAIFFAGOF",
        "type": "DIALOG",
        "aliasList": [
          "4284"
        ],
        "actionId": 199,
        "dialogID": 732382950,
        "protectTime": 0.5
      }
    ],
    [
      {
        "$type": "MJFAIFFAGOF",
        "type": "DIALOG",
        "aliasList": [
          "4284"
        ],
        "actionId": 201,
        "dialogID": 732382951,
        "protectTime": 0.5
      }
    ],
    [
      {
        "$type": "MJFAIFFAGOF",
        "type": "DIALOG",
        "aliasList": [
          "4284"
        ],
        "actionId": 203,
        "dialogID": 732382952,
        "protectTime": 0.5
      }
    ],
    [
      {
        "$type": "MJFAIFFAGOF",
        "type": "DIALOG",
        "aliasList": [
          "20883"
        ],
        "actionId": 205,
        "dialogID": 732382953,
        "protectTime": 0.5
      }
    ],
    [
      {
        "$type": "MJFAIFFAGOF",
        "type": "DIALOG",
        "aliasList": [
          "1005"
        ],
        "actionId": 207,
        "dialogID": 732382954,
        "protectTime": 0.5
      }
    ],
    [
      {
        "$type": "MoleMole.Config.ConfigTimeProtectAction",
        "type": "TIME_PROTECT",
        "duration": 0.10000000149011612,
        "actionId": 105
      }
    ]
  ],
  "groupId": [
    {
      "grpId": 857744907,
      "nextGrpId": 857744908
    },
    {
      "index": 1,
      "grpId": 857744908,
      "nextGrpId": 857744909
    },
    {
      "index": 2,
      "grpId": 857744909,
      "nextGrpId": 857744910
    },
    {
      "index": 3,
      "grpId": 857744910,
      "nextGrpId": 857744911
    },
    {
      "index": 4,
      "grpId": 857744911,
      "nextGrpId": 857744912
    },
    {
      "index": 5,
      "grpId": 857744912,
      "nextGrpId": 857744913
    },
    {
      "index": 6,
      "grpId": 857744913,
      "nextGrpId": 857744914
    },
    {
      "index": 7,
      "grpId": 857744914,
      "nextGrpId": 857744915
    },
    {
      "index": 8,
      "grpId": 857744915,
      "nextGrpId": 820288389
    },
    {
      "index": 9,
      "grpId": 820288389,
      "nextGrpId": 820288390
    },
    {
      "index": 10,
      "grpId": 820288390,
      "nextGrpId": 820288391
    },
    {
      "index": 11,
      "grpId": 820288391,
      "nextGrpId": 820288392
    },
    {
      "index": 12,
      "grpId": 820288392,
      "nextGrpId": 820288393
    },
    {
      "index": 13,
      "grpId": 820288393,
      "nextGrpId": 820288395
    },
    {
      "index": 14,
      "grpId": 820288394,
      "nextGrpId": 820288395
    },
    {
      "index": 15,
      "grpId": 820288395,
      "nextGrpId": 820288396
    },
    {
      "index": 16,
      "grpId": 820288396,
      "nextGrpId": 820288397
    },
    {
      "index": 17,
      "grpId": 820288397,
      "nextGrpId": 820288398
    },
    {
      "index": 18,
      "grpId": 820288398,
      "nextGrpId": 820288420
    },
    {
      "index": 19,
      "grpId": 820288420,
      "nextGrpId": 820288421
    },
    {
      "index": 20,
      "grpId": 820288421,
      "nextGrpId": 820288424
    },
    {
      "index": 21,
      "grpId": 820288422,
      "nextGrpId": 820288423
    },
    {
      "index": 22,
      "grpId": 820288423,
      "nextGrpId": 820288424
    },
    {
      "index": 23,
      "grpId": 820288424,
      "nextGrpId": 820288425
    },
    {
      "index": 24,
      "grpId": 820288425,
      "nextGrpId": 820288426
    },
    {
      "index": 25,
      "grpId": 820288426,
      "nextGrpId": 820288427
    },
    {
      "index": 26,
      "grpId": 820288427,
      "nextGrpId": 820288428
    },
    {
      "index": 27,
      "grpId": 820288428,
      "nextGrpId": 820288429
    },
    {
      "index": 28,
      "grpId": 820288429,
      "nextGrpId": 820288451
    },
    {
      "index": 29,
      "grpId": 820288451,
      "nextGrpId": 820288452
    },
    {
      "index": 30,
      "grpId": 820288452,
      "nextGrpId": 820288453
    },
    {
      "index": 31,
      "grpId": 820288453,
      "nextGrpId": 820288454
    },
    {
      "index": 32,
      "grpId": 820288454,
      "nextGrpId": 820288455
    },
    {
      "index": 33,
      "grpId": 820288455,
      "nextGrpId": 820288456
    },
    {
      "index": 34,
      "grpId": 820288456,
      "nextGrpId": 820288457
    },
    {
      "index": 35,
      "grpId": 820288457,
      "nextGrpId": 820288458
    },
    {
      "index": 36,
      "grpId": 820288458,
      "nextGrpId": 820288459
    },
    {
      "index": 37,
      "grpId": 820288459,
      "nextGrpId": 820288460
    },
    {
      "index": 38,
      "grpId": 820288460,
      "nextGrpId": 820288482
    },
    {
      "index": 39,
      "grpId": 820288482,
      "nextGrpId": 820288483
    },
    {
      "index": 40,
      "grpId": 820288483,
      "nextGrpId": 820288484
    },
    {
      "index": 41,
      "grpId": 820288484,
      "nextGrpId": 820288485
    },
    {
      "index": 42,
      "grpId": 820288485,
      "nextGrpId": 820288486
    },
    {
      "index": 43,
      "grpId": 820288486,
      "nextGrpId": 820288487
    },
    {
      "index": 44,
      "grpId": 820288487,
      "nextGrpId": 820288488
    },
    {
      "index": 45,
      "grpId": 820288488,
      "nextGrpId": 820288489
    },
    {
      "index": 46,
      "grpId": 820288489,
      "nextGrpId": 820288490
    },
    {
      "index": 47,
      "grpId": 820288490,
      "nextGrpId": 820288491
    },
    {
      "index": 48,
      "grpId": 820288491,
      "nextGrpId": 820288513
    },
    {
      "index": 49,
      "grpId": 820288513,
      "nextGrpId": 820288514
    },
    {
      "index": 50,
      "grpId": 820288514,
      "nextGrpId": 820288515
    },
    {
      "index": 51,
      "grpId": 820288515,
      "nextGrpId": 820288516
    }
  ]
}