{
  "luaDataPath": "",
  "isSimpleTalk": true,
  "entityBan": "",
  "disableNpcLod": true,
  "startFade": {
    "startFadeOutDuration": 0.0
  },
  "endFade": {
    "startFadeOutDuration": 0.0
  },
  "actors": [
    {
      "alias": "Avatar",
      "visible": true,
      "bornPointName": "",
      "relativePosNpcAlias": "",
      "_bindMovingTargetKey": ""
    },
    {
      "configID": 20479,
      "alias": "20479",
      "visible": true,
      "bornPointName": "",
      "forceCreateDaily": true,
      "relativePosNpcAlias": "",
      "_bindMovingTargetKey": ""
    },
    {
      "configID": 1005,
      "alias": "1005",
      "visible": true,
      "bornPointName": "",
      "useRelativePos": true,
      "relativePos": {
        "x": -0.5,
        "z": 0.5
      },
      "removeActorType": "REMOVE_WITH_DISAPPEAR",
      "relativePosNpcAlias": "",
      "_bindMovingTargetKey": ""
    }
  ],
  "group": [
    [
      {
        "$type": "MoleMole.Config.ConfigTimeProtectAction",
        "type": "TIME_PROTECT",
        "duration": 0.10000000149011612
      },
      {
        "$type": "EFHODGEJOHJ",
        "type": "CAMERA_FOCUS",
        "duration": 0.10000000149011612,
        "targetNpcAlias": "",
        "PHGBNNGCJKJ": "",
        "NFILMKCFHEB": "",
        "BGPNGHDAECF": ""
      },
      {
        "$type": "IEKHMHNHENB",
        "type": "STEER_TO",
        "delayTime": 0.30000001192092896,
        "duration": 0.800000011920929,
        "aliasList": [
          "20479"
        ],
        "steerType": "TO_LOCAL_AVATAR",
        "useSteerAnim": true,
        "interruptFreestyle": true,
        "forceSteer": true,
        "targetNpcAlias": "",
        "BHGPHGNFCBF": ""
      },
      {
        "$type": "IEKHMHNHENB",
        "type": "STEER_TO",
        "delayTime": 0.30000001192092896,
        "duration": 0.800000011920929,
        "aliasList": [
          "Avatar"
        ],
        "steerType": "TO_TARGET",
        "useSteerAnim": true,
        "interruptFreestyle": true,
        "forceSteer": true,
        "targetNpcAlias": "20479",
        "BHGPHGNFCBF": ""
      }
    ],
    [
      {
        "$type": "MJFAIFFAGOF",
        "type": "DIALOG",
        "aliasList": [
          "20479"
        ],
        "dialogID": 722370201,
        "protectTime": 0.5
      }
    ],
    [
      {
        "$type": "MJFAIFFAGOF",
        "type": "DIALOG",
        "aliasList": [
          "1005"
        ],
        "dialogID": 722370202,
        "protectTime": 0.5
      }
    ],
    [
      {
        "$type": "MJFAIFFAGOF",
        "type": "DIALOG",
        "aliasList": [
          "20479"
        ],
        "dialogID": 722370203,
        "protectTime": 0.5
      }
    ],
    [
      {
        "$type": "MJFAIFFAGOF",
        "type": "DIALOG",
        "aliasList": [
          "20479"
        ],
        "dialogID": 722370204,
        "protectTime": 0.5
      }
    ],
    [
      {
        "$type": "MJFAIFFAGOF",
        "type": "DIALOG",
        "aliasList": [
          "20479"
        ],
        "dialogID": 722370205,
        "protectTime": 0.5
      },
      {
        "$type": "OBCDECFOOBC",
        "type": "DIALOG_SELECT",
        "delayTime": 0.4000000059604645,
        "aliasList": [
          "Avatar"
        ],
        "dialogIDList": [
          722370206
        ],
        "grpIDList": [
          3932070617
        ],
        "useGrpId": true
      }
    ],
    [
      {
        "$type": "MJFAIFFAGOF",
        "type": "DIALOG",
        "aliasList": [
          "20479"
        ],
        "dialogID": 722370207,
        "protectTime": 0.5
      }
    ],
    [
      {
        "$type": "MJFAIFFAGOF",
        "type": "DIALOG",
        "aliasList": [
          "20479"
        ],
        "dialogID": 722370208,
        "protectTime": 0.5
      }
    ],
    [
      {
        "$type": "MJFAIFFAGOF",
        "type": "DIALOG",
        "aliasList": [
          "20479"
        ],
        "dialogID": 722370209,
        "protectTime": 0.5
      }
    ],
    [
      {
        "$type": "MJFAIFFAGOF",
        "type": "DIALOG",
        "aliasList": [
          "20479"
        ],
        "dialogID": 722370210,
        "protectTime": 0.5
      },
      {
        "$type": "OBCDECFOOBC",
        "type": "DIALOG_SELECT",
        "delayTime": 0.4000000059604645,
        "aliasList": [
          "Avatar"
        ],
        "dialogIDList": [
          722370211
        ],
        "grpIDList": [
          1635104702
        ],
        "useGrpId": true
      }
    ],
    [
      {
        "$type": "MJFAIFFAGOF",
        "type": "DIALOG",
        "aliasList": [
          "20479"
        ],
        "dialogID": 722370212,
        "protectTime": 0.5
      }
    ],
    [
      {
        "$type": "MJFAIFFAGOF",
        "type": "DIALOG",
        "aliasList": [
          "20479"
        ],
        "dialogID": 722370213,
        "protectTime": 0.5
      },
      {
        "$type": "OBCDECFOOBC",
        "type": "DIALOG_SELECT",
        "delayTime": 0.4000000059604645,
        "aliasList": [
          "Avatar"
        ],
        "dialogIDList": [
          722370214
        ],
        "grpIDList": [
          1635104704
        ],
        "useGrpId": true
      }
    ],
    [
      {
        "$type": "MJFAIFFAGOF",
        "type": "DIALOG",
        "aliasList": [
          "20479"
        ],
        "dialogID": 722370215,
        "protectTime": 0.5
      }
    ],
    [
      {
        "$type": "MJFAIFFAGOF",
        "type": "DIALOG",
        "aliasList": [
          "20479"
        ],
        "dialogID": 722370216,
        "protectTime": 0.5
      }
    ],
    [
      {
        "$type": "MJFAIFFAGOF",
        "type": "DIALOG",
        "aliasList": [
          "20479"
        ],
        "dialogID": 722370217,
        "protectTime": 0.5
      }
    ],
    [
      {
        "$type": "MJFAIFFAGOF",
        "type": "DIALOG",
        "aliasList": [
          "1005"
        ],
        "dialogID": 722370218,
        "protectTime": 0.5
      }
    ],
    [
      {
        "$type": "MJFAIFFAGOF",
        "type": "DIALOG",
        "aliasList": [
          "20479"
        ],
        "dialogID": 722370219,
        "protectTime": 0.5
      }
    ],
    [
      {
        "$type": "MJFAIFFAGOF",
        "type": "DIALOG",
        "aliasList": [
          "20479"
        ],
        "dialogID": 722370220,
        "protectTime": 0.5
      }
    ],
    [
      {
        "$type": "MJFAIFFAGOF",
        "type": "DIALOG",
        "aliasList": [
          "20479"
        ],
        "dialogID": 722370221,
        "protectTime": 0.5
      }
    ],
    [
      {
        "$type": "MJFAIFFAGOF",
        "type": "DIALOG",
        "aliasList": [
          "20479"
        ],
        "dialogID": 722370222,
        "protectTime": 0.5
      }
    ],
    [
      {
        "$type": "MJFAIFFAGOF",
        "type": "DIALOG",
        "aliasList": [
          "20479"
        ],
        "dialogID": 722370223,
        "protectTime": 0.5
      }
    ],
    [
      {
        "$type": "MJFAIFFAGOF",
        "type": "DIALOG",
        "aliasList": [
          "20479"
        ],
        "dialogID": 722370224,
        "protectTime": 0.5
      }
    ],
    [
      {
        "$type": "MoleMole.Config.ConfigTimeProtectAction",
        "type": "TIME_PROTECT",
        "duration": 0.10000000149011612
      }
    ]
  ],
  "groupId": [
    {
      "grpId": 3932070611,
      "nextGrpId": 3932070612
    },
    {
      "index": 1,
      "grpId": 3932070612,
      "nextGrpId": 3932070613
    },
    {
      "index": 2,
      "grpId": 3932070613,
      "nextGrpId": 3932070614
    },
    {
      "index": 3,
      "grpId": 3932070614,
      "nextGrpId": 3932070615
    },
    {
      "index": 4,
      "grpId": 3932070615,
      "nextGrpId": 3932070616
    },
    {
      "index": 5,
      "grpId": 3932070616,
      "nextGrpId": 3932070617
    },
    {
      "index": 6,
      "grpId": 3932070617,
      "nextGrpId": 3932070618
    },
    {
      "index": 7,
      "grpId": 3932070618,
      "nextGrpId": 3932070619
    },
    {
      "index": 8,
      "grpId": 3932070619,
      "nextGrpId": 1635104701
    },
    {
      "index": 9,
      "grpId": 1635104701,
      "nextGrpId": 1635104702
    },
    {
      "index": 10,
      "grpId": 1635104702,
      "nextGrpId": 1635104703
    },
    {
      "index": 11,
      "grpId": 1635104703,
      "nextGrpId": 1635104704
    },
    {
      "index": 12,
      "grpId": 1635104704,
      "nextGrpId": 1635104705
    },
    {
      "index": 13,
      "grpId": 1635104705,
      "nextGrpId": 1635104706
    },
    {
      "index": 14,
      "grpId": 1635104706,
      "nextGrpId": 1635104707
    },
    {
      "index": 15,
      "grpId": 1635104707,
      "nextGrpId": 1635104708
    },
    {
      "index": 16,
      "grpId": 1635104708,
      "nextGrpId": 1635104709
    },
    {
      "index": 17,
      "grpId": 1635104709,
      "nextGrpId": 1635104710
    },
    {
      "index": 18,
      "grpId": 1635104710,
      "nextGrpId": 1635104732
    },
    {
      "index": 19,
      "grpId": 1635104732,
      "nextGrpId": 1635104733
    },
    {
      "index": 20,
      "grpId": 1635104733,
      "nextGrpId": 1635104734
    },
    {
      "index": 21,
      "grpId": 1635104734,
      "nextGrpId": 1635104735
    },
    {
      "index": 22,
      "grpId": 1635104735,
      "nextGrpId": 1635104736
    }
  ],
  "freeStyleDic": {
    "20479": []
  }
}