{
  "radius": 6.0,
  "height": 5.0,
  "furnitureUnits": [
    {
      "furnitureID": 362251,
      "BOIJMPNEPFO": {
        "x": 4.005000114440918,
        "z": 3.884999990463257
      },
      "rotation": {
        "y": 225.07212829589844
      }
    },
    {
      "furnitureID": 361331,
      "BOIJMPNEPFO": {
        "x": 2.382999897003174
      }
    },
    {
      "furnitureID": 362123,
      "BOIJMPNEPFO": {
        "x": 4.328999996185303,
        "z": -0.06099990755319595
      },
      "rotation": {
        "y": 270.0
      }
    },
    {
      "furnitureID": 362124,
      "BOIJMPNEPFO": {
        "x": -1.2900002002716064,
        "y": 0.054999999701976776,
        "z": -4.160000324249268
      }
    },
    {
      "furnitureID": 361220,
      "BOIJMPNEPFO": {
        "x": 1.5980000495910645,
        "z": -4.4070000648498535
      }
    },
    {
      "furnitureID": 362124,
      "BOIJMPNEPFO": {
        "x": -1.2900084257125854,
        "y": 0.054999999701976776,
        "z": 4.159999847412109
      },
      "rotation": {
        "y": 180.00001525878906
      }
    },
    {
      "furnitureID": 362257,
      "BOIJMPNEPFO": {
        "x": 0.7990000247955322,
        "y": 0.0549999475479126,
        "z": 4.4070000648498535
      },
      "rotation": {
        "y": 89.99983978271484
      }
    },
    {
      "furnitureID": 363356,
      "BOIJMPNEPFO": {
        "x": -0.05700000002980232,
        "y": 1.0460000038146973,
        "z": -0.02800000086426735
      },
      "rotation": {
        "y": 180.00027465820312
      },
      "parentIndex": 6
    },
    {
      "furnitureID": 363506,
      "BOIJMPNEPFO": {
        "x": 2.132999897003174,
        "z": 4.551000118255615
      }
    },
    {
      "furnitureID": 363506,
      "BOIJMPNEPFO": {
        "x": -3.2200000286102295,
        "y": 0.054999999701976776,
        "z": -4.124000072479248
      },
      "rotation": {
        "y": 269.99993896484375
      }
    },
    {
      "furnitureID": 361216,
      "BOIJMPNEPFO": {
        "x": 5.136998653411865,
        "z": 1.0280001163482666
      },
      "rotation": {
        "y": 270.0
      }
    },
    {
      "furnitureID": 361216,
      "BOIJMPNEPFO": {
        "x": 5.141259670257568,
        "z": -1.2172937393188477
      },
      "rotation": {
        "y": 90.0002212524414
      }
    },
    {
      "furnitureID": 362314,
      "BOIJMPNEPFO": {
        "x": -1.3910000324249268,
        "z": -3.5999999046325684
      },
      "rotation": {
        "y": 270.0
      }
    },
    {
      "furnitureID": 362314,
      "BOIJMPNEPFO": {
        "x": -1.3910000324249268,
        "z": 3.611999988555908
      },
      "rotation": {
        "y": 270.0
      }
    }
  ],
  "npcSpawnPoints": [
    {
      "BOIJMPNEPFO": {
        "x": -0.8535261154174805,
        "z": -1.2865419387817383
      },
      "rotation": {
        "y": 76.18106079101562
      }
    },
    {
      "BOIJMPNEPFO": {
        "x": 0.5936441421508789,
        "z": -2.148283004760742
      },
      "rotation": {
        "y": 163.4204559326172
      }
    },
    {
      "BOIJMPNEPFO": {
        "x": -2.976980209350586,
        "z": 0.7380280494689941
      },
      "rotation": {
        "y": 95.40674591064453
      }
    },
    {
      "BOIJMPNEPFO": {
        "x": -3.6125593185424805,
        "z": -2.115825653076172
      },
      "rotation": {
        "y": 76.15232849121094
      }
    },
    {
      "BOIJMPNEPFO": {
        "x": -0.30724620819091797,
        "z": 2.875662326812744
      },
      "rotation": {
        "y": 229.15194702148438
      }
    }
  ]
}