{
  "radius": 6.599999904632568,
  "height": 5.0,
  "furnitureUnits": [
    {
      "furnitureID": 362111,
      "BOIJMPNEPFO": {
        "x": 3.1459996700286865,
        "y": 0.0145130455493927,
        "z": 1.8739997148513794
      },
      "rotation": {
        "y": 269.99993896484375
      }
    },
    {
      "furnitureID": 361319,
      "BOIJMPNEPFO": {
        "x": 1.9819998741149902,
        "y": 0.014513075351715088,
        "z": 2.7509994506835938
      },
      "rotation": {
        "y": 89.99983215332031
      }
    },
    {
      "furnitureID": 363331,
      "BOIJMPNEPFO": {
        "x": -0.7059999704360962,
        "y": 0.8613868951797485,
        "z": 0.014000000432133675
      },
      "rotation": {
        "y": 270.00018310546875
      },
      "parentIndex": 1
    },
    {
      "furnitureID": 362237,
      "BOIJMPNEPFO": {
        "x": -2.0270001888275146,
        "y": 0.01451292634010315,
        "z": 3.8189992904663086
      },
      "rotation": {
        "y": 89.99996185302734
      }
    },
    {
      "furnitureID": 362236,
      "BOIJMPNEPFO": {
        "x": -0.7524868249893188,
        "y": 0.014513015747070312,
        "z": 5.4801740646362305
      },
      "rotation": {
        "y": 135.00010681152344
      }
    },
    {
      "furnitureID": 362111,
      "BOIJMPNEPFO": {
        "x": 3.1459999084472656,
        "y": 0.0145130455493927,
        "z": 3.48699951171875
      },
      "rotation": {
        "y": 269.99993896484375
      }
    },
    {
      "furnitureID": 361506,
      "BOIJMPNEPFO": {
        "x": -0.20000000298023224,
        "y": 0.011000024154782295,
        "z": -0.2199999988079071
      },
      "rotation": {
        "y": 180.00033569335938
      }
    },
    {
      "furnitureID": 362109,
      "BOIJMPNEPFO": {
        "x": -0.2940010130405426,
        "y": 0.010999893769621849,
        "z": -5.839001178741455
      },
      "rotation": {
        "y": 3.4150946248701075e-06
      }
    },
    {
      "furnitureID": 362307,
      "BOIJMPNEPFO": {
        "x": -0.29402366280555725,
        "y": 0.05999999865889549,
        "z": -4.186995029449463
      },
      "rotation": {
        "y": 270.00018310546875
      }
    },
    {
      "furnitureID": 361320,
      "BOIJMPNEPFO": {
        "y": 0.012000000104308128
      },
      "rotation": {
        "y": 89.99983215332031
      },
      "parentIndex": 8
    },
    {
      "furnitureID": 363330,
      "BOIJMPNEPFO": {
        "y": 0.7799999713897705
      },
      "parentIndex": 9
    },
    {
      "furnitureID": 362109,
      "BOIJMPNEPFO": {
        "x": -0.29400017857551575,
        "y": 0.010999893769621849,
        "z": -2.515000820159912
      },
      "rotation": {
        "y": 180.00015258789062
      }
    }
  ],
  "npcSpawnPoints": [
    {
      "BOIJMPNEPFO": {
        "x": 4.801743507385254,
        "z": 2.488593101501465
      },
      "rotation": {
        "y": 242.60369873046875
      }
    },
    {
      "BOIJMPNEPFO": {
        "x": 4.8959503173828125,
        "z": 0.594818115234375
      },
      "rotation": {
        "y": 263.0729675292969
      }
    },
    {
      "BOIJMPNEPFO": {
        "x": 3.2387044429779053,
        "z": -3.7353363037109375
      },
      "rotation": {
        "y": 319.0732421875
      }
    },
    {
      "BOIJMPNEPFO": {
        "x": 0.07190132141113281,
        "z": 2.9028568267822266
      },
      "rotation": {
        "y": 181.41888427734375
      }
    },
    {
      "BOIJMPNEPFO": {
        "x": 4.811642646789551,
        "z": -2.3561851978302
      },
      "rotation": {
        "y": 296.09027099609375
      }
    }
  ]
}