{
  "radius": 26.739999771118164,
  "height": 5.0,
  "furnitureUnits": [
    {
      "furnitureID": 370602,
      "BOIJMPNEPFO": {
        "x": 4.429999828338623,
        "y": 0.03704547882080078,
        "z": 13.880000114440918
      },
      "rotation": {
        "y": 179.99966430664062
      }
    },
    {
      "furnitureID": 372433,
      "BOIJMPNEPFO": {
        "x": -4.709000110626221,
        "z": 9.133999824523926
      },
      "rotation": {
        "y": 224.75045776367188
      }
    },
    {
      "furnitureID": 373329,
      "BOIJMPNEPFO": {
        "x": 2.8499999046325684,
        "z": -9.920000076293945
      },
      "rotation": {
        "y": 0.0006591131677851081
      }
    },
    {
      "furnitureID": 373413,
      "BOIJMPNEPFO": {
        "x": 13.552000045776367,
        "z": 9.253999710083008
      },
      "rotation": {
        "y": 155.03085327148438
      }
    },
    {
      "furnitureID": 374503,
      "BOIJMPNEPFO": {
        "x": -1.3799999952316284,
        "z": -2.5999999046325684
      }
    },
    {
      "furnitureID": 374502,
      "BOIJMPNEPFO": {
        "x": 4.624000072479248,
        "z": 3.4010000228881836
      }
    },
    {
      "furnitureID": 374501,
      "BOIJMPNEPFO": {
        "x": 4.624000072479248,
        "z": -2.5999999046325684
      },
      "rotation": {
        "x": 2.5044780613825424e-06
      }
    },
    {
      "furnitureID": 370623,
      "BOIJMPNEPFO": {
        "x": -14.079999923706055,
        "z": -2.5999999046325684
      },
      "rotation": {
        "y": 180.00033569335938
      }
    },
    {
      "furnitureID": 372224,
      "BOIJMPNEPFO": {
        "x": 13.985000610351562,
        "z": 11.069999694824219
      },
      "rotation": {
        "y": 91.29962158203125
      }
    },
    {
      "furnitureID": 372330,
      "BOIJMPNEPFO": {
        "x": -6.205999851226807,
        "z": 10.690000534057617
      },
      "rotation": {
        "y": 271.2176208496094
      }
    },
    {
      "furnitureID": 372328,
      "BOIJMPNEPFO": {
        "x": -0.6700000762939453,
        "z": -15.129999160766602
      },
      "rotation": {
        "y": 238.43972778320312
      }
    },
    {
      "furnitureID": 373315,
      "BOIJMPNEPFO": {
        "x": 4.819999694824219,
        "z": -11.350000381469727
      }
    },
    {
      "furnitureID": 373321,
      "BOIJMPNEPFO": {
        "x": -0.6000001430511475,
        "z": -12.15999984741211
      },
      "rotation": {
        "y": 46.48299026489258
      }
    },
    {
      "furnitureID": 373411,
      "BOIJMPNEPFO": {
        "x": -3.119999885559082,
        "z": 2.9100000858306885
      },
      "rotation": {
        "y": 270.0
      }
    },
    {
      "furnitureID": 373411,
      "BOIJMPNEPFO": {
        "x": -3.119999885559082,
        "z": -8.11832332611084
      },
      "rotation": {
        "y": 270.0
      }
    },
    {
      "furnitureID": 373321,
      "BOIJMPNEPFO": {
        "x": -2.435999870300293,
        "z": 10.760000228881836
      },
      "rotation": {
        "y": 157.7678985595703
      }
    },
    {
      "furnitureID": 372328,
      "BOIJMPNEPFO": {
        "x": 11.763999938964844,
        "z": 10.119999885559082
      },
      "rotation": {
        "y": 351.51995849609375
      }
    },
    {
      "furnitureID": 374502,
      "BOIJMPNEPFO": {
        "x": 14.640000343322754,
        "z": -2.5999999046325684
      },
      "rotation": {
        "y": 90.0
      }
    },
    {
      "furnitureID": 373413,
      "BOIJMPNEPFO": {
        "x": 7.363999843597412,
        "z": 10.210000038146973
      },
      "rotation": {
        "y": 301.5323181152344
      }
    },
    {
      "furnitureID": 373413,
      "BOIJMPNEPFO": {
        "x": 6.262140274047852,
        "z": 9.283616065979004
      },
      "rotation": {
        "y": 180.47898864746094
      }
    },
    {
      "furnitureID": 374503,
      "BOIJMPNEPFO": {
        "x": 10.630000114440918,
        "z": -2.5999999046325684
      },
      "rotation": {
        "y": 180.0
      }
    }
  ],
  "npcSpawnPoints": [
    {
      "BOIJMPNEPFO": {
        "x": 9.921589851379395,
        "z": -8.9068603515625
      },
      "rotation": {
        "y": 0.45066067576408386
      }
    },
    {
      "BOIJMPNEPFO": {
        "x": 8.38142204284668,
        "z": 4.86311674118042
      },
      "rotation": {
        "y": 180.37489318847656
      }
    },
    {
      "BOIJMPNEPFO": {
        "x": 4.846246719360352,
        "z": -8.177753448486328
      },
      "rotation": {
        "y": 0.6804829239845276
      }
    },
    {
      "BOIJMPNEPFO": {
        "x": 17.217342376708984,
        "z": 5.256949424743652
      },
      "rotation": {
        "y": 241.26629638671875
      }
    },
    {
      "BOIJMPNEPFO": {
        "x": 1.3704454898834229,
        "z": 6.668722629547119
      },
      "rotation": {
        "y": 157.77992248535156
      }
    }
  ]
}