{
  "radius": 10.0,
  "height": 30.0,
  "furnitureUnits": [
    {
      "furnitureID": 372201,
      "BOIJMPNEPFO": {
        "x": -2.0399999618530273,
        "z": 3.3399999141693115
      },
      "rotation": {
        "y": 259.2439270019531
      }
    },
    {
      "furnitureID": 372405,
      "BOIJMPNEPFO": {
        "x": -2.0899999141693115,
        "z": -1.6160000562667847
      },
      "rotation": {
        "y": 78.02923583984375
      }
    },
    {
      "furnitureID": 372301,
      "BOIJMPNEPFO": {
        "x": -0.31817626953125,
        "z": -0.23748779296875
      }
    },
    {
      "furnitureID": 372405,
      "BOIJMPNEPFO": {
        "x": 3.5428466796875,
        "z": 0.156494140625
      },
      "rotation": {
        "y": 318.2357482910156
      }
    }
  ]
}