{
  "radius": 5.5,
  "height": 3.700000047683716,
  "furnitureUnits": [
    {
      "furnitureID": 361213,
      "BOIJMPNEPFO": {
        "x": -2.2760000228881836,
        "z": 0.5339999794960022
      },
      "rotation": {
        "y": 90.0
      }
    },
    {
      "furnitureID": 361214,
      "BOIJMPNEPFO": {
        "x": -2.271000623703003,
        "y": 0.02924036979675293,
        "z": -2.7229998111724854
      },
      "rotation": {
        "y": 90.0
      }
    },
    {
      "furnitureID": 362110,
      "BOIJMPNEPFO": {
        "x": 1.8179998397827148,
        "y": 0.014513015747070312,
        "z": 0.05800008773803711
      },
      "rotation": {
        "y": 270.0
      }
    },
    {
      "furnitureID": 361320,
      "BOIJMPNEPFO": {
        "x": 0.4629960060119629,
        "y": 0.019883930683135986,
        "z": -0.4259940981864929
      },
      "rotation": {
        "y": 90.00032806396484
      }
    },
    {
      "furnitureID": 362110,
      "BOIJMPNEPFO": {
        "x": 1.8179998397827148,
        "y": 0.014513015747070312,
        "z": -0.9650001525878906
      },
      "rotation": {
        "y": 270.0
      }
    },
    {
      "furnitureID": 362110,
      "BOIJMPNEPFO": {
        "x": 0.47499990463256836,
        "y": 0.014513015747070312,
        "z": -2.2200002670288086
      },
      "rotation": {
        "y": 359.6861877441406
      }
    },
    {
      "furnitureID": 362110,
      "BOIJMPNEPFO": {
        "x": 0.47699975967407227,
        "y": 0.014513015747070312,
        "z": 1.3600001335144043
      },
      "rotation": {
        "y": 179.6864776611328
      }
    },
    {
      "furnitureID": 363108,
      "BOIJMPNEPFO": {
        "x": -1.934000015258789,
        "y": 0.014512987807393074,
        "z": -4.061999797821045
      }
    },
    {
      "furnitureID": 363108,
      "BOIJMPNEPFO": {
        "x": -1.9340002536773682,
        "y": 0.014513015747070312,
        "z": 3.4150002002716064
      },
      "rotation": {
        "y": 90.0000991821289
      }
    },
    {
      "furnitureID": 361214,
      "BOIJMPNEPFO": {
        "x": -0.9210002422332764,
        "y": 0.02924036979675293,
        "z": 4.380000114440918
      },
      "rotation": {
        "y": 179.99993896484375
      }
    },
    {
      "furnitureID": 361214,
      "BOIJMPNEPFO": {
        "x": 1.0918903350830078,
        "y": 0.02924036979675293,
        "z": 4.380001068115234
      },
      "rotation": {
        "y": 179.99993896484375
      }
    },
    {
      "furnitureID": 362110,
      "BOIJMPNEPFO": {
        "x": -0.8979997634887695,
        "y": 0.014513015747070312,
        "z": -0.9630002975463867
      },
      "rotation": {
        "y": 90.00032806396484
      }
    },
    {
      "furnitureID": 362110,
      "BOIJMPNEPFO": {
        "x": -0.8979959487915039,
        "y": 0.014513015747070312,
        "z": 0.06000089645385742
      },
      "rotation": {
        "y": 90.00032806396484
      }
    }
  ],
  "npcSpawnPoints": [
    {
      "BOIJMPNEPFO": {
        "x": -0.8642210960388184,
        "z": 2.2552244663238525
      },
      "rotation": {
        "y": 159.03274536132812
      }
    },
    {
      "BOIJMPNEPFO": {
        "x": 2.472822666168213,
        "z": 2.26220440864563
      },
      "rotation": {
        "y": 227.546875
      }
    },
    {
      "BOIJMPNEPFO": {
        "x": 0.7649563550949097,
        "z": 2.8725087642669678
      },
      "rotation": {
        "y": 194.9119415283203
      }
    },
    {
      "BOIJMPNEPFO": {
        "x": -0.3044700622558594,
        "z": -3.470625162124634
      },
      "rotation": {
        "y": 5.013592720031738
      }
    },
    {
      "BOIJMPNEPFO": {
        "x": 1.3604867458343506,
        "z": -3.2701878547668457
      },
      "rotation": {
        "y": 337.411376953125
      }
    }
  ]
}