{
  "radius": 18.170000076293945,
  "height": 5.0,
  "furnitureUnits": [
    {
      "furnitureID": 372435,
      "BOIJMPNEPFO": {
        "x": -6.200279235839844,
        "z": -5.313899993896484
      },
      "rotation": {
        "y": 218.03289794921875
      }
    },
    {
      "furnitureID": 372224,
      "BOIJMPNEPFO": {
        "x": -2.1502952575683594,
        "z": 3.0261077880859375
      },
      "rotation": {
        "y": 49.58637619018555
      }
    },
    {
      "furnitureID": 372328,
      "BOIJMPNEPFO": {
        "x": 6.53973388671875,
        "z": -10.493873596191406
      },
      "rotation": {
        "y": 285.82427978515625
      }
    },
    {
      "furnitureID": 372330,
      "BOIJMPNEPFO": {
        "x": -4.450290679931641,
        "z": 1.82611083984375
      },
      "rotation": {
        "y": 70.10591125488281
      }
    },
    {
      "furnitureID": 370601,
      "BOIJMPNEPFO": {
        "x": -3.7302780151367188,
        "z": -2.7038917541503906
      },
      "rotation": {
        "y": 89.99983215332031
      }
    },
    {
      "furnitureID": 373413,
      "BOIJMPNEPFO": {
        "x": -3.1402816772460938,
        "z": -0.5338973999023438
      },
      "rotation": {
        "y": 143.20448303222656
      }
    },
    {
      "furnitureID": 373413,
      "BOIJMPNEPFO": {
        "x": -1.3209999799728394,
        "z": -1.371000051498413
      },
      "rotation": {
        "y": 264.2973937988281
      }
    },
    {
      "furnitureID": 373414,
      "BOIJMPNEPFO": {
        "x": 14.239700317382812,
        "z": 0.8561477661132812
      },
      "rotation": {
        "y": 275.23968505859375
      }
    },
    {
      "furnitureID": 373414,
      "BOIJMPNEPFO": {
        "x": -0.3892784118652344,
        "z": -4.669887542724609
      },
      "rotation": {
        "y": 264.3532409667969
      }
    },
    {
      "furnitureID": 372434,
      "BOIJMPNEPFO": {
        "x": 3.1996994018554688,
        "z": 4.51611328125
      },
      "rotation": {
        "y": 9.171146392822266
      }
    },
    {
      "furnitureID": 372434,
      "BOIJMPNEPFO": {
        "x": -7.835000038146973,
        "z": -1.1939010620117188
      },
      "rotation": {
        "y": 1.6823095083236694
      }
    },
    {
      "furnitureID": 372434,
      "BOIJMPNEPFO": {
        "x": 5.2197418212890625,
        "z": -11.223873138427734
      },
      "rotation": {
        "y": 158.07626342773438
      }
    },
    {
      "furnitureID": 372435,
      "BOIJMPNEPFO": {
        "x": 0.7597160339355469,
        "z": 1.7261199951171875
      },
      "rotation": {
        "y": 218.03289794921875
      }
    },
    {
      "furnitureID": 372434,
      "BOIJMPNEPFO": {
        "x": 4.729709625244141,
        "z": 1.0861282348632812
      },
      "rotation": {
        "y": 91.44416046142578
      }
    },
    {
      "furnitureID": 372434,
      "BOIJMPNEPFO": {
        "x": -3.2002716064453125,
        "z": -6.763896942138672
      },
      "rotation": {
        "y": 15.493071556091309
      }
    },
    {
      "furnitureID": 372434,
      "BOIJMPNEPFO": {
        "x": -3.4202957153320312,
        "z": 5.866111755371094
      },
      "rotation": {
        "y": 64.83976745605469
      }
    },
    {
      "furnitureID": 372434,
      "BOIJMPNEPFO": {
        "x": 8.31973648071289,
        "z": -7.503875732421875
      },
      "rotation": {
        "y": 111.46047973632812
      }
    },
    {
      "furnitureID": 372226,
      "BOIJMPNEPFO": {
        "x": 4.269999980926514,
        "z": -2.1338768005371094
      },
      "rotation": {
        "y": 9.778059959411621
      }
    },
    {
      "furnitureID": 372225,
      "BOIJMPNEPFO": {
        "x": 0.019999999552965164,
        "z": -2.4238815307617188
      },
      "rotation": {
        "y": 15.555511474609375
      }
    },
    {
      "furnitureID": 372225,
      "BOIJMPNEPFO": {
        "x": 2.380000114440918,
        "z": -3.2538795471191406
      },
      "rotation": {
        "y": 185.06802368164062
      }
    }
  ],
  "npcSpawnPoints": [
    {
      "BOIJMPNEPFO": {
        "x": 11.162088394165039,
        "z": -0.0548858642578125
      },
      "rotation": {
        "y": 180.56396484375
      }
    },
    {
      "BOIJMPNEPFO": {
        "x": 1.2738432884216309,
        "z": -5.082527160644531
      },
      "rotation": {
        "y": 90.9169921875
      }
    },
    {
      "BOIJMPNEPFO": {
        "x": 5.892889022827148,
        "z": -4.8717498779296875
      },
      "rotation": {
        "y": 0.13325992226600647
      }
    },
    {
      "BOIJMPNEPFO": {
        "x": 8.390168190002441,
        "z": 0.5126752853393555
      },
      "rotation": {
        "y": 180.91383361816406
      }
    },
    {
      "BOIJMPNEPFO": {
        "x": 13.135470390319824,
        "z": -5.855826377868652
      },
      "rotation": {
        "y": 0.28927287459373474
      }
    }
  ]
}