{
  "radius": 8.100000381469727,
  "height": 5.0,
  "furnitureUnits": [
    {
      "furnitureID": 362314,
      "BOIJMPNEPFO": {
        "x": -2.0,
        "z": -4.789999961853027
      },
      "rotation": {
        "y": 90.0000991821289
      }
    },
    {
      "furnitureID": 362257,
      "BOIJMPNEPFO": {
        "x": 5.801000118255615,
        "z": 0.4169999957084656
      },
      "rotation": {
        "y": 281.37921142578125
      }
    },
    {
      "furnitureID": 363356,
      "BOIJMPNEPFO": {
        "x": 0.14900000393390656,
        "y": 1.0720000267028809
      },
      "rotation": {
        "y": 1.5972844362258911
      },
      "parentIndex": 1
    },
    {
      "furnitureID": 362122,
      "BOIJMPNEPFO": {
        "x": 2.0,
        "y": 0.054999999701976776,
        "z": -5.264999866485596
      }
    },
    {
      "furnitureID": 362122,
      "BOIJMPNEPFO": {
        "x": -2.0,
        "y": 0.054999999701976776,
        "z": -5.264999866485596
      }
    },
    {
      "furnitureID": 363507,
      "BOIJMPNEPFO": {
        "x": 4.519000053405762,
        "z": -5.264999866485596
      }
    },
    {
      "furnitureID": 363507,
      "BOIJMPNEPFO": {
        "x": -4.539000034332275,
        "z": -5.264999866485596
      }
    },
    {
      "furnitureID": 361507,
      "BOIJMPNEPFO": {
        "z": 2.4499998092651367
      },
      "rotation": {
        "x": -9.334667083749082e-06,
        "y": 180.00001525878906,
        "z": -2.82174630883425e-12
      }
    },
    {
      "furnitureID": 362259,
      "BOIJMPNEPFO": {
        "y": 1.3320000171661377,
        "z": 1.9040000438690186
      },
      "rotation": {
        "x": 7.883325274488722e-21,
        "y": 179.99998474121094,
        "z": -7.626343133393387e-14
      },
      "parentIndex": 7
    },
    {
      "furnitureID": 362122,
      "BOIJMPNEPFO": {
        "z": -7.177000045776367
      }
    },
    {
      "furnitureID": 362314,
      "BOIJMPNEPFO": {
        "x": 2.0,
        "z": -4.789999961853027
      },
      "rotation": {
        "y": 90.0000991821289
      }
    }
  ],
  "npcSpawnPoints": [
    {
      "BOIJMPNEPFO": {
        "x": 3.9926986694335938,
        "z": -2.9283337593078613
      },
      "rotation": {
        "y": 245.72450256347656
      }
    },
    {
      "BOIJMPNEPFO": {
        "x": 3.4065518379211426,
        "z": -1.2319896221160889
      },
      "rotation": {
        "y": 48.85795211791992
      }
    },
    {
      "BOIJMPNEPFO": {
        "x": 1.605102300643921,
        "z": -3.2991247177124023
      },
      "rotation": {
        "y": 349.22174072265625
      }
    },
    {
      "BOIJMPNEPFO": {
        "x": -3.3177716732025146,
        "z": -0.761929988861084
      },
      "rotation": {
        "y": 123.52500915527344
      }
    },
    {
      "BOIJMPNEPFO": {
        "x": -4.78825044631958,
        "z": -2.267268419265747
      },
      "rotation": {
        "y": 68.25699615478516
      }
    }
  ]
}