{
  "radius": 8.0,
  "height": 30.0,
  "furnitureUnits": [
    {
      "furnitureID": 373110,
      "BOIJMPNEPFO": {
        "x": 1.7599999904632568,
        "z": -3.5899999141693115
      },
      "rotation": {
        "x": 1.8406140952720307e-05,
        "y": 17.992877960205078,
        "z": 5.977988621452823e-06
      }
    },
    {
      "furnitureID": 373101,
      "BOIJMPNEPFO": {
        "x": -1.4900000095367432,
        "z": -1.409999966621399
      },
      "rotation": {
        "y": 45.84475326538086
      }
    },
    {
      "furnitureID": 373102,
      "BOIJMPNEPFO": {
        "x": 1.6299999952316284,
        "z": 3.380000114440918
      },
      "rotation": {
        "x": 8.260533945758652e-07,
        "y": 289.25848388671875,
        "z": -2.3643281110707903e-06
      }
    },
    {
      "furnitureID": 374402,
      "BOIJMPNEPFO": {
        "x": -1.9199999570846558,
        "z": 2.069999933242798
      },
      "rotation": {
        "y": 317.28631591796875
      }
    },
    {
      "furnitureID": 373110,
      "BOIJMPNEPFO": {
        "x": 2.02874755859375,
        "z": 1.830718994140625
      },
      "rotation": {
        "x": -1.855924529081676e-05,
        "y": 196.46234130859375,
        "z": -5.4842362260387745e-06
      }
    }
  ]
}