{
  "luaDataPath": "",
  "dontUseDefaultFinish": true,
  "startBlackKeepTime": 0.5,
  "entityBan": "",
  "disableNpcLod": true,
  "isAutoBanNpc": true,
  "isBanWidgetPet": true,
  "protectNpcMobileLod": true,
  "talkFlag": 7,
  "startFade": {
    "startFadeInDuration": 0.5,
    "startFadeOutDuration": 0.5
  },
  "endFade": {
    "startFadeOutDuration": 0.0
  },
  "actors": [
    {
      "alias": "Avatar",
      "visible": true,
      "bornPointName": "[3_340800289:4517.513,157.991,4565.086,0.000,243.400,0.000]",
      "relativePosType": "AVATAR_NEW",
      "relativePosNpcAlias": "",
      "_notDestroyInTalk": true,
      "_bindMovingTargetKey": ""
    },
    {
      "alias": "AvatarNpc",
      "visible": true,
      "bornPointName": "[3_340800289:4517.513,157.991,4565.086,0.000,243.400,0.000]",
      "removeActorType": "NEW_REMOVE",
      "relativePosType": "AVATAR_NEW",
      "relativePosNpcAlias": "",
      "_notDestroyInTalk": true,
      "_bindMovingTargetKey": ""
    },
    {
      "configID": 1005,
      "alias": "1005",
      "visible": true,
      "bornPointName": "[3_340800288:4516.374,158.015,4564.231,0.000,45.760,0.000]",
      "removeActorType": "NEW_REMOVE_WITH_DISAPPEAR",
      "relativePosType": "AVATAR_NEW",
      "relativePosNpcAlias": "",
      "_notDestroyInTalk": true,
      "_bindMovingTargetKey": ""
    },
    {
      "configID": 13538,
      "alias": "13538",
      "visible": true,
      "bornPointName": "[3_340800270:4519.453,157.991,4559.992]",
      "removeActorType": "NEW_REMOVE",
      "relativePosType": "AVATAR_NEW",
      "relativePosNpcAlias": "",
      "_notDestroyInTalk": true,
      "_bindMovingTargetKey": ""
    },
    {
      "configID": 13539,
      "alias": "13539",
      "visible": true,
      "bornPointName": "[3_340800043:4519.564,157.991,4558.525,0.000,327.749,0.000]",
      "removeActorType": "NEW_REMOVE",
      "relativePosType": "AVATAR_NEW",
      "relativePosNpcAlias": "",
      "_notDestroyInTalk": true,
      "_bindMovingTargetKey": ""
    },
    {
      "configID": 13540,
      "alias": "13540",
      "visible": true,
      "bornPointName": "[3_340800093:4516.995,157.991,4556.999,0.000,143.878,0.000]",
      "removeActorType": "NEW_REMOVE",
      "relativePosType": "AVATAR_NEW",
      "relativePosNpcAlias": "",
      "_notDestroyInTalk": true,
      "_bindMovingTargetKey": ""
    }
  ],
  "group": [
    [
      {
        "$type": "MoleMole.Config.ConfigTimeProtectAction",
        "type": "TIME_PROTECT",
        "duration": 1.0,
        "actionId": 104
      },
      {
        "$type": "EDCHPJLDKIN",
        "type": "BODY_LANG",
        "aliasList": [
          "13540"
        ],
        "actionId": 143,
        "isContinue": true,
        "forceDoFreeStyle": true,
        "canDoRepeatFreeStyle": false,
        "eventPatternSuiteKey": ""
      },
      {
        "$type": "MoleMole.Config.ConfigVisibleInterAction",
        "type": "VISIBLE",
        "aliasList": [
          "13539"
        ],
        "actionId": 172,
        "_extraParam": ""
      },
      {
        "$type": "MoleMole.Config.ConfigTeleportToAction",
        "type": "TELEPORT_TO",
        "aliasList": [
          "13539"
        ],
        "actionId": 169,
        "position": {
          "x": 4521.72412109375,
          "y": 157.99099731445312,
          "z": 4555.89404296875
        },
        "forward": {
          "x": -2.693000078201294,
          "z": 3.4769999980926514
        },
        "openLongDisTeleport": true,
        "syncForward": true,
        "_posBindMovingTargetKey": "",
        "_forwardBindMovingTargetKey": ""
      },
      {
        "$type": "EDCHPJLDKIN",
        "type": "BODY_LANG",
        "aliasList": [
          "13539"
        ],
        "actionId": 141,
        "isContinue": true,
        "forceDoFreeStyle": true,
        "canDoRepeatFreeStyle": false,
        "eventPatternSuiteKey": ""
      },
      {
        "$type": "MoleMole.Config.ConfigVisibleInterAction",
        "type": "VISIBLE",
        "aliasList": [
          "13538"
        ],
        "actionId": 171,
        "_extraParam": ""
      },
      {
        "$type": "MoleMole.Config.ConfigTeleportToAction",
        "type": "TELEPORT_TO",
        "aliasList": [
          "13538"
        ],
        "actionId": 168,
        "position": {
          "x": 4523.0400390625,
          "y": 157.99099731445312,
          "z": 4556.65087890625
        },
        "forward": {
          "x": -3.5859999656677246,
          "z": 4.341000080108643
        },
        "openLongDisTeleport": true,
        "syncForward": true,
        "_posBindMovingTargetKey": "",
        "_forwardBindMovingTargetKey": ""
      },
      {
        "$type": "EDCHPJLDKIN",
        "type": "BODY_LANG",
        "aliasList": [
          "13538"
        ],
        "actionId": 139,
        "isContinue": true,
        "forceDoFreeStyle": true,
        "canDoRepeatFreeStyle": false,
        "eventPatternSuiteKey": ""
      },
      {
        "$type": "MoleMole.Config.ConfigTeleportToAction",
        "type": "TELEPORT_TO",
        "aliasList": [
          "1005"
        ],
        "actionId": 179,
        "position": {
          "x": 4517.9208984375,
          "y": 157.99099731445312,
          "z": 4564.1708984375
        },
        "forward": {
          "x": -1.2330000400543213,
          "z": -0.492000013589859
        },
        "openLongDisTeleport": true,
        "syncForward": true,
        "_posBindMovingTargetKey": "",
        "_forwardBindMovingTargetKey": ""
      },
      {
        "$type": "NPCNMEOCADD",
        "type": "LOOK_AT",
        "aliasList": [
          "1005"
        ],
        "actionId": 178,
        "_flag": 64,
        "enableHead": true,
        "useTargetPos": true,
        "enableAbsolute": true,
        "targetPosition": {
          "x": 4516.80810546875,
          "y": 159.38600158691406,
          "z": 4563.73388671875
        },
        "headTurnTime": 0.5,
        "targetNpcAlias": "",
        "lookAtTargetType": "NONE",
        "openBackProtect": true,
        "backProtectAngle": 10.0,
        "targetNpcLookAtPoint": "",
        "BHGPHGNFCBF": ""
      },
      {
        "$type": "EDCHPJLDKIN",
        "type": "BODY_LANG",
        "aliasList": [
          "1005"
        ],
        "actionId": 137,
        "isContinue": true,
        "forceDoFreeStyle": true,
        "canDoRepeatFreeStyle": false,
        "eventPatternSuiteKey": ""
      },
      {
        "$type": "MoleMole.Config.ConfigTeleportToAction",
        "type": "TELEPORT_TO",
        "aliasList": [
          "AvatarNpc"
        ],
        "actionId": 180,
        "position": {
          "x": 4516.7880859375,
          "y": 157.99099731445312,
          "z": 4563.759765625
        },
        "forward": {
          "x": 1.2790000438690186,
          "z": 0.39100000262260437
        },
        "openLongDisTeleport": true,
        "syncForward": true,
        "_posBindMovingTargetKey": "",
        "_forwardBindMovingTargetKey": ""
      },
      {
        "$type": "NPCNMEOCADD",
        "type": "LOOK_AT",
        "aliasList": [
          "AvatarNpc"
        ],
        "actionId": 177,
        "_flag": 64,
        "enableHead": true,
        "useTargetPos": true,
        "enableAbsolute": true,
        "targetPosition": {
          "x": 4517.9970703125,
          "y": 159.4149932861328,
          "z": 4564.1669921875
        },
        "headTurnTime": 0.5,
        "targetNpcAlias": "",
        "lookAtTargetType": "NONE",
        "openBackProtect": true,
        "backProtectAngle": 10.0,
        "targetNpcLookAtPoint": "",
        "BHGPHGNFCBF": ""
      },
      {
        "$type": "EDCHPJLDKIN",
        "type": "BODY_LANG",
        "aliasList": [
          "AvatarNpc"
        ],
        "actionId": 155,
        "isContinue": true,
        "forceDoFreeStyle": true,
        "canDoRepeatFreeStyle": false,
        "eventPatternSuiteKey": ""
      },
      {
        "$type": "MoleMole.Config.ConfigPlayerNPCEnergyTypeAction",
        "type": "SET_PLAYER_NPC_ENERGY_TYPE",
        "aliasList": [
          "AvatarNpc"
        ],
        "actionId": 154,
        "setHeroEngergyType": true
      },
      {
        "$type": "MoleMole.Config.ConfigTeleportToAction",
        "type": "TELEPORT_TO",
        "aliasList": [
          "Avatar"
        ],
        "actionId": 194,
        "position": {
          "x": 4516.7880859375,
          "y": 157.99099731445312,
          "z": 4563.759765625
        },
        "forward": {
          "x": 1.2790000438690186,
          "z": 0.39100000262260437
        },
        "openLongDisTeleport": true,
        "syncForward": true,
        "_posBindMovingTargetKey": "",
        "_forwardBindMovingTargetKey": ""
      },
      {
        "$type": "MoleMole.Config.ConfigVisibleInterAction",
        "type": "VISIBLE",
        "aliasList": [
          "Avatar"
        ],
        "actionId": 158,
        "_extraParam": ""
      },
      {
        "$type": "MoleMole.Config.ConfigSitOrStandAction",
        "type": "SIT_OR_STAND",
        "aliasList": [
          "Avatar"
        ],
        "actionId": 153,
        "banResetFreestyle": true
      },
      {
        "$type": "MoleMole.Config.ConfigChangeTimeInterAction",
        "type": "CHANGE_TIME",
        "actionId": 375,
        "toTime": 20.0
      },
      {
        "$type": "MoleMole.Config.ConfigBlackScreenAction",
        "type": "BLACK_SCREEN",
        "duration": 1.0,
        "actionId": 145,
        "_flag": 2048,
        "blackScreenType": "KEEP_BLACK",
        "durationToBlack": 0.5,
        "durationKeepBlack": 1.0,
        "durationFromBlack": 0.5,
        "inteePos": "",
        "textMapID": "",
        "useTextFade": true,
        "_changeAudioState": true
      },
      {
        "$type": "MoleMole.Config.ConfigTeleportToAction",
        "type": "TELEPORT_TO",
        "aliasList": [
          "13540"
        ],
        "actionId": 170,
        "position": {
          "x": 4520.56787109375,
          "y": 157.99099731445312,
          "z": 4554.94091796875
        },
        "forward": {
          "x": -2.9830000400543213,
          "z": 1.25
        },
        "openLongDisTeleport": true,
        "syncForward": true,
        "_posBindMovingTargetKey": "",
        "_forwardBindMovingTargetKey": ""
      },
      {
        "$type": "MoleMole.Config.ConfigVisibleInterAction",
        "type": "VISIBLE",
        "aliasList": [
          "13540"
        ],
        "actionId": 173,
        "_extraParam": ""
      }
    ],
    [
      {
        "$type": "MoleMole.Config.ConfigBlackScreenAction",
        "type": "BLACK_SCREEN",
        "duration": 0.5,
        "actionId": 146,
        "_flag": 2048,
        "blackScreenType": "FROM_BLACK",
        "durationToBlack": 0.5,
        "durationKeepBlack": 0.5,
        "durationFromBlack": 0.5,
        "inteePos": "",
        "textMapID": "",
        "useTextFade": true,
        "_changeAudioState": true
      },
      {
        "$type": "EFHODGEJOHJ",
        "type": "CAMERA_MOVE",
        "duration": 0.5,
        "actionId": 160,
        "camPosOffset": {
          "x": 4515.43408203125,
          "y": 160.63999938964844,
          "z": 4558.06787109375
        },
        "camForwardTargetOffset": {
          "x": 4515.56298828125,
          "y": 160.38099670410156,
          "z": 4559.02490234375
        },
        "camFov": 35.0,
        "lerpPattern": 6,
        "cameraBlendType": "EaseInOutCubic",
        "MDKBPBJCMHH": {},
        "needZAxisRotate": true,
        "openCameraDither": false,
        "targetNpcAlias": "",
        "closeTreeLeafDither": true,
        "PHGBNNGCJKJ": "",
        "NFILMKCFHEB": "",
        "BGPNGHDAECF": ""
      },
      {
        "$type": "MJFAIFFAGOF",
        "type": "DIALOG",
        "aliasList": [
          "1005"
        ],
        "actionId": 107,
        "dialogID": 40100101,
        "protectTime": 0.5
      },
      {
        "$type": "EDCHPJLDKIN",
        "type": "BODY_LANG",
        "aliasList": [
          "1005"
        ],
        "actionId": 183,
        "bodyLangParam": 1170,
        "forceDoFreeStyle": true,
        "canDoRepeatFreeStyle": false,
        "cantBackToIdleWhenSitLoop": true,
        "eventPatternSuiteKey": ""
      },
      {
        "$type": "ICHLNKHGCAG",
        "type": "EMO_SYNC",
        "aliasList": [
          "1005"
        ],
        "actionId": 311,
        "_flag": 256,
        "dataPath": "Cs_Emo_Avatar_Simple_Common_Set/Cs_Emo_Avatar_Talk/Cs_Emo_Avatar_MainLine/Cs_Emo_Avatar_Fontaine02/Cs_Emo_40100101",
        "phonemePath": "",
        "emotionPath": "",
        "mateDataPath": "",
        "matePhonemePath": "",
        "mateEmotionPath": "",
        "dataPathHashList": [
          9076077243898818738,
          4156696487624503397,
          14030190156429447063,
          3751710494704157855
        ],
        "PACNIGOOENN": "",
        "PIBDNPHIAGC": ""
      },
      {
        "$type": "EFHODGEJOHJ",
        "type": "CAMERA_MOVE",
        "delayTime": 0.10000000149011612,
        "duration": 15.0,
        "actionId": 184,
        "camPosOffset": {
          "x": 4515.48291015625,
          "y": 160.53900146484375,
          "z": 4558.43896484375
        },
        "camForwardTargetOffset": {
          "x": 4515.61181640625,
          "y": 160.281005859375,
          "z": 4559.39599609375
        },
        "camFov": 35.0,
        "cameraBlendType": "EaseOutQuad",
        "MDKBPBJCMHH": {},
        "needZAxisRotate": true,
        "openCameraDither": false,
        "targetNpcAlias": "",
        "closeTreeLeafDither": true,
        "PHGBNNGCJKJ": "",
        "NFILMKCFHEB": "",
        "BGPNGHDAECF": ""
      },
      {
        "$type": "EDCHPJLDKIN",
        "type": "BODY_LANG",
        "delayTime": 3.5169999599456787,
        "aliasList": [
          "1005"
        ],
        "actionId": 182,
        "bodyLangParam": 1100,
        "forceDoFreeStyle": true,
        "canDoRepeatFreeStyle": false,
        "cantBackToIdleWhenSitLoop": true,
        "eventPatternSuiteKey": ""
      }
    ],
    [
      {
        "$type": "EFHODGEJOHJ",
        "type": "CAMERA_MOVE",
        "duration": 0.5,
        "actionId": 185,
        "camPosOffset": {
          "x": 4515.95703125,
          "y": 159.54600524902344,
          "z": 4562.34619140625
        },
        "camForwardTargetOffset": {
          "x": 4516.56494140625,
          "y": 159.40499877929688,
          "z": 4563.126953125
        },
        "camFov": 25.0,
        "lerpPattern": 6,
        "cameraBlendType": "EaseInOutCubic",
        "MDKBPBJCMHH": {},
        "needZAxisRotate": true,
        "openCameraDither": false,
        "targetNpcAlias": "",
        "closeTreeLeafDither": true,
        "PHGBNNGCJKJ": "",
        "NFILMKCFHEB": "",
        "BGPNGHDAECF": ""
      },
      {
        "$type": "MJFAIFFAGOF",
        "type": "DIALOG",
        "aliasList": [
          "1005"
        ],
        "actionId": 109,
        "dialogID": 40100102,
        "protectTime": 0.5
      },
      {
        "$type": "NPCNMEOCADD",
        "type": "LOOK_AT",
        "aliasList": [
          "1005"
        ],
        "actionId": 187,
        "_flag": 64,
        "enableHead": true,
        "useTargetPos": true,
        "enableAbsolute": true,
        "targetPosition": {
          "x": 4516.77978515625,
          "y": 158.99600219726562,
          "z": 4563.65380859375
        },
        "headTurnTime": 0.5,
        "targetNpcAlias": "",
        "lookAtTargetType": "NONE",
        "openBackProtect": true,
        "backProtectAngle": 10.0,
        "targetNpcLookAtPoint": "",
        "BHGPHGNFCBF": ""
      },
      {
        "$type": "MoleMole.Config.ConfigSetModelTransform",
        "type": "SET_MODEL_TRANSFORM",
        "aliasList": [
          "1005"
        ],
        "actionId": 200,
        "oprCode": 1
      },
      {
        "$type": "ICHLNKHGCAG",
        "type": "EMO_SYNC",
        "aliasList": [
          "1005"
        ],
        "actionId": 312,
        "_flag": 320,
        "dataPath": "Cs_Emo_Avatar_Simple_Common_Set/Cs_Emo_Avatar_Talk/Cs_Emo_Avatar_MainLine/Cs_Emo_Avatar_Fontaine02/Cs_Emo_40100102",
        "phonemePath": "",
        "emotionPath": "",
        "mateDataPath": "",
        "matePhonemePath": "",
        "mateEmotionPath": "",
        "dataPathHashList": [
          15706421385186919518,
          6283761109318026669,
          598383598391066013,
          8970672013105362350
        ],
        "PACNIGOOENN": "",
        "PIBDNPHIAGC": ""
      },
      {
        "$type": "EFHODGEJOHJ",
        "type": "CAMERA_MOVE",
        "delayTime": 0.10000000149011612,
        "duration": 25.0,
        "actionId": 186,
        "camPosOffset": {
          "x": 4515.77783203125,
          "y": 159.55599975585938,
          "z": 4562.5087890625
        },
        "camForwardTargetOffset": {
          "x": 4516.490234375,
          "y": 159.40899658203125,
          "z": 4563.19580078125
        },
        "camFov": 25.0,
        "cameraBlendType": "EaseOutQuad",
        "MDKBPBJCMHH": {},
        "needZAxisRotate": true,
        "openCameraDither": false,
        "targetNpcAlias": "",
        "closeTreeLeafDither": true,
        "PHGBNNGCJKJ": "",
        "NFILMKCFHEB": "",
        "BGPNGHDAECF": ""
      },
      {
        "$type": "OBCDECFOOBC",
        "type": "DIALOG_SELECT",
        "delayTime": 0.4000000059604645,
        "aliasList": [
          "AvatarNpc"
        ],
        "actionId": 148,
        "dialogIDList": [
          40100103
        ],
        "grpIDList": [
          797620968
        ],
        "useGrpId": true,
        "countDownGrpId": 797620964
      },
      {
        "$type": "NPCNMEOCADD",
        "type": "LOOK_AT",
        "delayTime": 1.9470000267028809,
        "aliasList": [
          "1005"
        ],
        "actionId": 188,
        "_flag": 64,
        "enableHead": true,
        "useTargetPos": true,
        "enableAbsolute": true,
        "targetPosition": {
          "x": 4516.80712890625,
          "y": 159.4010009765625,
          "z": 4563.73291015625
        },
        "headTurnTime": 0.5,
        "targetNpcAlias": "",
        "lookAtTargetType": "NONE",
        "openBackProtect": true,
        "backProtectAngle": 10.0,
        "targetNpcLookAtPoint": "",
        "BHGPHGNFCBF": ""
      },
      {
        "$type": "EDCHPJLDKIN",
        "type": "BODY_LANG",
        "delayTime": 1.9759999513626099,
        "aliasList": [
          "1005"
        ],
        "actionId": 189,
        "bodyLangParam": 1030,
        "forceDoFreeStyle": true,
        "canDoRepeatFreeStyle": false,
        "cantBackToIdleWhenSitLoop": true,
        "eventPatternSuiteKey": ""
      },
      {
        "$type": "EDCHPJLDKIN",
        "type": "BODY_LANG",
        "delayTime": 3.9760000705718994,
        "aliasList": [
          "AvatarNpc"
        ],
        "actionId": 191,
        "bodyLangParam": 4030,
        "forceDoFreeStyle": true,
        "canDoRepeatFreeStyle": false,
        "cantBackToIdleWhenSitLoop": true,
        "eventPatternSuiteKey": ""
      },
      {
        "$type": "EDCHPJLDKIN",
        "type": "BODY_LANG",
        "delayTime": 4.03000020980835,
        "aliasList": [
          "AvatarNpc"
        ],
        "actionId": 193,
        "bodyLangParam": 1171,
        "forceDoFreeStyle": true,
        "canDoRepeatFreeStyle": false,
        "cantBackToIdleWhenSitLoop": true,
        "eventPatternSuiteKey": ""
      },
      {
        "$type": "EDCHPJLDKIN",
        "type": "BODY_LANG",
        "delayTime": 4.38700008392334,
        "aliasList": [
          "1005"
        ],
        "actionId": 190,
        "isContinue": true,
        "forceDoFreeStyle": true,
        "canDoRepeatFreeStyle": false,
        "cantBackToIdleWhenSitLoop": true,
        "eventPatternSuiteKey": ""
      }
    ],
    [
      {
        "$type": "EFHODGEJOHJ",
        "type": "CAMERA_MOVE",
        "duration": 0.5,
        "actionId": 196,
        "camPosOffset": {
          "x": 4517.2451171875,
          "y": 159.35000610351562,
          "z": 4563.759765625
        },
        "camForwardTargetOffset": {
          "x": 4518.09423828125,
          "y": 159.2740020751953,
          "z": 4564.283203125
        },
        "camFov": 25.0,
        "lerpPattern": 6,
        "cameraBlendType": "EaseInOutCubic",
        "MDKBPBJCMHH": {},
        "needZAxisRotate": true,
        "openCameraDither": false,
        "targetNpcAlias": "",
        "closeTreeLeafDither": true,
        "PHGBNNGCJKJ": "",
        "NFILMKCFHEB": "",
        "BGPNGHDAECF": ""
      },
      {
        "$type": "MoleMole.Config.ConfigLocalGadgetOP",
        "type": "LOCAL_GADGET_OP",
        "actionId": 201,
        "gadgetId": 70710886,
        "subKey": 1,
        "oprCode": 1,
        "slotName": "",
        "sceneId": 3,
        "position": {
          "x": 4515.11083984375,
          "y": 159.0659942626953,
          "z": 4565.85302734375
        },
        "euler": {
          "y": 53.06399917602539
        },
        "gvKey": ""
      },
      {
        "$type": "MJFAIFFAGOF",
        "type": "DIALOG_CLEAR",
        "actionId": 209
      },
      {
        "$type": "IEKHMHNHENB",
        "type": "STEER_TO",
        "duration": 1.0,
        "aliasList": [
          "1005"
        ],
        "actionId": 195,
        "_flag": 32,
        "steerType": "ABSOLUTE",
        "steerDir": {
          "x": 4516.67578125,
          "y": 157.99099731445312,
          "z": 4564.951171875
        },
        "useSteerAnim": true,
        "interruptFreestyle": true,
        "forceSteer": true,
        "targetNpcAlias": "",
        "ignoreY": true,
        "fixInterNull": true,
        "BHGPHGNFCBF": ""
      },
      {
        "$type": "NPCNMEOCADD",
        "type": "LOOK_AT",
        "aliasList": [
          "1005"
        ],
        "actionId": 197,
        "_flag": 64,
        "enableHead": true,
        "useTargetPos": true,
        "enableAbsolute": true,
        "targetPosition": {
          "x": 4515.72607421875,
          "y": 159.4010009765625,
          "z": 4565.634765625
        },
        "headTurnTime": 0.5,
        "targetNpcAlias": "",
        "lookAtTargetType": "NONE",
        "openBackProtect": true,
        "backProtectAngle": 10.0,
        "targetNpcLookAtPoint": "",
        "BHGPHGNFCBF": ""
      },
      {
        "$type": "MoleMole.Config.ConfigMoveToAction",
        "type": "MOVE_TO",
        "delayTime": 1.2999999523162842,
        "aliasList": [
          "1005"
        ],
        "actionId": 198,
        "moveType": "WALK",
        "routeList": [
          {
            "x": 4517.05517578125,
            "y": 157.99099731445312,
            "z": 4564.77294921875
          }
        ],
        "exactlyMove": true,
        "closeNavMesh": true,
        "openSetPos": true,
        "_bindMovingTargetKey": ""
      },
      {
        "$type": "MJFAIFFAGOF",
        "type": "DIALOG",
        "delayTime": 2.700000047683716,
        "aliasList": [
          "1005"
        ],
        "actionId": 112,
        "dialogID": 40100104,
        "protectTime": 3.184999942779541
      },
      {
        "$type": "ICHLNKHGCAG",
        "type": "EMO_SYNC",
        "delayTime": 2.700000047683716,
        "aliasList": [
          "1005"
        ],
        "actionId": 313,
        "_flag": 320,
        "dataPath": "Cs_Emo_Avatar_Simple_Common_Set/Cs_Emo_Avatar_Talk/Cs_Emo_Avatar_MainLine/Cs_Emo_Avatar_Fontaine02/Cs_Emo_40100104",
        "phonemePath": "",
        "emotionPath": "",
        "mateDataPath": "",
        "matePhonemePath": "",
        "mateEmotionPath": "",
        "enableBlink": false,
        "dataPathHashList": [
          17870087889306829472,
          2415996838305065342,
          6367115414950557890,
          15499248494821099197
        ],
        "PACNIGOOENN": "",
        "PIBDNPHIAGC": ""
      },
      {
        "$type": "EFHODGEJOHJ",
        "type": "CAMERA_MOVE",
        "delayTime": 4.0,
        "duration": 0.5,
        "actionId": 203,
        "camPosOffset": {
          "x": 4521.4951171875,
          "y": 168.49200439453125,
          "z": 4547.56494140625
        },
        "camForwardTargetOffset": {
          "x": 4521.201171875,
          "y": 168.03500366210938,
          "z": 4548.40380859375
        },
        "camFov": 35.0,
        "lerpPattern": 6,
        "cameraBlendType": "EaseInOutCubic",
        "MDKBPBJCMHH": {},
        "needZAxisRotate": true,
        "openCameraDither": false,
        "targetNpcAlias": "",
        "closeTreeLeafDither": true,
        "PHGBNNGCJKJ": "",
        "NFILMKCFHEB": "",
        "BGPNGHDAECF": ""
      },
      {
        "$type": "NPCNMEOCADD",
        "type": "LOOK_AT",
        "delayTime": 4.0,
        "aliasList": [
          "1005"
        ],
        "actionId": 205,
        "_flag": 64,
        "headTurnTime": 0.5,
        "targetNpcAlias": "",
        "openBackProtect": true,
        "backProtectAngle": 10.0,
        "targetNpcLookAtPoint": "",
        "BHGPHGNFCBF": ""
      },
      {
        "$type": "EDCHPJLDKIN",
        "type": "BODY_LANG",
        "delayTime": 4.0,
        "aliasList": [
          "1005"
        ],
        "actionId": 334,
        "isContinue": true,
        "forceDoFreeStyle": true,
        "canDoRepeatFreeStyle": false,
        "cantBackToIdleWhenSitLoop": true,
        "eventPatternSuiteKey": ""
      },
      {
        "$type": "MoleMole.Config.ConfigTeleportToAction",
        "type": "TELEPORT_TO",
        "delayTime": 4.0,
        "aliasList": [
          "1005"
        ],
        "actionId": 353,
        "_flag": 4,
        "position": {
          "x": 4519.69580078125,
          "y": 157.99099731445312,
          "z": 4567.0517578125
        },
        "forward": {
          "x": -1.4500000476837158,
          "y": 1.059999942779541,
          "z": -2.490999937057495
        },
        "openLongDisTeleport": true,
        "syncForward": true,
        "_posBindMovingTargetKey": "",
        "_forwardBindMovingTargetKey": ""
      },
      {
        "$type": "MoleMole.Config.ConfigVisibleInterAction",
        "type": "VISIBLE",
        "delayTime": 4.0,
        "aliasList": [
          "1005"
        ],
        "actionId": 354,
        "_extraParam": ""
      },
      {
        "$type": "EFHODGEJOHJ",
        "type": "CAMERA_MOVE",
        "delayTime": 4.099999904632568,
        "duration": 15.0,
        "actionId": 210,
        "camPosOffset": {
          "x": 4522.26220703125,
          "y": 168.50100708007812,
          "z": 4547.8388671875
        },
        "camForwardTargetOffset": {
          "x": 4521.9677734375,
          "y": 168.04400634765625,
          "z": 4548.67919921875
        },
        "camFov": 35.0,
        "cameraBlendType": "EaseOutQuad",
        "MDKBPBJCMHH": {},
        "needZAxisRotate": true,
        "openCameraDither": false,
        "targetNpcAlias": "",
        "closeTreeLeafDither": true,
        "PHGBNNGCJKJ": "",
        "NFILMKCFHEB": "",
        "BGPNGHDAECF": ""
      },
      {
        "$type": "IEKHMHNHENB",
        "type": "STEER_TO",
        "delayTime": 4.343999862670898,
        "duration": 1.0,
        "aliasList": [
          "AvatarNpc"
        ],
        "actionId": 207,
        "_flag": 32,
        "steerType": "ABSOLUTE",
        "steerDir": {
          "x": 4515.9599609375,
          "y": 157.99099731445312,
          "z": 4565.005859375
        },
        "useSteerAnim": true,
        "interruptFreestyle": true,
        "forceSteer": true,
        "targetNpcAlias": "",
        "ignoreY": true,
        "fixInterNull": true,
        "BHGPHGNFCBF": ""
      },
      {
        "$type": "NPCNMEOCADD",
        "type": "LOOK_AT",
        "delayTime": 4.343999862670898,
        "aliasList": [
          "AvatarNpc"
        ],
        "actionId": 208,
        "_flag": 64,
        "enableHead": true,
        "useTargetPos": true,
        "enableAbsolute": true,
        "targetPosition": {
          "x": 4515.2587890625,
          "y": 159.11300659179688,
          "z": 4565.6328125
        },
        "headTurnTime": 0.5,
        "targetNpcAlias": "1005",
        "lookAtTargetType": "NONE",
        "openBackProtect": true,
        "backProtectAngle": 10.0,
        "targetNpcLookAtPoint": "",
        "BHGPHGNFCBF": ""
      }
    ],
    [
      {
        "$type": "EFHODGEJOHJ",
        "type": "CAMERA_MOVE",
        "duration": 0.5,
        "actionId": 211,
        "_flag": 1,
        "camPosOffset": {
          "x": 4516.0048828125,
          "y": 159.39999389648438,
          "z": 4564.041015625
        },
        "camForwardTargetOffset": {
          "x": 4516.9638671875,
          "y": 159.3939971923828,
          "z": 4563.7587890625
        },
        "camFov": 25.0,
        "lerpPattern": 6,
        "cameraBlendType": "EaseInOutCubic",
        "MDKBPBJCMHH": {},
        "needZAxisRotate": true,
        "openCameraDither": false,
        "targetNpcAlias": "",
        "closeTreeLeafDither": true,
        "PHGBNNGCJKJ": "",
        "NFILMKCFHEB": "",
        "BGPNGHDAECF": ""
      },
      {
        "$type": "EFHODGEJOHJ",
        "type": "CAMERA_MOVE",
        "duration": 0.5,
        "actionId": 304,
        "_flag": 2,
        "camPosOffset": {
          "x": 4516.00390625,
          "y": 159.34300231933594,
          "z": 4564.0419921875
        },
        "camForwardTargetOffset": {
          "x": 4516.962890625,
          "y": 159.33700561523438,
          "z": 4563.759765625
        },
        "camFov": 25.0,
        "lerpPattern": 6,
        "cameraBlendType": "EaseInOutCubic",
        "MDKBPBJCMHH": {},
        "needZAxisRotate": true,
        "openCameraDither": false,
        "targetNpcAlias": "",
        "closeTreeLeafDither": true,
        "PHGBNNGCJKJ": "",
        "NFILMKCFHEB": "",
        "BGPNGHDAECF": ""
      },
      {
        "$type": "MoleMole.Config.ConfigTeleportToAction",
        "type": "TELEPORT_TO",
        "aliasList": [
          "Avatar"
        ],
        "actionId": 252,
        "position": {
          "x": 4516.7880859375,
          "y": 157.99099731445312,
          "z": 4563.759765625
        },
        "forward": {
          "x": -0.5529999732971191,
          "z": 0.8330000042915344
        },
        "openLongDisTeleport": true,
        "syncForward": true,
        "_posBindMovingTargetKey": "",
        "_forwardBindMovingTargetKey": ""
      },
      {
        "$type": "MJFAIFFAGOF",
        "type": "DIALOG",
        "aliasList": [
          "AvatarNpc"
        ],
        "actionId": 149,
        "dialogID": 40100105,
        "protectTime": 2.0
      },
      {
        "$type": "MoleMole.Config.ConfigTeleportToAction",
        "type": "TELEPORT_TO",
        "aliasList": [
          "AvatarNpc"
        ],
        "actionId": 212,
        "position": {
          "x": 4516.7880859375,
          "y": 157.99099731445312,
          "z": 4563.759765625
        },
        "forward": {
          "x": -0.5529999732971191,
          "z": 0.8330000042915344
        },
        "openLongDisTeleport": true,
        "syncForward": true,
        "_posBindMovingTargetKey": "",
        "_forwardBindMovingTargetKey": ""
      },
      {
        "$type": "EDCHPJLDKIN",
        "type": "BODY_LANG",
        "aliasList": [
          "AvatarNpc"
        ],
        "actionId": 214,
        "bodyLangParam": 4040,
        "forceDoFreeStyle": true,
        "canDoRepeatFreeStyle": false,
        "cantBackToIdleWhenSitLoop": true,
        "eventPatternSuiteKey": ""
      },
      {
        "$type": "MoleMole.Config.ConfigMoveToAction",
        "type": "MOVE_TO",
        "delayTime": 1.5,
        "aliasList": [
          "Avatar"
        ],
        "actionId": 251,
        "moveType": "WALK",
        "routeList": [
          {
            "x": 4516.294921875,
            "y": 157.99099731445312,
            "z": 4564.615234375
          }
        ],
        "exactlyMove": true,
        "closeNavMesh": true,
        "closeAvatarNavMesh": true,
        "openSetPos": true,
        "_bindMovingTargetKey": ""
      },
      {
        "$type": "MoleMole.Config.ConfigMoveToAction",
        "type": "MOVE_TO",
        "delayTime": 1.5,
        "aliasList": [
          "AvatarNpc"
        ],
        "actionId": 215,
        "moveType": "WALK",
        "routeList": [
          {
            "x": 4516.294921875,
            "y": 157.99099731445312,
            "z": 4564.615234375
          }
        ],
        "exactlyMove": true,
        "closeNavMesh": true,
        "openSetPos": true,
        "_bindMovingTargetKey": ""
      }
    ],
    [
      {
        "$type": "MoleMole.Config.ConfigTeleportToAction",
        "type": "TELEPORT_TO",
        "aliasList": [
          "Avatar"
        ],
        "actionId": 356,
        "_flag": 4,
        "position": {
          "x": 4515.576171875,
          "y": 159.05999755859375,
          "z": 4565.51318359375
        },
        "forward": {
          "x": 1.9950000047683716,
          "y": 0.40299999713897705,
          "z": 0.9829999804496765
        },
        "openLongDisTeleport": true,
        "syncForward": true,
        "_posBindMovingTargetKey": "",
        "_forwardBindMovingTargetKey": ""
      },
      {
        "$type": "MoleMole.Config.ConfigTeleportToAction",
        "type": "TELEPORT_TO",
        "aliasList": [
          "AvatarNpc"
        ],
        "actionId": 217,
        "_flag": 4,
        "position": {
          "x": 4515.576171875,
          "y": 159.05999755859375,
          "z": 4565.51318359375
        },
        "forward": {
          "x": 1.9950000047683716,
          "y": 0.40299999713897705,
          "z": 0.9829999804496765
        },
        "openLongDisTeleport": true,
        "syncForward": true,
        "_posBindMovingTargetKey": "",
        "_forwardBindMovingTargetKey": ""
      },
      {
        "$type": "NPCNMEOCADD",
        "type": "LOOK_AT",
        "aliasList": [
          "AvatarNpc"
        ],
        "actionId": 320,
        "_flag": 64,
        "enableHead": true,
        "useTargetPos": true,
        "enableAbsolute": true,
        "targetPosition": {
          "x": 4516.15185546875,
          "y": 159.2310028076172,
          "z": 4566.15380859375
        },
        "headTurnTime": 0.5,
        "targetNpcAlias": "",
        "lookAtTargetType": "NONE",
        "openBackProtect": true,
        "backProtectAngle": 10.0,
        "targetNpcLookAtPoint": "",
        "BHGPHGNFCBF": ""
      },
      {
        "$type": "ICHLNKHGCAG",
        "type": "EMO_SYNC",
        "aliasList": [
          "AvatarNpc"
        ],
        "actionId": 321,
        "_flag": 256,
        "dataPath": "",
        "phonemePath": "Cs_Emo_Avatar_Common/Cs_Emo_Avatar_Smile01",
        "emotionPath": "Cs_Emo_Avatar_Common/Cs_Emo_Avatar_Normal01",
        "mateDataPath": "",
        "matePhonemePath": "",
        "mateEmotionPath": "",
        "phonemePathHashList": [
          10690861126541730163,
          10307265193832958374,
          9401534900849971975,
          18440618347769519338
        ],
        "emotionPathHashList": [
          3341118736972784235,
          17518384881145547503,
          1737609680237640824,
          13896238032681170250
        ],
        "PACNIGOOENN": "",
        "PIBDNPHIAGC": ""
      },
      {
        "$type": "HGDDIPABPCA",
        "type": "LOOK_AT_EYECTRL",
        "aliasList": [
          "AvatarNpc"
        ],
        "actionId": 367,
        "_flag": 576,
        "useTargetPos": false,
        "eyeRotateVecLeft": {
          "x": -10.0,
          "y": -6.0
        },
        "eyeRotateVecRight": {
          "x": -10.0,
          "y": 6.0
        },
        "turnTime": 0.20000000298023224,
        "targetNpcAlias": "",
        "targetPoint": "Face"
      },
      {
        "$type": "MJFAIFFAGOF",
        "type": "DIALOG",
        "aliasList": [
          "1005"
        ],
        "actionId": 116,
        "dialogID": 40100106,
        "protectTime": 3.234999895095825
      },
      {
        "$type": "ICHLNKHGCAG",
        "type": "EMO_SYNC",
        "aliasList": [
          "1005"
        ],
        "actionId": 314,
        "_flag": 320,
        "dataPath": "Cs_Emo_Avatar_Simple_Common_Set/Cs_Emo_Avatar_Talk/Cs_Emo_Avatar_MainLine/Cs_Emo_Avatar_Fontaine02/Cs_Emo_40100106",
        "phonemePath": "",
        "emotionPath": "",
        "mateDataPath": "",
        "matePhonemePath": "",
        "mateEmotionPath": "",
        "enableBlink": false,
        "dataPathHashList": [
          5392628601504697,
          2377037549186812116,
          6031205783508892362,
          17032868424856539972
        ],
        "PACNIGOOENN": "",
        "PIBDNPHIAGC": ""
      },
      {
        "$type": "EDCHPJLDKIN",
        "type": "BODY_LANG",
        "delayTime": 0.10000000149011612,
        "aliasList": [
          "AvatarNpc"
        ],
        "actionId": 319,
        "bodyLangParam": 4121,
        "forceDoFreeStyle": true,
        "canDoRepeatFreeStyle": false,
        "cantBackToIdleWhenSitLoop": true,
        "eventPatternSuiteKey": ""
      },
      {
        "$type": "EFHODGEJOHJ",
        "type": "CAMERA_MOVE",
        "delayTime": 1.0,
        "duration": 0.5,
        "actionId": 223,
        "camPosOffset": {
          "x": 4516.48486328125,
          "y": 160.34500122070312,
          "z": 4557.3720703125
        },
        "camForwardTargetOffset": {
          "x": 4516.29296875,
          "y": 160.2239990234375,
          "z": 4558.34619140625
        },
        "camFov": 25.0,
        "lerpPattern": 6,
        "cameraBlendType": "EaseInOutCubic",
        "MDKBPBJCMHH": {},
        "needZAxisRotate": true,
        "openCameraDither": false,
        "targetNpcAlias": "",
        "closeTreeLeafDither": true,
        "PHGBNNGCJKJ": "",
        "NFILMKCFHEB": "",
        "BGPNGHDAECF": ""
      },
      {
        "$type": "EFHODGEJOHJ",
        "type": "CAMERA_MOVE",
        "delayTime": 1.100000023841858,
        "duration": 25.0,
        "actionId": 225,
        "camPosOffset": {
          "x": 4516.73876953125,
          "y": 160.34100341796875,
          "z": 4557.421875
        },
        "camForwardTargetOffset": {
          "x": 4516.546875,
          "y": 160.2209930419922,
          "z": 4558.39599609375
        },
        "camFov": 25.0,
        "cameraBlendType": "EaseOutQuad",
        "MDKBPBJCMHH": {},
        "needZAxisRotate": true,
        "openCameraDither": false,
        "targetNpcAlias": "",
        "closeTreeLeafDither": true,
        "PHGBNNGCJKJ": "",
        "NFILMKCFHEB": "",
        "BGPNGHDAECF": ""
      }
    ],
    [
      {
        "$type": "EFHODGEJOHJ",
        "type": "CAMERA_MOVE",
        "duration": 0.5,
        "actionId": 365,
        "camPosOffset": {
          "x": 4515.8369140625,
          "y": 159.2449951171875,
          "z": 4564.94384765625
        },
        "camForwardTargetOffset": {
          "x": 4514.96923828125,
          "y": 159.1510009765625,
          "z": 4565.43212890625
        },
        "camFov": 25.0,
        "lerpPattern": 6,
        "cameraBlendType": "EaseInOutCubic",
        "MDKBPBJCMHH": {},
        "needZAxisRotate": true,
        "openCameraDither": false,
        "targetNpcAlias": "",
        "closeTreeLeafDither": true,
        "PHGBNNGCJKJ": "",
        "NFILMKCFHEB": "",
        "BGPNGHDAECF": ""
      },
      {
        "$type": "MJFAIFFAGOF",
        "type": "DIALOG",
        "aliasList": [
          "AvatarNpc"
        ],
        "actionId": 150,
        "dialogID": 40100107,
        "protectTime": 1.5
      },
      {
        "$type": "ICHLNKHGCAG",
        "type": "EMO_SYNC",
        "aliasList": [
          "AvatarNpc"
        ],
        "actionId": 371,
        "_flag": 320,
        "dataPath": "Cs_Emo_Avatar_Simple_Common_Set/Cs_Emo_Avatar_Talk/Cs_Emo_Avatar_MainLine/Cs_Emo_Avatar_Fontaine02/Cs_Emo_40100107",
        "phonemePath": "",
        "emotionPath": "",
        "mateDataPath": "",
        "matePhonemePath": "",
        "mateEmotionPath": "",
        "enableBlink": false,
        "dataPathHashList": [
          14091180864792032595,
          16658821347894858590,
          2384546405749609590,
          11592364342248844136
        ],
        "PACNIGOOENN": "",
        "PIBDNPHIAGC": ""
      },
      {
        "$type": "EFHODGEJOHJ",
        "type": "CAMERA_MOVE",
        "delayTime": 0.10000000149011612,
        "duration": 10.0,
        "actionId": 366,
        "camPosOffset": {
          "x": 4515.7958984375,
          "y": 159.24000549316406,
          "z": 4564.966796875
        },
        "camForwardTargetOffset": {
          "x": 4514.92822265625,
          "y": 159.14700317382812,
          "z": 4565.455078125
        },
        "camFov": 25.0,
        "cameraBlendType": "EaseOutQuad",
        "MDKBPBJCMHH": {},
        "needZAxisRotate": true,
        "openCameraDither": false,
        "targetNpcAlias": "",
        "closeTreeLeafDither": true,
        "PHGBNNGCJKJ": "",
        "NFILMKCFHEB": "",
        "BGPNGHDAECF": ""
      },
      {
        "$type": "NPCNMEOCADD",
        "type": "LOOK_AT",
        "delayTime": 1.0,
        "aliasList": [
          "AvatarNpc"
        ],
        "actionId": 364,
        "_flag": 64,
        "enableHead": true,
        "useTargetPos": true,
        "enableAbsolute": true,
        "targetPosition": {
          "x": 4516.02978515625,
          "y": 159.1699981689453,
          "z": 4565.62890625
        },
        "headTurnTime": 0.800000011920929,
        "targetNpcAlias": "",
        "lookAtTargetType": "NONE",
        "openBackProtect": true,
        "backProtectAngle": 10.0,
        "targetNpcLookAtPoint": "",
        "BHGPHGNFCBF": ""
      },
      {
        "$type": "HGDDIPABPCA",
        "type": "LOOK_AT_EYECTRL",
        "delayTime": 1.0,
        "aliasList": [
          "AvatarNpc"
        ],
        "actionId": 368,
        "_flag": 576,
        "useTargetPos": false,
        "turnTime": 0.20000000298023224,
        "targetNpcAlias": "",
        "targetPoint": "Face"
      }
    ],
    [
      {
        "$type": "MJFAIFFAGOF",
        "type": "DIALOG_CLEAR",
        "actionId": 121
      },
      {
        "$type": "MoleMole.Config.ConfigTimeProtectAction",
        "type": "TIME_PROTECT",
        "duration": 3.0,
        "actionId": 228
      },
      {
        "$type": "MoleMole.Config.ConfigBlackScreenAction",
        "type": "BLACK_SCREEN",
        "actionId": 233,
        "_flag": 2048,
        "blackScreenType": "TO_BLACK",
        "durationToBlack": 0.5,
        "durationKeepBlack": 0.5,
        "durationFromBlack": 0.5,
        "inteePos": "",
        "textMapID": "",
        "useTextFade": true
      },
      {
        "$type": "MoleMole.Config.ConfigAudioPlayAction",
        "type": "AUDIO_PLAY",
        "actionId": 373,
        "audioEventStr": "Play_sfx_quest_DQAQ_4010_earthquake"
      },
      {
        "$type": "MoleMole.Config.ConfigBlackScreenAction",
        "type": "BLACK_SCREEN",
        "delayTime": 0.5,
        "actionId": 230,
        "_flag": 2048,
        "blackScreenType": "KEEP_BLACK",
        "durationToBlack": 0.5,
        "durationKeepBlack": 3.0,
        "inteePos": "",
        "textMapID": "",
        "useTextFade": true,
        "_dialogID": 40100108
      },
      {
        "$type": "EFHODGEJOHJ",
        "type": "CAMERA_MOVE",
        "delayTime": 1.5,
        "duration": 0.5,
        "actionId": 237,
        "camPosOffset": {
          "x": 4517.451171875,
          "y": 159.66799926757812,
          "z": 4563.84521484375
        },
        "camForwardTargetOffset": {
          "x": 4516.85107421875,
          "y": 159.73899841308594,
          "z": 4563.0478515625
        },
        "camFov": 35.0,
        "lerpPattern": 6,
        "cameraBlendType": "EaseInOutCubic",
        "MDKBPBJCMHH": {},
        "needZAxisRotate": true,
        "openCameraDither": false,
        "targetNpcAlias": "",
        "closeTreeLeafDither": true,
        "PHGBNNGCJKJ": "",
        "NFILMKCFHEB": "",
        "BGPNGHDAECF": ""
      }
    ],
    [
      {
        "$type": "MoleMole.Config.ConfigBlackScreenAction",
        "type": "BLACK_SCREEN",
        "actionId": 229,
        "_flag": 2048,
        "blackScreenType": "KEEP_BLACK",
        "durationToBlack": 0.5,
        "durationKeepBlack": 0.5,
        "durationFromBlack": 0.5,
        "inteePos": "",
        "textMapID": "",
        "useTextFade": true
      },
      {
        "$type": "MoleMole.Config.ConfigCameraDOFAction",
        "type": "CAMERA_DOF",
        "actionId": 310,
        "enabled": true,
        "focusDistance": -4.236999988555908,
        "focusRange": 1.8899999856948853,
        "nearFocalDistance": -8.237000465393066,
        "nearFocalTransDistance": 1.0,
        "dofBlurAmount": 2.0,
        "quality": 3
      },
      {
        "$type": "EDCHPJLDKIN",
        "type": "BODY_LANG",
        "aliasList": [
          "1005"
        ],
        "actionId": 341,
        "isContinue": true,
        "forceDoFreeStyle": true,
        "canDoRepeatFreeStyle": false,
        "cantBackToIdleWhenSitLoop": true,
        "eventPatternSuiteKey": ""
      },
      {
        "$type": "MJFAIFFAGOF",
        "type": "DIALOG",
        "aliasList": [
          "13538"
        ],
        "actionId": 123,
        "dialogID": 40100109,
        "protectTime": 0.800000011920929
      },
      {
        "$type": "ICHLNKHGCAG",
        "type": "EMO_SYNC",
        "aliasList": [
          "13538"
        ],
        "actionId": 316,
        "_flag": 320,
        "dataPath": "Cs_Emo_Avatar_Simple_Common_Set/Cs_Emo_Avatar_Talk/Cs_Emo_Avatar_MainLine/Cs_Emo_Avatar_Fontaine02/Cs_Emo_40100109",
        "phonemePath": "",
        "emotionPath": "",
        "mateDataPath": "",
        "matePhonemePath": "",
        "mateEmotionPath": "",
        "dataPathHashList": [
          7441142806841520789,
          2802751552282574792,
          3795885351389182132,
          9012058883227836302
        ],
        "PACNIGOOENN": "",
        "PIBDNPHIAGC": ""
      }
    ],
    [
      {
        "$type": "MoleMole.Config.ConfigBlackScreenAction",
        "type": "BLACK_SCREEN",
        "actionId": 232,
        "_flag": 2048,
        "blackScreenType": "FROM_BLACK",
        "durationToBlack": 0.5,
        "durationKeepBlack": 0.5,
        "durationFromBlack": 0.5,
        "inteePos": "",
        "textMapID": "",
        "useTextFade": true
      },
      {
        "$type": "EFHODGEJOHJ",
        "type": "CAMERA_MOVE",
        "duration": 0.5,
        "actionId": 234,
        "camPosOffset": {
          "x": 4517.451171875,
          "y": 159.66799926757812,
          "z": 4563.84521484375
        },
        "camForwardTargetOffset": {
          "x": 4516.85107421875,
          "y": 159.73899841308594,
          "z": 4563.0478515625
        },
        "camFov": 35.0,
        "lerpPattern": 6,
        "cameraBlendType": "EaseInOutCubic",
        "MDKBPBJCMHH": {},
        "needZAxisRotate": true,
        "openCameraDither": false,
        "targetNpcAlias": "",
        "closeTreeLeafDither": true,
        "PHGBNNGCJKJ": "",
        "NFILMKCFHEB": "",
        "BGPNGHDAECF": ""
      },
      {
        "$type": "MJFAIFFAGOF",
        "type": "DIALOG",
        "aliasList": [
          "13539"
        ],
        "actionId": 125,
        "dialogID": 40100110,
        "protectTime": 0.5
      },
      {
        "$type": "ICHLNKHGCAG",
        "type": "EMO_SYNC",
        "aliasList": [
          "13539"
        ],
        "actionId": 317,
        "_flag": 320,
        "dataPath": "Cs_Emo_Avatar_Simple_Common_Set/Cs_Emo_Avatar_Talk/Cs_Emo_Avatar_MainLine/Cs_Emo_Avatar_Fontaine02/Cs_Emo_40100110",
        "phonemePath": "",
        "emotionPath": "",
        "mateDataPath": "",
        "matePhonemePath": "",
        "mateEmotionPath": "",
        "dataPathHashList": [
          11370752186802038654,
          9348932833144931572,
          10541067298040883391,
          10594495378965785718
        ],
        "PACNIGOOENN": "",
        "PIBDNPHIAGC": ""
      },
      {
        "$type": "EFHODGEJOHJ",
        "type": "CAMERA_MOVE",
        "delayTime": 0.10000000149011612,
        "duration": 15.0,
        "actionId": 235,
        "camPosOffset": {
          "x": 4517.65087890625,
          "y": 159.6719970703125,
          "z": 4563.69482421875
        },
        "camForwardTargetOffset": {
          "x": 4517.05078125,
          "y": 159.7429962158203,
          "z": 4562.89794921875
        },
        "camFov": 35.0,
        "cameraBlendType": "EaseOutQuad",
        "MDKBPBJCMHH": {},
        "needZAxisRotate": true,
        "openCameraDither": false,
        "targetNpcAlias": "",
        "closeTreeLeafDither": true,
        "PHGBNNGCJKJ": "",
        "NFILMKCFHEB": "",
        "BGPNGHDAECF": ""
      }
    ],
    [
      {
        "$type": "EFHODGEJOHJ",
        "type": "CAMERA_MOVE",
        "duration": 0.5,
        "actionId": 238,
        "camPosOffset": {
          "x": 4516.291015625,
          "y": 159.86000061035156,
          "z": 4564.8701171875
        },
        "camForwardTargetOffset": {
          "x": 4516.333984375,
          "y": 160.85800170898438,
          "z": 4564.90087890625
        },
        "camFov": 25.0,
        "lerpPattern": 6,
        "cameraBlendType": "EaseInOutCubic",
        "MDKBPBJCMHH": {},
        "needZAxisRotate": true,
        "rotateAngle": 0.003000000026077032,
        "openCameraDither": false,
        "targetNpcAlias": "",
        "closeTreeLeafDither": true,
        "PHGBNNGCJKJ": "",
        "NFILMKCFHEB": "",
        "BGPNGHDAECF": ""
      },
      {
        "$type": "MoleMole.Config.ConfigSimpleUIShowInterAction",
        "type": "SIMPLE_UI_SHOW",
        "actionId": 239,
        "contextName": "BlinkDialog",
        "_param": ""
      },
      {
        "$type": "MoleMole.Config.ConfigNewCameraShakeAction",
        "type": "NEW_CAMERA_SHAKE",
        "duration": 2.5,
        "actionId": 242,
        "_shakeType": "INFINITE_POSITION",
        "seed": 48.0,
        "amplitudeBase": {
          "x": 0.029999999329447746,
          "y": 0.03999999910593033,
          "z": 0.029999999329447746
        },
        "frequencyBase": {
          "x": 0.18000000715255737,
          "y": 0.2199999988079071,
          "z": 0.17000000178813934
        },
        "amplitudeCurve": {
          "keyframes": [
            {
              "value": 1.0
            },
            {
              "time": 1.0,
              "value": 1.0
            }
          ]
        },
        "frequencyCurve": {
          "keyframes": [
            {
              "value": 1.0
            },
            {
              "time": 1.0,
              "value": 1.0
            }
          ]
        }
      },
      {
        "$type": "MoleMole.Config.ConfigCameraDOFAction",
        "type": "CAMERA_DOF",
        "actionId": 248,
        "enabled": true,
        "focusDistance": 44.04100036621094,
        "focusRange": 10.0,
        "nearFocalDistance": 40.04100036621094,
        "nearFocalTransDistance": 1.0,
        "dofBlurAmount": 5.0,
        "quality": 3
      },
      {
        "$type": "ICHLNKHGCAG",
        "type": "EMO_SYNC",
        "aliasList": [
          "AvatarNpc"
        ],
        "actionId": 336,
        "_flag": 320,
        "dataPath": "",
        "phonemePath": "Cs_Emo_Avatar_Common/Cs_Emo_Avatar_Normal01",
        "emotionPath": "Cs_Emo_Avatar_Common/Cs_Emo_Avatar_Normal01",
        "mateDataPath": "",
        "matePhonemePath": "",
        "mateEmotionPath": "",
        "phonemePathHashList": [
          9445916536337636767,
          14128686126614747219,
          10779105391569104182,
          11659242061757756269
        ],
        "emotionPathHashList": [
          3341118736972784235,
          17518384881145547503,
          1737609680237640824,
          13896238032681170250
        ],
        "PACNIGOOENN": "",
        "PIBDNPHIAGC": ""
      },
      {
        "$type": "MJFAIFFAGOF",
        "type": "DIALOG",
        "aliasList": [
          "13540"
        ],
        "actionId": 127,
        "dialogID": 40100111,
        "protectTime": 5.5
      },
      {
        "$type": "ICHLNKHGCAG",
        "type": "EMO_SYNC",
        "aliasList": [
          "13540"
        ],
        "actionId": 318,
        "_flag": 320,
        "dataPath": "Cs_Emo_Avatar_Simple_Common_Set/Cs_Emo_Avatar_Talk/Cs_Emo_Avatar_MainLine/Cs_Emo_Avatar_Fontaine02/Cs_Emo_40100111",
        "phonemePath": "",
        "emotionPath": "",
        "mateDataPath": "",
        "matePhonemePath": "",
        "mateEmotionPath": "",
        "dataPathHashList": [
          4179194175352060104,
          13457641462036127943,
          17557177168133972708,
          14568397510399276134
        ],
        "PACNIGOOENN": "",
        "PIBDNPHIAGC": ""
      },
      {
        "$type": "EFHODGEJOHJ",
        "type": "CAMERA_MOVE",
        "delayTime": 1.5,
        "duration": 2.0,
        "actionId": 243,
        "camPosOffset": {
          "x": 4516.69287109375,
          "y": 159.52200317382812,
          "z": 4564.740234375
        },
        "camForwardTargetOffset": {
          "x": 4517.27197265625,
          "y": 159.52000427246094,
          "z": 4563.9248046875
        },
        "camFov": 25.0,
        "cameraBlendType": "EaseInOutQuad",
        "MDKBPBJCMHH": {},
        "needZAxisRotate": true,
        "openCameraDither": false,
        "targetNpcAlias": "",
        "closeTreeLeafDither": true,
        "PHGBNNGCJKJ": "",
        "NFILMKCFHEB": "",
        "BGPNGHDAECF": ""
      },
      {
        "$type": "MoleMole.Config.ConfigCameraDOFAction",
        "type": "CAMERA_DOF",
        "delayTime": 2.0959999561309814,
        "duration": 2.0,
        "actionId": 249,
        "focusDistance": 5.0,
        "focusRange": 10.0,
        "nearFocalDistance": 1.0,
        "nearFocalTransDistance": 1.0,
        "dofBlurAmount": 1.0,
        "quality": 3
      },
      {
        "$type": "MoleMole.Config.ConfigNewCameraShakeAction",
        "type": "NEW_CAMERA_SHAKE",
        "delayTime": 2.5,
        "actionId": 244,
        "_shakeType": "CLOSE",
        "amplitudeCurve": {},
        "frequencyCurve": {}
      },
      {
        "$type": "EFHODGEJOHJ",
        "type": "CAMERA_MOVE",
        "delayTime": 3.2720000743865967,
        "duration": 5.0,
        "actionId": 245,
        "camPosOffset": {
          "x": 4516.69287109375,
          "y": 159.52200317382812,
          "z": 4564.740234375
        },
        "camForwardTargetOffset": {
          "x": 4517.27197265625,
          "y": 159.52000427246094,
          "z": 4563.9248046875
        },
        "camFov": 25.0,
        "cameraBlendType": "EaseOutQuad",
        "MDKBPBJCMHH": {},
        "needZAxisRotate": true,
        "openCameraDither": false,
        "targetNpcAlias": "",
        "closeTreeLeafDither": true,
        "PHGBNNGCJKJ": "",
        "NFILMKCFHEB": "",
        "BGPNGHDAECF": ""
      },
      {
        "$type": "MoleMole.Config.ConfigTeleportToAction",
        "type": "TELEPORT_TO",
        "delayTime": 4.0,
        "aliasList": [
          "Avatar"
        ],
        "actionId": 347,
        "position": {
          "x": 4516.4541015625,
          "y": 157.99099731445312,
          "z": 4564.82177734375
        },
        "forward": {
          "x": -0.21799999475479126,
          "z": -5.625
        },
        "openLongDisTeleport": true,
        "syncForward": true,
        "_posBindMovingTargetKey": "",
        "_forwardBindMovingTargetKey": ""
      },
      {
        "$type": "NPCNMEOCADD",
        "type": "LOOK_AT",
        "delayTime": 4.0,
        "aliasList": [
          "AvatarNpc"
        ],
        "actionId": 275,
        "_flag": 64,
        "enableHead": true,
        "useTargetPos": true,
        "enableAbsolute": true,
        "targetPosition": {
          "x": 4515.86181640625,
          "y": 159.375,
          "z": 4556.033203125
        },
        "headTurnTime": 0.5,
        "targetNpcAlias": "",
        "lookAtTargetType": "NONE",
        "openBackProtect": true,
        "backProtectAngle": 10.0,
        "targetNpcLookAtPoint": "",
        "BHGPHGNFCBF": ""
      },
      {
        "$type": "MoleMole.Config.ConfigTeleportToAction",
        "type": "TELEPORT_TO",
        "delayTime": 4.0,
        "aliasList": [
          "AvatarNpc"
        ],
        "actionId": 276,
        "position": {
          "x": 4516.4541015625,
          "y": 157.99099731445312,
          "z": 4564.82177734375
        },
        "forward": {
          "x": -0.21799999475479126,
          "z": -5.625
        },
        "openLongDisTeleport": true,
        "syncForward": true,
        "_posBindMovingTargetKey": "",
        "_forwardBindMovingTargetKey": ""
      },
      {
        "$type": "EDCHPJLDKIN",
        "type": "BODY_LANG",
        "delayTime": 4.0,
        "aliasList": [
          "AvatarNpc"
        ],
        "actionId": 322,
        "isContinue": true,
        "forceDoFreeStyle": true,
        "canDoRepeatFreeStyle": false,
        "cantBackToIdleWhenSitLoop": true,
        "eventPatternSuiteKey": ""
      }
    ],
    [
      {
        "$type": "EFHODGEJOHJ",
        "type": "CAMERA_MOVE",
        "duration": 0.5,
        "actionId": 254,
        "_flag": 2,
        "camPosOffset": {
          "x": 4515.27880859375,
          "y": 159.22500610351562,
          "z": 4565.18701171875
        },
        "camForwardTargetOffset": {
          "x": 4516.0439453125,
          "y": 159.3000030517578,
          "z": 4564.5478515625
        },
        "camFov": 25.0,
        "lerpPattern": 6,
        "cameraBlendType": "EaseInOutCubic",
        "MDKBPBJCMHH": {},
        "needZAxisRotate": true,
        "openCameraDither": false,
        "targetNpcAlias": "",
        "closeTreeLeafDither": true,
        "PHGBNNGCJKJ": "",
        "NFILMKCFHEB": "",
        "BGPNGHDAECF": ""
      },
      {
        "$type": "EFHODGEJOHJ",
        "type": "CAMERA_MOVE",
        "duration": 0.5,
        "actionId": 352,
        "_flag": 1,
        "camPosOffset": {
          "x": 4515.27099609375,
          "y": 159.27000427246094,
          "z": 4565.18017578125
        },
        "camForwardTargetOffset": {
          "x": 4516.037109375,
          "y": 159.34500122070312,
          "z": 4564.541015625
        },
        "camFov": 25.0,
        "lerpPattern": 6,
        "cameraBlendType": "EaseInOutCubic",
        "MDKBPBJCMHH": {},
        "needZAxisRotate": true,
        "openCameraDither": false,
        "targetNpcAlias": "",
        "closeTreeLeafDither": true,
        "PHGBNNGCJKJ": "",
        "NFILMKCFHEB": "",
        "BGPNGHDAECF": ""
      },
      {
        "$type": "MoleMole.Config.ConfigTeleportToAction",
        "type": "TELEPORT_TO",
        "aliasList": [
          "Avatar"
        ],
        "actionId": 307,
        "position": {
          "x": 4516.2080078125,
          "y": 157.99099731445312,
          "z": 4564.48779296875
        },
        "forward": {
          "x": -0.09000000357627869,
          "y": -0.09600000083446503,
          "z": -3.1449999809265137
        },
        "openLongDisTeleport": true,
        "syncForward": true,
        "_posBindMovingTargetKey": "",
        "_forwardBindMovingTargetKey": ""
      },
      {
        "$type": "MoleMole.Config.ConfigTeleportToAction",
        "type": "TELEPORT_TO",
        "aliasList": [
          "AvatarNpc"
        ],
        "actionId": 262,
        "position": {
          "x": 4516.2080078125,
          "y": 157.99099731445312,
          "z": 4564.48779296875
        },
        "forward": {
          "x": -0.09000000357627869,
          "y": -0.09600000083446503,
          "z": -3.1449999809265137
        },
        "openLongDisTeleport": true,
        "syncForward": true,
        "_posBindMovingTargetKey": "",
        "_forwardBindMovingTargetKey": ""
      },
      {
        "$type": "NPCNMEOCADD",
        "type": "LOOK_AT",
        "aliasList": [
          "AvatarNpc"
        ],
        "actionId": 277,
        "_flag": 66,
        "enableHead": true,
        "useTargetPos": true,
        "enableAbsolute": true,
        "targetPosition": {
          "x": 4516.01806640625,
          "y": 158.4770050048828,
          "z": 4561.43701171875
        },
        "headTurnTime": 0.5,
        "targetNpcAlias": "",
        "lookAtTargetType": "NONE",
        "openBackProtect": true,
        "backProtectAngle": 10.0,
        "targetNpcLookAtPoint": "",
        "BHGPHGNFCBF": ""
      },
      {
        "$type": "NPCNMEOCADD",
        "type": "LOOK_AT",
        "aliasList": [
          "AvatarNpc"
        ],
        "actionId": 302,
        "_flag": 65,
        "enableHead": true,
        "useTargetPos": true,
        "enableAbsolute": true,
        "targetPosition": {
          "x": 4517.619140625,
          "y": 159.48500061035156,
          "z": 4562.43212890625
        },
        "headTurnTime": 0.5,
        "targetNpcAlias": "",
        "lookAtTargetType": "NONE",
        "openBackProtect": true,
        "backProtectAngle": 10.0,
        "targetNpcLookAtPoint": "",
        "BHGPHGNFCBF": ""
      },
      {
        "$type": "EDCHPJLDKIN",
        "type": "BODY_LANG",
        "aliasList": [
          "AvatarNpc"
        ],
        "actionId": 306,
        "_flag": 1,
        "bodyLangParam": 1090,
        "forceDoFreeStyle": true,
        "canDoRepeatFreeStyle": false,
        "cantBackToIdleWhenSitLoop": true,
        "eventPatternSuiteKey": ""
      },
      {
        "$type": "EDCHPJLDKIN",
        "type": "BODY_LANG",
        "aliasList": [
          "AvatarNpc"
        ],
        "actionId": 348,
        "_flag": 2,
        "bodyLangParam": 1050,
        "forceDoFreeStyle": true,
        "canDoRepeatFreeStyle": false,
        "cantBackToIdleWhenSitLoop": true,
        "eventPatternSuiteKey": ""
      },
      {
        "$type": "MJFAIFFAGOF",
        "type": "DIALOG",
        "aliasList": [
          "1005"
        ],
        "actionId": 129,
        "dialogID": 40100112,
        "protectTime": 1.9459999799728394
      },
      {
        "$type": "ICHLNKHGCAG",
        "type": "EMO_SYNC",
        "aliasList": [
          "1005"
        ],
        "actionId": 315,
        "_flag": 320,
        "dataPath": "Cs_Emo_Avatar_Simple_Common_Set/Cs_Emo_Avatar_Talk/Cs_Emo_Avatar_MainLine/Cs_Emo_Avatar_Fontaine02/Cs_Emo_40100112",
        "phonemePath": "",
        "emotionPath": "",
        "mateDataPath": "",
        "matePhonemePath": "",
        "mateEmotionPath": "",
        "dataPathHashList": [
          5553213365828816101,
          2417865671350291186,
          788650002515563285,
          8216801944511374270
        ],
        "PACNIGOOENN": "",
        "PIBDNPHIAGC": ""
      },
      {
        "$type": "NPCNMEOCADD",
        "type": "LOOK_AT",
        "delayTime": 3.259000062942505,
        "aliasList": [
          "AvatarNpc"
        ],
        "actionId": 346,
        "_flag": 65,
        "enableHead": true,
        "useTargetPos": true,
        "enableAbsolute": true,
        "targetPosition": {
          "x": 4515.5419921875,
          "y": 160.11300659179688,
          "z": 4560.0390625
        },
        "headTurnTime": 0.5,
        "targetNpcAlias": "",
        "lookAtTargetType": "NONE",
        "openBackProtect": true,
        "backProtectAngle": 10.0,
        "targetNpcLookAtPoint": "",
        "BHGPHGNFCBF": ""
      },
      {
        "$type": "NPCNMEOCADD",
        "type": "LOOK_AT",
        "delayTime": 3.2950000762939453,
        "aliasList": [
          "AvatarNpc"
        ],
        "actionId": 349,
        "_flag": 66,
        "enableHead": true,
        "useTargetPos": true,
        "enableAbsolute": true,
        "targetPosition": {
          "x": 4515.212890625,
          "y": 159.7209930419922,
          "z": 4561.0830078125
        },
        "headTurnTime": 0.5,
        "targetNpcAlias": "",
        "lookAtTargetType": "NONE",
        "openBackProtect": true,
        "backProtectAngle": 10.0,
        "targetNpcLookAtPoint": "",
        "BHGPHGNFCBF": ""
      },
      {
        "$type": "EDCHPJLDKIN",
        "type": "BODY_LANG",
        "delayTime": 3.3480000495910645,
        "aliasList": [
          "AvatarNpc"
        ],
        "actionId": 345,
        "isContinue": true,
        "forceDoFreeStyle": true,
        "canDoRepeatFreeStyle": false,
        "cantBackToIdleWhenSitLoop": true,
        "eventPatternSuiteKey": ""
      }
    ],
    [
      {
        "$type": "EFHODGEJOHJ",
        "type": "CAMERA_MOVE",
        "duration": 0.5,
        "actionId": 264,
        "camPosOffset": {
          "x": 4528.09423828125,
          "y": 159.41900634765625,
          "z": 4562.001953125
        },
        "camForwardTargetOffset": {
          "x": 4527.10693359375,
          "y": 159.44400024414062,
          "z": 4562.1591796875
        },
        "camFov": 35.0,
        "lerpPattern": 6,
        "cameraBlendType": "EaseInOutCubic",
        "MDKBPBJCMHH": {},
        "needZAxisRotate": true,
        "rotateAngle": 359.8680114746094,
        "openCameraDither": false,
        "targetNpcAlias": "",
        "closeTreeLeafDither": true,
        "PHGBNNGCJKJ": "",
        "NFILMKCFHEB": "",
        "BGPNGHDAECF": ""
      },
      {
        "$type": "MoleMole.Config.ConfigCameraDOFAction",
        "type": "CAMERA_DOF",
        "actionId": 285,
        "focusDistance": 5.0,
        "focusRange": 10.0,
        "nearFocalDistance": 1.0,
        "nearFocalTransDistance": 1.0,
        "dofBlurAmount": 1.0,
        "quality": 3
      },
      {
        "$type": "MJFAIFFAGOF",
        "type": "DIALOG",
        "aliasList": [
          "AvatarNpc"
        ],
        "actionId": 151,
        "dialogID": 40100113,
        "protectTime": 2.5
      },
      {
        "$type": "NPCNMEOCADD",
        "type": "LOOK_AT",
        "aliasList": [
          "AvatarNpc"
        ],
        "actionId": 278,
        "_flag": 64,
        "enableHead": true,
        "useTargetPos": true,
        "enableAbsolute": true,
        "targetPosition": {
          "x": 4515.86181640625,
          "y": 159.375,
          "z": 4556.033203125
        },
        "headTurnTime": 0.5,
        "targetNpcAlias": "",
        "lookAtTargetType": "NONE",
        "openBackProtect": true,
        "backProtectAngle": 10.0,
        "targetNpcLookAtPoint": "",
        "BHGPHGNFCBF": ""
      },
      {
        "$type": "EDCHPJLDKIN",
        "type": "BODY_LANG",
        "aliasList": [
          "AvatarNpc"
        ],
        "actionId": 296,
        "isContinue": true,
        "forceDoFreeStyle": true,
        "canDoRepeatFreeStyle": false,
        "cantBackToIdleWhenSitLoop": true,
        "eventPatternSuiteKey": ""
      },
      {
        "$type": "HGDDIPABPCA",
        "type": "LOOK_AT_EYECTRL",
        "aliasList": [
          "AvatarNpc"
        ],
        "actionId": 300,
        "_flag": 576,
        "useTargetPos": false,
        "turnTime": 0.20000000298023224,
        "targetNpcAlias": "",
        "targetPoint": "Face"
      },
      {
        "$type": "MoleMole.Config.ConfigVisibleInterAction",
        "type": "VISIBLE",
        "aliasList": [
          "1005"
        ],
        "actionId": 357,
        "isVisible": true,
        "_extraParam": ""
      },
      {
        "$type": "MoleMole.Config.ConfigTeleportToAction",
        "type": "TELEPORT_TO",
        "aliasList": [
          "1005"
        ],
        "actionId": 362,
        "position": {
          "x": 4521.1708984375,
          "y": 157.99099731445312,
          "z": 4567.51416015625
        },
        "forward": {
          "x": -2.496000051498413,
          "z": -0.1720000058412552
        },
        "openLongDisTeleport": true,
        "syncForward": true,
        "_posBindMovingTargetKey": "",
        "_forwardBindMovingTargetKey": ""
      },
      {
        "$type": "MoleMole.Config.ConfigVisibleInterAction",
        "type": "VISIBLE",
        "aliasList": [
          "13538"
        ],
        "actionId": 358,
        "isVisible": true,
        "_extraParam": ""
      },
      {
        "$type": "MoleMole.Config.ConfigVisibleInterAction",
        "type": "VISIBLE",
        "aliasList": [
          "13539"
        ],
        "actionId": 359,
        "isVisible": true,
        "_extraParam": ""
      },
      {
        "$type": "MoleMole.Config.ConfigVisibleInterAction",
        "type": "VISIBLE",
        "aliasList": [
          "13540"
        ],
        "actionId": 360,
        "isVisible": true,
        "_extraParam": ""
      },
      {
        "$type": "EFHODGEJOHJ",
        "type": "CAMERA_MOVE",
        "delayTime": 0.10000000149011612,
        "duration": 15.0,
        "actionId": 267,
        "camPosOffset": {
          "x": 4528.05517578125,
          "y": 159.4199981689453,
          "z": 4561.7568359375
        },
        "camForwardTargetOffset": {
          "x": 4527.06787109375,
          "y": 159.44500732421875,
          "z": 4561.9140625
        },
        "camFov": 35.0,
        "cameraBlendType": "EaseOutQuad",
        "MDKBPBJCMHH": {},
        "needZAxisRotate": true,
        "rotateAngle": 359.8680114746094,
        "openCameraDither": false,
        "targetNpcAlias": "",
        "closeTreeLeafDither": true,
        "PHGBNNGCJKJ": "",
        "NFILMKCFHEB": "",
        "BGPNGHDAECF": ""
      },
      {
        "$type": "IEKHMHNHENB",
        "type": "STEER_TO",
        "delayTime": 1.9950000047683716,
        "duration": 1.0,
        "aliasList": [
          "AvatarNpc"
        ],
        "actionId": 327,
        "_flag": 32,
        "steerType": "ABSOLUTE",
        "steerDir": {
          "x": 4515.19921875,
          "y": 157.99099731445312,
          "z": 4565.4150390625
        },
        "useSteerAnim": true,
        "interruptFreestyle": true,
        "forceSteer": true,
        "targetNpcAlias": "",
        "ignoreY": true,
        "fixInterNull": true,
        "BHGPHGNFCBF": ""
      },
      {
        "$type": "OBCDECFOOBC",
        "type": "DIALOG_SELECT",
        "delayTime": 2.0,
        "aliasList": [
          "AvatarNpc"
        ],
        "actionId": 152,
        "dialogIDList": [
          40100114
        ],
        "grpIDList": [
          3251413487
        ],
        "useGrpId": true,
        "countDownGrpId": 797620964
      },
      {
        "$type": "NPCNMEOCADD",
        "type": "LOOK_AT",
        "delayTime": 2.0460000038146973,
        "aliasList": [
          "AvatarNpc"
        ],
        "actionId": 297,
        "_flag": 64,
        "enableHead": true,
        "useTargetPos": true,
        "enableAbsolute": true,
        "targetPosition": {
          "x": 4514.76220703125,
          "y": 159.17300415039062,
          "z": 4565.91796875
        },
        "headTurnTime": 0.5,
        "targetNpcAlias": "",
        "lookAtTargetType": "NONE",
        "openBackProtect": true,
        "backProtectAngle": 10.0,
        "targetNpcLookAtPoint": "",
        "BHGPHGNFCBF": ""
      }
    ],
    [
      {
        "$type": "MoleMole.Config.ConfigTimeProtectAction",
        "type": "TIME_PROTECT",
        "duration": 0.20000000298023224,
        "actionId": 134
      }
    ],
    [
      {
        "$type": "MoleMole.Config.ConfigSimpleBlackScreenAction",
        "type": "SIMPLE_BLACK_SCREEN",
        "actionId": 135,
        "durationToBlack": 0.5,
        "durationKeepBlack": 1.5,
        "durationFromBlack": 0.5,
        "textMapID": ""
      },
      {
        "$type": "MoleMole.Config.ConfigTimeProtectAction",
        "type": "TIME_PROTECT",
        "duration": 0.699999988079071,
        "actionId": 136
      },
      {
        "$type": "MoleMole.Config.ConfigAudioPlayAction",
        "type": "AUDIO_PLAY",
        "actionId": 374,
        "audioEventStr": "Play_sfx_quest_DQAQ_4010_earthquake"
      },
      {
        "$type": "MoleMole.Config.ConfigTeleportToAction",
        "type": "TELEPORT_TO",
        "delayTime": 0.4000000059604645,
        "aliasList": [
          "1005"
        ],
        "actionId": 283,
        "position": {
          "x": 4518.03515625,
          "y": 157.99099731445312,
          "z": 4565.23486328125
        },
        "forward": {
          "x": -1.7999999523162842,
          "z": -6.038000106811523
        },
        "openLongDisTeleport": true,
        "syncForward": true,
        "_posBindMovingTargetKey": "",
        "_forwardBindMovingTargetKey": ""
      },
      {
        "$type": "EFHODGEJOHJ",
        "type": "CAMERA_MOVE",
        "delayTime": 0.5,
        "duration": 0.10000000149011612,
        "actionId": 147,
        "cameraPosType": "EXIT",
        "camForwardTargetOffset": {
          "z": 1.0
        },
        "camFov": 30.0,
        "lerpPattern": 5,
        "cameraBlendType": "EaseInOutCubic",
        "MDKBPBJCMHH": {},
        "openCameraDither": false,
        "targetNpcAlias": "",
        "closeTreeLeafDither": true,
        "PHGBNNGCJKJ": "",
        "NFILMKCFHEB": "",
        "BGPNGHDAECF": ""
      },
      {
        "$type": "MoleMole.Config.ConfigVisibleInterAction",
        "type": "VISIBLE",
        "delayTime": 0.6000000238418579,
        "aliasList": [
          "Avatar"
        ],
        "actionId": 157,
        "isVisible": true,
        "_extraParam": ""
      },
      {
        "$type": "EDCHPJLDKIN",
        "type": "BODY_LANG",
        "delayTime": 0.6000000238418579,
        "aliasList": [
          "AvatarNpc"
        ],
        "actionId": 156,
        "isContinue": true,
        "forceDoFreeStyle": true,
        "canDoRepeatFreeStyle": false,
        "eventPatternSuiteKey": ""
      },
      {
        "$type": "MoleMole.Config.ConfigVisibleInterAction",
        "type": "VISIBLE",
        "delayTime": 0.6000000238418579,
        "aliasList": [
          "AvatarNpc"
        ],
        "actionId": 376,
        "_extraParam": ""
      },
      {
        "$type": "EDCHPJLDKIN",
        "type": "BODY_LANG",
        "delayTime": 0.6000000238418579,
        "aliasList": [
          "1005"
        ],
        "actionId": 138,
        "isContinue": true,
        "forceDoFreeStyle": true,
        "canDoRepeatFreeStyle": false,
        "eventPatternSuiteKey": ""
      },
      {
        "$type": "EDCHPJLDKIN",
        "type": "BODY_LANG",
        "delayTime": 0.6000000238418579,
        "aliasList": [
          "13538"
        ],
        "actionId": 140,
        "isContinue": true,
        "forceDoFreeStyle": true,
        "canDoRepeatFreeStyle": false,
        "eventPatternSuiteKey": ""
      },
      {
        "$type": "EDCHPJLDKIN",
        "type": "BODY_LANG",
        "delayTime": 0.6000000238418579,
        "aliasList": [
          "13539"
        ],
        "actionId": 142,
        "isContinue": true,
        "forceDoFreeStyle": true,
        "canDoRepeatFreeStyle": false,
        "eventPatternSuiteKey": ""
      },
      {
        "$type": "EDCHPJLDKIN",
        "type": "BODY_LANG",
        "delayTime": 0.6000000238418579,
        "aliasList": [
          "13540"
        ],
        "actionId": 144,
        "isContinue": true,
        "forceDoFreeStyle": true,
        "canDoRepeatFreeStyle": false,
        "eventPatternSuiteKey": ""
      }
    ]
  ],
  "groupId": [
    {
      "grpId": 797620965,
      "nextGrpId": 797620966
    },
    {
      "index": 1,
      "grpId": 797620966,
      "nextGrpId": 797620967
    },
    {
      "index": 2,
      "grpId": 797620967,
      "nextGrpId": 797620968
    },
    {
      "index": 3,
      "grpId": 797620968,
      "nextGrpId": 797620969
    },
    {
      "index": 4,
      "grpId": 797620969,
      "nextGrpId": 797620970
    },
    {
      "index": 5,
      "grpId": 797620970,
      "nextGrpId": 797620971
    },
    {
      "index": 6,
      "grpId": 797620971,
      "nextGrpId": 797620972
    },
    {
      "index": 7,
      "grpId": 797620972,
      "nextGrpId": 797620973
    },
    {
      "index": 8,
      "grpId": 797620973,
      "nextGrpId": 3251413483
    },
    {
      "index": 9,
      "grpId": 3251413483,
      "nextGrpId": 3251413484
    },
    {
      "index": 10,
      "grpId": 3251413484,
      "nextGrpId": 3251413485
    },
    {
      "index": 11,
      "grpId": 3251413485,
      "nextGrpId": 3251413486
    },
    {
      "index": 12,
      "grpId": 3251413486,
      "nextGrpId": 3251413487
    },
    {
      "index": 13,
      "grpId": 3251413487,
      "nextGrpId": 3251413488
    },
    {
      "index": 14,
      "grpId": 3251413488,
      "nextGrpId": 3251413489
    }
  ],
  "freeStyleDic": {
    "1025": [
      4030,
      1171,
      4040,
      4121,
      1090,
      1050
    ],
    "1026": [
      4030,
      1171,
      4040,
      4121,
      1090,
      1050
    ],
    "13538": [],
    "13539": [],
    "13540": []
  },
  "GHHKLKIGEOD": {
    "AvatarNpc": [
      "SitChat01AS",
      "SitHoldArm01AS",
      "SitShrug01AS",
      "SitThink01AS"
    ]
  }
}