{
  "ConfigFDKXY": {
    "conditionDefines": {
      "trackArea": {
        "$type": "JNAKLBCOBJG"
      }
    },
    "actionDefines": {
      "updateArea": {
        "$type": "OADIEGOAOJD",
        "actions": [
          {
            "$type": "HMMFFEMIHCB",
            "uiElement": "ButtonGoto",
            "active": true
          },
          {
            "$type": "LNPFACKDNLD",
            "uiElement": "ButtonGoto",
            "textMap": "UI_ACTIVITY_NEW_REGION_UNLOCK_BUTTON"
          }
        ]
      },
      "clickTrackArea": {
        "$type": "OADIEGOAOJD",
        "actions": [
          {
            "$type": "BKICBEHFNIE",
            "pointId": 814,
            "sceneId": 3
          },
          {
            "$type": "DCAODKPPEOK",
            "activityId": 5163,
            "buttonId": 2,
            "scheduleId": 5163001,
            "additionalInfo": ""
          },
          {
            "$type": "CAJOJECKEAB",
            "uiElement": "Animator",
            "triggerName": "FadeOut",
            "setOrReset": true
          }
        ]
      }
    },
    "updateGroups": [
      {
        "conditionName": "trackArea",
        "actionName": "updateArea"
      }
    ],
    "clickGroups": [
      {
        "conditionName": "trackArea",
        "actionName": "clickTrackArea"
      }
    ]
  }
}