{
  "ConfigGolemCentaur": {
    "conditionDefines": {
      "MD3MQUnfinished": {
        "$type": "HCKJMHDKPHF",
        "condition": {
          "$type": "AHHJDIALHNF",
          "mainQuestId": 396,
          "state": "QUEST_STATE_FINISHED"
        }
      },
      "Mark1": {
        "$type": "JNAKLBCOBJG",
        "conditions": [
          {
            "$type": "HCKJMHDKPHF",
            "condition": {
              "$type": "PBBANJIGCMA",
              "questId": 7418402,
              "state": "QUEST_STATE_FINISHED"
            }
          },
          {
            "$type": "DGGCLJMJDIL",
            "mainQuestId": 74184
          },
          {
            "$type": "HCKJMHDKPHF",
            "condition": {
              "$type": "AHHJDIALHNF",
              "mainQuestId": 74184,
              "state": "QUEST_STATE_FINISHED"
            }
          }
        ]
      },
      "WQQuestVisible": {
        "$type": "JNAKLBCOBJG",
        "conditions": [
          {
            "$type": "DGGCLJMJDIL",
            "mainQuestId": 74184,
            "LJBECOMGDEJ": true
          }
        ]
      },
      "BOSSAppear": {
        "$type": "JNAKLBCOBJG",
        "conditions": [
          {
            "$type": "AHHJDIALHNF",
            "mainQuestId": 74184,
            "state": "QUEST_STATE_FINISHED"
          }
        ]
      }
    },
    "actionDefines": {
      "ShowRedBar": {
        "$type": "OADIEGOAOJD",
        "actions": [
          {
            "$type": "HMMFFEMIHCB",
            "uiElement": "UnlockTips",
            "active": true
          },
          {
            "$type": "LNPFACKDNLD",
            "uiElement": "UnlockTips",
            "textMap": "UI_ACTIVITY_GOLEM_CENTAUR_REDBAR"
          },
          {
            "$type": "HMMFFEMIHCB",
            "uiElement": "ButtonGoto"
          },
          {
            "$type": "HMMFFEMIHCB",
            "uiElement": "InfoTips"
          }
        ]
      },
      "ShowYellowBar": {
        "$type": "OADIEGOAOJD",
        "actions": [
          {
            "$type": "HMMFFEMIHCB",
            "uiElement": "InfoTips",
            "active": true
          },
          {
            "$type": "CEHMBBDJLIM",
            "uiElement": "InfoTips",
            "textMap": "UI_ACTIVITY_GOLEM_CENTAUR_YELLOWBAR",
            "mainQuestId": 74184
          },
          {
            "$type": "HMMFFEMIHCB",
            "uiElement": "ButtonGoto",
            "active": true
          },
          {
            "$type": "LNPFACKDNLD",
            "uiElement": "ButtonGoto",
            "textMap": "UI_ACTIVITY_QUEST_GOTO_BUTTON"
          },
          {
            "$type": "HMMFFEMIHCB",
            "uiElement": "UnlockTips"
          }
        ]
      },
      "ShowGotoBoss": {
        "$type": "OADIEGOAOJD",
        "actions": [
          {
            "$type": "HMMFFEMIHCB",
            "uiElement": "UnlockTips"
          },
          {
            "$type": "HMMFFEMIHCB",
            "uiElement": "InfoTips"
          },
          {
            "$type": "HMMFFEMIHCB",
            "uiElement": "ButtonGoto",
            "active": true
          },
          {
            "$type": "LNPFACKDNLD",
            "uiElement": "ButtonGoto",
            "textMap": "UI_ACTIVITY_CHALLENGE_GOTO_BUTTON"
          }
        ]
      },
      "GotoWQMark1": {
        "$type": "OADIEGOAOJD",
        "actions": [
          {
            "$type": "DCAODKPPEOK",
            "activityId": 5195,
            "buttonId": 2,
            "scheduleId": 5195001,
            "additionalInfo": "74184"
          },
          {
            "$type": "ILMIOFHCAOG",
            "configId": 519501
          }
        ]
      },
      "SelectQuest": {
        "$type": "OADIEGOAOJD",
        "actions": [
          {
            "$type": "DCAODKPPEOK",
            "activityId": 5195,
            "buttonId": 2,
            "scheduleId": 5195001,
            "additionalInfo": "74184"
          },
          {
            "$type": "MKIBIGLNFMF",
            "mainQuestId": 74184
          }
        ]
      },
      "ShowBOSSMark": {
        "$type": "OADIEGOAOJD",
        "actions": [
          {
            "$type": "APGOBCJNMMI",
            "monsterId": 66
          },
          {
            "$type": "DCAODKPPEOK",
            "activityId": 5195,
            "buttonId": 3,
            "scheduleId": 5195001,
            "additionalInfo": ""
          }
        ]
      }
    },
    "updateGroups": [
      {
        "conditionName": "MD3MQUnfinished",
        "actionName": "ShowRedBar"
      },
      {
        "conditionName": "Mark1",
        "actionName": "ShowYellowBar"
      },
      {
        "conditionName": "WQQuestVisible",
        "actionName": "ShowYellowBar"
      },
      {
        "conditionName": "BOSSAppear",
        "actionName": "ShowGotoBoss"
      }
    ],
    "clickGroups": [
      {
        "conditionName": "Mark1",
        "actionName": "GotoWQMark1"
      },
      {
        "conditionName": "WQQuestVisible",
        "actionName": "SelectQuest"
      },
      {
        "conditionName": "BOSSAppear",
        "actionName": "ShowBOSSMark"
      }
    ]
  }
}