{
  "points": {
    "1": {
      "$type": "LNAKBOHDJCM",
      "gadgetId": 70120004,
      "pos": {
        "x": 4335.9111328125,
        "y": 101.27100372314453,
        "z": 4702.744140625
      },
      "rot": {
        "y": 218.5238037109375
      },
      "tranPos": {
        "x": 20.554122924804688,
        "y": 0.46000051498413086,
        "z": -21.35207748413086
      },
      "specialTipsIconPath": "",
      "size": {
        "x": 5.0,
        "y": 5.0,
        "z": 5.0
      }
    }
  },
  "PKMCOKMHOGL": {}
}