{
  "points": {
    "1": {
      "$type": "LNAKBOHDJCM",
      "gadgetId": 70120004,
      "pos": {
        "x": 14.817130088806152,
        "y": 0.12388700246810913,
        "z": -30.257469177246094
      },
      "unlocked": true,
      "specialTipsIconPath": "",
      "size": {
        "x": 5.0,
        "y": 5.0,
        "z": 5.0
      }
    }
  },
  "PKMCOKMHOGL": {}
}