{
  "points": {
    "1": {
      "$type": "LNAKBOHDJCM",
      "gadgetId": 70360001,
      "pos": {
        "x": 34.44301986694336,
        "y": -4.003147125244141,
        "z": 8.848396301269531
      },
      "unlocked": true,
      "specialTipsIconPath": "",
      "size": {
        "x": 1.0,
        "y": 1.0,
        "z": 1.0
      }
    }
  },
  "PKMCOKMHOGL": {}
}