{
  "points": {
    "1": {
      "$type": "LNAKBOHDJCM",
      "gadgetId": 70120004,
      "pos": {
        "x": -302.87701416015625,
        "y": 31.624820709228516,
        "z": 170.48959350585938
      },
      "rot": {
        "y": 90.0
      },
      "unlocked": true,
      "specialTipsIconPath": "",
      "size": {
        "x": 5.0,
        "y": 5.0,
        "z": 5.0
      }
    },
    "2": {
      "$type": "EMMKFBPEKBO",
      "gadgetId": 70120003,
      "pos": {
        "x": -184.18499755859375,
        "y": 25.284059524536133,
        "z": 151.7534942626953
      },
      "rot": {
        "y": 270.0
      },
      "unlocked": true,
      "specialTipsIconPath": "",
      "size": {
        "x": 10.0,
        "y": 5.0,
        "z": 30.0
      }
    },
    "3": {
      "$type": "EMMKFBPEKBO",
      "gadgetId": 70120003,
      "pos": {
        "x": -264.0281066894531,
        "y": 31.22433090209961,
        "z": 183.91749572753906
      },
      "rot": {
        "y": 234.3336944580078
      },
      "unlocked": true,
      "specialTipsIconPath": "",
      "size": {
        "x": 10.0,
        "y": 10.0,
        "z": 10.0
      }
    }
  },
  "entities": {
    "1": {
      "$type": "CKFMNEGHAAA",
      "gadgetId": 40000007,
      "pos": {
        "x": -124.13780212402344,
        "y": 9.879530906677246,
        "z": 43.738651275634766
      },
      "unlocked": true,
      "specialTipsIconPath": "",
      "checkDist": 500.0,
      "withGO": true,
      "triggerFlag": "DeadRegion",
      "shape": {
        "$type": "EHOAKHCMJJG",
        "useHeight": true,
        "height": 10.0,
        "centerType": "Center",
        "width": 100.0,
        "length": 100.0
      },
      "floatParam": 0.10000000149011612,
      "stringParam": "",
      "GKKIDIIHHKF": {}
    },
    "10": {
      "$type": "CKFMNEGHAAA",
      "gadgetId": 40000007,
      "pos": {
        "x": -207.6824951171875,
        "y": 1.5010470151901245,
        "z": 50.77288818359375
      },
      "unlocked": true,
      "specialTipsIconPath": "",
      "checkDist": 500.0,
      "withGO": true,
      "triggerFlag": "NoReviveRegion",
      "shape": {
        "$type": "EHOAKHCMJJG",
        "useHeight": true,
        "height": 36.75,
        "centerType": "Center",
        "width": 251.89999389648438,
        "length": 256.6000061035156
      },
      "stringParam": "",
      "GKKIDIIHHKF": {}
    },
    "11": {
      "$type": "CKFMNEGHAAA",
      "gadgetId": 40000007,
      "pos": {
        "x": -140.59469604492188,
        "y": 21.57076072692871,
        "z": -23.19852066040039
      },
      "unlocked": true,
      "specialTipsIconPath": "",
      "checkDist": 500.0,
      "withGO": true,
      "triggerFlag": "NoReviveRegion",
      "shape": {
        "$type": "EHOAKHCMJJG",
        "useHeight": true,
        "height": 156.89999389648438,
        "centerType": "Center",
        "width": 153.39999389648438,
        "length": 82.30000305175781
      },
      "stringParam": "",
      "GKKIDIIHHKF": {}
    },
    "12": {
      "$type": "CKFMNEGHAAA",
      "gadgetId": 40000007,
      "pos": {
        "x": 26.141830444335938,
        "y": 4.435791969299316,
        "z": -66.84805297851562
      },
      "unlocked": true,
      "specialTipsIconPath": "",
      "checkDist": 500.0,
      "withGO": true,
      "triggerFlag": "NoReviveRegion",
      "shape": {
        "$type": "EHOAKHCMJJG",
        "useHeight": true,
        "height": 156.89999389648438,
        "centerType": "Center",
        "width": 153.39999389648438,
        "length": 82.30000305175781
      },
      "stringParam": "",
      "GKKIDIIHHKF": {}
    },
    "13": {
      "$type": "CKFMNEGHAAA",
      "gadgetId": 40000007,
      "pos": {
        "x": 11.242670059204102,
        "y": 4.46860408782959,
        "z": 64.82264709472656
      },
      "unlocked": true,
      "specialTipsIconPath": "",
      "checkDist": 500.0,
      "withGO": true,
      "triggerFlag": "NoReviveRegion",
      "shape": {
        "$type": "EHOAKHCMJJG",
        "useHeight": true,
        "height": 156.89999389648438,
        "centerType": "Center",
        "width": 153.39999389648438,
        "length": 82.30000305175781
      },
      "stringParam": "",
      "GKKIDIIHHKF": {}
    },
    "14": {
      "$type": "CKFMNEGHAAA",
      "gadgetId": 40000007,
      "pos": {
        "x": 25.43695068359375,
        "y": -82.57981872558594,
        "z": 1.7550749778747559
      },
      "unlocked": true,
      "specialTipsIconPath": "",
      "checkDist": 500.0,
      "withGO": true,
      "triggerFlag": "NoReviveRegion",
      "shape": {
        "$type": "EHOAKHCMJJG",
        "useHeight": true,
        "height": 156.89999389648438,
        "centerType": "Center",
        "width": 161.1999969482422,
        "length": 191.39999389648438
      },
      "stringParam": "",
      "GKKIDIIHHKF": {}
    },
    "15": {
      "$type": "CKFMNEGHAAA",
      "gadgetId": 40000007,
      "pos": {
        "x": -62.803321838378906,
        "y": 19.756790161132812,
        "z": 38.457210540771484
      },
      "unlocked": true,
      "specialTipsIconPath": "",
      "checkDist": 500.0,
      "withGO": true,
      "triggerFlag": "ReturnRegion",
      "shape": {
        "$type": "EHOAKHCMJJG",
        "useHeight": true,
        "height": 24.100000381469727,
        "centerType": "Center",
        "width": -17.399999618530273,
        "length": -9.699999809265137
      },
      "floatParam": 2.0,
      "stringParam": "",
      "GKKIDIIHHKF": {}
    },
    "16": {
      "$type": "CKFMNEGHAAA",
      "gadgetId": 40000007,
      "pos": {
        "x": -56.91701126098633,
        "y": 16.91452980041504,
        "z": 49.3124885559082
      },
      "unlocked": true,
      "specialTipsIconPath": "",
      "checkDist": 500.0,
      "withGO": true,
      "triggerFlag": "NoReviveRegion",
      "shape": {
        "$type": "EHOAKHCMJJG",
        "useHeight": true,
        "height": 37.709999084472656,
        "centerType": "Center",
        "width": 35.70000076293945,
        "length": 52.25
      },
      "stringParam": "",
      "GKKIDIIHHKF": {}
    },
    "17": {
      "$type": "CKFMNEGHAAA",
      "gadgetId": 70010006,
      "pos": {
        "x": -67.936279296875,
        "y": 11.536820411682129,
        "z": 21.828420639038086
      },
      "unlocked": true,
      "specialTipsIconPath": "",
      "checkDist": 500.0,
      "withGO": true,
      "triggerFlag": "DeadRegion",
      "shape": {
        "$type": "EHOAKHCMJJG",
        "useHeight": true,
        "height": 10.0,
        "centerType": "Center",
        "width": 10.0,
        "length": 10.0
      },
      "vectorParam": {
        "x": 10.0,
        "y": 10.0,
        "z": 10.0
      },
      "stringParam": "",
      "GKKIDIIHHKF": {}
    },
    "2": {
      "$type": "CKFMNEGHAAA",
      "gadgetId": 70010006,
      "pos": {
        "x": -111.95870208740234,
        "y": 14.509490013122559,
        "z": 44.19929122924805
      },
      "unlocked": true,
      "specialTipsIconPath": "",
      "checkDist": 500.0,
      "withGO": true,
      "triggerFlag": "DeadRegion",
      "shape": {
        "$type": "EHOAKHCMJJG",
        "useHeight": true,
        "height": 10.0,
        "centerType": "Center",
        "width": 20.190000534057617,
        "length": 59.369998931884766
      },
      "vectorParam": {
        "x": 10.0,
        "y": 10.0,
        "z": 10.0
      },
      "stringParam": "",
      "GKKIDIIHHKF": {}
    },
    "3": {
      "$type": "CKFMNEGHAAA",
      "gadgetId": 40000007,
      "pos": {
        "x": -97.10489654541016,
        "y": -4.885361194610596,
        "z": 58.834590911865234
      },
      "unlocked": true,
      "specialTipsIconPath": "",
      "checkDist": 500.0,
      "withGO": true,
      "triggerFlag": "NoReviveRegion",
      "shape": {
        "$type": "EHOAKHCMJJG",
        "useHeight": true,
        "height": 67.04000091552734,
        "centerType": "Center",
        "width": 53.5,
        "length": 70.69999694824219
      },
      "stringParam": "",
      "GKKIDIIHHKF": {}
    },
    "4": {
      "$type": "CKFMNEGHAAA",
      "gadgetId": 70010006,
      "pos": {
        "x": -177.9564971923828,
        "y": 21.612030029296875,
        "z": 11.615679740905762
      },
      "unlocked": true,
      "specialTipsIconPath": "",
      "checkDist": 500.0,
      "withGO": true,
      "triggerFlag": "ReturnRegion",
      "shape": {
        "$type": "GLNLJIJMDJD",
        "height": 2.0,
        "radius": 3.109999895095825
      },
      "vectorParam": {
        "x": 5.0,
        "y": 5.0,
        "z": 5.0
      },
      "floatParam": 4.0,
      "stringParam": "",
      "GKKIDIIHHKF": {}
    },
    "5": {
      "$type": "CKFMNEGHAAA",
      "gadgetId": 70010006,
      "pos": {
        "x": -168.4770965576172,
        "y": 21.596389770507812,
        "z": 78.58795928955078
      },
      "unlocked": true,
      "specialTipsIconPath": "",
      "checkDist": 500.0,
      "withGO": true,
      "triggerFlag": "ReturnRegion",
      "shape": {
        "$type": "GLNLJIJMDJD",
        "height": 2.0,
        "radius": 3.109999895095825
      },
      "vectorParam": {
        "x": 5.0,
        "y": 5.0,
        "z": 5.0
      },
      "floatParam": 4.0,
      "stringParam": "",
      "GKKIDIIHHKF": {}
    },
    "6": {
      "$type": "CKFMNEGHAAA",
      "gadgetId": 70010006,
      "pos": {
        "x": -168.60569763183594,
        "y": 18.64143943786621,
        "z": 92.14069366455078
      },
      "unlocked": true,
      "specialTipsIconPath": "",
      "checkDist": 500.0,
      "withGO": true,
      "triggerFlag": "ReturnRegion",
      "shape": {
        "$type": "EHOAKHCMJJG",
        "useHeight": true,
        "height": 15.8100004196167,
        "centerType": "Center",
        "width": 3.880000114440918,
        "length": 33.900001525878906
      },
      "vectorParam": {
        "x": 5.0,
        "y": 5.0,
        "z": 5.0
      },
      "floatParam": 2.0,
      "stringParam": "",
      "GKKIDIIHHKF": {}
    },
    "7": {
      "$type": "CKFMNEGHAAA",
      "gadgetId": 70010006,
      "pos": {
        "x": -151.11880493164062,
        "y": 41.1380500793457,
        "z": 101.94560241699219
      },
      "unlocked": true,
      "specialTipsIconPath": "",
      "checkDist": 500.0,
      "withGO": true,
      "triggerFlag": "ReturnRegion",
      "shape": {
        "$type": "EHOAKHCMJJG",
        "useHeight": true,
        "height": 7.800000190734863,
        "centerType": "Center",
        "width": 8.800000190734863,
        "length": 15.720000267028809
      },
      "vectorParam": {
        "x": 5.0,
        "y": 5.0,
        "z": 5.0
      },
      "floatParam": 2.0,
      "stringParam": "",
      "GKKIDIIHHKF": {}
    },
    "8": {
      "$type": "CKFMNEGHAAA",
      "gadgetId": 70010006,
      "pos": {
        "x": -328.981201171875,
        "y": 40.51831817626953,
        "z": 174.59219360351562
      },
      "unlocked": true,
      "specialTipsIconPath": "",
      "checkDist": 500.0,
      "withGO": true,
      "triggerFlag": "ReturnRegion",
      "shape": {
        "$type": "EHOAKHCMJJG",
        "useHeight": true,
        "height": 28.610000610351562,
        "centerType": "Center",
        "width": 2.5999999046325684,
        "length": 72.0
      },
      "vectorParam": {
        "x": 5.0,
        "y": 5.0,
        "z": 5.0
      },
      "floatParam": 2.0,
      "stringParam": "",
      "GKKIDIIHHKF": {}
    },
    "9": {
      "$type": "CKFMNEGHAAA",
      "gadgetId": 70010006,
      "pos": {
        "x": -191.70260620117188,
        "y": 28.8441104888916,
        "z": 199.5740966796875
      },
      "unlocked": true,
      "specialTipsIconPath": "",
      "checkDist": 500.0,
      "withGO": true,
      "triggerFlag": "ReturnRegion",
      "shape": {
        "$type": "EHOAKHCMJJG",
        "useHeight": true,
        "height": 28.610000610351562,
        "centerType": "Center",
        "width": 11.899999618530273,
        "length": 0.30000001192092896
      },
      "vectorParam": {
        "x": 5.0,
        "y": 5.0,
        "z": 5.0
      },
      "floatParam": 2.0,
      "stringParam": "",
      "GKKIDIIHHKF": {}
    }
  },
  "PKMCOKMHOGL": {}
}