{
  "points": {
    "1": {
      "$type": "LNAKBOHDJCM",
      "gadgetId": 70120004,
      "pos": {
        "x": 191.46389770507812,
        "y": 58.9175910949707,
        "z": 399.7567138671875
      },
      "unlocked": true,
      "specialTipsIconPath": ""
    },
    "2": {
      "$type": "EMMKFBPEKBO",
      "gadgetId": 70120003,
      "pos": {
        "x": 203.2884979248047,
        "y": 58.47185134887695,
        "z": 351.1246032714844
      },
      "unlocked": true,
      "specialTipsIconPath": "",
      "size": {
        "x": 60.0,
        "y": 15.0,
        "z": 10.0
      }
    },
    "3": {
      "$type": "EMMKFBPEKBO",
      "gadgetId": 70120003,
      "pos": {
        "x": 204.39939880371094,
        "y": 50.51634979248047,
        "z": 293.53131103515625
      },
      "unlocked": true,
      "specialTipsIconPath": "",
      "size": {
        "x": 60.0,
        "y": 15.0,
        "z": 10.0
      }
    },
    "5": {
      "$type": "EMMKFBPEKBO",
      "gadgetId": 70120003,
      "pos": {
        "x": 64.48458862304688,
        "y": 39.51642990112305,
        "z": 113.37950134277344
      },
      "unlocked": true,
      "specialTipsIconPath": "",
      "size": {
        "x": 20.0,
        "y": 15.0,
        "z": 20.0
      }
    }
  },
  "forces": {
    "1": {
      "$type": "MIHBFBGHMLF",
      "gadgetId": 70610102,
      "pos": {
        "x": 188.43380737304688,
        "y": 23.796310424804688,
        "z": 201.46640014648438
      },
      "specialTipsIconPath": "",
      "velocity": 10.0,
      "stayEffect": "Eff_Windfield_Stay",
      "enterEffect": "Eff_Windfield_Enter"
    },
    "2": {
      "$type": "MIHBFBGHMLF",
      "gadgetId": 70610102,
      "pos": {
        "x": 186.7866973876953,
        "y": 25.222789764404297,
        "z": 237.37669372558594
      },
      "specialTipsIconPath": "",
      "velocity": 10.0,
      "stayEffect": "Eff_Windfield_Stay",
      "enterEffect": "Eff_Windfield_Enter"
    }
  },
  "entities": {
    "1": {
      "$type": "CKFMNEGHAAA",
      "gadgetId": 70010006,
      "pos": {
        "x": 72.70216369628906,
        "y": 3.306830883026123,
        "z": 176.16419982910156
      },
      "unlocked": true,
      "specialTipsIconPath": "",
      "checkDist": 500.0,
      "withGO": true,
      "triggerFlag": "DeadRegion",
      "shape": {
        "$type": "EHOAKHCMJJG",
        "useHeight": true,
        "height": 50.0,
        "centerType": "Center",
        "width": 500.0,
        "length": 500.0
      },
      "stringParam": "",
      "GKKIDIIHHKF": {}
    }
  },
  "PKMCOKMHOGL": {}
}