{
  "points": {
    "2": {
      "$type": "EMMKFBPEKBO",
      "gadgetId": 70120003,
      "pos": {
        "x": -81.67771911621094,
        "y": -8.112738609313965,
        "z": 95.71053314208984
      },
      "unlocked": true,
      "specialTipsIconPath": "",
      "size": {
        "x": 20.0,
        "y": 5.0,
        "z": 15.0
      }
    },
    "3": {
      "$type": "EMMKFBPEKBO",
      "gadgetId": 70120003,
      "pos": {
        "x": -109.8051986694336,
        "y": -12.578749656677246,
        "z": 131.9980926513672
      },
      "rot": {
        "y": 268.2842102050781
      },
      "unlocked": true,
      "specialTipsIconPath": "",
      "size": {
        "x": 25.0,
        "y": 15.0,
        "z": 6.0
      }
    },
    "4": {
      "$type": "EMMKFBPEKBO",
      "gadgetId": 70120003,
      "pos": {
        "x": -151.84230041503906,
        "y": 14.516449928283691,
        "z": 67.61869049072266
      },
      "rot": {
        "y": 90.0
      },
      "unlocked": true,
      "specialTipsIconPath": "",
      "size": {
        "x": 20.0,
        "y": 10.0,
        "z": 10.0
      }
    },
    "5": {
      "$type": "LNAKBOHDJCM",
      "gadgetId": 70120004,
      "pos": {
        "x": -142.28500366210938,
        "y": 18.016420364379883,
        "z": 39.90011978149414
      },
      "unlocked": true,
      "specialTipsIconPath": "",
      "size": {
        "x": 5.0,
        "y": 5.0,
        "z": 5.0
      }
    }
  },
  "entities": {
    "26": {
      "$type": "CKFMNEGHAAA",
      "gadgetId": 70010006,
      "pos": {
        "x": -108.69999694824219,
        "y": 3.299999952316284,
        "z": 34.900001525878906
      },
      "unlocked": true,
      "specialTipsIconPath": "",
      "triggerFlag": "ReturnRegion",
      "shape": {
        "$type": "EHOAKHCMJJG",
        "useHeight": true,
        "height": 100.0,
        "centerType": "Center",
        "width": 5.0,
        "length": 150.0
      },
      "floatParam": 15.0,
      "stringParam": "",
      "GKKIDIIHHKF": {}
    },
    "27": {
      "$type": "CKFMNEGHAAA",
      "gadgetId": 70010006,
      "pos": {
        "x": -186.8000030517578,
        "y": -12.427510261535645,
        "z": 48.400001525878906
      },
      "unlocked": true,
      "specialTipsIconPath": "",
      "triggerFlag": "ReturnRegion",
      "shape": {
        "$type": "EHOAKHCMJJG",
        "useHeight": true,
        "height": 200.0,
        "centerType": "Center",
        "width": 5.0,
        "length": 300.0
      },
      "floatParam": 15.0,
      "stringParam": "",
      "GKKIDIIHHKF": {}
    },
    "28": {
      "$type": "CKFMNEGHAAA",
      "gadgetId": 70010006,
      "pos": {
        "x": -85.19999694824219,
        "y": -15.483489990234375,
        "z": 163.8000030517578
      },
      "unlocked": true,
      "specialTipsIconPath": "",
      "triggerFlag": "ReturnRegion",
      "shape": {
        "$type": "EHOAKHCMJJG",
        "useHeight": true,
        "height": 200.0,
        "centerType": "Center",
        "width": 200.0,
        "length": 5.0
      },
      "floatParam": 15.0,
      "stringParam": "",
      "GKKIDIIHHKF": {}
    },
    "29": {
      "$type": "CKFMNEGHAAA",
      "gadgetId": 70010006,
      "pos": {
        "x": 3.0,
        "y": -8.000478744506836,
        "z": 97.28019714355469
      },
      "unlocked": true,
      "specialTipsIconPath": "",
      "triggerFlag": "ReturnRegion",
      "shape": {
        "$type": "EHOAKHCMJJG",
        "useHeight": true,
        "height": 200.0,
        "centerType": "Center",
        "width": 20.0,
        "length": 200.0
      },
      "floatParam": 15.0,
      "stringParam": "",
      "GKKIDIIHHKF": {}
    },
    "30": {
      "$type": "CKFMNEGHAAA",
      "gadgetId": 70010006,
      "pos": {
        "x": -153.60000610351562,
        "y": 18.016380310058594,
        "z": 11.630000114440918
      },
      "unlocked": true,
      "specialTipsIconPath": "",
      "triggerFlag": "ReturnRegion",
      "shape": {
        "$type": "EHOAKHCMJJG",
        "useHeight": true,
        "height": 200.0,
        "centerType": "Center",
        "width": 100.0,
        "length": 5.0
      },
      "floatParam": 15.0,
      "stringParam": "",
      "GKKIDIIHHKF": {}
    },
    "31": {
      "$type": "CKFMNEGHAAA",
      "gadgetId": 70010006,
      "pos": {
        "x": -39.79999923706055,
        "y": -7.983790874481201,
        "z": 50.81999969482422
      },
      "unlocked": true,
      "specialTipsIconPath": "",
      "triggerFlag": "ReturnRegion",
      "shape": {
        "$type": "EHOAKHCMJJG",
        "useHeight": true,
        "height": 200.0,
        "centerType": "Center",
        "width": 150.0,
        "length": 5.0
      },
      "floatParam": 15.0,
      "stringParam": "",
      "GKKIDIIHHKF": {}
    },
    "32": {
      "$type": "CKFMNEGHAAA",
      "gadgetId": 70010006,
      "pos": {
        "x": -66.82833099365234,
        "y": -11.05642032623291,
        "z": 113.32360076904297
      },
      "unlocked": true,
      "specialTipsIconPath": "",
      "checkDist": 500.0,
      "withGO": true,
      "triggerFlag": "Teleport",
      "shape": {
        "$type": "EHOAKHCMJJG",
        "useHeight": true,
        "height": 2.0,
        "centerType": "Center",
        "width": 3.990000009536743,
        "length": 27.200000762939453
      },
      "vectorParam": {
        "x": -63.70000076293945,
        "y": -6.599999904632568,
        "z": 95.26000213623047
      },
      "floatParam": -90.0,
      "stringParam": "",
      "GKKIDIIHHKF": {}
    },
    "34": {
      "$type": "CKFMNEGHAAA",
      "gadgetId": 70010006,
      "pos": {
        "x": -152.34320068359375,
        "y": -19.03816032409668,
        "z": 35.31468963623047
      },
      "unlocked": true,
      "specialTipsIconPath": "",
      "triggerFlag": "DeadRegion",
      "shape": {
        "$type": "EHOAKHCMJJG",
        "useHeight": true,
        "height": 48.959999084472656,
        "centerType": "Center",
        "width": 77.54000091552734,
        "length": 75.6500015258789
      },
      "stringParam": "",
      "GKKIDIIHHKF": {}
    },
    "35": {
      "$type": "CKFMNEGHAAA",
      "gadgetId": 70010006,
      "pos": {
        "x": -139.80499267578125,
        "y": -6.60994291305542,
        "z": 6.5274481773376465
      },
      "unlocked": true,
      "specialTipsIconPath": "",
      "checkDist": 500.0,
      "withGO": true,
      "triggerFlag": "DeadRegion",
      "shape": {
        "$type": "EHOAKHCMJJG",
        "useHeight": true,
        "height": 200.0,
        "centerType": "Center",
        "width": 200.0,
        "length": 50.0
      },
      "stringParam": "",
      "GKKIDIIHHKF": {}
    },
    "36": {
      "$type": "CKFMNEGHAAA",
      "gadgetId": 70010006,
      "pos": {
        "x": -171.45509338378906,
        "y": 9.596970558166504,
        "z": 17.3322696685791
      },
      "unlocked": true,
      "specialTipsIconPath": "",
      "checkDist": 500.0,
      "withGO": true,
      "triggerFlag": "DeadRegion",
      "shape": {
        "$type": "EHOAKHCMJJG",
        "useHeight": true,
        "height": 200.0,
        "centerType": "Center",
        "width": 20.0,
        "length": 100.0
      },
      "stringParam": "",
      "GKKIDIIHHKF": {}
    },
    "37": {
      "$type": "CKFMNEGHAAA",
      "gadgetId": 70010006,
      "pos": {
        "x": -121.87049865722656,
        "y": -5.830371856689453,
        "z": 11.958649635314941
      },
      "unlocked": true,
      "specialTipsIconPath": "",
      "checkDist": 500.0,
      "withGO": true,
      "triggerFlag": "DeadRegion",
      "shape": {
        "$type": "EHOAKHCMJJG",
        "useHeight": true,
        "height": 200.0,
        "centerType": "Center",
        "width": 20.0,
        "length": 100.0
      },
      "stringParam": "",
      "GKKIDIIHHKF": {}
    },
    "38": {
      "$type": "CKFMNEGHAAA",
      "gadgetId": 70010006,
      "pos": {
        "x": -166.0290069580078,
        "y": -33.583980560302734,
        "z": 35.47254180908203
      },
      "unlocked": true,
      "specialTipsIconPath": "",
      "checkDist": 500.0,
      "withGO": true,
      "triggerFlag": "DeadRegion",
      "shape": {
        "$type": "EHOAKHCMJJG",
        "useHeight": true,
        "height": 50.0,
        "centerType": "Center",
        "width": 100.0,
        "length": 100.0
      },
      "stringParam": "",
      "GKKIDIIHHKF": {}
    },
    "39": {
      "$type": "CKFMNEGHAAA",
      "gadgetId": 70010006,
      "pos": {
        "x": -165.1011962890625,
        "y": -25.575679779052734,
        "z": 27.455150604248047
      },
      "unlocked": true,
      "specialTipsIconPath": "",
      "checkDist": 500.0,
      "withGO": true,
      "triggerFlag": "DeadRegion",
      "shape": {
        "$type": "EHOAKHCMJJG",
        "useHeight": true,
        "height": 50.0,
        "centerType": "Center",
        "width": 100.0,
        "length": 100.0
      },
      "stringParam": "",
      "GKKIDIIHHKF": {}
    },
    "4": {
      "$type": "CKFMNEGHAAA",
      "gadgetId": 70010006,
      "pos": {
        "x": -82.9000015258789,
        "y": -35.93587112426758,
        "z": 96.80000305175781
      },
      "unlocked": true,
      "specialTipsIconPath": "",
      "triggerFlag": "DeadRegion",
      "shape": {
        "$type": "EHOAKHCMJJG",
        "useHeight": true,
        "height": 29.549999237060547,
        "centerType": "Center",
        "width": 221.1999969482422,
        "length": 206.10000610351562
      },
      "stringParam": "",
      "GKKIDIIHHKF": {}
    },
    "40": {
      "$type": "CKFMNEGHAAA",
      "gadgetId": 70010006,
      "pos": {
        "x": -18.053550720214844,
        "y": -9.510967254638672,
        "z": 130.02670288085938
      },
      "unlocked": true,
      "specialTipsIconPath": "",
      "checkDist": 500.0,
      "withGO": true,
      "triggerFlag": "DeadRegion",
      "shape": {
        "$type": "EHOAKHCMJJG",
        "useHeight": true,
        "height": 20.0,
        "centerType": "Center",
        "width": 50.0,
        "length": 50.0
      },
      "stringParam": "",
      "GKKIDIIHHKF": {}
    },
    "41": {
      "$type": "CKFMNEGHAAA",
      "gadgetId": 70010006,
      "pos": {
        "x": -13.590780258178711,
        "y": -7.789838790893555,
        "z": 65.50540161132812
      },
      "unlocked": true,
      "specialTipsIconPath": "",
      "checkDist": 500.0,
      "withGO": true,
      "triggerFlag": "DeadRegion",
      "shape": {
        "$type": "EHOAKHCMJJG",
        "useHeight": true,
        "height": 20.0,
        "centerType": "Center",
        "width": 50.0,
        "length": 50.0
      },
      "stringParam": "",
      "GKKIDIIHHKF": {}
    },
    "42": {
      "$type": "CKFMNEGHAAA",
      "gadgetId": 70010006,
      "pos": {
        "x": -42.080631256103516,
        "y": -8.933456420898438,
        "z": 134.84800720214844
      },
      "unlocked": true,
      "specialTipsIconPath": "",
      "checkDist": 500.0,
      "withGO": true,
      "triggerFlag": "DeadRegion",
      "shape": {
        "$type": "EHOAKHCMJJG",
        "useHeight": true,
        "height": 20.0,
        "centerType": "Center",
        "width": 50.0,
        "length": 50.0
      },
      "stringParam": "",
      "GKKIDIIHHKF": {}
    },
    "43": {
      "$type": "CKFMNEGHAAA",
      "gadgetId": 70010006,
      "pos": {
        "x": -58.999820709228516,
        "y": -4.876251220703125,
        "z": 55.17308044433594
      },
      "unlocked": true,
      "specialTipsIconPath": "",
      "checkDist": 500.0,
      "withGO": true,
      "triggerFlag": "DeadRegion",
      "shape": {
        "$type": "EHOAKHCMJJG",
        "useHeight": true,
        "height": 20.0,
        "centerType": "Center",
        "width": 50.0,
        "length": 50.0
      },
      "stringParam": "",
      "GKKIDIIHHKF": {}
    },
    "44": {
      "$type": "CKFMNEGHAAA",
      "gadgetId": 70010006,
      "pos": {
        "x": -132.97940063476562,
        "y": 23.89274024963379,
        "z": 54.90367889404297
      },
      "unlocked": true,
      "specialTipsIconPath": "",
      "checkDist": 500.0,
      "withGO": true,
      "triggerFlag": "DeadRegion",
      "shape": {
        "$type": "EHOAKHCMJJG",
        "useHeight": true,
        "height": 40.0,
        "centerType": "Center",
        "width": 10.0,
        "length": 10.0
      },
      "stringParam": "",
      "GKKIDIIHHKF": {}
    },
    "45": {
      "$type": "CKFMNEGHAAA",
      "gadgetId": 70010006,
      "pos": {
        "x": -160.8094940185547,
        "y": 17.843149185180664,
        "z": 55.77336883544922
      },
      "unlocked": true,
      "specialTipsIconPath": "",
      "checkDist": 500.0,
      "withGO": true,
      "triggerFlag": "DeadRegion",
      "shape": {
        "$type": "EHOAKHCMJJG",
        "useHeight": true,
        "height": 40.0,
        "centerType": "Center",
        "width": 10.0,
        "length": 10.0
      },
      "stringParam": "",
      "GKKIDIIHHKF": {}
    },
    "46": {
      "$type": "CKFMNEGHAAA",
      "gadgetId": 70010006,
      "pos": {
        "x": -133.10440063476562,
        "y": 17.171329498291016,
        "z": 35.987388610839844
      },
      "unlocked": true,
      "specialTipsIconPath": "",
      "checkDist": 500.0,
      "withGO": true,
      "triggerFlag": "DeadRegion",
      "shape": {
        "$type": "EHOAKHCMJJG",
        "useHeight": true,
        "height": 40.0,
        "centerType": "Center",
        "width": 10.0,
        "length": 10.0
      },
      "stringParam": "",
      "GKKIDIIHHKF": {}
    }
  },
  "PKMCOKMHOGL": {}
}