{
  "points": {
    "1": {
      "$type": "LNAKBOHDJCM",
      "gadgetId": 70120004,
      "pos": {
        "x": 2.0066869258880615,
        "y": 0.1298075020313263,
        "z": -34.28567886352539
      },
      "unlocked": true,
      "specialTipsIconPath": "",
      "size": {
        "x": 5.0,
        "y": 5.0,
        "z": 5.0
      }
    }
  },
  "entities": {
    "1": {
      "$type": "CKFMNEGHAAA",
      "gadgetId": 70010006,
      "pos": {
        "x": -0.9124125838279724,
        "y": -5.037683010101318,
        "z": 107.78610229492188
      },
      "unlocked": true,
      "specialTipsIconPath": "",
      "checkDist": 500.0,
      "withGO": true,
      "triggerFlag": "NoReviveRegion",
      "shape": {
        "$type": "EHOAKHCMJJG",
        "useHeight": true,
        "height": 200.0,
        "centerType": "Center",
        "width": 300.0,
        "length": 150.0
      },
      "stringParam": "",
      "GKKIDIIHHKF": {}
    }
  },
  "PKMCOKMHOGL": {}
}