{
  "points": {
    "1": {
      "$type": "LNAKBOHDJCM",
      "gadgetId": 70120004,
      "unlocked": true,
      "specialTipsIconPath": "",
      "size": {
        "x": 4.0,
        "y": 4.0,
        "z": 4.0
      }
    }
  },
  "PKMCOKMHOGL": {}
}