{
  "points": {
    "1": {
      "$type": "LNAKBOHDJCM",
      "gadgetId": 70120004,
      "pos": {
        "x": 200.06509399414062,
        "y": -21.4914493560791,
        "z": 200.0659942626953
      },
      "tranPos": {
        "x": 200.0651397705078,
        "y": -21.491453170776367,
        "z": 200.06600952148438
      },
      "specialTipsIconPath": ""
    }
  },
  "PKMCOKMHOGL": {}
}