{
  "points": {
    "2": {
      "$type": "LNAKBOHDJCM",
      "gadgetId": 70120004,
      "pos": {
        "x": -0.10000000149011612,
        "y": 2.5,
        "z": -56.70000076293945
      },
      "unlocked": true,
      "specialTipsIconPath": "",
      "size": {
        "x": 5.0,
        "y": 5.0,
        "z": 5.0
      }
    }
  },
  "entities": {
    "1": {
      "$type": "CKFMNEGHAAA",
      "gadgetId": 70010006,
      "pos": {
        "x": -9.928483963012695,
        "y": -26.796220779418945,
        "z": 6.031209945678711
      },
      "unlocked": true,
      "specialTipsIconPath": "",
      "checkDist": 500.0,
      "withGO": true,
      "triggerFlag": "NoReviveRegion",
      "shape": {
        "$type": "EHOAKHCMJJG",
        "useHeight": true,
        "height": 50.0,
        "centerType": "Center",
        "width": 500.0,
        "length": 500.0
      },
      "stringParam": "",
      "GKKIDIIHHKF": {}
    },
    "10": {
      "$type": "CKFMNEGHAAA",
      "gadgetId": 70010006,
      "pos": {
        "x": -2.8229310512542725,
        "y": -55.58060073852539,
        "z": -2.09028697013855
      },
      "unlocked": true,
      "specialTipsIconPath": "",
      "checkDist": 500.0,
      "withGO": true,
      "triggerFlag": "DeadRegion",
      "shape": {
        "$type": "EHOAKHCMJJG",
        "useHeight": true,
        "height": 100.0,
        "centerType": "Center",
        "width": 70.0,
        "length": 70.0
      },
      "stringParam": "",
      "GKKIDIIHHKF": {}
    },
    "2": {
      "$type": "CKFMNEGHAAA",
      "gadgetId": 70010006,
      "pos": {
        "x": 16.170339584350586,
        "y": 0.0017462220275774598,
        "z": -27.783449172973633
      },
      "rot": {
        "y": 334.3033142089844
      },
      "unlocked": true,
      "specialTipsIconPath": "",
      "checkDist": 500.0,
      "withGO": true,
      "triggerFlag": "NoReviveRegion",
      "shape": {
        "$type": "EHOAKHCMJJG",
        "useHeight": true,
        "height": 100.0,
        "centerType": "Center",
        "width": 10.0,
        "length": 10.0
      },
      "stringParam": "",
      "GKKIDIIHHKF": {}
    },
    "3": {
      "$type": "CKFMNEGHAAA",
      "gadgetId": 70010006,
      "pos": {
        "x": 30.67736053466797,
        "y": 4.174105167388916,
        "z": -18.703519821166992
      },
      "rot": {
        "y": 302.4831848144531
      },
      "unlocked": true,
      "specialTipsIconPath": "",
      "checkDist": 500.0,
      "withGO": true,
      "triggerFlag": "NoReviveRegion",
      "shape": {
        "$type": "EHOAKHCMJJG",
        "useHeight": true,
        "height": 100.0,
        "centerType": "Center",
        "width": 20.0,
        "length": 20.0
      },
      "stringParam": "",
      "GKKIDIIHHKF": {}
    },
    "4": {
      "$type": "CKFMNEGHAAA",
      "gadgetId": 70010006,
      "pos": {
        "x": 35.46820068359375,
        "y": 0.7848033905029297,
        "z": 7.473235130310059
      },
      "rot": {
        "y": 254.41859436035156
      },
      "unlocked": true,
      "specialTipsIconPath": "",
      "checkDist": 500.0,
      "withGO": true,
      "triggerFlag": "NoReviveRegion",
      "shape": {
        "$type": "EHOAKHCMJJG",
        "useHeight": true,
        "height": 100.0,
        "centerType": "Center",
        "width": 20.0,
        "length": 20.0
      },
      "stringParam": "",
      "GKKIDIIHHKF": {}
    },
    "5": {
      "$type": "CKFMNEGHAAA",
      "gadgetId": 70010006,
      "pos": {
        "x": 22.375520706176758,
        "y": 0.08817928284406662,
        "z": 27.409910202026367
      },
      "rot": {
        "y": 216.83590698242188
      },
      "unlocked": true,
      "specialTipsIconPath": "",
      "checkDist": 500.0,
      "withGO": true,
      "triggerFlag": "NoReviveRegion",
      "shape": {
        "$type": "EHOAKHCMJJG",
        "useHeight": true,
        "height": 100.0,
        "centerType": "Center",
        "width": 20.0,
        "length": 20.0
      },
      "stringParam": "",
      "GKKIDIIHHKF": {}
    },
    "6": {
      "$type": "CKFMNEGHAAA",
      "gadgetId": 70010006,
      "pos": {
        "x": -22.938709259033203,
        "y": 2.331731081008911,
        "z": -26.95758056640625
      },
      "rot": {
        "y": 223.32249450683594
      },
      "unlocked": true,
      "specialTipsIconPath": "",
      "checkDist": 500.0,
      "withGO": true,
      "triggerFlag": "NoReviveRegion",
      "shape": {
        "$type": "EHOAKHCMJJG",
        "useHeight": true,
        "height": 100.0,
        "centerType": "Center",
        "width": 20.0,
        "length": 20.0
      },
      "stringParam": "",
      "GKKIDIIHHKF": {}
    },
    "7": {
      "$type": "CKFMNEGHAAA",
      "gadgetId": 70010006,
      "pos": {
        "x": -34.50804901123047,
        "y": 6.307096004486084,
        "z": -6.8654022216796875
      },
      "rot": {
        "y": 254.42340087890625
      },
      "unlocked": true,
      "specialTipsIconPath": "",
      "checkDist": 500.0,
      "withGO": true,
      "triggerFlag": "NoReviveRegion",
      "shape": {
        "$type": "EHOAKHCMJJG",
        "useHeight": true,
        "height": 100.0,
        "centerType": "Center",
        "width": 20.0,
        "length": 20.0
      },
      "stringParam": "",
      "GKKIDIIHHKF": {}
    },
    "8": {
      "$type": "CKFMNEGHAAA",
      "gadgetId": 70010006,
      "pos": {
        "x": -31.407289505004883,
        "y": 9.070406913757324,
        "z": 16.69175910949707
      },
      "rot": {
        "y": 303.00469970703125
      },
      "unlocked": true,
      "specialTipsIconPath": "",
      "checkDist": 500.0,
      "withGO": true,
      "triggerFlag": "NoReviveRegion",
      "shape": {
        "$type": "EHOAKHCMJJG",
        "useHeight": true,
        "height": 100.0,
        "centerType": "Center",
        "width": 20.0,
        "length": 20.0
      },
      "stringParam": "",
      "GKKIDIIHHKF": {}
    },
    "9": {
      "$type": "CKFMNEGHAAA",
      "gadgetId": 70010006,
      "pos": {
        "x": -18.482080459594727,
        "y": 6.985960960388184,
        "z": 31.513439178466797
      },
      "rot": {
        "y": 329.4945983886719
      },
      "unlocked": true,
      "specialTipsIconPath": "",
      "checkDist": 500.0,
      "withGO": true,
      "triggerFlag": "NoReviveRegion",
      "shape": {
        "$type": "EHOAKHCMJJG",
        "useHeight": true,
        "height": 100.0,
        "centerType": "Center",
        "width": 20.0,
        "length": 20.0
      },
      "stringParam": "",
      "GKKIDIIHHKF": {}
    }
  },
  "PKMCOKMHOGL": {}
}