{
  "points": {
    "1": {
      "$type": "LNAKBOHDJCM",
      "gadgetId": 70120004,
      "pos": {
        "x": -63.259639739990234,
        "y": 4.901904106140137,
        "z": -1.0016870498657227
      },
      "unlocked": true,
      "specialTipsIconPath": "",
      "size": {
        "x": 5.0,
        "y": 5.0,
        "z": 5.0
      }
    }
  },
  "PKMCOKMHOGL": {}
}