{
  "points": {
    "1": {
      "$type": "LNAKBOHDJCM",
      "gadgetId": 70120004,
      "pos": {
        "x": 533.6986083984375,
        "y": -1.9836909770965576,
        "z": 257.1354064941406
      },
      "unlocked": true,
      "specialTipsIconPath": "",
      "size": {
        "x": 3.0,
        "y": 3.0,
        "z": 3.0
      }
    },
    "2": {
      "$type": "EMMKFBPEKBO",
      "gadgetId": 70120003,
      "pos": {
        "x": 456.4468994140625,
        "y": -9.649044036865234,
        "z": 110.34819793701172
      },
      "rot": {
        "y": 359.5006103515625
      },
      "unlocked": true,
      "specialTipsIconPath": "",
      "size": {
        "x": 10.0,
        "y": 20.0,
        "z": 60.0
      }
    },
    "4": {
      "$type": "EMMKFBPEKBO",
      "gadgetId": 70120003,
      "pos": {
        "x": 542.2744140625,
        "y": -7.936748027801514,
        "z": 197.51690673828125
      },
      "rot": {
        "y": 269.4330139160156
      },
      "unlocked": true,
      "specialTipsIconPath": "",
      "size": {
        "x": 30.0,
        "y": 40.0,
        "z": 20.0
      }
    },
    "5": {
      "$type": "EMMKFBPEKBO",
      "gadgetId": 70120003,
      "pos": {
        "x": 481.5527038574219,
        "y": -20.033470153808594,
        "z": 55.01227951049805
      },
      "unlocked": true,
      "specialTipsIconPath": "",
      "size": {
        "x": 5.0,
        "y": 10.0,
        "z": 55.0
      }
    }
  },
  "forces": {
    "1": {
      "$type": "MIHBFBGHMLF",
      "gadgetId": 70610102,
      "pos": {
        "x": 426.81048583984375,
        "y": -48.35232925415039,
        "z": 121.38839721679688
      },
      "unlocked": true,
      "specialTipsIconPath": "",
      "velocity": 6.0,
      "stayEffect": "Eff_Windfield_Stay",
      "enterEffect": "Eff_Windfield_Enter"
    }
  },
  "entities": {
    "1": {
      "$type": "CKFMNEGHAAA",
      "gadgetId": 70010006,
      "pos": {
        "x": 400.1199951171875,
        "y": 4.300000190734863,
        "z": 120.7844009399414
      },
      "unlocked": true,
      "specialTipsIconPath": "",
      "triggerFlag": "ReturnRegion",
      "shape": {
        "$type": "EHOAKHCMJJG",
        "useHeight": true,
        "height": 20.0,
        "centerType": "Center",
        "width": 30.0,
        "length": 30.0
      },
      "floatParam": 15.0,
      "stringParam": "",
      "GKKIDIIHHKF": {}
    },
    "10": {
      "$type": "CKFMNEGHAAA",
      "gadgetId": 70010006,
      "pos": {
        "x": 592.0999755859375,
        "y": -38.08340835571289,
        "z": 87.9000015258789
      },
      "unlocked": true,
      "specialTipsIconPath": "",
      "triggerFlag": "DeadRegion",
      "shape": {
        "$type": "EHOAKHCMJJG",
        "useHeight": true,
        "height": 200.0,
        "centerType": "Center",
        "width": 50.0,
        "length": 400.0
      },
      "stringParam": "",
      "GKKIDIIHHKF": {}
    },
    "11": {
      "$type": "CKFMNEGHAAA",
      "gadgetId": 70010006,
      "pos": {
        "x": 481.01568603515625,
        "y": -38.083518981933594,
        "z": -155.8798065185547
      },
      "unlocked": true,
      "specialTipsIconPath": "",
      "triggerFlag": "DeadRegion",
      "shape": {
        "$type": "EHOAKHCMJJG",
        "useHeight": true,
        "height": 200.0,
        "centerType": "Center",
        "width": 50.0,
        "length": 400.0
      },
      "stringParam": "",
      "GKKIDIIHHKF": {}
    },
    "12": {
      "$type": "CKFMNEGHAAA",
      "gadgetId": 70010006,
      "pos": {
        "x": 529.0883178710938,
        "y": -37.79999923706055,
        "z": 97.47881317138672
      },
      "unlocked": true,
      "specialTipsIconPath": "",
      "triggerFlag": "ReturnRegion",
      "shape": {
        "$type": "EHOAKHCMJJG",
        "useHeight": true,
        "height": 20.0,
        "centerType": "Center",
        "width": 50.0,
        "length": 15.0
      },
      "floatParam": 15.0,
      "stringParam": "",
      "GKKIDIIHHKF": {}
    },
    "13": {
      "$type": "CKFMNEGHAAA",
      "gadgetId": 70010006,
      "pos": {
        "x": 425.29998779296875,
        "y": -6.900000095367432,
        "z": 108.46479797363281
      },
      "unlocked": true,
      "specialTipsIconPath": "",
      "triggerFlag": "ReturnRegion",
      "shape": {
        "$type": "EHOAKHCMJJG",
        "useHeight": true,
        "height": 50.0,
        "centerType": "Center",
        "width": 15.0,
        "length": 10.0
      },
      "floatParam": 15.0,
      "stringParam": "",
      "GKKIDIIHHKF": {}
    },
    "14": {
      "$type": "CKFMNEGHAAA",
      "gadgetId": 70010006,
      "pos": {
        "x": 427.1799011230469,
        "y": -9.283441543579102,
        "z": 135.75010681152344
      },
      "unlocked": true,
      "specialTipsIconPath": "",
      "triggerFlag": "ReturnRegion",
      "shape": {
        "$type": "EHOAKHCMJJG",
        "useHeight": true,
        "height": 50.0,
        "centerType": "Center",
        "width": 20.0,
        "length": 10.0
      },
      "floatParam": 15.0,
      "stringParam": "",
      "GKKIDIIHHKF": {}
    },
    "15": {
      "$type": "CKFMNEGHAAA",
      "gadgetId": 70010006,
      "pos": {
        "x": 424.5596923828125,
        "y": -38.20000076293945,
        "z": 92.38558959960938
      },
      "unlocked": true,
      "specialTipsIconPath": "",
      "triggerFlag": "ReturnRegion",
      "shape": {
        "$type": "EHOAKHCMJJG",
        "useHeight": true,
        "height": 30.0,
        "centerType": "Center",
        "width": 22.0,
        "length": 22.0
      },
      "floatParam": 15.0,
      "stringParam": "",
      "GKKIDIIHHKF": {}
    },
    "16": {
      "$type": "CKFMNEGHAAA",
      "gadgetId": 70010006,
      "pos": {
        "x": 391.76409912109375,
        "y": -37.900001525878906,
        "z": 94.32626342773438
      },
      "unlocked": true,
      "specialTipsIconPath": "",
      "triggerFlag": "DeadRegion",
      "shape": {
        "$type": "EHOAKHCMJJG",
        "useHeight": true,
        "height": 30.0,
        "centerType": "Center",
        "width": 15.0,
        "length": 25.0
      },
      "stringParam": "",
      "GKKIDIIHHKF": {}
    },
    "17": {
      "$type": "CKFMNEGHAAA",
      "gadgetId": 70010006,
      "pos": {
        "x": 550.8613891601562,
        "y": -43.54999923706055,
        "z": 18.84943962097168
      },
      "unlocked": true,
      "specialTipsIconPath": "",
      "triggerFlag": "ReturnRegion",
      "shape": {
        "$type": "EHOAKHCMJJG",
        "useHeight": true,
        "height": 50.0,
        "centerType": "Center",
        "width": 30.0,
        "length": 10.0
      },
      "stringParam": "",
      "GKKIDIIHHKF": {}
    },
    "18": {
      "$type": "CKFMNEGHAAA",
      "gadgetId": 70010006,
      "pos": {
        "x": 425.5,
        "y": -35.93645095825195,
        "z": 123.67310333251953
      },
      "unlocked": true,
      "specialTipsIconPath": "",
      "triggerFlag": "DeadRegion",
      "shape": {
        "$type": "EHOAKHCMJJG",
        "useHeight": true,
        "height": 20.0,
        "centerType": "Center",
        "width": 15.0,
        "length": 40.0
      },
      "stringParam": "",
      "GKKIDIIHHKF": {}
    },
    "19": {
      "$type": "CKFMNEGHAAA",
      "gadgetId": 70010006,
      "pos": {
        "x": 477.5205993652344,
        "y": -30.799999237060547,
        "z": 94.25314331054688
      },
      "unlocked": true,
      "specialTipsIconPath": "",
      "triggerFlag": "DeadRegion",
      "shape": {
        "$type": "EHOAKHCMJJG",
        "useHeight": true,
        "height": 20.0,
        "centerType": "Center",
        "width": 30.0,
        "length": 20.0
      },
      "stringParam": "",
      "GKKIDIIHHKF": {}
    },
    "2": {
      "$type": "CKFMNEGHAAA",
      "gadgetId": 70010006,
      "pos": {
        "x": 474.5,
        "y": -58.72671890258789,
        "z": 98.19999694824219
      },
      "unlocked": true,
      "specialTipsIconPath": "",
      "triggerFlag": "DeadRegion",
      "shape": {
        "$type": "EHOAKHCMJJG",
        "useHeight": true,
        "height": 20.0,
        "centerType": "Center",
        "width": 200.0,
        "length": 250.0
      },
      "stringParam": "",
      "GKKIDIIHHKF": {}
    },
    "20": {
      "$type": "CKFMNEGHAAA",
      "gadgetId": 70010006,
      "pos": {
        "x": 475.0,
        "y": -62.58045959472656,
        "z": 98.19999694824219
      },
      "unlocked": true,
      "specialTipsIconPath": "",
      "triggerFlag": "NoReviveRegion",
      "shape": {
        "$type": "EHOAKHCMJJG",
        "useHeight": true,
        "height": 30.0,
        "centerType": "Center",
        "width": 200.0,
        "length": 250.0
      },
      "stringParam": "",
      "GKKIDIIHHKF": {}
    },
    "21": {
      "$type": "CKFMNEGHAAA",
      "gadgetId": 70010006,
      "pos": {
        "x": 426.43170166015625,
        "y": -33.63243103027344,
        "z": 103.3656997680664
      },
      "unlocked": true,
      "specialTipsIconPath": "",
      "triggerFlag": "DeadRegion",
      "shape": {
        "$type": "EHOAKHCMJJG",
        "useHeight": true,
        "height": 20.0,
        "centerType": "Center",
        "width": 15.0,
        "length": 20.0
      },
      "stringParam": "",
      "GKKIDIIHHKF": {}
    },
    "22": {
      "$type": "CKFMNEGHAAA",
      "gadgetId": 70010006,
      "pos": {
        "x": 523.1021118164062,
        "y": -55.495941162109375,
        "z": 150.25270080566406
      },
      "unlocked": true,
      "specialTipsIconPath": "",
      "checkDist": 500.0,
      "withGO": true,
      "triggerFlag": "NoReviveRegion",
      "shape": {
        "$type": "EHOAKHCMJJG",
        "useHeight": true,
        "height": 50.0,
        "centerType": "Center",
        "width": 40.0,
        "length": 100.0
      },
      "stringParam": "",
      "GKKIDIIHHKF": {}
    },
    "23": {
      "$type": "CKFMNEGHAAA",
      "gadgetId": 70010006,
      "pos": {
        "x": 146.47390747070312,
        "y": -64.45686340332031,
        "z": 33.25624084472656
      },
      "unlocked": true,
      "specialTipsIconPath": "",
      "checkDist": 500.0,
      "withGO": true,
      "triggerFlag": "NoReviveRegion",
      "shape": {
        "$type": "EHOAKHCMJJG",
        "useHeight": true,
        "height": 50.0,
        "centerType": "Center",
        "width": 400.0,
        "length": 100.0
      },
      "checkCount": 20,
      "stringParam": "",
      "GKKIDIIHHKF": {}
    },
    "24": {
      "$type": "CKFMNEGHAAA",
      "gadgetId": 70010006,
      "pos": {
        "x": 77.50122833251953,
        "y": -35.46569061279297,
        "z": 33.52936935424805
      },
      "unlocked": true,
      "specialTipsIconPath": "",
      "checkDist": 500.0,
      "withGO": true,
      "triggerFlag": "NoReviveRegion",
      "shape": {
        "$type": "EHOAKHCMJJG",
        "useHeight": true,
        "height": 40.0,
        "centerType": "Center",
        "width": 60.0,
        "length": 100.0
      },
      "checkCount": 40,
      "stringParam": "",
      "GKKIDIIHHKF": {}
    },
    "25": {
      "$type": "CKFMNEGHAAA",
      "gadgetId": 70010006,
      "pos": {
        "x": 403.22430419921875,
        "y": 0.7193350791931152,
        "z": 122.41459655761719
      },
      "unlocked": true,
      "specialTipsIconPath": "",
      "triggerFlag": "NoReviveRegion",
      "shape": {
        "$type": "EHOAKHCMJJG",
        "useHeight": true,
        "height": 20.0,
        "centerType": "Center",
        "width": 50.0,
        "length": 200.0
      },
      "stringParam": "",
      "GKKIDIIHHKF": {}
    },
    "26": {
      "$type": "CKFMNEGHAAA",
      "gadgetId": 70010006,
      "pos": {
        "x": 526.6456298828125,
        "y": -42.060211181640625,
        "z": 222.7012939453125
      },
      "unlocked": true,
      "specialTipsIconPath": "",
      "checkDist": 500.0,
      "withGO": true,
      "triggerFlag": "NoReviveRegion",
      "shape": {
        "$type": "EHOAKHCMJJG",
        "useHeight": true,
        "height": 50.0,
        "centerType": "Center",
        "width": 40.0,
        "length": 100.0
      },
      "stringParam": "",
      "GKKIDIIHHKF": {}
    },
    "27": {
      "$type": "CKFMNEGHAAA",
      "gadgetId": 70010006,
      "pos": {
        "x": 527.4598999023438,
        "y": -44.371009826660156,
        "z": 238.8668975830078
      },
      "unlocked": true,
      "specialTipsIconPath": "",
      "checkDist": 500.0,
      "withGO": true,
      "triggerFlag": "NoReviveRegion",
      "shape": {
        "$type": "EHOAKHCMJJG",
        "useHeight": true,
        "height": 50.0,
        "centerType": "Center",
        "width": 40.0,
        "length": 100.0
      },
      "stringParam": "",
      "GKKIDIIHHKF": {}
    },
    "28": {
      "$type": "CKFMNEGHAAA",
      "gadgetId": 70010006,
      "pos": {
        "x": 509.8992919921875,
        "y": -45.33753967285156,
        "z": 66.34442138671875
      },
      "unlocked": true,
      "specialTipsIconPath": "",
      "withGO": true,
      "triggerFlag": "NoReviveRegion",
      "shape": {
        "$type": "EHOAKHCMJJG",
        "useHeight": true,
        "height": 12.0,
        "centerType": "Center",
        "width": 20.0,
        "length": 20.0
      },
      "stringParam": "",
      "GKKIDIIHHKF": {}
    },
    "29": {
      "$type": "CKFMNEGHAAA",
      "gadgetId": 70010006,
      "pos": {
        "x": 452.68011474609375,
        "y": -10.460749626159668,
        "z": 88.87325286865234
      },
      "unlocked": true,
      "specialTipsIconPath": "",
      "triggerFlag": "DeadRegion",
      "shape": {
        "$type": "EHOAKHCMJJG",
        "useHeight": true,
        "height": 20.0,
        "centerType": "Center",
        "width": 30.0,
        "length": 20.0
      },
      "stringParam": "",
      "GKKIDIIHHKF": {}
    },
    "3": {
      "$type": "CKFMNEGHAAA",
      "gadgetId": 70010006,
      "pos": {
        "x": 417.8800048828125,
        "y": -34.48326873779297,
        "z": 2.0
      },
      "unlocked": true,
      "specialTipsIconPath": "",
      "triggerFlag": "DeadRegion",
      "shape": {
        "$type": "EHOAKHCMJJG",
        "useHeight": true,
        "height": 40.0,
        "centerType": "Center",
        "width": 30.0,
        "length": 30.0
      },
      "stringParam": "",
      "GKKIDIIHHKF": {}
    },
    "30": {
      "$type": "CKFMNEGHAAA",
      "gadgetId": 70010006,
      "pos": {
        "x": 486.974609375,
        "y": -10.7885103225708,
        "z": 94.0025863647461
      },
      "unlocked": true,
      "specialTipsIconPath": "",
      "triggerFlag": "DeadRegion",
      "shape": {
        "$type": "EHOAKHCMJJG",
        "useHeight": true,
        "height": 20.0,
        "centerType": "Center",
        "width": 40.0,
        "length": 18.0
      },
      "stringParam": "",
      "GKKIDIIHHKF": {}
    },
    "4": {
      "$type": "CKFMNEGHAAA",
      "gadgetId": 70010006,
      "pos": {
        "x": 225.89999389648438,
        "y": -81.4000015258789,
        "z": 26.52288055419922
      },
      "unlocked": true,
      "specialTipsIconPath": "",
      "triggerFlag": "DeadRegion",
      "shape": {
        "$type": "EHOAKHCMJJG",
        "useHeight": true,
        "height": 50.0,
        "centerType": "Center",
        "width": 300.0,
        "length": 200.0
      },
      "stringParam": "",
      "GKKIDIIHHKF": {}
    },
    "5": {
      "$type": "CKFMNEGHAAA",
      "gadgetId": 70010006,
      "pos": {
        "x": -11.0,
        "y": -35.20000076293945,
        "z": 99.55000305175781
      },
      "unlocked": true,
      "specialTipsIconPath": "",
      "triggerFlag": "DeadRegion",
      "shape": {
        "$type": "EHOAKHCMJJG",
        "useHeight": true,
        "height": 40.0,
        "centerType": "Center",
        "width": 150.0,
        "length": 200.0
      },
      "stringParam": "",
      "GKKIDIIHHKF": {}
    },
    "6": {
      "$type": "CKFMNEGHAAA",
      "gadgetId": 70010006,
      "pos": {
        "x": 54.900001525878906,
        "y": 16.100000381469727,
        "z": 119.5999984741211
      },
      "unlocked": true,
      "specialTipsIconPath": "",
      "triggerFlag": "DeadRegion",
      "shape": {
        "$type": "EHOAKHCMJJG",
        "useHeight": true,
        "height": 40.0,
        "centerType": "Center",
        "width": 20.0,
        "length": 50.0
      },
      "stringParam": "",
      "GKKIDIIHHKF": {}
    },
    "7": {
      "$type": "CKFMNEGHAAA",
      "gadgetId": 70010006,
      "pos": {
        "x": 221.8000030517578,
        "y": -33.78839874267578,
        "z": 140.5
      },
      "unlocked": true,
      "specialTipsIconPath": "",
      "triggerFlag": "DeadRegion",
      "shape": {
        "$type": "EHOAKHCMJJG",
        "useHeight": true,
        "height": 150.0,
        "centerType": "Center",
        "width": 300.0,
        "length": 50.0
      },
      "stringParam": "",
      "GKKIDIIHHKF": {}
    },
    "8": {
      "$type": "CKFMNEGHAAA",
      "gadgetId": 70010006,
      "pos": {
        "x": 212.5,
        "y": -33.975521087646484,
        "z": -83.9000015258789
      },
      "unlocked": true,
      "specialTipsIconPath": "",
      "triggerFlag": "DeadRegion",
      "shape": {
        "$type": "EHOAKHCMJJG",
        "useHeight": true,
        "height": 150.0,
        "centerType": "Center",
        "width": 300.0,
        "length": 50.0
      },
      "stringParam": "",
      "GKKIDIIHHKF": {}
    },
    "9": {
      "$type": "CKFMNEGHAAA",
      "gadgetId": 70010006,
      "pos": {
        "x": 450.3999938964844,
        "y": -23.5,
        "z": 199.60000610351562
      },
      "unlocked": true,
      "specialTipsIconPath": "",
      "triggerFlag": "DeadRegion",
      "shape": {
        "$type": "EHOAKHCMJJG",
        "useHeight": true,
        "height": 100.0,
        "centerType": "Center",
        "width": 100.0,
        "length": 100.0
      },
      "stringParam": "",
      "GKKIDIIHHKF": {}
    }
  },
  "PKMCOKMHOGL": {}
}