{
  "points": {
    "1": {
      "$type": "LNAKBOHDJCM",
      "gadgetId": 70120004,
      "pos": {
        "x": 178.10069274902344,
        "y": 60.527400970458984,
        "z": -21.906169891357422
      },
      "rot": {
        "y": 270.0
      },
      "unlocked": true,
      "specialTipsIconPath": "",
      "size": {
        "x": 5.0,
        "y": 5.0,
        "z": 5.0
      }
    },
    "2": {
      "$type": "EMMKFBPEKBO",
      "gadgetId": 70120003,
      "pos": {
        "x": 11.751049995422363,
        "y": -3.0548439025878906,
        "z": 50.06526184082031
      },
      "rot": {
        "y": 270.0
      },
      "unlocked": true,
      "specialTipsIconPath": "",
      "size": {
        "x": 5.0,
        "y": 10.0,
        "z": 20.0
      }
    },
    "3": {
      "$type": "EMMKFBPEKBO",
      "gadgetId": 70120003,
      "pos": {
        "x": 29.68968963623047,
        "y": 7.7786359786987305,
        "z": -60.77996826171875
      },
      "unlocked": true,
      "specialTipsIconPath": "",
      "size": {
        "x": 5.0,
        "y": 10.0,
        "z": 20.0
      }
    }
  },
  "entities": {
    "1": {
      "$type": "CKFMNEGHAAA",
      "gadgetId": 70010006,
      "pos": {
        "x": -49.6697883605957,
        "y": 1.0558099746704102,
        "z": 86.2003173828125
      },
      "unlocked": true,
      "specialTipsIconPath": "",
      "triggerFlag": "NoReviveRegion",
      "shape": {
        "$type": "EHOAKHCMJJG",
        "useHeight": true,
        "height": 50.0,
        "centerType": "Center",
        "width": 50.0,
        "length": 50.0
      },
      "stringParam": "",
      "GKKIDIIHHKF": {}
    },
    "10": {
      "$type": "CKFMNEGHAAA",
      "gadgetId": 70010006,
      "pos": {
        "x": -27.298370361328125,
        "y": 14.481969833374023,
        "z": -105.40180206298828
      },
      "unlocked": true,
      "specialTipsIconPath": "",
      "checkDist": 500.0,
      "withGO": true,
      "triggerFlag": "DeadRegion",
      "shape": {
        "$type": "EHOAKHCMJJG",
        "useHeight": true,
        "height": 50.0,
        "centerType": "Center",
        "width": 100.0,
        "length": 100.0
      },
      "stringParam": "",
      "GKKIDIIHHKF": {}
    },
    "2": {
      "$type": "CKFMNEGHAAA",
      "gadgetId": 70010006,
      "pos": {
        "x": -98.21781921386719,
        "y": 1.0000009536743164,
        "z": 15.732069969177246
      },
      "unlocked": true,
      "specialTipsIconPath": "",
      "triggerFlag": "NoReviveRegion",
      "shape": {
        "$type": "EHOAKHCMJJG",
        "useHeight": true,
        "height": 100.0,
        "centerType": "Center",
        "width": 100.0,
        "length": 100.0
      },
      "stringParam": "",
      "GKKIDIIHHKF": {}
    },
    "3": {
      "$type": "CKFMNEGHAAA",
      "gadgetId": 70010006,
      "pos": {
        "x": 51.572391510009766,
        "y": 0.6200000047683716,
        "z": 4.450439929962158
      },
      "unlocked": true,
      "specialTipsIconPath": "",
      "triggerFlag": "NoReviveRegion",
      "shape": {
        "$type": "EHOAKHCMJJG",
        "useHeight": true,
        "height": 100.0,
        "centerType": "Center",
        "width": 50.0,
        "length": 100.0
      },
      "stringParam": "",
      "GKKIDIIHHKF": {}
    },
    "4": {
      "$type": "CKFMNEGHAAA",
      "gadgetId": 70010006,
      "pos": {
        "x": 214.1280975341797,
        "y": 65.84339904785156,
        "z": 74.86681365966797
      },
      "unlocked": true,
      "specialTipsIconPath": "",
      "triggerFlag": "NoReviveRegion",
      "shape": {
        "$type": "EHOAKHCMJJG",
        "useHeight": true,
        "height": 100.0,
        "centerType": "Center",
        "width": 100.0,
        "length": 100.0
      },
      "stringParam": "",
      "GKKIDIIHHKF": {}
    },
    "5": {
      "$type": "CKFMNEGHAAA",
      "gadgetId": 70010006,
      "pos": {
        "x": 128.5155029296875,
        "y": 66.7650375366211,
        "z": -111.606201171875
      },
      "unlocked": true,
      "specialTipsIconPath": "",
      "triggerFlag": "NoReviveRegion",
      "shape": {
        "$type": "EHOAKHCMJJG",
        "useHeight": true,
        "height": 100.0,
        "centerType": "Center",
        "width": 100.0,
        "length": 100.0
      },
      "stringParam": "",
      "GKKIDIIHHKF": {}
    },
    "6": {
      "$type": "CKFMNEGHAAA",
      "gadgetId": 70010006,
      "pos": {
        "x": 125.84700012207031,
        "y": 35.69606018066406,
        "z": 49.8526496887207
      },
      "unlocked": true,
      "specialTipsIconPath": "",
      "triggerFlag": "NoReviveRegion",
      "shape": {
        "$type": "EHOAKHCMJJG",
        "useHeight": true,
        "height": 100.0,
        "centerType": "Center",
        "width": 100.0,
        "length": 100.0
      },
      "stringParam": "",
      "GKKIDIIHHKF": {}
    },
    "7": {
      "$type": "CKFMNEGHAAA",
      "gadgetId": 70010006,
      "pos": {
        "x": 4.489606857299805,
        "y": -34.992069244384766,
        "z": 1.7352410554885864
      },
      "unlocked": true,
      "specialTipsIconPath": "",
      "checkDist": 500.0,
      "withGO": true,
      "triggerFlag": "DeadRegion",
      "shape": {
        "$type": "EHOAKHCMJJG",
        "useHeight": true,
        "height": 50.0,
        "centerType": "Center",
        "width": 200.0,
        "length": 200.0
      },
      "stringParam": "",
      "GKKIDIIHHKF": {}
    },
    "8": {
      "$type": "CKFMNEGHAAA",
      "gadgetId": 70010006,
      "pos": {
        "x": 2.3383729457855225,
        "y": -28.769689559936523,
        "z": -32.90224075317383
      },
      "unlocked": true,
      "specialTipsIconPath": "",
      "checkDist": 500.0,
      "withGO": true,
      "triggerFlag": "DeadRegion",
      "shape": {
        "$type": "EHOAKHCMJJG",
        "useHeight": true,
        "height": 50.0,
        "centerType": "Center",
        "width": 100.0,
        "length": 100.0
      },
      "stringParam": "",
      "GKKIDIIHHKF": {}
    },
    "9": {
      "$type": "CKFMNEGHAAA",
      "gadgetId": 70010006,
      "pos": {
        "x": 2.3218979835510254,
        "y": -27.0,
        "z": -48.621681213378906
      },
      "unlocked": true,
      "specialTipsIconPath": "",
      "checkDist": 500.0,
      "withGO": true,
      "triggerFlag": "DeadRegion",
      "shape": {
        "$type": "EHOAKHCMJJG",
        "useHeight": true,
        "height": 50.0,
        "centerType": "Center",
        "width": 100.0,
        "length": 100.0
      },
      "stringParam": "",
      "GKKIDIIHHKF": {}
    }
  },
  "PKMCOKMHOGL": {}
}