{
  "points": {
    "1": {
      "$type": "AMJNJLDNPLN",
      "KPGKDHAFHFE": "TOWER",
      "gadgetId": 70120003,
      "areaId": 100,
      "pos": {
        "x": -376.95001220703125,
        "y": 200.53700256347656,
        "z": -614.0330200195312
      },
      "rot": {
        "y": 305.7189025878906
      },
      "tranPos": {
        "x": -378.3517761230469,
        "y": 201.80364990234375,
        "z": -612.9834594726562
      },
      "tranRot": {
        "y": 313.7043151855469
      },
      "unlocked": true,
      "specialTipsIconPath": "",
      "npcId": 1276,
      "isForbidAvatarAutoUseSpring": true,
      "mapVisibility": "Never",
      "portalShape": ""
    },
    "10": {
      "$type": "AMJNJLDNPLN",
      "gadgetId": 70110002,
      "areaId": 103,
      "pos": {
        "x": -624.3270263671875,
        "y": 207.62010192871094,
        "z": 32.061370849609375
      },
      "tranPos": {
        "x": -620.251220703125,
        "y": 209.29832458496094,
        "z": 32.70109939575195
      },
      "tranRot": {
        "y": 90.99160766601562
      },
      "specialTipsIconPath": "",
      "showOnLockedArea": true,
      "portalShape": ""
    },
    "11": {
      "$type": "BOCJLBPLONJ",
      "gadgetId": 70370273,
      "areaId": 100,
      "pos": {
        "x": -344.9208984375,
        "y": 201.54119873046875,
        "z": -620.8532104492188
      },
      "rot": {
        "y": 59.34830093383789
      },
      "specialTipsIconPath": "",
      "vehicleType": "Skiff",
      "vehicleGadgetId": 45001001,
      "bornPointList": [
        {
          "x": -334.3955993652344,
          "y": 201.4789276123047,
          "z": -604.0065307617188
        },
        {
          "x": -330.7687683105469,
          "y": 201.4789276123047,
          "z": -611.1371459960938
        },
        {
          "x": -338.0224609375,
          "y": 201.4789276123047,
          "z": -596.8759155273438
        },
        {
          "x": -327.14190673828125,
          "y": 201.4789276123047,
          "z": -618.2677612304688
        }
      ],
      "bornRotateList": [
        {
          "y": 63.04069900512695
        },
        {
          "y": 63.04069900512695
        },
        {
          "y": 63.04069900512695
        },
        {
          "y": 63.04069900512695
        }
      ],
      "vehicleRadius": 6.0,
      "titleTextID": "UI_STC_INTEE_VEHICLESUMMON"
    },
    "12": {
      "$type": "BOCJLBPLONJ",
      "gadgetId": 70370273,
      "areaId": 102,
      "pos": {
        "x": 227.81520080566406,
        "y": 202.2747039794922,
        "z": 336.3778076171875
      },
      "rot": {
        "y": 37.03409957885742
      },
      "specialTipsIconPath": "",
      "vehicleType": "Skiff",
      "vehicleGadgetId": 45001001,
      "bornPointList": [
        {
          "x": 232.25567626953125,
          "y": 200.6785888671875,
          "z": 346.3437805175781
        },
        {
          "x": 237.13284301757812,
          "y": 200.6785888671875,
          "z": 340.0023498535156
        },
        {
          "x": 227.37852478027344,
          "y": 200.6785888671875,
          "z": 352.6851806640625
        },
        {
          "x": 242.00999450683594,
          "y": 200.6785888671875,
          "z": 333.66094970703125
        }
      ],
      "bornRotateList": [
        {
          "y": 52.43621826171875
        },
        {
          "y": 52.43621826171875
        },
        {
          "y": 52.43621826171875
        },
        {
          "y": 52.43621826171875
        }
      ],
      "vehicleRadius": 6.0,
      "titleTextID": "UI_STC_INTEE_VEHICLESUMMON"
    },
    "13": {
      "$type": "BOCJLBPLONJ",
      "gadgetId": 70370273,
      "areaId": 103,
      "pos": {
        "x": -646.9553833007812,
        "y": 203.1121063232422,
        "z": -3.068727970123291
      },
      "rot": {
        "y": 343.61138916015625
      },
      "specialTipsIconPath": "",
      "vehicleType": "Skiff",
      "vehicleGadgetId": 45001001,
      "bornPointList": [
        {
          "x": -639.5097045898438,
          "y": 200.6785888671875,
          "z": -11.855823516845703
        },
        {
          "x": -646.8873901367188,
          "y": 200.6785888671875,
          "z": -14.949329376220703
        },
        {
          "x": -632.1320190429688,
          "y": 200.6785888671875,
          "z": -8.76231575012207
        },
        {
          "x": -654.2650756835938,
          "y": 200.6785888671875,
          "z": -18.042837142944336
        }
      ],
      "bornRotateList": [
        {
          "y": 157.25140380859375
        },
        {
          "y": 157.25140380859375
        },
        {
          "y": 157.25140380859375
        },
        {
          "y": 157.25140380859375
        }
      ],
      "vehicleRadius": 6.0,
      "titleTextID": "UI_STC_INTEE_VEHICLESUMMON"
    },
    "14": {
      "$type": "BOCJLBPLONJ",
      "gadgetId": 70370273,
      "areaId": 100,
      "pos": {
        "x": -302.7121887207031,
        "y": 119.40270233154297,
        "z": -602.1317749023438
      },
      "rot": {
        "y": 41.46390151977539
      },
      "specialTipsIconPath": "",
      "vehicleType": "Skiff",
      "vehicleGadgetId": 45001001,
      "bornPointList": [
        {
          "x": -293.1894226074219,
          "y": 120.0,
          "z": -588.1664428710938
        },
        {
          "x": -287.9358215332031,
          "y": 120.0,
          "z": -594.1996459960938
        },
        {
          "x": -298.44305419921875,
          "y": 120.0,
          "z": -582.1332397460938
        },
        {
          "x": -282.68218994140625,
          "y": 120.0,
          "z": -600.2328491210938
        }
      ],
      "bornRotateList": [
        {
          "y": 48.95120620727539
        },
        {
          "y": 48.95120620727539
        },
        {
          "y": 48.95120620727539
        },
        {
          "y": 48.95120620727539
        }
      ],
      "vehicleRadius": 6.0,
      "titleTextID": "UI_STC_INTEE_VEHICLESUMMON"
    },
    "15": {
      "$type": "BOCJLBPLONJ",
      "gadgetId": 70370273,
      "areaId": 101,
      "pos": {
        "x": 112.4677963256836,
        "y": 119.75050354003906,
        "z": -725.1723022460938
      },
      "rot": {
        "y": 41.89289855957031
      },
      "specialTipsIconPath": "",
      "vehicleType": "Skiff",
      "vehicleGadgetId": 45001001,
      "bornPointList": [
        {
          "x": 120.68065643310547,
          "y": 120.0,
          "z": -713.400146484375
        },
        {
          "x": 125.93427276611328,
          "y": 120.0,
          "z": -719.433349609375
        },
        {
          "x": 115.42704772949219,
          "y": 120.0,
          "z": -707.366943359375
        },
        {
          "x": 131.18788146972656,
          "y": 120.0,
          "z": -725.466552734375
        }
      ],
      "bornRotateList": [
        {
          "y": 48.95120620727539
        },
        {
          "y": 48.95120620727539
        },
        {
          "y": 48.95120620727539
        },
        {
          "y": 48.95120620727539
        }
      ],
      "vehicleRadius": 6.0,
      "titleTextID": "UI_STC_INTEE_VEHICLESUMMON"
    },
    "16": {
      "$type": "BOCJLBPLONJ",
      "gadgetId": 70370273,
      "areaId": 101,
      "pos": {
        "x": 306.32470703125,
        "y": 118.99700164794922,
        "z": -718.7517700195312
      },
      "rot": {
        "y": 89.14990234375
      },
      "specialTipsIconPath": "",
      "vehicleType": "Skiff",
      "vehicleGadgetId": 45001001,
      "bornPointList": [
        {
          "x": 297.29681396484375,
          "y": 120.0,
          "z": -721.9922485351562
        },
        {
          "x": 297.197021484375,
          "y": 120.0,
          "z": -713.9928588867188
        },
        {
          "x": 297.3965759277344,
          "y": 120.0,
          "z": -729.9916381835938
        },
        {
          "x": 297.0972595214844,
          "y": 120.0,
          "z": -705.9934692382812
        }
      ],
      "bornRotateList": [
        {
          "y": 269.285400390625
        },
        {
          "y": 269.285400390625
        },
        {
          "y": 269.285400390625
        },
        {
          "y": 269.285400390625
        }
      ],
      "vehicleRadius": 6.0,
      "titleTextID": "UI_STC_INTEE_VEHICLESUMMON"
    },
    "17": {
      "$type": "BOCJLBPLONJ",
      "gadgetId": 70370273,
      "areaId": 101,
      "pos": {
        "x": 554.3458862304688,
        "y": 120.84449768066406,
        "z": -349.5813903808594
      },
      "rot": {
        "y": 1.520400047302246
      },
      "specialTipsIconPath": "",
      "vehicleType": "Skiff",
      "vehicleGadgetId": 45001001,
      "bornPointList": [
        {
          "x": 551.2134399414062,
          "y": 120.0,
          "z": -332.6966857910156
        },
        {
          "x": 559.2080688476562,
          "y": 120.0,
          "z": -332.4023132324219
        },
        {
          "x": 543.2188720703125,
          "y": 120.0,
          "z": -332.9910583496094
        },
        {
          "x": 567.20263671875,
          "y": 120.0,
          "z": -332.1079406738281
        }
      ],
      "bornRotateList": [
        {
          "y": 357.8912658691406
        },
        {
          "y": 357.8912658691406
        },
        {
          "y": 357.8912658691406
        },
        {
          "y": 357.8912658691406
        }
      ],
      "vehicleRadius": 6.0,
      "titleTextID": "UI_STC_INTEE_VEHICLESUMMON"
    },
    "18": {
      "$type": "BOCJLBPLONJ",
      "gadgetId": 70370273,
      "areaId": 102,
      "pos": {
        "x": 577.0781860351562,
        "y": 121.50769805908203,
        "z": -53.69733810424805
      },
      "rot": {
        "y": 26.16710090637207
      },
      "specialTipsIconPath": "",
      "vehicleType": "Skiff",
      "vehicleGadgetId": 45001001,
      "bornPointList": [
        {
          "x": 580.7147216796875,
          "y": 120.0,
          "z": -41.003299713134766
        },
        {
          "x": 587.1561279296875,
          "y": 120.0,
          "z": -45.7476692199707
        },
        {
          "x": 574.2733764648438,
          "y": 120.0,
          "z": -36.25892639160156
        },
        {
          "x": 593.5974731445312,
          "y": 120.0,
          "z": -50.492042541503906
        }
      ],
      "bornRotateList": [
        {
          "y": 36.37348937988281
        },
        {
          "y": 36.37348937988281
        },
        {
          "y": 36.37348937988281
        },
        {
          "y": 36.37348937988281
        }
      ],
      "vehicleRadius": 6.0,
      "titleTextID": "UI_STC_INTEE_VEHICLESUMMON"
    },
    "19": {
      "$type": "BOCJLBPLONJ",
      "gadgetId": 70370273,
      "areaId": 102,
      "pos": {
        "x": 637.8134765625,
        "y": 122.24210357666016,
        "z": 200.118896484375
      },
      "rot": {
        "y": 274.5138854980469
      },
      "specialTipsIconPath": "",
      "vehicleType": "Skiff",
      "vehicleGadgetId": 45001001,
      "bornPointList": [
        {
          "x": 629.6928100585938,
          "y": 120.0,
          "z": 197.73187255859375
        },
        {
          "x": 630.5119018554688,
          "y": 120.0,
          "z": 205.6898193359375
        },
        {
          "x": 628.873779296875,
          "y": 120.0,
          "z": 189.77391052246094
        },
        {
          "x": 631.3309326171875,
          "y": 120.0,
          "z": 213.6477813720703
        }
      ],
      "bornRotateList": [
        {
          "y": 275.87640380859375
        },
        {
          "y": 275.87640380859375
        },
        {
          "y": 275.87640380859375
        },
        {
          "y": 275.87640380859375
        }
      ],
      "vehicleRadius": 6.0,
      "titleTextID": "UI_STC_INTEE_VEHICLESUMMON"
    },
    "2": {
      "$type": "AMJNJLDNPLN",
      "gadgetId": 70110002,
      "areaId": 100,
      "pos": {
        "x": -335.3139953613281,
        "y": 229.88819885253906,
        "z": -655.7260131835938
      },
      "rot": {
        "y": 299.4241943359375
      },
      "tranPos": {
        "x": -338.5525817871094,
        "y": 230.1768798828125,
        "z": -652.1380615234375
      },
      "tranRot": {
        "y": 351.56903076171875
      },
      "unlocked": true,
      "specialTipsIconPath": "",
      "showOnLockedArea": true,
      "portalShape": ""
    },
    "20": {
      "$type": "BOCJLBPLONJ",
      "gadgetId": 70370273,
      "areaId": 102,
      "pos": {
        "x": 362.019287109375,
        "y": 119.15049743652344,
        "z": 316.9540100097656
      },
      "rot": {
        "y": 275.1064147949219
      },
      "specialTipsIconPath": "",
      "vehicleType": "Skiff",
      "vehicleGadgetId": 45001001,
      "bornPointList": [
        {
          "x": 373.8492431640625,
          "y": 120.0,
          "z": 318.6727294921875
        },
        {
          "x": 372.130859375,
          "y": 120.0,
          "z": 310.8594970703125
        },
        {
          "x": 375.5676574707031,
          "y": 120.0,
          "z": 326.4859924316406
        },
        {
          "x": 370.4124450683594,
          "y": 120.0,
          "z": 303.0462341308594
        }
      ],
      "bornRotateList": [
        {
          "y": 102.40386199951172
        },
        {
          "y": 102.40386199951172
        },
        {
          "y": 102.40386199951172
        },
        {
          "y": 102.40386199951172
        }
      ],
      "vehicleRadius": 6.0,
      "titleTextID": "UI_STC_INTEE_VEHICLESUMMON"
    },
    "21": {
      "$type": "BOCJLBPLONJ",
      "gadgetId": 70370273,
      "areaId": 102,
      "pos": {
        "x": 110.5811996459961,
        "y": 119.79129791259766,
        "z": 392.7047119140625
      },
      "rot": {
        "y": 294.7012023925781
      },
      "specialTipsIconPath": "",
      "vehicleType": "Skiff",
      "vehicleGadgetId": 45001001,
      "bornPointList": [
        {
          "x": 98.93721771240234,
          "y": 120.0,
          "z": 391.82232666015625
        },
        {
          "x": 102.58478546142578,
          "y": 120.0,
          "z": 398.9423828125
        },
        {
          "x": 95.28964233398438,
          "y": 120.0,
          "z": 384.7022705078125
        },
        {
          "x": 106.23236083984375,
          "y": 120.0,
          "z": 406.06243896484375
        }
      ],
      "bornRotateList": [
        {
          "y": 297.1258544921875
        },
        {
          "y": 297.1258544921875
        },
        {
          "y": 297.1258544921875
        },
        {
          "y": 297.1258544921875
        }
      ],
      "vehicleRadius": 6.0,
      "titleTextID": "UI_STC_INTEE_VEHICLESUMMON"
    },
    "22": {
      "$type": "BOCJLBPLONJ",
      "gadgetId": 70370273,
      "areaId": 103,
      "pos": {
        "x": -295.52130126953125,
        "y": 119.85070037841797,
        "z": 458.46380615234375
      },
      "rot": {
        "y": 80.8739013671875
      },
      "specialTipsIconPath": "",
      "vehicleType": "Skiff",
      "vehicleGadgetId": 45001001,
      "bornPointList": [
        {
          "x": -313.8094787597656,
          "y": 120.0,
          "z": 454.9901428222656
        },
        {
          "x": -313.6571350097656,
          "y": 120.0,
          "z": 462.9886779785156
        },
        {
          "x": -313.9618225097656,
          "y": 120.0,
          "z": 446.9915771484375
        },
        {
          "x": -313.5047912597656,
          "y": 120.0,
          "z": 470.98724365234375
        }
      ],
      "bornRotateList": [
        {
          "y": 271.0911865234375
        },
        {
          "y": 271.0911865234375
        },
        {
          "y": 271.0911865234375
        },
        {
          "y": 271.0911865234375
        }
      ],
      "vehicleRadius": 6.0,
      "titleTextID": "UI_STC_INTEE_VEHICLESUMMON"
    },
    "23": {
      "$type": "BOCJLBPLONJ",
      "gadgetId": 70370273,
      "areaId": 103,
      "pos": {
        "x": -653.9196166992188,
        "y": 119.46420288085938,
        "z": -68.13986206054688
      },
      "rot": {
        "y": 75.15969848632812
      },
      "specialTipsIconPath": "",
      "vehicleType": "Skiff",
      "vehicleGadgetId": 45001001,
      "bornPointList": [
        {
          "x": -641.9833984375,
          "y": 120.0,
          "z": -60.298038482666016
        },
        {
          "x": -639.8092041015625,
          "y": 120.0,
          "z": -67.99693298339844
        },
        {
          "x": -644.1575927734375,
          "y": 120.0,
          "z": -52.59914779663086
        },
        {
          "x": -637.635009765625,
          "y": 120.0,
          "z": -75.6958236694336
        }
      ],
      "bornRotateList": [
        {
          "y": 74.23021697998047
        },
        {
          "y": 74.23021697998047
        },
        {
          "y": 74.23021697998047
        },
        {
          "y": 74.23021697998047
        }
      ],
      "vehicleRadius": 6.0,
      "titleTextID": "UI_STC_INTEE_VEHICLESUMMON"
    },
    "24": {
      "$type": "BOCJLBPLONJ",
      "gadgetId": 70370273,
      "areaId": 101,
      "pos": {
        "x": 72.17346954345703,
        "y": 119.15299987792969,
        "z": -230.95249938964844
      },
      "rot": {
        "y": 39.37220001220703
      },
      "specialTipsIconPath": "",
      "vehicleType": "Skiff",
      "vehicleGadgetId": 45001001,
      "bornPointList": [
        {
          "x": 70.20852661132812,
          "y": 120.0,
          "z": -241.30665588378906
        },
        {
          "x": 63.8310546875,
          "y": 120.0,
          "z": -236.4767608642578
        },
        {
          "x": 76.58599853515625,
          "y": 120.0,
          "z": -246.1365509033203
        },
        {
          "x": 57.453582763671875,
          "y": 120.0,
          "z": -231.64686584472656
        }
      ],
      "bornRotateList": [
        {
          "y": 217.1379852294922
        },
        {
          "y": 217.1379852294922
        },
        {
          "y": 217.1379852294922
        },
        {
          "y": 217.1379852294922
        }
      ],
      "vehicleRadius": 6.0,
      "titleTextID": "UI_STC_INTEE_VEHICLESUMMON"
    },
    "25": {
      "$type": "HMIJBPDDAEA",
      "gadgetId": 70010001,
      "areaId": 100,
      "pos": {
        "x": -249.5290069580078,
        "y": 120.0073013305664,
        "z": 490.6112976074219
      },
      "tranPos": {
        "x": -249.52899169921875,
        "y": 120.00732421875,
        "z": 490.61126708984375
      },
      "specialTipsIconPath": "",
      "buildingType": "BounceConjuringNPC"
    },
    "27": {
      "$type": "HMIJBPDDAEA",
      "gadgetId": 70010001,
      "areaId": 103,
      "pos": {
        "x": -254.29710388183594,
        "y": 127.83190155029297,
        "z": 465.276611328125
      },
      "tranPos": {
        "x": -254.82110595703125,
        "y": 127.72589874267578,
        "z": 465.2842102050781
      },
      "specialTipsIconPath": "",
      "buildingType": "Alchemy"
    },
    "28": {
      "$type": "AMJNJLDNPLN",
      "gadgetId": 70110002,
      "areaId": 103,
      "pos": {
        "x": -285.5199890136719,
        "y": 120.04000091552734,
        "z": 429.0
      },
      "rot": {
        "y": 130.58099365234375
      },
      "tranPos": {
        "x": -280.7437438964844,
        "y": 121.28700256347656,
        "z": 430.44464111328125
      },
      "tranRot": {
        "y": 343.2738342285156
      },
      "specialTipsIconPath": "",
      "portalShape": ""
    },
    "29": {
      "$type": "AMJNJLDNPLN",
      "gadgetId": 70110002,
      "areaId": 101,
      "pos": {
        "x": 180.05999755859375,
        "y": 121.31999969482422,
        "z": -223.00999450683594
      },
      "rot": {
        "y": 309.5559997558594
      },
      "tranPos": {
        "x": 175.4375457763672,
        "y": 122.11774444580078,
        "z": -218.3053741455078
      },
      "tranRot": {
        "y": 319.3385009765625
      },
      "specialTipsIconPath": "",
      "portalShape": ""
    },
    "3": {
      "$type": "AMJNJLDNPLN",
      "KPGKDHAFHFE": "TOWER",
      "gadgetId": 70360001,
      "areaId": 101,
      "pos": {
        "x": 585.982421875,
        "y": 287.2810974121094,
        "z": -506.3970031738281
      },
      "rot": {
        "y": 113.0813980102539
      },
      "tranPos": {
        "x": 583.9703979492188,
        "y": 289.964111328125,
        "z": -509.681640625
      },
      "tranRot": {
        "y": 323.90625
      },
      "specialTipsIconPath": "",
      "isForbidAvatarRevive": true,
      "isForbidAvatarAutoUseSpring": true,
      "mapVisibility": "Never",
      "portalShape": ""
    },
    "30": {
      "$type": "AMJNJLDNPLN",
      "gadgetId": 70110002,
      "areaId": 102,
      "pos": {
        "x": 660.1900024414062,
        "y": 120.70999908447266,
        "z": 220.36000061035156
      },
      "tranPos": {
        "x": 660.4890747070312,
        "y": 120.70999908447266,
        "z": 217.78216552734375
      },
      "tranRot": {
        "y": 229.41900634765625
      },
      "specialTipsIconPath": "",
      "portalShape": ""
    },
    "5": {
      "$type": "AMJNJLDNPLN",
      "KPGKDHAFHFE": "TOWER",
      "gadgetId": 70360001,
      "areaId": 102,
      "pos": {
        "x": 210.3135986328125,
        "y": 215.21949768066406,
        "z": 316.03759765625
      },
      "tranPos": {
        "x": 214.0357666015625,
        "y": 214.4300079345703,
        "z": 319.2242431640625
      },
      "tranRot": {
        "y": 115.52790069580078
      },
      "specialTipsIconPath": "",
      "isForbidAvatarRevive": true,
      "isForbidAvatarAutoUseSpring": true,
      "mapVisibility": "Never",
      "portalShape": ""
    },
    "6": {
      "$type": "AMJNJLDNPLN",
      "KPGKDHAFHFE": "TOWER",
      "gadgetId": 70360001,
      "areaId": 103,
      "pos": {
        "x": -624.3270263671875,
        "y": 207.62010192871094,
        "z": 32.061370849609375
      },
      "tranPos": {
        "x": -620.4610595703125,
        "y": 208.35516357421875,
        "z": 31.7891845703125
      },
      "tranRot": {
        "y": 90.99160766601562
      },
      "specialTipsIconPath": "",
      "isForbidAvatarRevive": true,
      "isForbidAvatarAutoUseSpring": true,
      "mapVisibility": "Never",
      "portalShape": ""
    },
    "7": {
      "$type": "BOCJLBPLONJ",
      "gadgetId": 70370273,
      "areaId": 101,
      "pos": {
        "x": 472.76220703125,
        "y": 200.2554931640625,
        "z": -431.87109375
      },
      "rot": {
        "y": 60.14780044555664
      },
      "specialTipsIconPath": "",
      "vehicleType": "Skiff",
      "vehicleGadgetId": 45001001,
      "bornPointList": [
        {
          "x": 477.9452209472656,
          "y": 200.452392578125,
          "z": -423.4820861816406
        },
        {
          "x": 482.4303283691406,
          "y": 200.452392578125,
          "z": -430.1065979003906
        },
        {
          "x": 473.46014404296875,
          "y": 200.452392578125,
          "z": -416.85760498046875
        },
        {
          "x": 486.9154052734375,
          "y": 200.452392578125,
          "z": -436.7310791015625
        }
      ],
      "bornRotateList": [
        {
          "y": 55.900238037109375
        },
        {
          "y": 55.900238037109375
        },
        {
          "y": 55.900238037109375
        },
        {
          "y": 55.900238037109375
        }
      ],
      "vehicleRadius": 6.0,
      "titleTextID": "UI_STC_INTEE_VEHICLESUMMON"
    },
    "8": {
      "$type": "AMJNJLDNPLN",
      "gadgetId": 70110002,
      "areaId": 101,
      "pos": {
        "x": 585.982421875,
        "y": 287.2810974121094,
        "z": -506.3970031738281
      },
      "rot": {
        "y": 123.91729736328125
      },
      "tranPos": {
        "x": 584.0552978515625,
        "y": 290.0245056152344,
        "z": -509.60284423828125
      },
      "tranRot": {
        "x": -0.0002418949588900432,
        "y": 320.0270080566406,
        "z": 0.00010684414155548438
      },
      "specialTipsIconPath": "",
      "showOnLockedArea": true,
      "portalShape": ""
    },
    "9": {
      "$type": "AMJNJLDNPLN",
      "gadgetId": 70110002,
      "areaId": 102,
      "pos": {
        "x": 210.3135986328125,
        "y": 215.21949768066406,
        "z": 316.03759765625
      },
      "rot": {
        "y": 193.04010009765625
      },
      "tranPos": {
        "x": 214.02456665039062,
        "y": 214.4429473876953,
        "z": 319.19677734375
      },
      "tranRot": {
        "y": 118.97404479980469
      },
      "specialTipsIconPath": "",
      "showOnLockedArea": true,
      "portalShape": ""
    }
  },
  "entities": {
    "1": {
      "$type": "CKFMNEGHAAA",
      "gadgetId": 70010006,
      "areaId": 103,
      "pos": {
        "x": -725.884521484375,
        "y": 35.7876091003418,
        "z": 403.7340087890625
      },
      "unlocked": true,
      "specialTipsIconPath": "",
      "checkDist": 500.0,
      "withGO": true,
      "triggerFlag": "NoReviveRegion",
      "shape": {
        "$type": "EHOAKHCMJJG",
        "useHeight": true,
        "height": 50.0,
        "centerType": "Center",
        "width": 50.0,
        "length": 50.0
      },
      "checkCount": 50,
      "stringParam": "",
      "GKKIDIIHHKF": {}
    }
  },
  "PKMCOKMHOGL": {}
}