{
  "points": {
    "1": {
      "$type": "LNAKBOHDJCM",
      "gadgetId": 70120004,
      "pos": {
        "x": -0.006253629922866821,
        "y": 11.589369773864746,
        "z": -56.692928314208984
      },
      "specialTipsIconPath": "",
      "size": {
        "x": 5.0,
        "y": 5.0,
        "z": 5.0
      }
    }
  },
  "entities": {
    "1": {
      "$type": "CKFMNEGHAAA",
      "gadgetId": 70010006,
      "pos": {
        "x": 0.13550299406051636,
        "y": -20.007530212402344,
        "z": 21.86665916442871
      },
      "specialTipsIconPath": "",
      "checkDist": 300.0,
      "triggerFlag": "DeadRegion",
      "shape": {
        "$type": "EHOAKHCMJJG",
        "useHeight": true,
        "height": 40.0,
        "centerType": "Center",
        "width": 300.0,
        "length": 300.0
      },
      "stringParam": "",
      "GKKIDIIHHKF": {}
    },
    "2": {
      "$type": "CKFMNEGHAAA",
      "gadgetId": 70010006,
      "pos": {
        "x": 64.62786102294922,
        "y": 44.12202835083008,
        "z": 21.86665916442871
      },
      "specialTipsIconPath": "",
      "checkDist": 200.0,
      "triggerFlag": "DeadRegion",
      "shape": {
        "$type": "EHOAKHCMJJG",
        "useHeight": true,
        "height": 100.0,
        "centerType": "Center",
        "width": 50.0,
        "length": 250.0
      },
      "stringParam": "",
      "GKKIDIIHHKF": {}
    },
    "3": {
      "$type": "CKFMNEGHAAA",
      "gadgetId": 70010006,
      "pos": {
        "x": -76.83979034423828,
        "y": 44.12202835083008,
        "z": 21.86665916442871
      },
      "specialTipsIconPath": "",
      "checkDist": 200.0,
      "triggerFlag": "DeadRegion",
      "shape": {
        "$type": "EHOAKHCMJJG",
        "useHeight": true,
        "height": 100.0,
        "centerType": "Center",
        "width": 50.0,
        "length": 250.0
      },
      "stringParam": "",
      "GKKIDIIHHKF": {}
    },
    "4": {
      "$type": "CKFMNEGHAAA",
      "gadgetId": 70010006,
      "pos": {
        "x": 0.37000471353530884,
        "y": 44.12202835083008,
        "z": -95.69053649902344
      },
      "specialTipsIconPath": "",
      "checkDist": 200.0,
      "triggerFlag": "DeadRegion",
      "shape": {
        "$type": "EHOAKHCMJJG",
        "useHeight": true,
        "height": 100.0,
        "centerType": "Center",
        "width": 200.0,
        "length": 50.0
      },
      "stringParam": "",
      "GKKIDIIHHKF": {}
    },
    "5": {
      "$type": "CKFMNEGHAAA",
      "gadgetId": 70010006,
      "pos": {
        "x": 0.37000471353530884,
        "y": 44.12202835083008,
        "z": 145.0399932861328
      },
      "specialTipsIconPath": "",
      "checkDist": 200.0,
      "triggerFlag": "DeadRegion",
      "shape": {
        "$type": "EHOAKHCMJJG",
        "useHeight": true,
        "height": 100.0,
        "centerType": "Center",
        "width": 200.0,
        "length": 50.0
      },
      "stringParam": "",
      "GKKIDIIHHKF": {}
    },
    "6": {
      "$type": "CKFMNEGHAAA",
      "gadgetId": 70010006,
      "pos": {
        "x": 0.13550299406051636,
        "y": -19.950639724731445,
        "z": 21.86665916442871
      },
      "specialTipsIconPath": "",
      "checkDist": 300.0,
      "triggerFlag": "NoReviveRegion",
      "shape": {
        "$type": "EHOAKHCMJJG",
        "useHeight": true,
        "height": 40.0,
        "centerType": "Center",
        "width": 300.0,
        "length": 300.0
      },
      "stringParam": "",
      "GKKIDIIHHKF": {}
    },
    "7": {
      "$type": "CKFMNEGHAAA",
      "gadgetId": 70010006,
      "pos": {
        "x": 0.13550299406051636,
        "y": -13.773110389709473,
        "z": -17.807889938354492
      },
      "specialTipsIconPath": "",
      "checkDist": 300.0,
      "triggerFlag": "NoReviveRegion",
      "shape": {
        "$type": "EHOAKHCMJJG",
        "useHeight": true,
        "height": 40.0,
        "centerType": "Center",
        "width": 80.0,
        "length": 110.0
      },
      "stringParam": "",
      "GKKIDIIHHKF": {}
    }
  },
  "PKMCOKMHOGL": {}
}