{
  "points": {
    "1": {
      "$type": "IKODEMPGNGF",
      "gadgetId": 70010002,
      "pos": {
        "x": 43.45304870605469,
        "y": 0.23552410304546356,
        "z": 1.9364819526672363
      },
      "tranPos": {
        "x": 4021.412109375,
        "y": 575.0,
        "z": 5036.63720703125
      },
      "unlocked": true,
      "specialTipsIconPath": "",
      "tranSceneId": 3,
      "titleTextID": "UI_SCENE_ENTRY_EXIT_Xgw",
      "triggerSize": {
        "x": 3.0,
        "y": 3.0,
        "z": 3.0
      }
    }
  },
  "PKMCOKMHOGL": {}
}