{
  "entities": {
    "1": {
      "$type": "CKFMNEGHAAA",
      "gadgetId": 70010006,
      "pos": {
        "x": 37.6810302734375,
        "y": 170.66290283203125,
        "z": -83.15966796875
      },
      "specialTipsIconPath": "",
      "triggerFlag": "DeadRegion",
      "shape": {
        "$type": "EHOAKHCMJJG",
        "useHeight": true,
        "height": 40.0,
        "width": 50.0,
        "length": 50.0
      },
      "stringParam": "",
      "GKKIDIIHHKF": {}
    },
    "2": {
      "$type": "CKFMNEGHAAA",
      "gadgetId": 70010006,
      "pos": {
        "x": -2.5177578926086426,
        "y": 141.52389526367188,
        "z": -85.67579650878906
      },
      "specialTipsIconPath": "",
      "triggerFlag": "DeadRegion",
      "shape": {
        "$type": "EHOAKHCMJJG",
        "useHeight": true,
        "height": 40.0,
        "width": 70.0,
        "length": 70.0
      },
      "stringParam": "",
      "GKKIDIIHHKF": {}
    },
    "3": {
      "$type": "CKFMNEGHAAA",
      "gadgetId": 70010006,
      "pos": {
        "x": -59.6268310546875,
        "y": 111.24720001220703,
        "z": -112.53710174560547
      },
      "specialTipsIconPath": "",
      "triggerFlag": "DeadRegion",
      "shape": {
        "$type": "EHOAKHCMJJG",
        "useHeight": true,
        "height": 40.0,
        "width": 70.0,
        "length": 70.0
      },
      "stringParam": "",
      "GKKIDIIHHKF": {}
    },
    "4": {
      "$type": "CKFMNEGHAAA",
      "gadgetId": 70010006,
      "pos": {
        "x": -54.868099212646484,
        "y": 82.70011901855469,
        "z": -61.98740005493164
      },
      "specialTipsIconPath": "",
      "triggerFlag": "DeadRegion",
      "shape": {
        "$type": "EHOAKHCMJJG",
        "useHeight": true,
        "height": 40.0,
        "width": 70.0,
        "length": 70.0
      },
      "stringParam": "",
      "GKKIDIIHHKF": {}
    },
    "5": {
      "$type": "CKFMNEGHAAA",
      "gadgetId": 70010006,
      "pos": {
        "x": -74.6073989868164,
        "y": 52.23469924926758,
        "z": -11.240099906921387
      },
      "specialTipsIconPath": "",
      "triggerFlag": "DeadRegion",
      "shape": {
        "$type": "EHOAKHCMJJG",
        "useHeight": true,
        "height": 40.0,
        "width": 70.0,
        "length": 70.0
      },
      "stringParam": "",
      "GKKIDIIHHKF": {}
    }
  },
  "PKMCOKMHOGL": {}
}