{
  "points": {
    "1": {
      "$type": "LNAKBOHDJCM",
      "KPGKDHAFHFE": "TOWER",
      "gadgetId": 70120004,
      "pos": {
        "x": 32.38697052001953,
        "y": 3.1199870109558105,
        "z": 127.01860046386719
      },
      "tranPos": {
        "x": 35.93177795410156,
        "y": 3.1199874877929688,
        "z": 123.58773040771484
      },
      "specialTipsIconPath": "",
      "size": {
        "x": 3.0,
        "y": 3.0,
        "z": 3.0
      }
    }
  },
  "entities": {
    "9": {
      "$type": "CKFMNEGHAAA",
      "gadgetId": 70010006,
      "pos": {
        "x": 11.560420036315918,
        "y": -38.328941345214844,
        "z": 104.09130096435547
      },
      "unlocked": true,
      "specialTipsIconPath": "",
      "triggerFlag": "NoReviveRegion",
      "shape": {
        "$type": "EHOAKHCMJJG",
        "useHeight": true,
        "height": 20.0,
        "centerType": "Center",
        "width": 300.0,
        "length": 300.0
      },
      "stringParam": "",
      "GKKIDIIHHKF": {}
    }
  },
  "PKMCOKMHOGL": {}
}