{
  "points": {
    "1": {
      "$type": "LNAKBOHDJCM",
      "gadgetId": 70360297,
      "pos": {
        "x": 304.4881896972656,
        "y": -3.1389970779418945,
        "z": 79.3737564086914
      },
      "tranPos": {
        "x": 305.36627197265625,
        "y": -3.1389966011047363,
        "z": 79.37376403808594
      },
      "specialTipsIconPath": "",
      "size": {
        "x": 5.0,
        "y": 5.0,
        "z": 5.0
      }
    }
  },
  "PKMCOKMHOGL": {}
}