{
  "luaDataPath": "",
  "isSimpleTalk": true,
  "entityBan": "",
  "disableNpcLod": true,
  "startFade": {
    "startFadeOutDuration": 0.0
  },
  "endFade": {
    "startFadeOutDuration": 0.0
  },
  "actors": [
    {
      "alias": "Avatar",
      "visible": true,
      "bornPointName": "Q3_72113_First_Player",
      "relativePosNpcAlias": "",
      "_bindMovingTargetKey": ""
    },
    {
      "configID": 20317,
      "alias": "20317",
      "visible": true,
      "bornPointName": "Q3_72112_01",
      "relativePosNpcAlias": "",
      "_bindMovingTargetKey": ""
    },
    {
      "configID": 1005,
      "alias": "1005",
      "visible": true,
      "bornPointName": "Q3_72113_First_Paimon",
      "relativePosNpcAlias": "",
      "_bindMovingTargetKey": ""
    }
  ],
  "group": [
    [
      {
        "$type": "EFHODGEJOHJ",
        "type": "CAMERA_FOCUS",
        "duration": 0.10000000149011612,
        "targetNpcAlias": "",
        "PHGBNNGCJKJ": "",
        "NFILMKCFHEB": "",
        "BGPNGHDAECF": ""
      },
      {
        "$type": "MoleMole.Config.ConfigTimeProtectAction",
        "type": "TIME_PROTECT",
        "duration": 0.10000000149011612
      }
    ],
    [
      {
        "$type": "MJFAIFFAGOF",
        "type": "DIALOG",
        "aliasList": [
          "20317"
        ],
        "dialogID": 721130101,
        "protectTime": 0.5
      }
    ],
    [
      {
        "$type": "OBCDECFOOBC",
        "type": "DIALOG_SELECT",
        "delayTime": 0.4000000059604645,
        "aliasList": [
          "Avatar"
        ],
        "dialogIDList": [
          721130103
        ],
        "grpIDList": [
          2083935318
        ],
        "useGrpId": true
      },
      {
        "$type": "MJFAIFFAGOF",
        "type": "DIALOG",
        "aliasList": [
          "1005"
        ],
        "dialogID": 721130102,
        "protectTime": 0.5
      }
    ],
    [
      {
        "$type": "OBCDECFOOBC",
        "type": "DIALOG_SELECT",
        "delayTime": 0.4000000059604645,
        "aliasList": [
          "Avatar"
        ],
        "dialogIDList": [
          721130105
        ],
        "grpIDList": [
          2083935319
        ],
        "useGrpId": true
      },
      {
        "$type": "MJFAIFFAGOF",
        "type": "DIALOG",
        "aliasList": [
          "20317"
        ],
        "dialogID": 721130104,
        "protectTime": 0.5
      }
    ],
    [
      {
        "$type": "OBCDECFOOBC",
        "type": "DIALOG_SELECT",
        "delayTime": 0.4000000059604645,
        "aliasList": [
          "Avatar"
        ],
        "dialogIDList": [
          721130107
        ],
        "grpIDList": [
          2083935320
        ],
        "useGrpId": true
      },
      {
        "$type": "MJFAIFFAGOF",
        "type": "DIALOG",
        "aliasList": [
          "20317"
        ],
        "dialogID": 721130106,
        "protectTime": 0.5
      }
    ],
    [
      {
        "$type": "MJFAIFFAGOF",
        "type": "DIALOG",
        "aliasList": [
          "20317"
        ],
        "dialogID": 721130108,
        "protectTime": 0.5
      }
    ],
    [
      {
        "$type": "MJFAIFFAGOF",
        "type": "DIALOG",
        "aliasList": [
          "1005"
        ],
        "dialogID": 721130109,
        "protectTime": 0.5
      }
    ],
    [
      {
        "$type": "MJFAIFFAGOF",
        "type": "DIALOG",
        "aliasList": [
          "20317"
        ],
        "dialogID": 721130110,
        "protectTime": 0.5
      }
    ],
    [
      {
        "$type": "OBCDECFOOBC",
        "type": "DIALOG_SELECT",
        "delayTime": 0.4000000059604645,
        "aliasList": [
          "Avatar"
        ],
        "dialogIDList": [
          721130112
        ],
        "grpIDList": [
          177485373
        ],
        "useGrpId": true
      },
      {
        "$type": "MJFAIFFAGOF",
        "type": "DIALOG",
        "aliasList": [
          "1005"
        ],
        "dialogID": 721130111,
        "protectTime": 0.5
      }
    ],
    [
      {
        "$type": "MJFAIFFAGOF",
        "type": "DIALOG",
        "aliasList": [
          "20317"
        ],
        "dialogID": 721130113,
        "protectTime": 0.5
      }
    ],
    [
      {
        "$type": "MJFAIFFAGOF",
        "type": "DIALOG",
        "aliasList": [
          "1005"
        ],
        "dialogID": 721130114,
        "protectTime": 0.5
      }
    ],
    [
      {
        "$type": "MJFAIFFAGOF",
        "type": "DIALOG",
        "aliasList": [
          "20317"
        ],
        "dialogID": 721130115,
        "protectTime": 0.5
      }
    ],
    [
      {
        "$type": "MJFAIFFAGOF",
        "type": "DIALOG",
        "aliasList": [
          "20317"
        ],
        "dialogID": 721130116,
        "protectTime": 0.5
      }
    ],
    [
      {
        "$type": "MJFAIFFAGOF",
        "type": "DIALOG",
        "aliasList": [
          "20317"
        ],
        "dialogID": 721130117,
        "protectTime": 0.5
      }
    ],
    [
      {
        "$type": "MJFAIFFAGOF",
        "type": "DIALOG",
        "aliasList": [
          "1005"
        ],
        "dialogID": 721130118,
        "protectTime": 0.5
      }
    ],
    [
      {
        "$type": "MJFAIFFAGOF",
        "type": "DIALOG",
        "aliasList": [
          "1005"
        ],
        "dialogID": 721130119,
        "protectTime": 0.5
      }
    ],
    [
      {
        "$type": "MoleMole.Config.ConfigTimeProtectAction",
        "type": "TIME_PROTECT",
        "duration": 0.10000000149011612
      }
    ]
  ],
  "groupId": [
    {
      "grpId": 2083935315,
      "nextGrpId": 2083935316
    },
    {
      "index": 1,
      "grpId": 2083935316,
      "nextGrpId": 2083935317
    },
    {
      "index": 2,
      "grpId": 2083935317,
      "nextGrpId": 2083935318
    },
    {
      "index": 3,
      "grpId": 2083935318,
      "nextGrpId": 2083935319
    },
    {
      "index": 4,
      "grpId": 2083935319,
      "nextGrpId": 2083935320
    },
    {
      "index": 5,
      "grpId": 2083935320,
      "nextGrpId": 2083935321
    },
    {
      "index": 6,
      "grpId": 2083935321,
      "nextGrpId": 2083935322
    },
    {
      "index": 7,
      "grpId": 2083935322,
      "nextGrpId": 2083935323
    },
    {
      "index": 8,
      "grpId": 2083935323,
      "nextGrpId": 177485373
    },
    {
      "index": 9,
      "grpId": 177485373,
      "nextGrpId": 177485374
    },
    {
      "index": 10,
      "grpId": 177485374,
      "nextGrpId": 177485375
    },
    {
      "index": 11,
      "grpId": 177485375,
      "nextGrpId": 177485376
    },
    {
      "index": 12,
      "grpId": 177485376,
      "nextGrpId": 177485377
    },
    {
      "index": 13,
      "grpId": 177485377,
      "nextGrpId": 177485378
    },
    {
      "index": 14,
      "grpId": 177485378,
      "nextGrpId": 177485379
    },
    {
      "index": 15,
      "grpId": 177485379,
      "nextGrpId": 177485380
    },
    {
      "index": 16,
      "grpId": 177485380,
      "nextGrpId": 177485381
    }
  ],
  "freeStyleDic": {
    "20317": []
  }
}