{
  "talkId": 37,
  "KPGKDHAFHFE": "COOP",
  "dialogList": [
    {
      "id": 1900901101,
      "nextDialogs": [
        1900901102
      ],
      "talkRole": {
        "type": "TALK_ROLE_NPC",
        "_id": "501"
      },
      "talkContentTextMapHash": 3188549557,
      "talkAssetPath": "",
      "talkAssetPathAlter": "",
      "talkAudioName": "",
      "actionBefore": "",
      "actionWhile": "",
      "actionAfter": "",
      "optionIcon": "",
      "iconPath": ""
    },
    {
      "id": 1900901102,
      "nextDialogs": [
        1900901103
      ],
      "talkRole": {
        "type": "TALK_ROLE_NPC",
        "_id": "163801"
      },
      "talkContentTextMapHash": 3773127253,
      "talkAssetPath": "",
      "talkAssetPathAlter": "",
      "talkAudioName": "",
      "actionBefore": "",
      "actionWhile": "",
      "actionAfter": "",
      "optionIcon": "",
      "iconPath": ""
    },
    {
      "id": 1900901103,
      "nextDialogs": [
        1900901104
      ],
      "talkRole": {
        "type": "TALK_ROLE_NPC",
        "_id": "501"
      },
      "talkContentTextMapHash": 3185014533,
      "talkAssetPath": "",
      "talkAssetPathAlter": "",
      "talkAudioName": "",
      "actionBefore": "",
      "actionWhile": "",
      "actionAfter": "",
      "optionIcon": "",
      "iconPath": ""
    },
    {
      "id": 1900901104,
      "nextDialogs": [
        1900901105
      ],
      "talkRole": {
        "type": "TALK_ROLE_NPC",
        "_id": "160401"
      },
      "talkContentTextMapHash": 2264555717,
      "talkAssetPath": "",
      "talkAssetPathAlter": "",
      "talkAudioName": "",
      "actionBefore": "",
      "actionWhile": "",
      "actionAfter": "",
      "optionIcon": "",
      "iconPath": ""
    },
    {
      "id": 1900901105,
      "nextDialogs": [
        1900901106
      ],
      "talkRole": {
        "type": "TALK_ROLE_NPC",
        "_id": "160401"
      },
      "talkContentTextMapHash": 3397112053,
      "talkAssetPath": "",
      "talkAssetPathAlter": "",
      "talkAudioName": "",
      "actionBefore": "",
      "actionWhile": "",
      "actionAfter": "",
      "optionIcon": "",
      "iconPath": ""
    },
    {
      "id": 1900901106,
      "nextDialogs": [
        1900901107
      ],
      "talkRole": {
        "type": "TALK_ROLE_NPC",
        "_id": "501"
      },
      "talkContentTextMapHash": 2057466957,
      "talkAssetPath": "",
      "talkAssetPathAlter": "",
      "talkAudioName": "",
      "actionBefore": "",
      "actionWhile": "",
      "actionAfter": "",
      "optionIcon": "",
      "iconPath": ""
    },
    {
      "id": 1900901107,
      "nextDialogs": [
        1900901108
      ],
      "talkRole": {
        "type": "TALK_ROLE_NPC",
        "_id": "145301"
      },
      "talkContentTextMapHash": 2004255013,
      "talkAssetPath": "",
      "talkAssetPathAlter": "",
      "talkAudioName": "",
      "actionBefore": "",
      "actionWhile": "",
      "actionAfter": "",
      "optionIcon": "",
      "iconPath": ""
    },
    {
      "id": 1900901108,
      "nextDialogs": [
        1900901109
      ],
      "talkRole": {
        "type": "TALK_ROLE_NPC",
        "_id": "501"
      },
      "talkContentTextMapHash": 2833129237,
      "talkAssetPath": "",
      "talkAssetPathAlter": "",
      "talkAudioName": "",
      "actionBefore": "",
      "actionWhile": "",
      "actionAfter": "",
      "optionIcon": "",
      "iconPath": ""
    },
    {
      "id": 1900901109,
      "nextDialogs": [
        1900901110
      ],
      "talkRole": {
        "type": "TALK_ROLE_NPC",
        "_id": "501"
      },
      "talkContentTextMapHash": 4190917085,
      "talkAssetPath": "",
      "talkAssetPathAlter": "",
      "talkAudioName": "",
      "actionBefore": "",
      "actionWhile": "",
      "actionAfter": "",
      "optionIcon": "",
      "iconPath": ""
    },
    {
      "id": 1900901110,
      "nextDialogs": [
        1900901111
      ],
      "talkRole": {
        "type": "TALK_ROLE_NPC",
        "_id": "163801"
      },
      "talkContentTextMapHash": 653256949,
      "talkAssetPath": "",
      "talkAssetPathAlter": "",
      "talkAudioName": "",
      "actionBefore": "",
      "actionWhile": "",
      "actionAfter": "",
      "optionIcon": "",
      "iconPath": ""
    },
    {
      "id": 1900901111,
      "nextDialogs": [
        1900901112
      ],
      "talkRole": {
        "type": "TALK_ROLE_NPC",
        "_id": "160401"
      },
      "talkContentTextMapHash": 410692045,
      "talkAssetPath": "",
      "talkAssetPathAlter": "",
      "talkAudioName": "",
      "actionBefore": "",
      "actionWhile": "",
      "actionAfter": "",
      "optionIcon": "",
      "iconPath": ""
    },
    {
      "id": 1900901112,
      "nextDialogs": [
        1900901113
      ],
      "talkRole": {
        "type": "TALK_ROLE_NPC",
        "_id": "145301"
      },
      "talkContentTextMapHash": 3265545501,
      "talkAssetPath": "",
      "talkAssetPathAlter": "",
      "talkAudioName": "",
      "actionBefore": "",
      "actionWhile": "",
      "actionAfter": "",
      "optionIcon": "",
      "iconPath": ""
    },
    {
      "id": 1900901113,
      "nextDialogs": [
        1900901114
      ],
      "talkRole": {
        "type": "TALK_ROLE_NPC",
        "_id": "501"
      },
      "talkContentTextMapHash": 3307902365,
      "talkAssetPath": "",
      "talkAssetPathAlter": "",
      "talkAudioName": "",
      "actionBefore": "",
      "actionWhile": "",
      "actionAfter": "",
      "optionIcon": "",
      "iconPath": ""
    },
    {
      "id": 1900901114,
      "nextDialogs": [
        1900901115
      ],
      "talkShowType": "TALK_SHOW_FORCE_SELECT",
      "talkRole": {
        "type": "TALK_ROLE_PLAYER",
        "_id": ""
      },
      "talkContentTextMapHash": 3514612189,
      "talkAssetPath": "",
      "talkAssetPathAlter": "",
      "talkAudioName": "",
      "actionBefore": "",
      "actionWhile": "",
      "actionAfter": "",
      "optionIcon": "",
      "iconPath": ""
    },
    {
      "id": 1900901115,
      "nextDialogs": [
        0
      ],
      "talkShowType": "TALK_SHOW_FORCE_SELECT",
      "talkRole": {
        "type": "TALK_ROLE_PLAYER",
        "_id": ""
      },
      "talkContentTextMapHash": 748118373,
      "talkAssetPath": "",
      "talkAssetPathAlter": "",
      "talkAudioName": "",
      "actionBefore": "",
      "actionWhile": "",
      "actionAfter": "",
      "optionIcon": "",
      "iconPath": ""
    }
  ]
}