{
  "talkId": 201,
  "KPGKDHAFHFE": "COOP",
  "dialogList": [
    {
      "id": 1900504101,
      "nextDialogs": [
        1900504102
      ],
      "talkRole": {
        "type": "TALK_ROLE_NPC",
        "_id": "501"
      },
      "talkContentTextMapHash": 3050287789,
      "talkAssetPath": "",
      "talkAssetPathAlter": "",
      "talkAudioName": "",
      "actionBefore": "",
      "actionWhile": "",
      "actionAfter": "",
      "optionIcon": "",
      "iconPath": ""
    },
    {
      "id": 1900504102,
      "nextDialogs": [
        1900504103
      ],
      "talkRole": {
        "type": "TALK_ROLE_NPC",
        "_id": "501"
      },
      "talkContentTextMapHash": 2031688621,
      "talkAssetPath": "",
      "talkAssetPathAlter": "",
      "talkAudioName": "",
      "actionBefore": "",
      "actionWhile": "",
      "actionAfter": "",
      "optionIcon": "",
      "iconPath": ""
    },
    {
      "id": 1900504103,
      "nextDialogs": [
        1900504104
      ],
      "talkShowType": "TALK_SHOW_FORCE_SELECT",
      "talkRole": {
        "type": "TALK_ROLE_PLAYER",
        "_id": ""
      },
      "talkContentTextMapHash": 1645113157,
      "talkAssetPath": "",
      "talkAssetPathAlter": "",
      "talkAudioName": "",
      "actionBefore": "",
      "actionWhile": "",
      "actionAfter": "",
      "optionIcon": "",
      "iconPath": ""
    },
    {
      "id": 1900504104,
      "nextDialogs": [
        1900504105
      ],
      "talkRole": {
        "type": "TALK_ROLE_NPC",
        "_id": "501"
      },
      "talkContentTextMapHash": 2090232173,
      "talkAssetPath": "",
      "talkAssetPathAlter": "",
      "talkAudioName": "",
      "actionBefore": "",
      "actionWhile": "",
      "actionAfter": "",
      "optionIcon": "",
      "iconPath": ""
    },
    {
      "id": 1900504105,
      "nextDialogs": [
        1900504106,
        1900504107
      ],
      "talkRole": {
        "type": "TALK_ROLE_NPC",
        "_id": "501"
      },
      "talkContentTextMapHash": 1120226229,
      "talkAssetPath": "",
      "talkAssetPathAlter": "",
      "talkAudioName": "",
      "actionBefore": "",
      "actionWhile": "",
      "actionAfter": "",
      "optionIcon": "",
      "iconPath": ""
    },
    {
      "id": 1900504106,
      "nextDialogs": [
        1900504109
      ],
      "talkShowType": "TALK_SHOW_FORCE_SELECT",
      "talkRole": {
        "type": "TALK_ROLE_PLAYER",
        "_id": ""
      },
      "talkContentTextMapHash": 3437095141,
      "talkAssetPath": "",
      "talkAssetPathAlter": "",
      "talkAudioName": "",
      "actionBefore": "",
      "actionWhile": "",
      "actionAfter": "",
      "optionIcon": "",
      "iconPath": ""
    },
    {
      "id": 1900504107,
      "nextDialogs": [
        1900504108
      ],
      "talkShowType": "TALK_SHOW_FORCE_SELECT",
      "talkRole": {
        "type": "TALK_ROLE_PLAYER",
        "_id": ""
      },
      "talkContentTextMapHash": 62729669,
      "talkAssetPath": "",
      "talkAssetPathAlter": "",
      "talkAudioName": "",
      "actionBefore": "",
      "actionWhile": "",
      "actionAfter": "",
      "optionIcon": "",
      "iconPath": ""
    },
    {
      "id": 1900504108,
      "nextDialogs": [
        1900504109
      ],
      "talkRole": {
        "type": "TALK_ROLE_NPC",
        "_id": "501"
      },
      "talkContentTextMapHash": 139571549,
      "talkAssetPath": "",
      "talkAssetPathAlter": "",
      "talkAudioName": "",
      "actionBefore": "",
      "actionWhile": "",
      "actionAfter": "",
      "optionIcon": "",
      "iconPath": ""
    },
    {
      "id": 1900504109,
      "nextDialogs": [
        1900504110
      ],
      "talkRole": {
        "type": "TALK_ROLE_NPC",
        "_id": "501"
      },
      "talkContentTextMapHash": 1642180821,
      "talkAssetPath": "",
      "talkAssetPathAlter": "",
      "talkAudioName": "",
      "actionBefore": "",
      "actionWhile": "",
      "actionAfter": "",
      "optionIcon": "",
      "iconPath": ""
    },
    {
      "id": 1900504110,
      "nextDialogs": [
        1900504111
      ],
      "talkRole": {
        "type": "TALK_ROLE_NPC",
        "_id": "501"
      },
      "talkContentTextMapHash": 2627299213,
      "talkAssetPath": "",
      "talkAssetPathAlter": "",
      "talkAudioName": "",
      "actionBefore": "",
      "actionWhile": "",
      "actionAfter": "",
      "optionIcon": "",
      "iconPath": ""
    },
    {
      "id": 1900504111,
      "nextDialogs": [
        1900504112
      ],
      "talkRole": {
        "type": "TALK_ROLE_NPC",
        "_id": "501"
      },
      "talkContentTextMapHash": 1762354877,
      "talkAssetPath": "",
      "talkAssetPathAlter": "",
      "talkAudioName": "",
      "actionBefore": "",
      "actionWhile": "",
      "actionAfter": "",
      "optionIcon": "",
      "iconPath": ""
    },
    {
      "id": 1900504112,
      "nextDialogs": [
        1900504113
      ],
      "talkRole": {
        "type": "TALK_ROLE_NPC",
        "_id": "501"
      },
      "talkContentTextMapHash": 88547909,
      "talkAssetPath": "",
      "talkAssetPathAlter": "",
      "talkAudioName": "",
      "actionBefore": "",
      "actionWhile": "",
      "actionAfter": "",
      "optionIcon": "",
      "iconPath": ""
    },
    {
      "id": 1900504113,
      "nextDialogs": [
        1900504114
      ],
      "talkRole": {
        "type": "TALK_ROLE_NPC",
        "_id": "501"
      },
      "talkContentTextMapHash": 489912885,
      "talkAssetPath": "",
      "talkAssetPathAlter": "",
      "talkAudioName": "",
      "actionBefore": "",
      "actionWhile": "",
      "actionAfter": "",
      "optionIcon": "",
      "iconPath": ""
    },
    {
      "id": 1900504114,
      "nextDialogs": [
        1900504115
      ],
      "talkRole": {
        "type": "TALK_ROLE_NPC",
        "_id": "501"
      },
      "talkContentTextMapHash": 16124365,
      "talkAssetPath": "",
      "talkAssetPathAlter": "",
      "talkAudioName": "",
      "actionBefore": "",
      "actionWhile": "",
      "actionAfter": "",
      "optionIcon": "",
      "iconPath": ""
    },
    {
      "id": 1900504115,
      "nextDialogs": [
        1900504116
      ],
      "talkRole": {
        "type": "TALK_ROLE_NPC",
        "_id": "501"
      },
      "talkContentTextMapHash": 3526904709,
      "talkAssetPath": "",
      "talkAssetPathAlter": "",
      "talkAudioName": "",
      "actionBefore": "",
      "actionWhile": "",
      "actionAfter": "",
      "optionIcon": "",
      "iconPath": ""
    },
    {
      "id": 1900504116,
      "nextDialogs": [
        1900504117,
        1900504118
      ],
      "talkRole": {
        "type": "TALK_ROLE_NPC",
        "_id": "501"
      },
      "talkContentTextMapHash": 2210016109,
      "talkAssetPath": "",
      "talkAssetPathAlter": "",
      "talkAudioName": "",
      "actionBefore": "",
      "actionWhile": "",
      "actionAfter": "",
      "optionIcon": "",
      "iconPath": ""
    },
    {
      "id": 1900504117,
      "nextDialogs": [
        1900504119
      ],
      "talkShowType": "TALK_SHOW_FORCE_SELECT",
      "talkRole": {
        "type": "TALK_ROLE_PLAYER",
        "_id": ""
      },
      "talkContentTextMapHash": 532518557,
      "talkAssetPath": "",
      "talkAssetPathAlter": "",
      "talkAudioName": "",
      "actionBefore": "",
      "actionWhile": "",
      "actionAfter": "",
      "optionIcon": "",
      "iconPath": ""
    },
    {
      "id": 1900504118,
      "nextDialogs": [
        1900504119
      ],
      "talkShowType": "TALK_SHOW_FORCE_SELECT",
      "talkRole": {
        "type": "TALK_ROLE_PLAYER",
        "_id": ""
      },
      "talkContentTextMapHash": 3777697085,
      "talkAssetPath": "",
      "talkAssetPathAlter": "",
      "talkAudioName": "",
      "actionBefore": "",
      "actionWhile": "",
      "actionAfter": "",
      "optionIcon": "",
      "iconPath": ""
    },
    {
      "id": 1900504119,
      "nextDialogs": [
        1900504120
      ],
      "talkRole": {
        "type": "TALK_ROLE_NPC",
        "_id": "501"
      },
      "talkContentTextMapHash": 4110218661,
      "talkAssetPath": "",
      "talkAssetPathAlter": "",
      "talkAudioName": "",
      "actionBefore": "",
      "actionWhile": "",
      "actionAfter": "",
      "optionIcon": "",
      "iconPath": ""
    },
    {
      "id": 1900504120,
      "nextDialogs": [
        1900504121
      ],
      "talkRole": {
        "type": "TALK_ROLE_NPC",
        "_id": "501"
      },
      "talkContentTextMapHash": 3721268485,
      "talkAssetPath": "",
      "talkAssetPathAlter": "",
      "talkAudioName": "",
      "actionBefore": "",
      "actionWhile": "",
      "actionAfter": "",
      "optionIcon": "",
      "iconPath": ""
    },
    {
      "id": 1900504121,
      "nextDialogs": [
        1900504122
      ],
      "talkRole": {
        "type": "TALK_ROLE_NPC",
        "_id": "501"
      },
      "talkContentTextMapHash": 3636187741,
      "talkAssetPath": "",
      "talkAssetPathAlter": "",
      "talkAudioName": "",
      "actionBefore": "",
      "actionWhile": "",
      "actionAfter": "",
      "optionIcon": "",
      "iconPath": ""
    },
    {
      "id": 1900504122,
      "nextDialogs": [
        1900504123,
        1900504124
      ],
      "talkRole": {
        "type": "TALK_ROLE_NPC",
        "_id": "501"
      },
      "talkContentTextMapHash": 794439517,
      "talkAssetPath": "",
      "talkAssetPathAlter": "",
      "talkAudioName": "",
      "actionBefore": "",
      "actionWhile": "",
      "actionAfter": "",
      "optionIcon": "",
      "iconPath": ""
    },
    {
      "id": 1900504123,
      "nextDialogs": [
        1900504125
      ],
      "talkShowType": "TALK_SHOW_FORCE_SELECT",
      "talkRole": {
        "type": "TALK_ROLE_PLAYER",
        "_id": ""
      },
      "talkContentTextMapHash": 2318937589,
      "talkAssetPath": "",
      "talkAssetPathAlter": "",
      "talkAudioName": "",
      "actionBefore": "",
      "actionWhile": "",
      "actionAfter": "",
      "optionIcon": "",
      "iconPath": ""
    },
    {
      "id": 1900504124,
      "nextDialogs": [
        1900504125
      ],
      "talkShowType": "TALK_SHOW_FORCE_SELECT",
      "talkRole": {
        "type": "TALK_ROLE_PLAYER",
        "_id": ""
      },
      "talkContentTextMapHash": 3560593765,
      "talkAssetPath": "",
      "talkAssetPathAlter": "",
      "talkAudioName": "",
      "actionBefore": "",
      "actionWhile": "",
      "actionAfter": "",
      "optionIcon": "",
      "iconPath": ""
    },
    {
      "id": 1900504125,
      "nextDialogs": [
        1900504126
      ],
      "talkRole": {
        "type": "TALK_ROLE_NPC",
        "_id": "501"
      },
      "talkContentTextMapHash": 2858177901,
      "talkAssetPath": "",
      "talkAssetPathAlter": "",
      "talkAudioName": "",
      "actionBefore": "",
      "actionWhile": "",
      "actionAfter": "",
      "optionIcon": "",
      "iconPath": ""
    },
    {
      "id": 1900504126,
      "nextDialogs": [
        1900504127
      ],
      "talkRole": {
        "type": "TALK_ROLE_NPC",
        "_id": "501"
      },
      "talkContentTextMapHash": 522927029,
      "talkAssetPath": "",
      "talkAssetPathAlter": "",
      "talkAudioName": "",
      "actionBefore": "",
      "actionWhile": "",
      "actionAfter": "",
      "optionIcon": "",
      "iconPath": ""
    },
    {
      "id": 1900504127,
      "nextDialogs": [
        1900504128
      ],
      "talkRole": {
        "type": "TALK_ROLE_NPC",
        "_id": "501"
      },
      "talkContentTextMapHash": 2905261413,
      "talkAssetPath": "",
      "talkAssetPathAlter": "",
      "talkAudioName": "",
      "actionBefore": "",
      "actionWhile": "",
      "actionAfter": "",
      "optionIcon": "",
      "iconPath": ""
    },
    {
      "id": 1900504128,
      "nextDialogs": [
        1900504129
      ],
      "talkRole": {
        "type": "TALK_ROLE_NPC",
        "_id": "501"
      },
      "talkContentTextMapHash": 605967765,
      "talkAssetPath": "",
      "talkAssetPathAlter": "",
      "talkAudioName": "",
      "actionBefore": "",
      "actionWhile": "",
      "actionAfter": "",
      "optionIcon": "",
      "iconPath": ""
    },
    {
      "id": 1900504129,
      "nextDialogs": [
        1900504130
      ],
      "talkRole": {
        "type": "TALK_ROLE_NPC",
        "_id": "501"
      },
      "talkContentTextMapHash": 1645279533,
      "talkAssetPath": "",
      "talkAssetPathAlter": "",
      "talkAudioName": "",
      "actionBefore": "",
      "actionWhile": "",
      "actionAfter": "",
      "optionIcon": "",
      "iconPath": ""
    },
    {
      "id": 1900504130,
      "nextDialogs": [
        1900504131
      ],
      "talkRole": {
        "type": "TALK_ROLE_NPC",
        "_id": "501"
      },
      "talkContentTextMapHash": 1730507797,
      "talkAssetPath": "",
      "talkAssetPathAlter": "",
      "talkAudioName": "",
      "actionBefore": "",
      "actionWhile": "",
      "actionAfter": "",
      "optionIcon": "",
      "iconPath": ""
    },
    {
      "id": 1900504131,
      "nextDialogs": [
        1900504132
      ],
      "talkRole": {
        "type": "TALK_ROLE_NPC",
        "_id": "501"
      },
      "talkContentTextMapHash": 3569315861,
      "talkAssetPath": "",
      "talkAssetPathAlter": "",
      "talkAudioName": "",
      "actionBefore": "",
      "actionWhile": "",
      "actionAfter": "",
      "optionIcon": "",
      "iconPath": ""
    },
    {
      "id": 1900504132,
      "nextDialogs": [
        0
      ],
      "talkRole": {
        "type": "TALK_ROLE_NPC",
        "_id": "501"
      },
      "talkContentTextMapHash": 1860906445,
      "talkAssetPath": "",
      "talkAssetPathAlter": "",
      "talkAudioName": "",
      "actionBefore": "",
      "actionWhile": "",
      "actionAfter": "",
      "optionIcon": "",
      "iconPath": ""
    }
  ]
}