{
  "talkId": 189,
  "KPGKDHAFHFE": "COOP",
  "dialogList": [
    {
      "id": 1900501301,
      "nextDialogs": [
        1900501302
      ],
      "talkRole": {
        "type": "TALK_ROLE_NPC",
        "_id": "10801"
      },
      "talkContentTextMapHash": 890828389,
      "talkAssetPath": "",
      "talkAssetPathAlter": "",
      "talkAudioName": "",
      "actionBefore": "",
      "actionWhile": "",
      "actionAfter": "",
      "optionIcon": "",
      "iconPath": ""
    },
    {
      "id": 1900501302,
      "nextDialogs": [
        1900501303
      ],
      "talkRole": {
        "type": "TALK_ROLE_NPC",
        "_id": "10801"
      },
      "talkContentTextMapHash": 2321014917,
      "talkAssetPath": "",
      "talkAssetPathAlter": "",
      "talkAudioName": "",
      "actionBefore": "",
      "actionWhile": "",
      "actionAfter": "",
      "optionIcon": "",
      "iconPath": ""
    },
    {
      "id": 1900501303,
      "nextDialogs": [
        1900501304
      ],
      "talkRole": {
        "type": "TALK_ROLE_NPC",
        "_id": "501"
      },
      "talkContentTextMapHash": 4154896589,
      "talkAssetPath": "",
      "talkAssetPathAlter": "",
      "talkAudioName": "",
      "actionBefore": "",
      "actionWhile": "",
      "actionAfter": "",
      "optionIcon": "",
      "iconPath": ""
    },
    {
      "id": 1900501304,
      "nextDialogs": [
        1900501305
      ],
      "talkRole": {
        "type": "TALK_ROLE_NPC",
        "_id": "501"
      },
      "talkContentTextMapHash": 3133252805,
      "talkAssetPath": "",
      "talkAssetPathAlter": "",
      "talkAudioName": "",
      "actionBefore": "",
      "actionWhile": "",
      "actionAfter": "",
      "optionIcon": "",
      "iconPath": ""
    },
    {
      "id": 1900501305,
      "nextDialogs": [
        0
      ],
      "talkRole": {
        "type": "TALK_ROLE_NPC",
        "_id": "501"
      },
      "talkContentTextMapHash": 1294606709,
      "talkAssetPath": "",
      "talkAssetPathAlter": "",
      "talkAudioName": "",
      "actionBefore": "",
      "actionWhile": "",
      "actionAfter": "",
      "optionIcon": "",
      "iconPath": ""
    }
  ]
}