{
  "talkId": 62,
  "KPGKDHAFHFE": "COOP",
  "dialogList": [
    {
      "id": 1900903201,
      "nextDialogs": [
        1900903202
      ],
      "talkRole": {
        "type": "TALK_ROLE_NPC",
        "_id": "160401"
      },
      "talkContentTextMapHash": 67185085,
      "talkAssetPath": "",
      "talkAssetPathAlter": "",
      "talkAudioName": "",
      "actionBefore": "",
      "actionWhile": "",
      "actionAfter": "",
      "optionIcon": "",
      "iconPath": ""
    },
    {
      "id": 1900903202,
      "nextDialogs": [
        1900903203
      ],
      "talkRole": {
        "type": "TALK_ROLE_NPC",
        "_id": "160401"
      },
      "talkContentTextMapHash": 3558073549,
      "talkAssetPath": "",
      "talkAssetPathAlter": "",
      "talkAudioName": "",
      "actionBefore": "",
      "actionWhile": "",
      "actionAfter": "",
      "optionIcon": "",
      "iconPath": ""
    },
    {
      "id": 1900903203,
      "nextDialogs": [
        0
      ],
      "talkShowType": "TALK_SHOW_FORCE_SELECT",
      "talkRole": {
        "type": "TALK_ROLE_PLAYER",
        "_id": ""
      },
      "talkContentTextMapHash": 158365325,
      "talkAssetPath": "",
      "talkAssetPathAlter": "",
      "talkAudioName": "",
      "actionBefore": "",
      "actionWhile": "",
      "actionAfter": "",
      "optionIcon": "",
      "iconPath": ""
    }
  ]
}