{
  "talkId": 220,
  "KPGKDHAFHFE": "COOP",
  "dialogList": [
    {
      "id": 1900801101,
      "nextDialogs": [
        1900801102
      ],
      "talkRole": {
        "type": "TALK_ROLE_NPC",
        "_id": "10802"
      },
      "talkContentTextMapHash": 2341474925,
      "talkAssetPath": "",
      "talkAssetPathAlter": "",
      "talkAudioName": "",
      "actionBefore": "",
      "actionWhile": "",
      "actionAfter": "",
      "optionIcon": "",
      "iconPath": ""
    },
    {
      "id": 1900801102,
      "nextDialogs": [
        1900801103,
        1900801104
      ],
      "talkRole": {
        "type": "TALK_ROLE_NPC",
        "_id": "501"
      },
      "talkContentTextMapHash": 619727325,
      "talkAssetPath": "",
      "talkAssetPathAlter": "",
      "talkAudioName": "",
      "actionBefore": "",
      "actionWhile": "",
      "actionAfter": "",
      "optionIcon": "",
      "iconPath": ""
    },
    {
      "id": 1900801103,
      "nextDialogs": [
        1900801105
      ],
      "talkShowType": "TALK_SHOW_FORCE_SELECT",
      "talkRole": {
        "type": "TALK_ROLE_PLAYER",
        "_id": ""
      },
      "talkContentTextMapHash": 1423836717,
      "talkAssetPath": "",
      "talkAssetPathAlter": "",
      "talkAudioName": "",
      "actionBefore": "",
      "actionWhile": "",
      "actionAfter": "",
      "optionIcon": "",
      "iconPath": ""
    },
    {
      "id": 1900801104,
      "nextDialogs": [
        1900801105
      ],
      "talkShowType": "TALK_SHOW_FORCE_SELECT",
      "talkRole": {
        "type": "TALK_ROLE_PLAYER",
        "_id": ""
      },
      "talkContentTextMapHash": 2624458501,
      "talkAssetPath": "",
      "talkAssetPathAlter": "",
      "talkAudioName": "",
      "actionBefore": "",
      "actionWhile": "",
      "actionAfter": "",
      "optionIcon": "",
      "iconPath": ""
    },
    {
      "id": 1900801105,
      "nextDialogs": [
        1900801106
      ],
      "talkRole": {
        "type": "TALK_ROLE_NPC",
        "_id": "10802"
      },
      "talkContentTextMapHash": 4246951413,
      "talkAssetPath": "",
      "talkAssetPathAlter": "",
      "talkAudioName": "",
      "actionBefore": "",
      "actionWhile": "",
      "actionAfter": "",
      "optionIcon": "",
      "iconPath": ""
    },
    {
      "id": 1900801107,
      "nextDialogs": [
        1900801108
      ],
      "talkRole": {
        "type": "TALK_ROLE_NPC",
        "_id": "501"
      },
      "talkContentTextMapHash": 3267391533,
      "talkAssetPath": "",
      "talkAssetPathAlter": "",
      "talkAudioName": "",
      "actionBefore": "",
      "actionWhile": "",
      "actionAfter": "",
      "optionIcon": "",
      "iconPath": ""
    },
    {
      "id": 1900801108,
      "nextDialogs": [
        1900801109
      ],
      "talkRole": {
        "type": "TALK_ROLE_NPC",
        "_id": "10802"
      },
      "talkContentTextMapHash": 2751941253,
      "talkAssetPath": "",
      "talkAssetPathAlter": "",
      "talkAudioName": "",
      "actionBefore": "",
      "actionWhile": "",
      "actionAfter": "",
      "optionIcon": "",
      "iconPath": ""
    },
    {
      "id": 1900801109,
      "nextDialogs": [
        1900801110
      ],
      "talkRole": {
        "type": "TALK_ROLE_NPC",
        "_id": "10802"
      },
      "talkContentTextMapHash": 3045914565,
      "talkAssetPath": "",
      "talkAssetPathAlter": "",
      "talkAudioName": "",
      "actionBefore": "",
      "actionWhile": "",
      "actionAfter": "",
      "optionIcon": "",
      "iconPath": ""
    },
    {
      "id": 1900801110,
      "nextDialogs": [
        1900801111
      ],
      "talkRole": {
        "type": "TALK_ROLE_NPC",
        "_id": "10802"
      },
      "talkContentTextMapHash": 4217868621,
      "talkAssetPath": "",
      "talkAssetPathAlter": "",
      "talkAudioName": "",
      "actionBefore": "",
      "actionWhile": "",
      "actionAfter": "",
      "optionIcon": "",
      "iconPath": ""
    },
    {
      "id": 1900801111,
      "nextDialogs": [
        1900801112
      ],
      "talkRole": {
        "type": "TALK_ROLE_NPC",
        "_id": "10802"
      },
      "talkContentTextMapHash": 2323142429,
      "talkAssetPath": "",
      "talkAssetPathAlter": "",
      "talkAudioName": "",
      "actionBefore": "",
      "actionWhile": "",
      "actionAfter": "",
      "optionIcon": "",
      "iconPath": ""
    },
    {
      "id": 1900801112,
      "nextDialogs": [
        1900801113
      ],
      "talkRole": {
        "type": "TALK_ROLE_NPC",
        "_id": "10802"
      },
      "talkContentTextMapHash": 207029445,
      "talkAssetPath": "",
      "talkAssetPathAlter": "",
      "talkAudioName": "",
      "actionBefore": "",
      "actionWhile": "",
      "actionAfter": "",
      "optionIcon": "",
      "iconPath": ""
    },
    {
      "id": 1900801113,
      "nextDialogs": [
        1900801114
      ],
      "talkRole": {
        "type": "TALK_ROLE_NPC",
        "_id": "10802"
      },
      "talkContentTextMapHash": 4036341229,
      "talkAssetPath": "",
      "talkAssetPathAlter": "",
      "talkAudioName": "",
      "actionBefore": "",
      "actionWhile": "",
      "actionAfter": "",
      "optionIcon": "",
      "iconPath": ""
    },
    {
      "id": 1900801114,
      "nextDialogs": [
        1900801115
      ],
      "talkRole": {
        "type": "TALK_ROLE_NPC",
        "_id": "501"
      },
      "talkContentTextMapHash": 2424816117,
      "talkAssetPath": "",
      "talkAssetPathAlter": "",
      "talkAudioName": "",
      "actionBefore": "",
      "actionWhile": "",
      "actionAfter": "",
      "optionIcon": "",
      "iconPath": ""
    },
    {
      "id": 1900801115,
      "nextDialogs": [
        1900801116
      ],
      "talkRole": {
        "type": "TALK_ROLE_NPC",
        "_id": "10802"
      },
      "talkContentTextMapHash": 2098456917,
      "talkAssetPath": "",
      "talkAssetPathAlter": "",
      "talkAudioName": "",
      "actionBefore": "",
      "actionWhile": "",
      "actionAfter": "",
      "optionIcon": "",
      "iconPath": ""
    },
    {
      "id": 1900801116,
      "nextDialogs": [
        1900801117
      ],
      "talkRole": {
        "type": "TALK_ROLE_NPC",
        "_id": "501"
      },
      "talkContentTextMapHash": 1981192157,
      "talkAssetPath": "",
      "talkAssetPathAlter": "",
      "talkAudioName": "",
      "actionBefore": "",
      "actionWhile": "",
      "actionAfter": "",
      "optionIcon": "",
      "iconPath": ""
    },
    {
      "id": 1900801117,
      "nextDialogs": [
        1900801118
      ],
      "talkRole": {
        "type": "TALK_ROLE_NPC",
        "_id": "501"
      },
      "talkContentTextMapHash": 1724628341,
      "talkAssetPath": "",
      "talkAssetPathAlter": "",
      "talkAudioName": "",
      "actionBefore": "",
      "actionWhile": "",
      "actionAfter": "",
      "optionIcon": "",
      "iconPath": ""
    },
    {
      "id": 1900801118,
      "nextDialogs": [
        1900801119
      ],
      "talkRole": {
        "type": "TALK_ROLE_NPC",
        "_id": "501"
      },
      "talkContentTextMapHash": 2476794589,
      "talkAssetPath": "",
      "talkAssetPathAlter": "",
      "talkAudioName": "",
      "actionBefore": "",
      "actionWhile": "",
      "actionAfter": "",
      "optionIcon": "",
      "iconPath": ""
    },
    {
      "id": 1900801119,
      "nextDialogs": [
        1900801120
      ],
      "talkRole": {
        "type": "TALK_ROLE_NPC",
        "_id": "10802"
      },
      "talkContentTextMapHash": 1371254173,
      "talkAssetPath": "",
      "talkAssetPathAlter": "",
      "talkAudioName": "",
      "actionBefore": "",
      "actionWhile": "",
      "actionAfter": "",
      "optionIcon": "",
      "iconPath": ""
    },
    {
      "id": 1900801120,
      "nextDialogs": [
        1900801121
      ],
      "talkRole": {
        "type": "TALK_ROLE_NPC",
        "_id": "10802"
      },
      "talkContentTextMapHash": 1517835805,
      "talkAssetPath": "",
      "talkAssetPathAlter": "",
      "talkAudioName": "",
      "actionBefore": "",
      "actionWhile": "",
      "actionAfter": "",
      "optionIcon": "",
      "iconPath": ""
    },
    {
      "id": 1900801121,
      "nextDialogs": [
        1900801122
      ],
      "talkRole": {
        "type": "TALK_ROLE_NPC",
        "_id": "10802"
      },
      "talkContentTextMapHash": 2711257517,
      "talkAssetPath": "",
      "talkAssetPathAlter": "",
      "talkAudioName": "",
      "actionBefore": "",
      "actionWhile": "",
      "actionAfter": "",
      "optionIcon": "",
      "iconPath": ""
    },
    {
      "id": 1900801122,
      "nextDialogs": [
        1900801123
      ],
      "talkRole": {
        "type": "TALK_ROLE_NPC",
        "_id": "10802"
      },
      "talkContentTextMapHash": 2143547989,
      "talkAssetPath": "",
      "talkAssetPathAlter": "",
      "talkAudioName": "",
      "actionBefore": "",
      "actionWhile": "",
      "actionAfter": "",
      "optionIcon": "",
      "iconPath": ""
    },
    {
      "id": 1900801123,
      "nextDialogs": [
        1900801124
      ],
      "talkRole": {
        "type": "TALK_ROLE_NPC",
        "_id": "10802"
      },
      "talkContentTextMapHash": 3782008125,
      "talkAssetPath": "",
      "talkAssetPathAlter": "",
      "talkAudioName": "",
      "actionBefore": "",
      "actionWhile": "",
      "actionAfter": "",
      "optionIcon": "",
      "iconPath": ""
    },
    {
      "id": 1900801124,
      "nextDialogs": [
        1900801125
      ],
      "talkRole": {
        "type": "TALK_ROLE_NPC",
        "_id": "501"
      },
      "talkContentTextMapHash": 4160477821,
      "talkAssetPath": "",
      "talkAssetPathAlter": "",
      "talkAudioName": "",
      "actionBefore": "",
      "actionWhile": "",
      "actionAfter": "",
      "optionIcon": "",
      "iconPath": ""
    },
    {
      "id": 1900801125,
      "nextDialogs": [
        1900801126
      ],
      "talkRole": {
        "type": "TALK_ROLE_NPC",
        "_id": "10802"
      },
      "talkContentTextMapHash": 4261728765,
      "talkAssetPath": "",
      "talkAssetPathAlter": "",
      "talkAudioName": "",
      "actionBefore": "",
      "actionWhile": "",
      "actionAfter": "",
      "optionIcon": "",
      "iconPath": ""
    },
    {
      "id": 1900801126,
      "nextDialogs": [
        1900801127
      ],
      "talkRole": {
        "type": "TALK_ROLE_NPC",
        "_id": "10802"
      },
      "talkContentTextMapHash": 4220906485,
      "talkAssetPath": "",
      "talkAssetPathAlter": "",
      "talkAudioName": "",
      "actionBefore": "",
      "actionWhile": "",
      "actionAfter": "",
      "optionIcon": "",
      "iconPath": ""
    },
    {
      "id": 1900801127,
      "nextDialogs": [
        1900801128
      ],
      "talkRole": {
        "type": "TALK_ROLE_NPC",
        "_id": "10802"
      },
      "talkContentTextMapHash": 3101793485,
      "talkAssetPath": "",
      "talkAssetPathAlter": "",
      "talkAudioName": "",
      "actionBefore": "",
      "actionWhile": "",
      "actionAfter": "",
      "optionIcon": "",
      "iconPath": ""
    },
    {
      "id": 1900801128,
      "nextDialogs": [
        1900801129
      ],
      "talkRole": {
        "type": "TALK_ROLE_NPC",
        "_id": "10802"
      },
      "talkContentTextMapHash": 813728229,
      "talkAssetPath": "",
      "talkAssetPathAlter": "",
      "talkAudioName": "",
      "actionBefore": "",
      "actionWhile": "",
      "actionAfter": "",
      "optionIcon": "",
      "iconPath": ""
    },
    {
      "id": 1900801129,
      "nextDialogs": [
        1900801130
      ],
      "talkRole": {
        "type": "TALK_ROLE_NPC",
        "_id": "10802"
      },
      "talkContentTextMapHash": 3375752261,
      "talkAssetPath": "",
      "talkAssetPathAlter": "",
      "talkAudioName": "",
      "actionBefore": "",
      "actionWhile": "",
      "actionAfter": "",
      "optionIcon": "",
      "iconPath": ""
    },
    {
      "id": 1900801130,
      "nextDialogs": [
        1900801131
      ],
      "talkRole": {
        "type": "TALK_ROLE_NPC",
        "_id": "501"
      },
      "talkContentTextMapHash": 1195450973,
      "talkAssetPath": "",
      "talkAssetPathAlter": "",
      "talkAudioName": "",
      "actionBefore": "",
      "actionWhile": "",
      "actionAfter": "",
      "optionIcon": "",
      "iconPath": ""
    },
    {
      "id": 1900801131,
      "nextDialogs": [
        1900801132
      ],
      "talkRole": {
        "type": "TALK_ROLE_NPC",
        "_id": "501"
      },
      "talkContentTextMapHash": 3416321581,
      "talkAssetPath": "",
      "talkAssetPathAlter": "",
      "talkAudioName": "",
      "actionBefore": "",
      "actionWhile": "",
      "actionAfter": "",
      "optionIcon": "",
      "iconPath": ""
    },
    {
      "id": 1900801132,
      "nextDialogs": [
        0
      ],
      "talkRole": {
        "type": "TALK_ROLE_NPC",
        "_id": "501"
      },
      "talkContentTextMapHash": 335497141,
      "talkAssetPath": "",
      "talkAssetPathAlter": "",
      "talkAudioName": "",
      "actionBefore": "",
      "actionWhile": "",
      "actionAfter": "",
      "optionIcon": "",
      "iconPath": ""
    }
  ]
}