{
  "talkId": 263,
  "KPGKDHAFHFE": "COOP",
  "dialogList": [
    {
      "id": 1900201721,
      "nextDialogs": [
        1900201722
      ],
      "talkRole": {
        "type": "TALK_ROLE_NPC",
        "_id": "160201"
      },
      "talkContentTextMapHash": 1976902029,
      "talkAssetPath": "",
      "talkAssetPathAlter": "",
      "talkAudioName": "",
      "actionBefore": "",
      "actionWhile": "",
      "actionAfter": "",
      "optionIcon": "",
      "iconPath": ""
    },
    {
      "id": 1900201722,
      "nextDialogs": [
        1900201723
      ],
      "talkRole": {
        "type": "TALK_ROLE_NPC",
        "_id": "160201"
      },
      "talkContentTextMapHash": 554837485,
      "talkAssetPath": "",
      "talkAssetPathAlter": "",
      "talkAudioName": "",
      "actionBefore": "",
      "actionWhile": "",
      "actionAfter": "",
      "optionIcon": "",
      "iconPath": ""
    },
    {
      "id": 1900201723,
      "nextDialogs": [
        1900201724
      ],
      "talkShowType": "TALK_SHOW_FORCE_SELECT",
      "talkRole": {
        "type": "TALK_ROLE_PLAYER",
        "_id": ""
      },
      "talkContentTextMapHash": 2993647357,
      "talkAssetPath": "",
      "talkAssetPathAlter": "",
      "talkAudioName": "",
      "actionBefore": "",
      "actionWhile": "",
      "actionAfter": "",
      "optionIcon": "",
      "iconPath": ""
    },
    {
      "id": 1900201724,
      "nextDialogs": [
        0
      ],
      "talkRole": {
        "type": "TALK_ROLE_NPC",
        "_id": "160201"
      },
      "talkContentTextMapHash": 158256357,
      "talkAssetPath": "",
      "talkAssetPathAlter": "",
      "talkAudioName": "",
      "actionBefore": "",
      "actionWhile": "",
      "actionAfter": "",
      "optionIcon": "",
      "iconPath": ""
    }
  ]
}