{
  "talkId": 61,
  "KPGKDHAFHFE": "COOP",
  "dialogList": [
    {
      "id": 190190901,
      "nextDialogs": [
        190190902
      ],
      "talkRole": {
        "type": "TALK_ROLE_NPC",
        "_id": "505"
      },
      "talkContentTextMapHash": 877201050,
      "talkAssetPath": "",
      "talkAssetPathAlter": "",
      "talkAudioName": "",
      "actionBefore": "",
      "actionWhile": "",
      "actionAfter": "",
      "optionIcon": "",
      "iconPath": ""
    },
    {
      "id": 190190902,
      "nextDialogs": [
        190190903
      ],
      "talkRole": {
        "type": "TALK_ROLE_NPC",
        "_id": "505"
      },
      "talkContentTextMapHash": 4021334098,
      "talkAssetPath": "",
      "talkAssetPathAlter": "",
      "talkAudioName": "",
      "actionBefore": "",
      "actionWhile": "",
      "actionAfter": "",
      "optionIcon": "",
      "iconPath": ""
    },
    {
      "id": 190190903,
      "nextDialogs": [
        190190904
      ],
      "talkRole": {
        "type": "TALK_ROLE_NPC",
        "_id": "505"
      },
      "talkContentTextMapHash": 3051897642,
      "talkAssetPath": "",
      "talkAssetPathAlter": "",
      "talkAudioName": "",
      "actionBefore": "",
      "actionWhile": "",
      "actionAfter": "",
      "optionIcon": "",
      "iconPath": ""
    },
    {
      "id": 190190904,
      "nextDialogs": [
        190190905
      ],
      "talkShowType": "TALK_SHOW_FORCE_SELECT",
      "talkRole": {
        "type": "TALK_ROLE_PLAYER",
        "_id": ""
      },
      "talkContentTextMapHash": 1884377690,
      "talkAssetPath": "",
      "talkAssetPathAlter": "",
      "talkAudioName": "",
      "actionBefore": "",
      "actionWhile": "",
      "actionAfter": "",
      "optionIcon": "",
      "iconPath": ""
    },
    {
      "id": 190190905,
      "nextDialogs": [
        190190906
      ],
      "talkRole": {
        "type": "TALK_ROLE_NPC",
        "_id": "505"
      },
      "talkContentTextMapHash": 3787085482,
      "talkAssetPath": "",
      "talkAssetPathAlter": "",
      "talkAudioName": "",
      "actionBefore": "",
      "actionWhile": "",
      "actionAfter": "",
      "optionIcon": "",
      "iconPath": ""
    },
    {
      "id": 190190906,
      "nextDialogs": [
        190190907
      ],
      "talkRole": {
        "type": "TALK_ROLE_NPC",
        "_id": "505"
      },
      "talkContentTextMapHash": 330790978,
      "talkAssetPath": "",
      "talkAssetPathAlter": "",
      "talkAudioName": "",
      "actionBefore": "",
      "actionWhile": "",
      "actionAfter": "",
      "optionIcon": "",
      "iconPath": ""
    },
    {
      "id": 190190907,
      "talkRole": {
        "type": "TALK_ROLE_NPC",
        "_id": "505"
      },
      "talkContentTextMapHash": 3562759210,
      "talkAssetPath": "",
      "talkAssetPathAlter": "",
      "talkAudioName": "",
      "actionBefore": "",
      "actionWhile": "",
      "actionAfter": "",
      "optionIcon": "",
      "iconPath": ""
    }
  ]
}