{
  "talkId": 165,
  "KPGKDHAFHFE": "COOP",
  "dialogList": [
    {
      "id": 190130701,
      "nextDialogs": [
        190130702
      ],
      "talkRole": {
        "type": "TALK_ROLE_NPC",
        "_id": "504"
      },
      "talkContentTextMapHash": 2309029994,
      "talkAssetPath": "",
      "talkAssetPathAlter": "",
      "talkAudioName": "",
      "actionBefore": "",
      "actionWhile": "",
      "actionAfter": "",
      "optionIcon": "",
      "iconPath": ""
    },
    {
      "id": 190130702,
      "nextDialogs": [
        190130703
      ],
      "talkRole": {
        "type": "TALK_ROLE_NPC",
        "_id": "504"
      },
      "talkContentTextMapHash": 566676874,
      "talkAssetPath": "",
      "talkAssetPathAlter": "",
      "talkAudioName": "",
      "actionBefore": "",
      "actionWhile": "",
      "actionAfter": "",
      "optionIcon": "",
      "iconPath": ""
    },
    {
      "id": 190130703,
      "nextDialogs": [
        190130704
      ],
      "talkShowType": "TALK_SHOW_FORCE_SELECT",
      "talkRole": {
        "type": "TALK_ROLE_PLAYER",
        "_id": ""
      },
      "talkContentTextMapHash": 1078777546,
      "talkAssetPath": "",
      "talkAssetPathAlter": "",
      "talkAudioName": "",
      "actionBefore": "",
      "actionWhile": "",
      "actionAfter": "",
      "optionIcon": "",
      "iconPath": ""
    },
    {
      "id": 190130704,
      "nextDialogs": [
        190130705
      ],
      "talkRole": {
        "type": "TALK_ROLE_NPC",
        "_id": "504"
      },
      "talkContentTextMapHash": 3471437090,
      "talkAssetPath": "",
      "talkAssetPathAlter": "",
      "talkAudioName": "",
      "actionBefore": "",
      "actionWhile": "",
      "actionAfter": "",
      "optionIcon": "",
      "iconPath": ""
    },
    {
      "id": 190130705,
      "nextDialogs": [
        190130706
      ],
      "talkRole": {
        "type": "TALK_ROLE_NPC",
        "_id": "504"
      },
      "talkContentTextMapHash": 1086561018,
      "talkAssetPath": "",
      "talkAssetPathAlter": "",
      "talkAudioName": "",
      "actionBefore": "",
      "actionWhile": "",
      "actionAfter": "",
      "optionIcon": "",
      "iconPath": ""
    },
    {
      "id": 190130706,
      "nextDialogs": [
        190130707
      ],
      "talkRole": {
        "type": "TALK_ROLE_NPC",
        "_id": "504"
      },
      "talkContentTextMapHash": 3302939538,
      "talkAssetPath": "",
      "talkAssetPathAlter": "",
      "talkAudioName": "",
      "actionBefore": "",
      "actionWhile": "",
      "actionAfter": "",
      "optionIcon": "",
      "iconPath": ""
    },
    {
      "id": 190130707,
      "nextDialogs": [
        190130708
      ],
      "talkShowType": "TALK_SHOW_FORCE_SELECT",
      "talkRole": {
        "type": "TALK_ROLE_PLAYER",
        "_id": ""
      },
      "talkContentTextMapHash": 2416637362,
      "talkAssetPath": "",
      "talkAssetPathAlter": "",
      "talkAudioName": "",
      "actionBefore": "",
      "actionWhile": "",
      "actionAfter": "",
      "optionIcon": "",
      "iconPath": ""
    },
    {
      "id": 190130708,
      "nextDialogs": [
        190130709
      ],
      "talkRole": {
        "type": "TALK_ROLE_NPC",
        "_id": "504"
      },
      "talkContentTextMapHash": 180853074,
      "talkAssetPath": "",
      "talkAssetPathAlter": "",
      "talkAudioName": "",
      "actionBefore": "",
      "actionWhile": "",
      "actionAfter": "",
      "optionIcon": "",
      "iconPath": ""
    },
    {
      "id": 190130709,
      "nextDialogs": [
        190130710
      ],
      "talkRole": {
        "type": "TALK_ROLE_NPC",
        "_id": "504"
      },
      "talkContentTextMapHash": 525732690,
      "talkAssetPath": "",
      "talkAssetPathAlter": "",
      "talkAudioName": "",
      "actionBefore": "",
      "actionWhile": "",
      "actionAfter": "",
      "optionIcon": "",
      "iconPath": ""
    },
    {
      "id": 190130710,
      "nextDialogs": [
        190130711,
        190130712
      ],
      "talkRole": {
        "type": "TALK_ROLE_NPC",
        "_id": "504"
      },
      "talkContentTextMapHash": 4079575178,
      "talkAssetPath": "",
      "talkAssetPathAlter": "",
      "talkAudioName": "",
      "actionBefore": "",
      "actionWhile": "",
      "actionAfter": "",
      "optionIcon": "",
      "iconPath": ""
    },
    {
      "id": 190130711,
      "nextDialogs": [
        190130713
      ],
      "talkShowType": "TALK_SHOW_FORCE_SELECT",
      "talkRole": {
        "type": "TALK_ROLE_PLAYER",
        "_id": ""
      },
      "talkContentTextMapHash": 3297036426,
      "talkAssetPath": "",
      "talkAssetPathAlter": "",
      "talkAudioName": "",
      "actionBefore": "",
      "actionWhile": "",
      "actionAfter": "",
      "optionIcon": "",
      "iconPath": ""
    },
    {
      "id": 190130712,
      "nextDialogs": [
        190130713
      ],
      "talkShowType": "TALK_SHOW_FORCE_SELECT",
      "talkRole": {
        "type": "TALK_ROLE_PLAYER",
        "_id": ""
      },
      "talkContentTextMapHash": 804753154,
      "talkAssetPath": "",
      "talkAssetPathAlter": "",
      "talkAudioName": "",
      "actionBefore": "",
      "actionWhile": "",
      "actionAfter": "",
      "optionIcon": "",
      "iconPath": ""
    },
    {
      "id": 190130713,
      "nextDialogs": [
        190130714
      ],
      "talkRole": {
        "type": "TALK_ROLE_NPC",
        "_id": "504"
      },
      "talkContentTextMapHash": 96644946,
      "talkAssetPath": "",
      "talkAssetPathAlter": "",
      "talkAudioName": "",
      "actionBefore": "",
      "actionWhile": "",
      "actionAfter": "",
      "optionIcon": "",
      "iconPath": ""
    },
    {
      "id": 190130714,
      "nextDialogs": [
        190130715
      ],
      "talkRole": {
        "type": "TALK_ROLE_NPC",
        "_id": "504"
      },
      "talkContentTextMapHash": 3366672386,
      "talkAssetPath": "",
      "talkAssetPathAlter": "",
      "talkAudioName": "",
      "actionBefore": "",
      "actionWhile": "",
      "actionAfter": "",
      "optionIcon": "",
      "iconPath": ""
    },
    {
      "id": 190130715,
      "nextDialogs": [
        190130716
      ],
      "talkRole": {
        "type": "TALK_ROLE_NPC",
        "_id": "504"
      },
      "talkContentTextMapHash": 2663394498,
      "talkAssetPath": "",
      "talkAssetPathAlter": "",
      "talkAudioName": "",
      "actionBefore": "",
      "actionWhile": "",
      "actionAfter": "",
      "optionIcon": "",
      "iconPath": ""
    },
    {
      "id": 190130716,
      "nextDialogs": [
        190130717
      ],
      "talkShowType": "TALK_SHOW_FORCE_SELECT",
      "talkRole": {
        "type": "TALK_ROLE_PLAYER",
        "_id": ""
      },
      "talkContentTextMapHash": 1376623594,
      "talkAssetPath": "",
      "talkAssetPathAlter": "",
      "talkAudioName": "",
      "actionBefore": "",
      "actionWhile": "",
      "actionAfter": "",
      "optionIcon": "",
      "iconPath": ""
    },
    {
      "id": 190130717,
      "nextDialogs": [
        190130718
      ],
      "talkRole": {
        "type": "TALK_ROLE_NPC",
        "_id": "504"
      },
      "talkContentTextMapHash": 4021118922,
      "talkAssetPath": "",
      "talkAssetPathAlter": "",
      "talkAudioName": "",
      "actionBefore": "",
      "actionWhile": "",
      "actionAfter": "",
      "optionIcon": "",
      "iconPath": ""
    },
    {
      "id": 190130718,
      "nextDialogs": [
        190130719
      ],
      "talkRole": {
        "type": "TALK_ROLE_NPC",
        "_id": "504"
      },
      "talkContentTextMapHash": 2561812730,
      "talkAssetPath": "",
      "talkAssetPathAlter": "",
      "talkAudioName": "",
      "actionBefore": "",
      "actionWhile": "",
      "actionAfter": "",
      "optionIcon": "",
      "iconPath": ""
    },
    {
      "id": 190130719,
      "nextDialogs": [
        190130720
      ],
      "talkRole": {
        "type": "TALK_ROLE_NPC",
        "_id": "504"
      },
      "talkContentTextMapHash": 3578990970,
      "talkAssetPath": "",
      "talkAssetPathAlter": "",
      "talkAudioName": "",
      "actionBefore": "",
      "actionWhile": "",
      "actionAfter": "",
      "optionIcon": "",
      "iconPath": ""
    },
    {
      "id": 190130720,
      "nextDialogs": [
        190130721
      ],
      "talkRole": {
        "type": "TALK_ROLE_NPC",
        "_id": "504"
      },
      "talkContentTextMapHash": 4083809802,
      "talkAssetPath": "",
      "talkAssetPathAlter": "",
      "talkAudioName": "",
      "actionBefore": "",
      "actionWhile": "",
      "actionAfter": "",
      "optionIcon": "",
      "iconPath": ""
    },
    {
      "id": 190130721,
      "nextDialogs": [
        190130722
      ],
      "talkRole": {
        "type": "TALK_ROLE_NPC",
        "_id": "504"
      },
      "talkContentTextMapHash": 2494992330,
      "talkAssetPath": "",
      "talkAssetPathAlter": "",
      "talkAudioName": "",
      "actionBefore": "",
      "actionWhile": "",
      "actionAfter": "",
      "optionIcon": "",
      "iconPath": ""
    },
    {
      "id": 190130722,
      "nextDialogs": [
        190130723
      ],
      "talkRole": {
        "type": "TALK_ROLE_NPC",
        "_id": "3106"
      },
      "talkContentTextMapHash": 1376797098,
      "talkAssetPath": "",
      "talkAssetPathAlter": "",
      "talkAudioName": "",
      "actionBefore": "",
      "actionWhile": "",
      "actionAfter": "",
      "optionIcon": "",
      "iconPath": ""
    },
    {
      "id": 190130723,
      "nextDialogs": [
        190130724
      ],
      "talkRole": {
        "type": "TALK_ROLE_NPC",
        "_id": "504"
      },
      "talkContentTextMapHash": 440259778,
      "talkAssetPath": "",
      "talkAssetPathAlter": "",
      "talkAudioName": "",
      "actionBefore": "",
      "actionWhile": "",
      "actionAfter": "",
      "optionIcon": "",
      "iconPath": ""
    },
    {
      "id": 190130724,
      "nextDialogs": [
        190130725
      ],
      "talkShowType": "TALK_SHOW_FORCE_SELECT",
      "talkRole": {
        "type": "TALK_ROLE_PLAYER",
        "_id": ""
      },
      "talkContentTextMapHash": 153794722,
      "talkAssetPath": "",
      "talkAssetPathAlter": "",
      "talkAudioName": "",
      "actionBefore": "",
      "actionWhile": "",
      "actionAfter": "",
      "optionIcon": "",
      "iconPath": ""
    },
    {
      "id": 190130725,
      "nextDialogs": [
        190130726
      ],
      "talkRole": {
        "type": "TALK_ROLE_NPC",
        "_id": "504"
      },
      "talkContentTextMapHash": 124866466,
      "talkAssetPath": "",
      "talkAssetPathAlter": "",
      "talkAudioName": "",
      "actionBefore": "",
      "actionWhile": "",
      "actionAfter": "",
      "optionIcon": "",
      "iconPath": ""
    },
    {
      "id": 190130726,
      "nextDialogs": [
        190130727
      ],
      "talkRole": {
        "type": "TALK_ROLE_NPC",
        "_id": "504"
      },
      "talkContentTextMapHash": 2725571378,
      "talkAssetPath": "",
      "talkAssetPathAlter": "",
      "talkAudioName": "",
      "actionBefore": "",
      "actionWhile": "",
      "actionAfter": "",
      "optionIcon": "",
      "iconPath": ""
    },
    {
      "id": 190130727,
      "nextDialogs": [
        190130728
      ],
      "talkRole": {
        "type": "TALK_ROLE_NPC",
        "_id": "504"
      },
      "talkContentTextMapHash": 2206526378,
      "talkAssetPath": "",
      "talkAssetPathAlter": "",
      "talkAudioName": "",
      "actionBefore": "",
      "actionWhile": "",
      "actionAfter": "",
      "optionIcon": "",
      "iconPath": ""
    },
    {
      "id": 190130728,
      "talkRole": {
        "type": "TALK_ROLE_NPC",
        "_id": "504"
      },
      "talkContentTextMapHash": 3792947130,
      "talkAssetPath": "",
      "talkAssetPathAlter": "",
      "talkAudioName": "",
      "actionBefore": "",
      "actionWhile": "",
      "actionAfter": "",
      "optionIcon": "",
      "iconPath": ""
    }
  ]
}