{
  "talkId": 38,
  "KPGKDHAFHFE": "COOP",
  "dialogList": [
    {
      "id": 190190201,
      "nextDialogs": [
        190190202
      ],
      "talkRole": {
        "type": "TALK_ROLE_NPC",
        "_id": "12324"
      },
      "talkContentTextMapHash": 277274850,
      "talkAssetPath": "",
      "talkAssetPathAlter": "",
      "talkAudioName": "",
      "actionBefore": "",
      "actionWhile": "",
      "actionAfter": "",
      "optionIcon": "",
      "iconPath": ""
    },
    {
      "id": 190190202,
      "nextDialogs": [
        190190203
      ],
      "talkRole": {
        "type": "TALK_ROLE_NPC",
        "_id": "505"
      },
      "talkContentTextMapHash": 1629515850,
      "talkAssetPath": "",
      "talkAssetPathAlter": "",
      "talkAudioName": "",
      "actionBefore": "",
      "actionWhile": "",
      "actionAfter": "",
      "optionIcon": "",
      "iconPath": ""
    },
    {
      "id": 190190203,
      "nextDialogs": [
        190190204
      ],
      "talkRole": {
        "type": "TALK_ROLE_NPC",
        "_id": "12324"
      },
      "talkContentTextMapHash": 3953978346,
      "talkAssetPath": "",
      "talkAssetPathAlter": "",
      "talkAudioName": "",
      "actionBefore": "",
      "actionWhile": "",
      "actionAfter": "",
      "optionIcon": "",
      "iconPath": ""
    },
    {
      "id": 190190204,
      "nextDialogs": [
        190190205
      ],
      "talkRole": {
        "type": "TALK_ROLE_NPC",
        "_id": "505"
      },
      "talkContentTextMapHash": 2438712402,
      "talkAssetPath": "",
      "talkAssetPathAlter": "",
      "talkAudioName": "",
      "actionBefore": "",
      "actionWhile": "",
      "actionAfter": "",
      "optionIcon": "",
      "iconPath": ""
    },
    {
      "id": 190190205,
      "nextDialogs": [
        190190206
      ],
      "talkRole": {
        "type": "TALK_ROLE_NPC",
        "_id": "12324"
      },
      "talkContentTextMapHash": 3379348226,
      "talkAssetPath": "",
      "talkAssetPathAlter": "",
      "talkAudioName": "",
      "actionBefore": "",
      "actionWhile": "",
      "actionAfter": "",
      "optionIcon": "",
      "iconPath": ""
    },
    {
      "id": 190190206,
      "nextDialogs": [
        190190207,
        190190208
      ],
      "talkRole": {
        "type": "TALK_ROLE_NPC",
        "_id": "12324"
      },
      "talkContentTextMapHash": 4033040986,
      "talkAssetPath": "",
      "talkAssetPathAlter": "",
      "talkAudioName": "",
      "actionBefore": "",
      "actionWhile": "",
      "actionAfter": "",
      "optionIcon": "",
      "iconPath": ""
    },
    {
      "id": 190190207,
      "nextDialogs": [
        190190209
      ],
      "talkShowType": "TALK_SHOW_FORCE_SELECT",
      "talkRole": {
        "type": "TALK_ROLE_PLAYER",
        "_id": ""
      },
      "talkContentTextMapHash": 3389603474,
      "talkAssetPath": "",
      "talkAssetPathAlter": "",
      "talkAudioName": "",
      "actionBefore": "",
      "actionWhile": "",
      "actionAfter": "",
      "optionIcon": "",
      "iconPath": ""
    },
    {
      "id": 190190208,
      "nextDialogs": [
        190190209
      ],
      "talkShowType": "TALK_SHOW_FORCE_SELECT",
      "talkRole": {
        "type": "TALK_ROLE_PLAYER",
        "_id": ""
      },
      "talkContentTextMapHash": 3377108826,
      "talkAssetPath": "",
      "talkAssetPathAlter": "",
      "talkAudioName": "",
      "actionBefore": "",
      "actionWhile": "",
      "actionAfter": "",
      "optionIcon": "",
      "iconPath": ""
    },
    {
      "id": 190190209,
      "nextDialogs": [
        190190210
      ],
      "talkRole": {
        "type": "TALK_ROLE_NPC",
        "_id": "12324"
      },
      "talkContentTextMapHash": 2214991170,
      "talkAssetPath": "",
      "talkAssetPathAlter": "",
      "talkAudioName": "",
      "actionBefore": "",
      "actionWhile": "",
      "actionAfter": "",
      "optionIcon": "",
      "iconPath": ""
    },
    {
      "id": 190190210,
      "nextDialogs": [
        190190211
      ],
      "talkRole": {
        "type": "TALK_ROLE_NPC",
        "_id": "12324"
      },
      "talkContentTextMapHash": 1788896218,
      "talkAssetPath": "",
      "talkAssetPathAlter": "",
      "talkAudioName": "",
      "actionBefore": "",
      "actionWhile": "",
      "actionAfter": "",
      "optionIcon": "",
      "iconPath": ""
    },
    {
      "id": 190190211,
      "nextDialogs": [
        190190212
      ],
      "talkRole": {
        "type": "TALK_ROLE_NPC",
        "_id": "12324"
      },
      "talkContentTextMapHash": 3337030082,
      "talkAssetPath": "",
      "talkAssetPathAlter": "",
      "talkAudioName": "",
      "actionBefore": "",
      "actionWhile": "",
      "actionAfter": "",
      "optionIcon": "",
      "iconPath": ""
    },
    {
      "id": 190190212,
      "nextDialogs": [
        190190213
      ],
      "talkRole": {
        "type": "TALK_ROLE_NPC",
        "_id": "505"
      },
      "talkContentTextMapHash": 680186642,
      "talkAssetPath": "",
      "talkAssetPathAlter": "",
      "talkAudioName": "",
      "actionBefore": "",
      "actionWhile": "",
      "actionAfter": "",
      "optionIcon": "",
      "iconPath": ""
    },
    {
      "id": 190190213,
      "nextDialogs": [
        190190214
      ],
      "talkRole": {
        "type": "TALK_ROLE_NPC",
        "_id": "12324"
      },
      "talkContentTextMapHash": 1515222762,
      "talkAssetPath": "",
      "talkAssetPathAlter": "",
      "talkAudioName": "",
      "actionBefore": "",
      "actionWhile": "",
      "actionAfter": "",
      "optionIcon": "",
      "iconPath": ""
    },
    {
      "id": 190190214,
      "nextDialogs": [
        190190215
      ],
      "talkRole": {
        "type": "TALK_ROLE_NPC",
        "_id": "12324"
      },
      "talkContentTextMapHash": 2410978186,
      "talkAssetPath": "",
      "talkAssetPathAlter": "",
      "talkAudioName": "",
      "actionBefore": "",
      "actionWhile": "",
      "actionAfter": "",
      "optionIcon": "",
      "iconPath": ""
    },
    {
      "id": 190190215,
      "nextDialogs": [
        190190216
      ],
      "talkRole": {
        "type": "TALK_ROLE_NPC",
        "_id": "505"
      },
      "talkContentTextMapHash": 3277908002,
      "talkAssetPath": "",
      "talkAssetPathAlter": "",
      "talkAudioName": "",
      "actionBefore": "",
      "actionWhile": "",
      "actionAfter": "",
      "optionIcon": "",
      "iconPath": ""
    },
    {
      "id": 190190216,
      "nextDialogs": [
        190190217
      ],
      "talkRole": {
        "type": "TALK_ROLE_NPC",
        "_id": "505"
      },
      "talkContentTextMapHash": 3039416442,
      "talkAssetPath": "",
      "talkAssetPathAlter": "",
      "talkAudioName": "",
      "actionBefore": "",
      "actionWhile": "",
      "actionAfter": "",
      "optionIcon": "",
      "iconPath": ""
    },
    {
      "id": 190190217,
      "nextDialogs": [
        190190218
      ],
      "talkRole": {
        "type": "TALK_ROLE_NPC",
        "_id": "12324"
      },
      "talkContentTextMapHash": 3235464978,
      "talkAssetPath": "",
      "talkAssetPathAlter": "",
      "talkAudioName": "",
      "actionBefore": "",
      "actionWhile": "",
      "actionAfter": "",
      "optionIcon": "",
      "iconPath": ""
    },
    {
      "id": 190190218,
      "nextDialogs": [
        190190219
      ],
      "talkRole": {
        "type": "TALK_ROLE_NPC",
        "_id": "505"
      },
      "talkContentTextMapHash": 3233939554,
      "talkAssetPath": "",
      "talkAssetPathAlter": "",
      "talkAudioName": "",
      "actionBefore": "",
      "actionWhile": "",
      "actionAfter": "",
      "optionIcon": "",
      "iconPath": ""
    },
    {
      "id": 190190219,
      "nextDialogs": [
        190190220
      ],
      "talkRole": {
        "type": "TALK_ROLE_NPC",
        "_id": "505"
      },
      "talkContentTextMapHash": 830997378,
      "talkAssetPath": "",
      "talkAssetPathAlter": "",
      "talkAudioName": "",
      "actionBefore": "",
      "actionWhile": "",
      "actionAfter": "",
      "optionIcon": "",
      "iconPath": ""
    },
    {
      "id": 190190220,
      "talkRole": {
        "type": "TALK_ROLE_NPC",
        "_id": "505"
      },
      "talkContentTextMapHash": 1246695074,
      "talkAssetPath": "",
      "talkAssetPathAlter": "",
      "talkAudioName": "",
      "actionBefore": "",
      "actionWhile": "",
      "actionAfter": "",
      "optionIcon": "",
      "iconPath": ""
    }
  ]
}