{
  "talkId": 188,
  "KPGKDHAFHFE": "COOP",
  "dialogList": [
    {
      "id": 190150114,
      "talkRole": {
        "type": "TALK_ROLE_NPC",
        "_id": "3106"
      },
      "talkContentTextMapHash": 941975250,
      "talkAssetPath": "",
      "talkAssetPathAlter": "",
      "talkAudioName": "",
      "actionBefore": "",
      "actionWhile": "",
      "actionAfter": "",
      "optionIcon": "",
      "iconPath": ""
    }
  ]
}