{
  "talkId": 56,
  "KPGKDHAFHFE": "COOP",
  "dialogList": [
    {
      "id": 190190501,
      "nextDialogs": [
        190190502
      ],
      "talkRole": {
        "type": "TALK_ROLE_NPC",
        "_id": "505"
      },
      "talkContentTextMapHash": 957988474,
      "talkAssetPath": "",
      "talkAssetPathAlter": "",
      "talkAudioName": "",
      "actionBefore": "",
      "actionWhile": "",
      "actionAfter": "",
      "optionIcon": "",
      "iconPath": ""
    },
    {
      "id": 190190502,
      "nextDialogs": [
        190190503
      ],
      "talkRole": {
        "type": "TALK_ROLE_NPC",
        "_id": "3107"
      },
      "talkContentTextMapHash": 1942945202,
      "talkAssetPath": "",
      "talkAssetPathAlter": "",
      "talkAudioName": "",
      "actionBefore": "",
      "actionWhile": "",
      "actionAfter": "",
      "optionIcon": "",
      "iconPath": ""
    },
    {
      "id": 190190503,
      "nextDialogs": [
        190190504
      ],
      "talkRole": {
        "type": "TALK_ROLE_NPC",
        "_id": "3107"
      },
      "talkContentTextMapHash": 3379186994,
      "talkAssetPath": "",
      "talkAssetPathAlter": "",
      "talkAudioName": "",
      "actionBefore": "",
      "actionWhile": "",
      "actionAfter": "",
      "optionIcon": "",
      "iconPath": ""
    },
    {
      "id": 190190504,
      "nextDialogs": [
        190190505
      ],
      "talkRole": {
        "type": "TALK_ROLE_NPC",
        "_id": "505"
      },
      "talkContentTextMapHash": 2163339698,
      "talkAssetPath": "",
      "talkAssetPathAlter": "",
      "talkAudioName": "",
      "actionBefore": "",
      "actionWhile": "",
      "actionAfter": "",
      "optionIcon": "",
      "iconPath": ""
    },
    {
      "id": 190190505,
      "nextDialogs": [
        190190506
      ],
      "talkRole": {
        "type": "TALK_ROLE_NPC",
        "_id": "505"
      },
      "talkContentTextMapHash": 2778429258,
      "talkAssetPath": "",
      "talkAssetPathAlter": "",
      "talkAudioName": "",
      "actionBefore": "",
      "actionWhile": "",
      "actionAfter": "",
      "optionIcon": "",
      "iconPath": ""
    },
    {
      "id": 190190506,
      "talkRole": {
        "type": "TALK_ROLE_NPC",
        "_id": "505"
      },
      "talkContentTextMapHash": 3639685554,
      "talkAssetPath": "",
      "talkAssetPathAlter": "",
      "talkAudioName": "",
      "actionBefore": "",
      "actionWhile": "",
      "actionAfter": "",
      "optionIcon": "",
      "iconPath": ""
    }
  ]
}