{
  "talkId": 103,
  "KPGKDHAFHFE": "COOP",
  "dialogList": [
    {
      "id": 190120401,
      "nextDialogs": [
        190120402
      ],
      "talkRole": {
        "type": "TALK_ROLE_NPC",
        "_id": "504"
      },
      "talkContentTextMapHash": 4196501578,
      "talkAssetPath": "",
      "talkAssetPathAlter": "",
      "talkAudioName": "",
      "actionBefore": "",
      "actionWhile": "",
      "actionAfter": "",
      "optionIcon": "",
      "iconPath": ""
    },
    {
      "id": 190120402,
      "nextDialogs": [
        190120403
      ],
      "talkRole": {
        "type": "TALK_ROLE_NPC",
        "_id": "504"
      },
      "talkContentTextMapHash": 3417420602,
      "talkAssetPath": "",
      "talkAssetPathAlter": "",
      "talkAudioName": "",
      "actionBefore": "",
      "actionWhile": "",
      "actionAfter": "",
      "optionIcon": "",
      "iconPath": ""
    },
    {
      "id": 190120403,
      "nextDialogs": [
        190120404
      ],
      "talkShowType": "TALK_SHOW_FORCE_SELECT",
      "talkRole": {
        "type": "TALK_ROLE_PLAYER",
        "_id": ""
      },
      "talkContentTextMapHash": 1781014634,
      "talkAssetPath": "",
      "talkAssetPathAlter": "",
      "talkAudioName": "",
      "actionBefore": "",
      "actionWhile": "",
      "actionAfter": "",
      "optionIcon": "",
      "iconPath": ""
    },
    {
      "id": 190120404,
      "nextDialogs": [
        190120405
      ],
      "talkRole": {
        "type": "TALK_ROLE_NPC",
        "_id": "504"
      },
      "talkContentTextMapHash": 2527174714,
      "talkAssetPath": "",
      "talkAssetPathAlter": "",
      "talkAudioName": "",
      "actionBefore": "",
      "actionWhile": "",
      "actionAfter": "",
      "optionIcon": "",
      "iconPath": ""
    },
    {
      "id": 190120405,
      "nextDialogs": [
        190120406
      ],
      "talkRole": {
        "type": "TALK_ROLE_NPC",
        "_id": "504"
      },
      "talkContentTextMapHash": 96658450,
      "talkAssetPath": "",
      "talkAssetPathAlter": "",
      "talkAudioName": "",
      "actionBefore": "",
      "actionWhile": "",
      "actionAfter": "",
      "optionIcon": "",
      "iconPath": ""
    },
    {
      "id": 190120406,
      "nextDialogs": [
        190120407,
        190120408
      ],
      "talkRole": {
        "type": "TALK_ROLE_NPC",
        "_id": "504"
      },
      "talkContentTextMapHash": 2236665090,
      "talkAssetPath": "",
      "talkAssetPathAlter": "",
      "talkAudioName": "",
      "actionBefore": "",
      "actionWhile": "",
      "actionAfter": "",
      "optionIcon": "",
      "iconPath": ""
    },
    {
      "id": 190120407,
      "nextDialogs": [
        190120409
      ],
      "talkShowType": "TALK_SHOW_FORCE_SELECT",
      "talkRole": {
        "type": "TALK_ROLE_PLAYER",
        "_id": ""
      },
      "talkContentTextMapHash": 2928805690,
      "talkAssetPath": "",
      "talkAssetPathAlter": "",
      "talkAudioName": "",
      "actionBefore": "",
      "actionWhile": "",
      "actionAfter": "",
      "optionIcon": "",
      "iconPath": ""
    },
    {
      "id": 190120408,
      "nextDialogs": [
        190120409
      ],
      "talkShowType": "TALK_SHOW_FORCE_SELECT",
      "talkRole": {
        "type": "TALK_ROLE_PLAYER",
        "_id": ""
      },
      "talkContentTextMapHash": 3392940378,
      "talkAssetPath": "",
      "talkAssetPathAlter": "",
      "talkAudioName": "",
      "actionBefore": "",
      "actionWhile": "",
      "actionAfter": "",
      "optionIcon": "",
      "iconPath": ""
    },
    {
      "id": 190120409,
      "nextDialogs": [
        190120410
      ],
      "talkRole": {
        "type": "TALK_ROLE_NPC",
        "_id": "504"
      },
      "talkContentTextMapHash": 1462876314,
      "talkAssetPath": "",
      "talkAssetPathAlter": "",
      "talkAudioName": "",
      "actionBefore": "",
      "actionWhile": "",
      "actionAfter": "",
      "optionIcon": "",
      "iconPath": ""
    },
    {
      "id": 190120410,
      "nextDialogs": [
        190120411
      ],
      "talkRole": {
        "type": "TALK_ROLE_NPC",
        "_id": "504"
      },
      "talkContentTextMapHash": 2229820362,
      "talkAssetPath": "",
      "talkAssetPathAlter": "",
      "talkAudioName": "",
      "actionBefore": "",
      "actionWhile": "",
      "actionAfter": "",
      "optionIcon": "",
      "iconPath": ""
    },
    {
      "id": 190120411,
      "nextDialogs": [
        190120412
      ],
      "talkRole": {
        "type": "TALK_ROLE_NPC",
        "_id": "504"
      },
      "talkContentTextMapHash": 680991298,
      "talkAssetPath": "",
      "talkAssetPathAlter": "",
      "talkAudioName": "",
      "actionBefore": "",
      "actionWhile": "",
      "actionAfter": "",
      "optionIcon": "",
      "iconPath": ""
    },
    {
      "id": 190120412,
      "nextDialogs": [
        190120413
      ],
      "talkRole": {
        "type": "TALK_ROLE_NPC",
        "_id": "504"
      },
      "talkContentTextMapHash": 929827690,
      "talkAssetPath": "",
      "talkAssetPathAlter": "",
      "talkAudioName": "",
      "actionBefore": "",
      "actionWhile": "",
      "actionAfter": "",
      "optionIcon": "",
      "iconPath": ""
    },
    {
      "id": 190120413,
      "nextDialogs": [
        190120414
      ],
      "talkRole": {
        "type": "TALK_ROLE_NPC",
        "_id": "504"
      },
      "talkContentTextMapHash": 3169834530,
      "talkAssetPath": "",
      "talkAssetPathAlter": "",
      "talkAudioName": "",
      "actionBefore": "",
      "actionWhile": "",
      "actionAfter": "",
      "optionIcon": "",
      "iconPath": ""
    },
    {
      "id": 190120414,
      "nextDialogs": [
        190120415
      ],
      "talkShowType": "TALK_SHOW_FORCE_SELECT",
      "talkRole": {
        "type": "TALK_ROLE_PLAYER",
        "_id": ""
      },
      "talkContentTextMapHash": 2134171242,
      "talkAssetPath": "",
      "talkAssetPathAlter": "",
      "talkAudioName": "",
      "actionBefore": "",
      "actionWhile": "",
      "actionAfter": "",
      "optionIcon": "",
      "iconPath": ""
    },
    {
      "id": 190120415,
      "nextDialogs": [
        190120416
      ],
      "talkRole": {
        "type": "TALK_ROLE_NPC",
        "_id": "504"
      },
      "talkContentTextMapHash": 4148038946,
      "talkAssetPath": "",
      "talkAssetPathAlter": "",
      "talkAudioName": "",
      "actionBefore": "",
      "actionWhile": "",
      "actionAfter": "",
      "optionIcon": "",
      "iconPath": ""
    },
    {
      "id": 190120416,
      "nextDialogs": [
        190120417,
        190120418
      ],
      "talkRole": {
        "type": "TALK_ROLE_NPC",
        "_id": "504"
      },
      "talkContentTextMapHash": 3948899706,
      "talkAssetPath": "",
      "talkAssetPathAlter": "",
      "talkAudioName": "",
      "actionBefore": "",
      "actionWhile": "",
      "actionAfter": "",
      "optionIcon": "",
      "iconPath": ""
    },
    {
      "id": 190120417,
      "nextDialogs": [
        190120419
      ],
      "talkShowType": "TALK_SHOW_FORCE_SELECT",
      "talkRole": {
        "type": "TALK_ROLE_PLAYER",
        "_id": ""
      },
      "talkContentTextMapHash": 3239743538,
      "talkAssetPath": "",
      "talkAssetPathAlter": "",
      "talkAudioName": "",
      "actionBefore": "",
      "actionWhile": "",
      "actionAfter": "",
      "optionIcon": "",
      "iconPath": ""
    },
    {
      "id": 190120418,
      "nextDialogs": [
        190120419
      ],
      "talkShowType": "TALK_SHOW_FORCE_SELECT",
      "talkRole": {
        "type": "TALK_ROLE_PLAYER",
        "_id": ""
      },
      "talkContentTextMapHash": 2408086970,
      "talkAssetPath": "",
      "talkAssetPathAlter": "",
      "talkAudioName": "",
      "actionBefore": "",
      "actionWhile": "",
      "actionAfter": "",
      "optionIcon": "",
      "iconPath": ""
    },
    {
      "id": 190120419,
      "nextDialogs": [
        190120420
      ],
      "talkRole": {
        "type": "TALK_ROLE_NPC",
        "_id": "504"
      },
      "talkContentTextMapHash": 688933066,
      "talkAssetPath": "",
      "talkAssetPathAlter": "",
      "talkAudioName": "",
      "actionBefore": "",
      "actionWhile": "",
      "actionAfter": "",
      "optionIcon": "",
      "iconPath": ""
    },
    {
      "id": 190120420,
      "nextDialogs": [
        190120421
      ],
      "talkRole": {
        "type": "TALK_ROLE_NPC",
        "_id": "504"
      },
      "talkContentTextMapHash": 40940570,
      "talkAssetPath": "",
      "talkAssetPathAlter": "",
      "talkAudioName": "",
      "actionBefore": "",
      "actionWhile": "",
      "actionAfter": "",
      "optionIcon": "",
      "iconPath": ""
    },
    {
      "id": 190120421,
      "nextDialogs": [
        190120422
      ],
      "talkShowType": "TALK_SHOW_FORCE_SELECT",
      "talkRole": {
        "type": "TALK_ROLE_PLAYER",
        "_id": ""
      },
      "talkContentTextMapHash": 4030807442,
      "talkAssetPath": "",
      "talkAssetPathAlter": "",
      "talkAudioName": "",
      "actionBefore": "",
      "actionWhile": "",
      "actionAfter": "",
      "optionIcon": "",
      "iconPath": ""
    },
    {
      "id": 190120422,
      "nextDialogs": [
        190120423
      ],
      "talkRole": {
        "type": "TALK_ROLE_NPC",
        "_id": "504"
      },
      "talkContentTextMapHash": 1717408386,
      "talkAssetPath": "",
      "talkAssetPathAlter": "",
      "talkAudioName": "",
      "actionBefore": "",
      "actionWhile": "",
      "actionAfter": "",
      "optionIcon": "",
      "iconPath": ""
    },
    {
      "id": 190120423,
      "nextDialogs": [
        190120424
      ],
      "talkRole": {
        "type": "TALK_ROLE_NPC",
        "_id": "504"
      },
      "talkContentTextMapHash": 2605022314,
      "talkAssetPath": "",
      "talkAssetPathAlter": "",
      "talkAudioName": "",
      "actionBefore": "",
      "actionWhile": "",
      "actionAfter": "",
      "optionIcon": "",
      "iconPath": ""
    },
    {
      "id": 190120424,
      "nextDialogs": [
        190120425,
        190120426
      ],
      "talkRole": {
        "type": "TALK_ROLE_NPC",
        "_id": "504"
      },
      "talkContentTextMapHash": 243061242,
      "talkAssetPath": "",
      "talkAssetPathAlter": "",
      "talkAudioName": "",
      "actionBefore": "",
      "actionWhile": "",
      "actionAfter": "",
      "optionIcon": "",
      "iconPath": ""
    },
    {
      "id": 190120425,
      "nextDialogs": [
        190120427
      ],
      "talkShowType": "TALK_SHOW_FORCE_SELECT",
      "talkRole": {
        "type": "TALK_ROLE_PLAYER",
        "_id": ""
      },
      "talkContentTextMapHash": 1589785914,
      "talkAssetPath": "",
      "talkAssetPathAlter": "",
      "talkAudioName": "",
      "actionBefore": "",
      "actionWhile": "",
      "actionAfter": "",
      "optionIcon": "",
      "iconPath": ""
    },
    {
      "id": 190120426,
      "nextDialogs": [
        190120427
      ],
      "talkShowType": "TALK_SHOW_FORCE_SELECT",
      "talkRole": {
        "type": "TALK_ROLE_PLAYER",
        "_id": ""
      },
      "talkContentTextMapHash": 6117034,
      "talkAssetPath": "",
      "talkAssetPathAlter": "",
      "talkAudioName": "",
      "actionBefore": "",
      "actionWhile": "",
      "actionAfter": "",
      "optionIcon": "",
      "iconPath": ""
    },
    {
      "id": 190120427,
      "nextDialogs": [
        190120428
      ],
      "talkRole": {
        "type": "TALK_ROLE_NPC",
        "_id": "504"
      },
      "talkContentTextMapHash": 2397853506,
      "talkAssetPath": "",
      "talkAssetPathAlter": "",
      "talkAudioName": "",
      "actionBefore": "",
      "actionWhile": "",
      "actionAfter": "",
      "optionIcon": "",
      "iconPath": ""
    },
    {
      "id": 190120428,
      "nextDialogs": [
        190120429
      ],
      "talkRole": {
        "type": "TALK_ROLE_NPC",
        "_id": "504"
      },
      "talkContentTextMapHash": 2403199418,
      "talkAssetPath": "",
      "talkAssetPathAlter": "",
      "talkAudioName": "",
      "actionBefore": "",
      "actionWhile": "",
      "actionAfter": "",
      "optionIcon": "",
      "iconPath": ""
    },
    {
      "id": 190120429,
      "nextDialogs": [
        190120430
      ],
      "talkRole": {
        "type": "TALK_ROLE_NPC",
        "_id": "504"
      },
      "talkContentTextMapHash": 2420776394,
      "talkAssetPath": "",
      "talkAssetPathAlter": "",
      "talkAudioName": "",
      "actionBefore": "",
      "actionWhile": "",
      "actionAfter": "",
      "optionIcon": "",
      "iconPath": ""
    },
    {
      "id": 190120430,
      "nextDialogs": [
        190120431
      ],
      "talkShowType": "TALK_SHOW_FORCE_SELECT",
      "talkRole": {
        "type": "TALK_ROLE_PLAYER",
        "_id": ""
      },
      "talkContentTextMapHash": 1039767002,
      "talkAssetPath": "",
      "talkAssetPathAlter": "",
      "talkAudioName": "",
      "actionBefore": "",
      "actionWhile": "",
      "actionAfter": "",
      "optionIcon": "",
      "iconPath": ""
    },
    {
      "id": 190120431,
      "nextDialogs": [
        190120432
      ],
      "talkRole": {
        "type": "TALK_ROLE_NPC",
        "_id": "504"
      },
      "talkContentTextMapHash": 573690530,
      "talkAssetPath": "",
      "talkAssetPathAlter": "",
      "talkAudioName": "",
      "actionBefore": "",
      "actionWhile": "",
      "actionAfter": "",
      "optionIcon": "",
      "iconPath": ""
    },
    {
      "id": 190120432,
      "nextDialogs": [
        190120433
      ],
      "talkRole": {
        "type": "TALK_ROLE_NPC",
        "_id": "504"
      },
      "talkContentTextMapHash": 3485527274,
      "talkAssetPath": "",
      "talkAssetPathAlter": "",
      "talkAudioName": "",
      "actionBefore": "",
      "actionWhile": "",
      "actionAfter": "",
      "optionIcon": "",
      "iconPath": ""
    },
    {
      "id": 190120433,
      "nextDialogs": [
        190120434
      ],
      "talkRole": {
        "type": "TALK_ROLE_NPC",
        "_id": "504"
      },
      "talkContentTextMapHash": 3912592266,
      "talkAssetPath": "",
      "talkAssetPathAlter": "",
      "talkAudioName": "",
      "actionBefore": "",
      "actionWhile": "",
      "actionAfter": "",
      "optionIcon": "",
      "iconPath": ""
    },
    {
      "id": 190120434,
      "nextDialogs": [
        190120435
      ],
      "talkShowType": "TALK_SHOW_FORCE_SELECT",
      "talkRole": {
        "type": "TALK_ROLE_PLAYER",
        "_id": ""
      },
      "talkContentTextMapHash": 256861218,
      "talkAssetPath": "",
      "talkAssetPathAlter": "",
      "talkAudioName": "",
      "actionBefore": "",
      "actionWhile": "",
      "actionAfter": "",
      "optionIcon": "",
      "iconPath": ""
    },
    {
      "id": 190120435,
      "nextDialogs": [
        190120436
      ],
      "talkRole": {
        "type": "TALK_ROLE_NPC",
        "_id": "504"
      },
      "talkContentTextMapHash": 2879410250,
      "talkAssetPath": "",
      "talkAssetPathAlter": "",
      "talkAudioName": "",
      "actionBefore": "",
      "actionWhile": "",
      "actionAfter": "",
      "optionIcon": "",
      "iconPath": ""
    },
    {
      "id": 190120436,
      "nextDialogs": [
        190120437
      ],
      "talkRole": {
        "type": "TALK_ROLE_NPC",
        "_id": "504"
      },
      "talkContentTextMapHash": 1895612354,
      "talkAssetPath": "",
      "talkAssetPathAlter": "",
      "talkAudioName": "",
      "actionBefore": "",
      "actionWhile": "",
      "actionAfter": "",
      "optionIcon": "",
      "iconPath": ""
    },
    {
      "id": 190120437,
      "nextDialogs": [
        190120438,
        190120439
      ],
      "talkRole": {
        "type": "TALK_ROLE_NPC",
        "_id": "504"
      },
      "talkContentTextMapHash": 3621320802,
      "talkAssetPath": "",
      "talkAssetPathAlter": "",
      "talkAudioName": "",
      "actionBefore": "",
      "actionWhile": "",
      "actionAfter": "",
      "optionIcon": "",
      "iconPath": ""
    },
    {
      "id": 190120438,
      "nextDialogs": [
        190120440
      ],
      "talkShowType": "TALK_SHOW_FORCE_SELECT",
      "talkRole": {
        "type": "TALK_ROLE_PLAYER",
        "_id": ""
      },
      "talkContentTextMapHash": 3644343098,
      "talkAssetPath": "",
      "talkAssetPathAlter": "",
      "talkAudioName": "",
      "actionBefore": "",
      "actionWhile": "",
      "actionAfter": "",
      "optionIcon": "",
      "iconPath": ""
    },
    {
      "id": 190120439,
      "nextDialogs": [
        190120440
      ],
      "talkShowType": "TALK_SHOW_FORCE_SELECT",
      "talkRole": {
        "type": "TALK_ROLE_PLAYER",
        "_id": ""
      },
      "talkContentTextMapHash": 1743710482,
      "talkAssetPath": "",
      "talkAssetPathAlter": "",
      "talkAudioName": "",
      "actionBefore": "",
      "actionWhile": "",
      "actionAfter": "",
      "optionIcon": "",
      "iconPath": ""
    },
    {
      "id": 190120440,
      "nextDialogs": [
        190120441
      ],
      "talkRole": {
        "type": "TALK_ROLE_NPC",
        "_id": "504"
      },
      "talkContentTextMapHash": 1845328522,
      "talkAssetPath": "",
      "talkAssetPathAlter": "",
      "talkAudioName": "",
      "actionBefore": "",
      "actionWhile": "",
      "actionAfter": "",
      "optionIcon": "",
      "iconPath": ""
    },
    {
      "id": 190120441,
      "nextDialogs": [
        190120442
      ],
      "talkShowType": "TALK_SHOW_FORCE_SELECT",
      "talkRole": {
        "type": "TALK_ROLE_PLAYER",
        "_id": ""
      },
      "talkContentTextMapHash": 441190330,
      "talkAssetPath": "",
      "talkAssetPathAlter": "",
      "talkAudioName": "",
      "actionBefore": "",
      "actionWhile": "",
      "actionAfter": "",
      "optionIcon": "",
      "iconPath": ""
    },
    {
      "id": 190120442,
      "nextDialogs": [
        190120443
      ],
      "talkRole": {
        "type": "TALK_ROLE_NPC",
        "_id": "504"
      },
      "talkContentTextMapHash": 1890678442,
      "talkAssetPath": "",
      "talkAssetPathAlter": "",
      "talkAudioName": "",
      "actionBefore": "",
      "actionWhile": "",
      "actionAfter": "",
      "optionIcon": "",
      "iconPath": ""
    },
    {
      "id": 190120443,
      "nextDialogs": [
        190120444
      ],
      "talkRole": {
        "type": "TALK_ROLE_NPC",
        "_id": "504"
      },
      "talkContentTextMapHash": 2373970402,
      "talkAssetPath": "",
      "talkAssetPathAlter": "",
      "talkAudioName": "",
      "actionBefore": "",
      "actionWhile": "",
      "actionAfter": "",
      "optionIcon": "",
      "iconPath": ""
    },
    {
      "id": 190120444,
      "nextDialogs": [
        190120445
      ],
      "talkShowType": "TALK_SHOW_FORCE_SELECT",
      "talkRole": {
        "type": "TALK_ROLE_PLAYER",
        "_id": ""
      },
      "talkContentTextMapHash": 1159709338,
      "talkAssetPath": "",
      "talkAssetPathAlter": "",
      "talkAudioName": "",
      "actionBefore": "",
      "actionWhile": "",
      "actionAfter": "",
      "optionIcon": "",
      "iconPath": ""
    },
    {
      "id": 190120445,
      "nextDialogs": [
        190120446
      ],
      "talkRole": {
        "type": "TALK_ROLE_NPC",
        "_id": "504"
      },
      "talkContentTextMapHash": 333601370,
      "talkAssetPath": "",
      "talkAssetPathAlter": "",
      "talkAudioName": "",
      "actionBefore": "",
      "actionWhile": "",
      "actionAfter": "",
      "optionIcon": "",
      "iconPath": ""
    },
    {
      "id": 190120446,
      "nextDialogs": [
        190120447
      ],
      "talkRole": {
        "type": "TALK_ROLE_NPC",
        "_id": "504"
      },
      "talkContentTextMapHash": 1101045090,
      "talkAssetPath": "",
      "talkAssetPathAlter": "",
      "talkAudioName": "",
      "actionBefore": "",
      "actionWhile": "",
      "actionAfter": "",
      "optionIcon": "",
      "iconPath": ""
    },
    {
      "id": 190120447,
      "nextDialogs": [
        190120448
      ],
      "talkShowType": "TALK_SHOW_FORCE_SELECT",
      "talkRole": {
        "type": "TALK_ROLE_PLAYER",
        "_id": ""
      },
      "talkContentTextMapHash": 259368026,
      "talkAssetPath": "",
      "talkAssetPathAlter": "",
      "talkAudioName": "",
      "actionBefore": "",
      "actionWhile": "",
      "actionAfter": "",
      "optionIcon": "",
      "iconPath": ""
    },
    {
      "id": 190120448,
      "nextDialogs": [
        190120449
      ],
      "talkRole": {
        "type": "TALK_ROLE_NPC",
        "_id": "504"
      },
      "talkContentTextMapHash": 2596552562,
      "talkAssetPath": "",
      "talkAssetPathAlter": "",
      "talkAudioName": "",
      "actionBefore": "",
      "actionWhile": "",
      "actionAfter": "",
      "optionIcon": "",
      "iconPath": ""
    },
    {
      "id": 190120449,
      "talkRole": {
        "type": "TALK_ROLE_NPC",
        "_id": "504"
      },
      "talkContentTextMapHash": 1145249506,
      "talkAssetPath": "",
      "talkAssetPathAlter": "",
      "talkAudioName": "",
      "actionBefore": "",
      "actionWhile": "",
      "actionAfter": "",
      "optionIcon": "",
      "iconPath": ""
    }
  ]
}