{
  "talkId": 50,
  "KPGKDHAFHFE": "COOP",
  "dialogList": [
    {
      "id": 190190401,
      "nextDialogs": [
        190190402
      ],
      "talkRole": {
        "type": "TALK_ROLE_NPC",
        "_id": "3029"
      },
      "talkContentTextMapHash": 2512790026,
      "talkAssetPath": "",
      "talkAssetPathAlter": "",
      "talkAudioName": "",
      "actionBefore": "",
      "actionWhile": "",
      "actionAfter": "",
      "optionIcon": "",
      "iconPath": ""
    },
    {
      "id": 190190402,
      "nextDialogs": [
        190190403
      ],
      "talkRole": {
        "type": "TALK_ROLE_NPC",
        "_id": "3029"
      },
      "talkContentTextMapHash": 2661260930,
      "talkAssetPath": "",
      "talkAssetPathAlter": "",
      "talkAudioName": "",
      "actionBefore": "",
      "actionWhile": "",
      "actionAfter": "",
      "optionIcon": "",
      "iconPath": ""
    },
    {
      "id": 190190403,
      "nextDialogs": [
        190190404
      ],
      "talkRole": {
        "type": "TALK_ROLE_NPC",
        "_id": "3029"
      },
      "talkContentTextMapHash": 2173291282,
      "talkAssetPath": "",
      "talkAssetPathAlter": "",
      "talkAudioName": "",
      "actionBefore": "",
      "actionWhile": "",
      "actionAfter": "",
      "optionIcon": "",
      "iconPath": ""
    },
    {
      "id": 190190404,
      "nextDialogs": [
        190190405
      ],
      "talkShowType": "TALK_SHOW_FORCE_SELECT",
      "talkRole": {
        "type": "TALK_ROLE_PLAYER",
        "_id": ""
      },
      "talkContentTextMapHash": 2369985330,
      "talkAssetPath": "",
      "talkAssetPathAlter": "",
      "talkAudioName": "",
      "actionBefore": "",
      "actionWhile": "",
      "actionAfter": "",
      "optionIcon": "",
      "iconPath": ""
    },
    {
      "id": 190190405,
      "nextDialogs": [
        190190406
      ],
      "talkRole": {
        "type": "TALK_ROLE_NPC",
        "_id": "3029"
      },
      "talkContentTextMapHash": 3627710554,
      "talkAssetPath": "",
      "talkAssetPathAlter": "",
      "talkAudioName": "",
      "actionBefore": "",
      "actionWhile": "",
      "actionAfter": "",
      "optionIcon": "",
      "iconPath": ""
    },
    {
      "id": 190190406,
      "nextDialogs": [
        190190407
      ],
      "talkRole": {
        "type": "TALK_ROLE_NPC",
        "_id": "505"
      },
      "talkContentTextMapHash": 2813192154,
      "talkAssetPath": "",
      "talkAssetPathAlter": "",
      "talkAudioName": "",
      "actionBefore": "",
      "actionWhile": "",
      "actionAfter": "",
      "optionIcon": "",
      "iconPath": ""
    },
    {
      "id": 190190407,
      "nextDialogs": [
        190190408
      ],
      "talkRole": {
        "type": "TALK_ROLE_NPC",
        "_id": "3029"
      },
      "talkContentTextMapHash": 254290002,
      "talkAssetPath": "",
      "talkAssetPathAlter": "",
      "talkAudioName": "",
      "actionBefore": "",
      "actionWhile": "",
      "actionAfter": "",
      "optionIcon": "",
      "iconPath": ""
    },
    {
      "id": 190190408,
      "nextDialogs": [
        190190409
      ],
      "talkRole": {
        "type": "TALK_ROLE_NPC",
        "_id": "3029"
      },
      "talkContentTextMapHash": 3975663738,
      "talkAssetPath": "",
      "talkAssetPathAlter": "",
      "talkAudioName": "",
      "actionBefore": "",
      "actionWhile": "",
      "actionAfter": "",
      "optionIcon": "",
      "iconPath": ""
    },
    {
      "id": 190190409,
      "nextDialogs": [
        190190410
      ],
      "talkRole": {
        "type": "TALK_ROLE_NPC",
        "_id": "3029"
      },
      "talkContentTextMapHash": 4139909706,
      "talkAssetPath": "",
      "talkAssetPathAlter": "",
      "talkAudioName": "",
      "actionBefore": "",
      "actionWhile": "",
      "actionAfter": "",
      "optionIcon": "",
      "iconPath": ""
    },
    {
      "id": 190190410,
      "nextDialogs": [
        190190411
      ],
      "talkRole": {
        "type": "TALK_ROLE_NPC",
        "_id": "3029"
      },
      "talkContentTextMapHash": 1241708314,
      "talkAssetPath": "",
      "talkAssetPathAlter": "",
      "talkAudioName": "",
      "actionBefore": "",
      "actionWhile": "",
      "actionAfter": "",
      "optionIcon": "",
      "iconPath": ""
    },
    {
      "id": 190190411,
      "nextDialogs": [
        190190412
      ],
      "talkRole": {
        "type": "TALK_ROLE_NPC",
        "_id": "3029"
      },
      "talkContentTextMapHash": 1184626202,
      "talkAssetPath": "",
      "talkAssetPathAlter": "",
      "talkAudioName": "",
      "actionBefore": "",
      "actionWhile": "",
      "actionAfter": "",
      "optionIcon": "",
      "iconPath": ""
    },
    {
      "id": 190190412,
      "nextDialogs": [
        190190413
      ],
      "talkRole": {
        "type": "TALK_ROLE_NPC",
        "_id": "505"
      },
      "talkContentTextMapHash": 1676805674,
      "talkAssetPath": "",
      "talkAssetPathAlter": "",
      "talkAudioName": "",
      "actionBefore": "",
      "actionWhile": "",
      "actionAfter": "",
      "optionIcon": "",
      "iconPath": ""
    },
    {
      "id": 190190413,
      "nextDialogs": [
        190190414
      ],
      "talkShowType": "TALK_SHOW_FORCE_SELECT",
      "talkRole": {
        "type": "TALK_ROLE_PLAYER",
        "_id": ""
      },
      "talkContentTextMapHash": 2134486674,
      "talkAssetPath": "",
      "talkAssetPathAlter": "",
      "talkAudioName": "",
      "actionBefore": "",
      "actionWhile": "",
      "actionAfter": "",
      "optionIcon": "",
      "iconPath": ""
    },
    {
      "id": 190190414,
      "nextDialogs": [
        190190415
      ],
      "talkRole": {
        "type": "TALK_ROLE_NPC",
        "_id": "505"
      },
      "talkContentTextMapHash": 3264278514,
      "talkAssetPath": "",
      "talkAssetPathAlter": "",
      "talkAudioName": "",
      "actionBefore": "",
      "actionWhile": "",
      "actionAfter": "",
      "optionIcon": "",
      "iconPath": ""
    },
    {
      "id": 190190415,
      "nextDialogs": [
        190190416
      ],
      "talkRole": {
        "type": "TALK_ROLE_NPC",
        "_id": "505"
      },
      "talkContentTextMapHash": 2080475682,
      "talkAssetPath": "",
      "talkAssetPathAlter": "",
      "talkAudioName": "",
      "actionBefore": "",
      "actionWhile": "",
      "actionAfter": "",
      "optionIcon": "",
      "iconPath": ""
    },
    {
      "id": 190190416,
      "nextDialogs": [
        190190417
      ],
      "talkRole": {
        "type": "TALK_ROLE_NPC",
        "_id": "505"
      },
      "talkContentTextMapHash": 490244522,
      "talkAssetPath": "",
      "talkAssetPathAlter": "",
      "talkAudioName": "",
      "actionBefore": "",
      "actionWhile": "",
      "actionAfter": "",
      "optionIcon": "",
      "iconPath": ""
    },
    {
      "id": 190190417,
      "nextDialogs": [
        190190418
      ],
      "talkRole": {
        "type": "TALK_ROLE_NPC",
        "_id": "3029"
      },
      "talkContentTextMapHash": 2916897146,
      "talkAssetPath": "",
      "talkAssetPathAlter": "",
      "talkAudioName": "",
      "actionBefore": "",
      "actionWhile": "",
      "actionAfter": "",
      "optionIcon": "",
      "iconPath": ""
    },
    {
      "id": 190190418,
      "nextDialogs": [
        190190419
      ],
      "talkRole": {
        "type": "TALK_ROLE_NPC",
        "_id": "3029"
      },
      "talkContentTextMapHash": 193298482,
      "talkAssetPath": "",
      "talkAssetPathAlter": "",
      "talkAudioName": "",
      "actionBefore": "",
      "actionWhile": "",
      "actionAfter": "",
      "optionIcon": "",
      "iconPath": ""
    },
    {
      "id": 190190419,
      "nextDialogs": [
        190190420
      ],
      "talkRole": {
        "type": "TALK_ROLE_NPC",
        "_id": "3029"
      },
      "talkContentTextMapHash": 1166461298,
      "talkAssetPath": "",
      "talkAssetPathAlter": "",
      "talkAudioName": "",
      "actionBefore": "",
      "actionWhile": "",
      "actionAfter": "",
      "optionIcon": "",
      "iconPath": ""
    },
    {
      "id": 190190420,
      "nextDialogs": [
        190190421
      ],
      "talkRole": {
        "type": "TALK_ROLE_NPC",
        "_id": "505"
      },
      "talkContentTextMapHash": 2670690306,
      "talkAssetPath": "",
      "talkAssetPathAlter": "",
      "talkAudioName": "",
      "actionBefore": "",
      "actionWhile": "",
      "actionAfter": "",
      "optionIcon": "",
      "iconPath": ""
    },
    {
      "id": 190190421,
      "nextDialogs": [
        190190422
      ],
      "talkRole": {
        "type": "TALK_ROLE_NPC",
        "_id": "505"
      },
      "talkContentTextMapHash": 1423712010,
      "talkAssetPath": "",
      "talkAssetPathAlter": "",
      "talkAudioName": "",
      "actionBefore": "",
      "actionWhile": "",
      "actionAfter": "",
      "optionIcon": "",
      "iconPath": ""
    },
    {
      "id": 190190422,
      "nextDialogs": [
        190190423
      ],
      "talkRole": {
        "type": "TALK_ROLE_NPC",
        "_id": "505"
      },
      "talkContentTextMapHash": 2223272562,
      "talkAssetPath": "",
      "talkAssetPathAlter": "",
      "talkAudioName": "",
      "actionBefore": "",
      "actionWhile": "",
      "actionAfter": "",
      "optionIcon": "",
      "iconPath": ""
    },
    {
      "id": 190190423,
      "nextDialogs": [
        190190424
      ],
      "talkRole": {
        "type": "TALK_ROLE_NPC",
        "_id": "3029"
      },
      "talkContentTextMapHash": 3371738890,
      "talkAssetPath": "",
      "talkAssetPathAlter": "",
      "talkAudioName": "",
      "actionBefore": "",
      "actionWhile": "",
      "actionAfter": "",
      "optionIcon": "",
      "iconPath": ""
    },
    {
      "id": 190190424,
      "nextDialogs": [
        190190425
      ],
      "talkRole": {
        "type": "TALK_ROLE_NPC",
        "_id": "3029"
      },
      "talkContentTextMapHash": 672967066,
      "talkAssetPath": "",
      "talkAssetPathAlter": "",
      "talkAudioName": "",
      "actionBefore": "",
      "actionWhile": "",
      "actionAfter": "",
      "optionIcon": "",
      "iconPath": ""
    },
    {
      "id": 190190425,
      "nextDialogs": [
        190190426
      ],
      "talkRole": {
        "type": "TALK_ROLE_NPC",
        "_id": "505"
      },
      "talkContentTextMapHash": 1338448322,
      "talkAssetPath": "",
      "talkAssetPathAlter": "",
      "talkAudioName": "",
      "actionBefore": "",
      "actionWhile": "",
      "actionAfter": "",
      "optionIcon": "",
      "iconPath": ""
    },
    {
      "id": 190190426,
      "nextDialogs": [
        190190427
      ],
      "talkRole": {
        "type": "TALK_ROLE_NPC",
        "_id": "3029"
      },
      "talkContentTextMapHash": 2113401466,
      "talkAssetPath": "",
      "talkAssetPathAlter": "",
      "talkAudioName": "",
      "actionBefore": "",
      "actionWhile": "",
      "actionAfter": "",
      "optionIcon": "",
      "iconPath": ""
    },
    {
      "id": 190190427,
      "nextDialogs": [
        190190428
      ],
      "talkRole": {
        "type": "TALK_ROLE_NPC",
        "_id": "505"
      },
      "talkContentTextMapHash": 855645890,
      "talkAssetPath": "",
      "talkAssetPathAlter": "",
      "talkAudioName": "",
      "actionBefore": "",
      "actionWhile": "",
      "actionAfter": "",
      "optionIcon": "",
      "iconPath": ""
    },
    {
      "id": 190190428,
      "nextDialogs": [
        190190429
      ],
      "talkRole": {
        "type": "TALK_ROLE_NPC",
        "_id": "505"
      },
      "talkContentTextMapHash": 152577266,
      "talkAssetPath": "",
      "talkAssetPathAlter": "",
      "talkAudioName": "",
      "actionBefore": "",
      "actionWhile": "",
      "actionAfter": "",
      "optionIcon": "",
      "iconPath": ""
    },
    {
      "id": 190190429,
      "talkRole": {
        "type": "TALK_ROLE_NPC",
        "_id": "505"
      },
      "talkContentTextMapHash": 2730276026,
      "talkAssetPath": "",
      "talkAssetPathAlter": "",
      "talkAudioName": "",
      "actionBefore": "",
      "actionWhile": "",
      "actionAfter": "",
      "optionIcon": "",
      "iconPath": ""
    }
  ]
}