{
  "talkId": 68,
  "KPGKDHAFHFE": "COOP",
  "dialogList": [
    {
      "id": 190190601,
      "nextDialogs": [
        190190602
      ],
      "talkRole": {
        "type": "TALK_ROLE_NPC",
        "_id": "505"
      },
      "talkContentTextMapHash": 3809178170,
      "talkAssetPath": "",
      "talkAssetPathAlter": "",
      "talkAudioName": "",
      "actionBefore": "",
      "actionWhile": "",
      "actionAfter": "",
      "optionIcon": "",
      "iconPath": ""
    },
    {
      "id": 190190602,
      "nextDialogs": [
        190190603
      ],
      "talkRole": {
        "type": "TALK_ROLE_NPC",
        "_id": "505"
      },
      "talkContentTextMapHash": 3050449666,
      "talkAssetPath": "",
      "talkAssetPathAlter": "",
      "talkAudioName": "",
      "actionBefore": "",
      "actionWhile": "",
      "actionAfter": "",
      "optionIcon": "",
      "iconPath": ""
    },
    {
      "id": 190190603,
      "nextDialogs": [
        190190604
      ],
      "talkRole": {
        "type": "TALK_ROLE_NPC",
        "_id": "505"
      },
      "talkContentTextMapHash": 1267091258,
      "talkAssetPath": "",
      "talkAssetPathAlter": "",
      "talkAudioName": "",
      "actionBefore": "",
      "actionWhile": "",
      "actionAfter": "",
      "optionIcon": "",
      "iconPath": ""
    },
    {
      "id": 190190604,
      "talkRole": {
        "type": "TALK_ROLE_NPC",
        "_id": "505"
      },
      "talkContentTextMapHash": 1073083058,
      "talkAssetPath": "",
      "talkAssetPathAlter": "",
      "talkAudioName": "",
      "actionBefore": "",
      "actionWhile": "",
      "actionAfter": "",
      "optionIcon": "",
      "iconPath": ""
    }
  ]
}