{
  "talkId": 29,
  "KPGKDHAFHFE": "COOP",
  "dialogList": [
    {
      "id": 1902301401,
      "nextDialogs": [
        1902301501
      ],
      "talkRole": {
        "type": "TALK_ROLE_NPC",
        "_id": "1023"
      },
      "talkContentTextMapHash": 2000670989,
      "talkAssetPath": "",
      "talkAssetPathAlter": "",
      "talkAudioName": "",
      "actionBefore": "",
      "actionWhile": "",
      "actionAfter": "",
      "optionIcon": "",
      "iconPath": ""
    },
    {
      "id": 1902301501,
      "nextDialogs": [
        1902301502
      ],
      "talkRole": {
        "type": "TALK_ROLE_NPC",
        "_id": "1023"
      },
      "talkContentTextMapHash": 3083054901,
      "talkAssetPath": "",
      "talkAssetPathAlter": "",
      "talkAudioName": "",
      "actionBefore": "",
      "actionWhile": "",
      "actionAfter": "",
      "optionIcon": "",
      "iconPath": ""
    },
    {
      "id": 1902301502,
      "nextDialogs": [
        1902301503
      ],
      "talkRole": {
        "type": "TALK_ROLE_NPC",
        "_id": "1023"
      },
      "talkContentTextMapHash": 4154405509,
      "talkAssetPath": "",
      "talkAssetPathAlter": "",
      "talkAudioName": "",
      "actionBefore": "",
      "actionWhile": "",
      "actionAfter": "",
      "optionIcon": "",
      "iconPath": ""
    },
    {
      "id": 1902301503,
      "nextDialogs": [
        1902301504
      ],
      "talkRole": {
        "type": "TALK_ROLE_NPC",
        "_id": "1023"
      },
      "talkContentTextMapHash": 3970661325,
      "talkAssetPath": "",
      "talkAssetPathAlter": "",
      "talkAudioName": "",
      "actionBefore": "",
      "actionWhile": "",
      "actionAfter": "",
      "optionIcon": "",
      "iconPath": ""
    },
    {
      "id": 1902301504,
      "talkRole": {
        "type": "TALK_ROLE_NPC",
        "_id": "1023"
      },
      "talkContentTextMapHash": 4120443717,
      "talkAssetPath": "",
      "talkAssetPathAlter": "",
      "talkAudioName": "",
      "actionBefore": "",
      "actionWhile": "",
      "actionAfter": "",
      "optionIcon": "",
      "iconPath": ""
    }
  ]
}