{
  "talkId": 752,
  "KPGKDHAFHFE": "COOP",
  "dialogList": [
    {
      "id": 190360801,
      "nextDialogs": [
        190360802
      ],
      "talkRole": {
        "type": "TALK_ROLE_NPC",
        "_id": "511"
      },
      "talkContentTextMapHash": 706625562,
      "talkAssetPath": "",
      "talkAssetPathAlter": "",
      "talkAudioName": "",
      "actionBefore": "",
      "actionWhile": "",
      "actionAfter": "",
      "optionIcon": "",
      "iconPath": ""
    },
    {
      "id": 190360802,
      "nextDialogs": [
        190360803
      ],
      "talkRole": {
        "type": "TALK_ROLE_NPC",
        "_id": "511"
      },
      "talkContentTextMapHash": 102598586,
      "talkAssetPath": "",
      "talkAssetPathAlter": "",
      "talkAudioName": "",
      "actionBefore": "",
      "actionWhile": "",
      "actionAfter": "",
      "optionIcon": "",
      "iconPath": ""
    },
    {
      "id": 190360803,
      "nextDialogs": [
        190360804
      ],
      "talkRole": {
        "type": "TALK_ROLE_NPC",
        "_id": "511"
      },
      "talkContentTextMapHash": 3140108554,
      "talkAssetPath": "",
      "talkAssetPathAlter": "",
      "talkAudioName": "",
      "actionBefore": "",
      "actionWhile": "",
      "actionAfter": "",
      "optionIcon": "",
      "iconPath": ""
    },
    {
      "id": 190360804,
      "nextDialogs": [
        190360805
      ],
      "talkRole": {
        "type": "TALK_ROLE_NPC",
        "_id": "511"
      },
      "talkContentTextMapHash": 3439846002,
      "talkAssetPath": "",
      "talkAssetPathAlter": "",
      "talkAudioName": "",
      "actionBefore": "",
      "actionWhile": "",
      "actionAfter": "",
      "optionIcon": "",
      "iconPath": ""
    },
    {
      "id": 190360805,
      "nextDialogs": [
        190360806
      ],
      "talkRole": {
        "type": "TALK_ROLE_NPC",
        "_id": "511"
      },
      "talkContentTextMapHash": 3940899754,
      "talkAssetPath": "",
      "talkAssetPathAlter": "",
      "talkAudioName": "",
      "actionBefore": "",
      "actionWhile": "",
      "actionAfter": "",
      "optionIcon": "",
      "iconPath": ""
    },
    {
      "id": 190360806,
      "nextDialogs": [
        190360807
      ],
      "talkRole": {
        "type": "TALK_ROLE_NPC",
        "_id": "511"
      },
      "talkContentTextMapHash": 1854116066,
      "talkAssetPath": "",
      "talkAssetPathAlter": "",
      "talkAudioName": "",
      "actionBefore": "",
      "actionWhile": "",
      "actionAfter": "",
      "optionIcon": "",
      "iconPath": ""
    },
    {
      "id": 190360807,
      "nextDialogs": [
        190360808
      ],
      "talkShowType": "TALK_SHOW_FORCE_SELECT",
      "talkRole": {
        "type": "TALK_ROLE_PLAYER",
        "_id": ""
      },
      "talkContentTextMapHash": 1375621138,
      "talkAssetPath": "",
      "talkAssetPathAlter": "",
      "talkAudioName": "",
      "actionBefore": "",
      "actionWhile": "",
      "actionAfter": "",
      "optionIcon": "",
      "iconPath": ""
    },
    {
      "id": 190360808,
      "nextDialogs": [
        190360809
      ],
      "talkRole": {
        "type": "TALK_ROLE_NPC",
        "_id": "511"
      },
      "talkContentTextMapHash": 3048616842,
      "talkAssetPath": "",
      "talkAssetPathAlter": "",
      "talkAudioName": "",
      "actionBefore": "",
      "actionWhile": "",
      "actionAfter": "",
      "optionIcon": "",
      "iconPath": ""
    },
    {
      "id": 190360809,
      "nextDialogs": [
        190360810
      ],
      "talkShowType": "TALK_SHOW_FORCE_SELECT",
      "talkRole": {
        "type": "TALK_ROLE_PLAYER",
        "_id": ""
      },
      "talkContentTextMapHash": 3852027242,
      "talkAssetPath": "",
      "talkAssetPathAlter": "",
      "talkAudioName": "",
      "actionBefore": "",
      "actionWhile": "",
      "actionAfter": "",
      "optionIcon": "",
      "iconPath": ""
    },
    {
      "id": 190360810,
      "nextDialogs": [
        190360811
      ],
      "talkRole": {
        "type": "TALK_ROLE_NPC",
        "_id": "511"
      },
      "talkContentTextMapHash": 3498567506,
      "talkAssetPath": "",
      "talkAssetPathAlter": "",
      "talkAudioName": "",
      "actionBefore": "",
      "actionWhile": "",
      "actionAfter": "",
      "optionIcon": "",
      "iconPath": ""
    },
    {
      "id": 190360811,
      "nextDialogs": [
        190360812
      ],
      "talkRole": {
        "type": "TALK_ROLE_NPC",
        "_id": "511"
      },
      "talkContentTextMapHash": 125811026,
      "talkAssetPath": "",
      "talkAssetPathAlter": "",
      "talkAudioName": "",
      "actionBefore": "",
      "actionWhile": "",
      "actionAfter": "",
      "optionIcon": "",
      "iconPath": ""
    },
    {
      "id": 190360812,
      "nextDialogs": [
        190360813
      ],
      "talkShowType": "TALK_SHOW_FORCE_SELECT",
      "talkRole": {
        "type": "TALK_ROLE_PLAYER",
        "_id": ""
      },
      "talkContentTextMapHash": 258016762,
      "talkAssetPath": "",
      "talkAssetPathAlter": "",
      "talkAudioName": "",
      "actionBefore": "",
      "actionWhile": "",
      "actionAfter": "",
      "optionIcon": "",
      "iconPath": ""
    },
    {
      "id": 190360813,
      "nextDialogs": [
        190360814
      ],
      "talkRole": {
        "type": "TALK_ROLE_NPC",
        "_id": "511"
      },
      "talkContentTextMapHash": 588899466,
      "talkAssetPath": "",
      "talkAssetPathAlter": "",
      "talkAudioName": "",
      "actionBefore": "",
      "actionWhile": "",
      "actionAfter": "",
      "optionIcon": "",
      "iconPath": ""
    },
    {
      "id": 190360814,
      "nextDialogs": [
        190360815
      ],
      "talkShowType": "TALK_SHOW_FORCE_SELECT",
      "talkRole": {
        "type": "TALK_ROLE_PLAYER",
        "_id": ""
      },
      "talkContentTextMapHash": 3503520434,
      "talkAssetPath": "",
      "talkAssetPathAlter": "",
      "talkAudioName": "",
      "actionBefore": "",
      "actionWhile": "",
      "actionAfter": "",
      "optionIcon": "",
      "iconPath": ""
    },
    {
      "id": 190360815,
      "nextDialogs": [
        190360816
      ],
      "talkRole": {
        "type": "TALK_ROLE_NPC",
        "_id": "511"
      },
      "talkContentTextMapHash": 758490706,
      "talkAssetPath": "",
      "talkAssetPathAlter": "",
      "talkAudioName": "",
      "actionBefore": "",
      "actionWhile": "",
      "actionAfter": "",
      "optionIcon": "",
      "iconPath": ""
    },
    {
      "id": 190360816,
      "nextDialogs": [
        190360817
      ],
      "talkRole": {
        "type": "TALK_ROLE_NPC",
        "_id": "511"
      },
      "talkContentTextMapHash": 1211319362,
      "talkAssetPath": "",
      "talkAssetPathAlter": "",
      "talkAudioName": "",
      "actionBefore": "",
      "actionWhile": "",
      "actionAfter": "",
      "optionIcon": "",
      "iconPath": ""
    },
    {
      "id": 190360817,
      "talkRole": {
        "type": "TALK_ROLE_NPC",
        "_id": "511"
      },
      "talkContentTextMapHash": 1380629602,
      "talkAssetPath": "",
      "talkAssetPathAlter": "",
      "talkAudioName": "",
      "actionBefore": "",
      "actionWhile": "",
      "actionAfter": "",
      "optionIcon": "",
      "iconPath": ""
    }
  ]
}