{
  "talkId": 220,
  "KPGKDHAFHFE": "COOP",
  "dialogList": [
    {
      "id": 190380901,
      "nextDialogs": [
        190380902
      ],
      "talkRole": {
        "type": "TALK_ROLE_NPC",
        "_id": "12320"
      },
      "talkContentTextMapHash": 375058218,
      "talkAssetPath": "",
      "talkAssetPathAlter": "",
      "talkAudioName": "",
      "actionBefore": "",
      "actionWhile": "",
      "actionAfter": "",
      "optionIcon": "",
      "iconPath": ""
    },
    {
      "id": 190380902,
      "nextDialogs": [
        190380903
      ],
      "talkRole": {
        "type": "TALK_ROLE_NPC",
        "_id": "12320"
      },
      "talkContentTextMapHash": 218857370,
      "talkAssetPath": "",
      "talkAssetPathAlter": "",
      "talkAudioName": "",
      "actionBefore": "",
      "actionWhile": "",
      "actionAfter": "",
      "optionIcon": "",
      "iconPath": ""
    },
    {
      "id": 190380903,
      "nextDialogs": [
        190380904
      ],
      "talkRole": {
        "type": "TALK_ROLE_NPC",
        "_id": "12320"
      },
      "talkContentTextMapHash": 2693729658,
      "talkAssetPath": "",
      "talkAssetPathAlter": "",
      "talkAudioName": "",
      "actionBefore": "",
      "actionWhile": "",
      "actionAfter": "",
      "optionIcon": "",
      "iconPath": ""
    },
    {
      "id": 190380904,
      "nextDialogs": [
        190380905
      ],
      "talkRole": {
        "type": "TALK_ROLE_NPC",
        "_id": "12319"
      },
      "talkContentTextMapHash": 2286992970,
      "talkAssetPath": "",
      "talkAssetPathAlter": "",
      "talkAudioName": "",
      "actionBefore": "",
      "actionWhile": "",
      "actionAfter": "",
      "optionIcon": "",
      "iconPath": ""
    },
    {
      "id": 190380906,
      "nextDialogs": [
        190380907
      ],
      "talkRole": {
        "type": "TALK_ROLE_NPC",
        "_id": "12319"
      },
      "talkContentTextMapHash": 134798882,
      "talkAssetPath": "",
      "talkAssetPathAlter": "",
      "talkAudioName": "",
      "actionBefore": "",
      "actionWhile": "",
      "actionAfter": "",
      "optionIcon": "",
      "iconPath": ""
    },
    {
      "id": 190380907,
      "nextDialogs": [
        190380908
      ],
      "talkRole": {
        "type": "TALK_ROLE_NPC",
        "_id": "12319"
      },
      "talkContentTextMapHash": 3255962610,
      "talkAssetPath": "",
      "talkAssetPathAlter": "",
      "talkAudioName": "",
      "actionBefore": "",
      "actionWhile": "",
      "actionAfter": "",
      "optionIcon": "",
      "iconPath": ""
    },
    {
      "id": 190380908,
      "nextDialogs": [
        190380909
      ],
      "talkShowType": "TALK_SHOW_FORCE_SELECT",
      "talkRole": {
        "type": "TALK_ROLE_PLAYER",
        "_id": ""
      },
      "talkContentTextMapHash": 824658474,
      "talkAssetPath": "",
      "talkAssetPathAlter": "",
      "talkAudioName": "",
      "actionBefore": "",
      "actionWhile": "",
      "actionAfter": "",
      "optionIcon": "",
      "iconPath": ""
    },
    {
      "id": 190380909,
      "nextDialogs": [
        190381001
      ],
      "talkRole": {
        "type": "TALK_ROLE_NPC",
        "_id": "12319"
      },
      "talkContentTextMapHash": 2691924818,
      "talkAssetPath": "",
      "talkAssetPathAlter": "",
      "talkAudioName": "",
      "actionBefore": "",
      "actionWhile": "",
      "actionAfter": "",
      "optionIcon": "",
      "iconPath": ""
    },
    {
      "id": 190381001,
      "nextDialogs": [
        190381002
      ],
      "talkRole": {
        "type": "TALK_ROLE_NPC",
        "_id": "12319"
      },
      "talkContentTextMapHash": 1674030426,
      "talkAssetPath": "",
      "talkAssetPathAlter": "",
      "talkAudioName": "",
      "actionBefore": "",
      "actionWhile": "",
      "actionAfter": "",
      "optionIcon": "",
      "iconPath": ""
    },
    {
      "id": 190381002,
      "nextDialogs": [
        190381003
      ],
      "talkShowType": "TALK_SHOW_FORCE_SELECT",
      "talkRole": {
        "type": "TALK_ROLE_PLAYER",
        "_id": ""
      },
      "talkContentTextMapHash": 3872393850,
      "talkAssetPath": "",
      "talkAssetPathAlter": "",
      "talkAudioName": "",
      "actionBefore": "",
      "actionWhile": "",
      "actionAfter": "",
      "optionIcon": "",
      "iconPath": ""
    },
    {
      "id": 190381003,
      "nextDialogs": [
        190381004
      ],
      "talkRole": {
        "type": "TALK_ROLE_NPC",
        "_id": "12319"
      },
      "talkContentTextMapHash": 2642547610,
      "talkAssetPath": "",
      "talkAssetPathAlter": "",
      "talkAudioName": "",
      "actionBefore": "",
      "actionWhile": "",
      "actionAfter": "",
      "optionIcon": "",
      "iconPath": ""
    },
    {
      "id": 190381004,
      "nextDialogs": [
        190381005
      ],
      "talkRole": {
        "type": "TALK_ROLE_NPC",
        "_id": "12319"
      },
      "talkContentTextMapHash": 1876226882,
      "talkAssetPath": "",
      "talkAssetPathAlter": "",
      "talkAudioName": "",
      "actionBefore": "",
      "actionWhile": "",
      "actionAfter": "",
      "optionIcon": "",
      "iconPath": ""
    },
    {
      "id": 190381005,
      "nextDialogs": [
        190381006
      ],
      "talkRole": {
        "type": "TALK_ROLE_NPC",
        "_id": "12319"
      },
      "talkContentTextMapHash": 3011506242,
      "talkAssetPath": "",
      "talkAssetPathAlter": "",
      "talkAudioName": "",
      "actionBefore": "",
      "actionWhile": "",
      "actionAfter": "",
      "optionIcon": "",
      "iconPath": ""
    },
    {
      "id": 190381006,
      "nextDialogs": [
        190381007
      ],
      "talkRole": {
        "type": "TALK_ROLE_NPC",
        "_id": "12319"
      },
      "talkContentTextMapHash": 3311204298,
      "talkAssetPath": "",
      "talkAssetPathAlter": "",
      "talkAudioName": "",
      "actionBefore": "",
      "actionWhile": "",
      "actionAfter": "",
      "optionIcon": "",
      "iconPath": ""
    },
    {
      "id": 190381007,
      "nextDialogs": [
        190381008,
        190381009
      ],
      "talkRole": {
        "type": "TALK_ROLE_NPC",
        "_id": "12319"
      },
      "talkContentTextMapHash": 1075973346,
      "talkAssetPath": "",
      "talkAssetPathAlter": "",
      "talkAudioName": "",
      "actionBefore": "",
      "actionWhile": "",
      "actionAfter": "",
      "optionIcon": "",
      "iconPath": ""
    },
    {
      "id": 190381008,
      "nextDialogs": [
        190381010
      ],
      "talkShowType": "TALK_SHOW_FORCE_SELECT",
      "talkRole": {
        "type": "TALK_ROLE_PLAYER",
        "_id": ""
      },
      "talkContentTextMapHash": 3444582642,
      "talkAssetPath": "",
      "talkAssetPathAlter": "",
      "talkAudioName": "",
      "actionBefore": "",
      "actionWhile": "",
      "actionAfter": "",
      "optionIcon": "",
      "iconPath": ""
    },
    {
      "id": 190381009,
      "nextDialogs": [
        190381010
      ],
      "talkShowType": "TALK_SHOW_FORCE_SELECT",
      "talkRole": {
        "type": "TALK_ROLE_PLAYER",
        "_id": ""
      },
      "talkContentTextMapHash": 534761842,
      "talkAssetPath": "",
      "talkAssetPathAlter": "",
      "talkAudioName": "",
      "actionBefore": "",
      "actionWhile": "",
      "actionAfter": "",
      "optionIcon": "",
      "iconPath": ""
    },
    {
      "id": 190381010,
      "nextDialogs": [
        190381011
      ],
      "talkRole": {
        "type": "TALK_ROLE_NPC",
        "_id": "12319"
      },
      "talkContentTextMapHash": 2036773290,
      "talkAssetPath": "",
      "talkAssetPathAlter": "",
      "talkAudioName": "",
      "actionBefore": "",
      "actionWhile": "",
      "actionAfter": "",
      "optionIcon": "",
      "iconPath": ""
    },
    {
      "id": 190381011,
      "nextDialogs": [
        190381012,
        190381013
      ],
      "talkRole": {
        "type": "TALK_ROLE_NPC",
        "_id": "12319"
      },
      "talkContentTextMapHash": 222011938,
      "talkAssetPath": "",
      "talkAssetPathAlter": "",
      "talkAudioName": "",
      "actionBefore": "",
      "actionWhile": "",
      "actionAfter": "",
      "optionIcon": "",
      "iconPath": ""
    },
    {
      "id": 190381012,
      "nextDialogs": [
        190381014
      ],
      "talkShowType": "TALK_SHOW_FORCE_SELECT",
      "talkRole": {
        "type": "TALK_ROLE_PLAYER",
        "_id": ""
      },
      "talkContentTextMapHash": 2026715930,
      "talkAssetPath": "",
      "talkAssetPathAlter": "",
      "talkAudioName": "",
      "actionBefore": "",
      "actionWhile": "",
      "actionAfter": "",
      "optionIcon": "",
      "iconPath": ""
    },
    {
      "id": 190381013,
      "nextDialogs": [
        190381014
      ],
      "talkShowType": "TALK_SHOW_FORCE_SELECT",
      "talkRole": {
        "type": "TALK_ROLE_PLAYER",
        "_id": ""
      },
      "talkContentTextMapHash": 2537067722,
      "talkAssetPath": "",
      "talkAssetPathAlter": "",
      "talkAudioName": "",
      "actionBefore": "",
      "actionWhile": "",
      "actionAfter": "",
      "optionIcon": "",
      "iconPath": ""
    },
    {
      "id": 190381014,
      "nextDialogs": [
        190381015
      ],
      "talkRole": {
        "type": "TALK_ROLE_NPC",
        "_id": "12319"
      },
      "talkContentTextMapHash": 2826649050,
      "talkAssetPath": "",
      "talkAssetPathAlter": "",
      "talkAudioName": "",
      "actionBefore": "",
      "actionWhile": "",
      "actionAfter": "",
      "optionIcon": "",
      "iconPath": ""
    },
    {
      "id": 190381015,
      "nextDialogs": [
        190381016,
        190381018
      ],
      "talkRole": {
        "type": "TALK_ROLE_NPC",
        "_id": "12319"
      },
      "talkContentTextMapHash": 3985321626,
      "talkAssetPath": "",
      "talkAssetPathAlter": "",
      "talkAudioName": "",
      "actionBefore": "",
      "actionWhile": "",
      "actionAfter": "",
      "optionIcon": "",
      "iconPath": ""
    },
    {
      "id": 190381016,
      "nextDialogs": [
        190381017
      ],
      "talkShowType": "TALK_SHOW_FORCE_SELECT",
      "talkRole": {
        "type": "TALK_ROLE_PLAYER",
        "_id": ""
      },
      "talkContentTextMapHash": 3726481842,
      "talkAssetPath": "",
      "talkAssetPathAlter": "",
      "talkAudioName": "",
      "actionBefore": "",
      "actionWhile": "",
      "actionAfter": "",
      "optionIcon": "",
      "iconPath": ""
    },
    {
      "id": 190381017,
      "nextDialogs": [
        190381019
      ],
      "talkRole": {
        "type": "TALK_ROLE_NPC",
        "_id": "12319"
      },
      "talkContentTextMapHash": 4178562826,
      "talkAssetPath": "",
      "talkAssetPathAlter": "",
      "talkAudioName": "",
      "actionBefore": "",
      "actionWhile": "",
      "actionAfter": "",
      "optionIcon": "",
      "iconPath": ""
    },
    {
      "id": 190381018,
      "nextDialogs": [
        190381019
      ],
      "talkShowType": "TALK_SHOW_FORCE_SELECT",
      "talkRole": {
        "type": "TALK_ROLE_PLAYER",
        "_id": ""
      },
      "talkContentTextMapHash": 479580378,
      "talkAssetPath": "",
      "talkAssetPathAlter": "",
      "talkAudioName": "",
      "actionBefore": "",
      "actionWhile": "",
      "actionAfter": "",
      "optionIcon": "",
      "iconPath": ""
    },
    {
      "id": 190381019,
      "nextDialogs": [
        190381020
      ],
      "talkRole": {
        "type": "TALK_ROLE_NPC",
        "_id": "12319"
      },
      "talkContentTextMapHash": 1548438378,
      "talkAssetPath": "",
      "talkAssetPathAlter": "",
      "talkAudioName": "",
      "actionBefore": "",
      "actionWhile": "",
      "actionAfter": "",
      "optionIcon": "",
      "iconPath": ""
    },
    {
      "id": 190381020,
      "talkRole": {
        "type": "TALK_ROLE_NPC",
        "_id": "12319"
      },
      "talkContentTextMapHash": 2213594690,
      "talkAssetPath": "",
      "talkAssetPathAlter": "",
      "talkAudioName": "",
      "actionBefore": "",
      "actionWhile": "",
      "actionAfter": "",
      "optionIcon": "",
      "iconPath": ""
    }
  ]
}