{
  "talkId": 104,
  "KPGKDHAFHFE": "COOP",
  "dialogList": [
    {
      "id": 190380301,
      "nextDialogs": [
        190380302
      ],
      "talkRole": {
        "type": "TALK_ROLE_NPC",
        "_id": "12320"
      },
      "talkContentTextMapHash": 1857429754,
      "talkAssetPath": "",
      "talkAssetPathAlter": "",
      "talkAudioName": "",
      "actionBefore": "",
      "actionWhile": "",
      "actionAfter": "",
      "optionIcon": "",
      "iconPath": ""
    },
    {
      "id": 190380302,
      "nextDialogs": [
        190380303
      ],
      "talkRole": {
        "type": "TALK_ROLE_NPC",
        "_id": "12320"
      },
      "talkContentTextMapHash": 364090794,
      "talkAssetPath": "",
      "talkAssetPathAlter": "",
      "talkAudioName": "",
      "actionBefore": "",
      "actionWhile": "",
      "actionAfter": "",
      "optionIcon": "",
      "iconPath": ""
    },
    {
      "id": 190380303,
      "nextDialogs": [
        190380304
      ],
      "talkRole": {
        "type": "TALK_ROLE_NPC",
        "_id": "12320"
      },
      "talkContentTextMapHash": 1800707978,
      "talkAssetPath": "",
      "talkAssetPathAlter": "",
      "talkAudioName": "",
      "actionBefore": "",
      "actionWhile": "",
      "actionAfter": "",
      "optionIcon": "",
      "iconPath": ""
    },
    {
      "id": 190380304,
      "nextDialogs": [
        190380305
      ],
      "talkRole": {
        "type": "TALK_ROLE_NPC",
        "_id": "12319"
      },
      "talkContentTextMapHash": 4016329834,
      "talkAssetPath": "",
      "talkAssetPathAlter": "",
      "talkAudioName": "",
      "actionBefore": "",
      "actionWhile": "",
      "actionAfter": "",
      "optionIcon": "",
      "iconPath": ""
    },
    {
      "id": 190380305,
      "nextDialogs": [
        190380306
      ],
      "talkRole": {
        "type": "TALK_ROLE_NPC",
        "_id": "12320"
      },
      "talkContentTextMapHash": 466229674,
      "talkAssetPath": "",
      "talkAssetPathAlter": "",
      "talkAudioName": "",
      "actionBefore": "",
      "actionWhile": "",
      "actionAfter": "",
      "optionIcon": "",
      "iconPath": ""
    },
    {
      "id": 190380306,
      "nextDialogs": [
        190380307
      ],
      "talkRole": {
        "type": "TALK_ROLE_NPC",
        "_id": "12319"
      },
      "talkContentTextMapHash": 356365338,
      "talkAssetPath": "",
      "talkAssetPathAlter": "",
      "talkAudioName": "",
      "actionBefore": "",
      "actionWhile": "",
      "actionAfter": "",
      "optionIcon": "",
      "iconPath": ""
    },
    {
      "id": 190380307,
      "nextDialogs": [
        190380308
      ],
      "talkRole": {
        "type": "TALK_ROLE_NPC",
        "_id": "12320"
      },
      "talkContentTextMapHash": 2014163050,
      "talkAssetPath": "",
      "talkAssetPathAlter": "",
      "talkAudioName": "",
      "actionBefore": "",
      "actionWhile": "",
      "actionAfter": "",
      "optionIcon": "",
      "iconPath": ""
    },
    {
      "id": 190380308,
      "nextDialogs": [
        190380309,
        190380310
      ],
      "talkRole": {
        "type": "TALK_ROLE_NPC",
        "_id": "12320"
      },
      "talkContentTextMapHash": 625493202,
      "talkAssetPath": "",
      "talkAssetPathAlter": "",
      "talkAudioName": "",
      "actionBefore": "",
      "actionWhile": "",
      "actionAfter": "",
      "optionIcon": "",
      "iconPath": ""
    },
    {
      "id": 190380309,
      "nextDialogs": [
        190380311
      ],
      "talkShowType": "TALK_SHOW_FORCE_SELECT",
      "talkRole": {
        "type": "TALK_ROLE_PLAYER",
        "_id": ""
      },
      "talkContentTextMapHash": 1882953034,
      "talkAssetPath": "",
      "talkAssetPathAlter": "",
      "talkAudioName": "",
      "actionBefore": "",
      "actionWhile": "",
      "actionAfter": "",
      "optionIcon": "",
      "iconPath": ""
    },
    {
      "id": 190380310,
      "nextDialogs": [
        190380311
      ],
      "talkShowType": "TALK_SHOW_FORCE_SELECT",
      "talkRole": {
        "type": "TALK_ROLE_PLAYER",
        "_id": ""
      },
      "talkContentTextMapHash": 568998178,
      "talkAssetPath": "",
      "talkAssetPathAlter": "",
      "talkAudioName": "",
      "actionBefore": "",
      "actionWhile": "",
      "actionAfter": "",
      "optionIcon": "",
      "iconPath": ""
    },
    {
      "id": 190380311,
      "nextDialogs": [
        190380312
      ],
      "talkRole": {
        "type": "TALK_ROLE_NPC",
        "_id": "12320"
      },
      "talkContentTextMapHash": 3800026954,
      "talkAssetPath": "",
      "talkAssetPathAlter": "",
      "talkAudioName": "",
      "actionBefore": "",
      "actionWhile": "",
      "actionAfter": "",
      "optionIcon": "",
      "iconPath": ""
    },
    {
      "id": 190380312,
      "nextDialogs": [
        190380313
      ],
      "talkRole": {
        "type": "TALK_ROLE_NPC",
        "_id": "12320"
      },
      "talkContentTextMapHash": 2040047698,
      "talkAssetPath": "",
      "talkAssetPathAlter": "",
      "talkAudioName": "",
      "actionBefore": "",
      "actionWhile": "",
      "actionAfter": "",
      "optionIcon": "",
      "iconPath": ""
    },
    {
      "id": 190380313,
      "nextDialogs": [
        190380314
      ],
      "talkRole": {
        "type": "TALK_ROLE_NPC",
        "_id": "12319"
      },
      "talkContentTextMapHash": 4067650442,
      "talkAssetPath": "",
      "talkAssetPathAlter": "",
      "talkAudioName": "",
      "actionBefore": "",
      "actionWhile": "",
      "actionAfter": "",
      "optionIcon": "",
      "iconPath": ""
    },
    {
      "id": 190380314,
      "nextDialogs": [
        190380315
      ],
      "talkShowType": "TALK_SHOW_FORCE_SELECT",
      "talkRole": {
        "type": "TALK_ROLE_PLAYER",
        "_id": ""
      },
      "talkContentTextMapHash": 2716514890,
      "talkAssetPath": "",
      "talkAssetPathAlter": "",
      "talkAudioName": "",
      "actionBefore": "",
      "actionWhile": "",
      "actionAfter": "",
      "optionIcon": "",
      "iconPath": ""
    },
    {
      "id": 190380315,
      "nextDialogs": [
        190380316
      ],
      "talkRole": {
        "type": "TALK_ROLE_NPC",
        "_id": "12319"
      },
      "talkContentTextMapHash": 541755234,
      "talkAssetPath": "",
      "talkAssetPathAlter": "",
      "talkAudioName": "",
      "actionBefore": "",
      "actionWhile": "",
      "actionAfter": "",
      "optionIcon": "",
      "iconPath": ""
    },
    {
      "id": 190380316,
      "talkRole": {
        "type": "TALK_ROLE_NPC",
        "_id": "12319"
      },
      "talkContentTextMapHash": 790289922,
      "talkAssetPath": "",
      "talkAssetPathAlter": "",
      "talkAudioName": "",
      "actionBefore": "",
      "actionWhile": "",
      "actionAfter": "",
      "optionIcon": "",
      "iconPath": ""
    }
  ]
}