{
  "talkId": 92,
  "KPGKDHAFHFE": "COOP",
  "dialogList": [
    {
      "id": 1903001201,
      "nextDialogs": [
        1903001202
      ],
      "talkRole": {
        "type": "TALK_ROLE_NPC",
        "_id": "10917"
      },
      "talkContentTextMapHash": 772405997,
      "talkAssetPath": "",
      "talkAssetPathAlter": "",
      "talkAudioName": "",
      "actionBefore": "",
      "actionWhile": "",
      "actionAfter": "",
      "optionIcon": "",
      "iconPath": ""
    },
    {
      "id": 1903001202,
      "talkRole": {
        "type": "TALK_ROLE_NPC",
        "_id": "10917"
      },
      "talkContentTextMapHash": 2720099949,
      "talkAssetPath": "",
      "talkAssetPathAlter": "",
      "talkAudioName": "",
      "actionBefore": "",
      "actionWhile": "",
      "actionAfter": "",
      "optionIcon": "",
      "iconPath": ""
    }
  ]
}