{
  "talkId": 174,
  "KPGKDHAFHFE": "COOP",
  "dialogList": [
    {
      "id": 1904508105,
      "nextDialogs": [
        1904508106
      ],
      "talkRole": {
        "type": "TALK_ROLE_NPC",
        "_id": "1024"
      },
      "talkContentTextMapHash": 898191293,
      "talkAssetPath": "",
      "talkAssetPathAlter": "",
      "talkAudioName": "",
      "actionBefore": "",
      "actionWhile": "",
      "actionAfter": "",
      "optionIcon": "",
      "iconPath": ""
    },
    {
      "id": 1904508106,
      "talkRole": {
        "type": "TALK_ROLE_NPC",
        "_id": "1024"
      },
      "talkContentTextMapHash": 1506410429,
      "talkAssetPath": "",
      "talkAssetPathAlter": "",
      "talkAudioName": "",
      "actionBefore": "",
      "actionWhile": "",
      "actionAfter": "",
      "optionIcon": "",
      "iconPath": ""
    }
  ]
}