{
  "talkId": 119,
  "KPGKDHAFHFE": "COOP",
  "dialogList": [
    {
      "id": 1904101406,
      "nextDialogs": [
        1904101407
      ],
      "talkRole": {
        "type": "TALK_ROLE_NPC",
        "_id": "1024"
      },
      "talkContentTextMapHash": 1004120245,
      "talkAssetPath": "",
      "talkAssetPathAlter": "",
      "talkAudioName": "",
      "actionBefore": "",
      "actionWhile": "",
      "actionAfter": "",
      "optionIcon": "",
      "iconPath": ""
    },
    {
      "id": 1904101407,
      "nextDialogs": [
        1904101408
      ],
      "talkRole": {
        "type": "TALK_ROLE_NPC",
        "_id": "1024"
      },
      "talkContentTextMapHash": 4076223133,
      "talkAssetPath": "",
      "talkAssetPathAlter": "",
      "talkAudioName": "",
      "actionBefore": "",
      "actionWhile": "",
      "actionAfter": "",
      "optionIcon": "",
      "iconPath": ""
    },
    {
      "id": 1904101408,
      "nextDialogs": [
        1904101409
      ],
      "talkRole": {
        "type": "TALK_ROLE_NPC",
        "_id": "1024"
      },
      "talkContentTextMapHash": 973997381,
      "talkAssetPath": "",
      "talkAssetPathAlter": "",
      "talkAudioName": "",
      "actionBefore": "",
      "actionWhile": "",
      "actionAfter": "",
      "optionIcon": "",
      "iconPath": ""
    },
    {
      "id": 1904101409,
      "talkRole": {
        "type": "TALK_ROLE_NPC",
        "_id": "1024"
      },
      "talkContentTextMapHash": 407526901,
      "talkAssetPath": "",
      "talkAssetPathAlter": "",
      "talkAudioName": "",
      "actionBefore": "",
      "actionWhile": "",
      "actionAfter": "",
      "optionIcon": "",
      "iconPath": ""
    }
  ]
}