{
  "talkId": 89,
  "KPGKDHAFHFE": "COOP",
  "dialogList": [
    {
      "id": 1904505101,
      "nextDialogs": [
        1904505102
      ],
      "talkRole": {
        "type": "TALK_ROLE_NPC",
        "_id": "1024"
      },
      "talkContentTextMapHash": 1190411693,
      "talkAssetPath": "",
      "talkAssetPathAlter": "",
      "talkAudioName": "",
      "actionBefore": "",
      "actionWhile": "",
      "actionAfter": "",
      "optionIcon": "",
      "iconPath": ""
    },
    {
      "id": 1904505102,
      "nextDialogs": [
        1904505103
      ],
      "talkRole": {
        "type": "TALK_ROLE_NPC",
        "_id": "1024"
      },
      "talkContentTextMapHash": 244108301,
      "talkAssetPath": "",
      "talkAssetPathAlter": "",
      "talkAudioName": "",
      "actionBefore": "",
      "actionWhile": "",
      "actionAfter": "",
      "optionIcon": "",
      "iconPath": ""
    }
  ]
}