{
  "talkId": 156,
  "KPGKDHAFHFE": "COOP",
  "dialogList": [
    {
      "id": 1904304110,
      "nextDialogs": [
        1904304113
      ],
      "talkRole": {
        "type": "TALK_ROLE_NPC",
        "_id": "1024"
      },
      "talkContentTextMapHash": 3835836965,
      "talkAssetPath": "",
      "talkAssetPathAlter": "",
      "talkAudioName": "",
      "actionBefore": "",
      "actionWhile": "",
      "actionAfter": "",
      "optionIcon": "",
      "iconPath": ""
    },
    {
      "id": 1904304113,
      "nextDialogs": [
        1904304114
      ],
      "talkRole": {
        "type": "TALK_ROLE_NPC",
        "_id": "1024"
      },
      "talkContentTextMapHash": 4074686421,
      "talkAssetPath": "",
      "talkAssetPathAlter": "",
      "talkAudioName": "",
      "actionBefore": "",
      "actionWhile": "",
      "actionAfter": "",
      "optionIcon": "",
      "iconPath": ""
    },
    {
      "id": 1904304114,
      "nextDialogs": [
        1904304115
      ],
      "talkRole": {
        "type": "TALK_ROLE_NPC",
        "_id": "1024"
      },
      "talkContentTextMapHash": 1602965893,
      "talkAssetPath": "",
      "talkAssetPathAlter": "",
      "talkAudioName": "",
      "actionBefore": "",
      "actionWhile": "",
      "actionAfter": "",
      "optionIcon": "",
      "iconPath": ""
    },
    {
      "id": 1904304115,
      "nextDialogs": [
        1904304116
      ],
      "talkRole": {
        "type": "TALK_ROLE_NPC",
        "_id": "1024"
      },
      "talkContentTextMapHash": 557107941,
      "talkRoleNameTextMapHash": 2479342651,
      "talkAssetPath": "",
      "talkAssetPathAlter": "",
      "talkAudioName": "",
      "actionBefore": "",
      "actionWhile": "",
      "actionAfter": "",
      "optionIcon": "",
      "iconPath": ""
    },
    {
      "id": 1904304116,
      "nextDialogs": [
        1904304117,
        1904304118
      ],
      "talkRole": {
        "type": "TALK_ROLE_NPC",
        "_id": "1024"
      },
      "talkContentTextMapHash": 107195525,
      "talkAssetPath": "",
      "talkAssetPathAlter": "",
      "talkAudioName": "",
      "actionBefore": "",
      "actionWhile": "",
      "actionAfter": "",
      "optionIcon": "",
      "iconPath": ""
    },
    {
      "id": 1904304117,
      "nextDialogs": [
        1904304119
      ],
      "talkRole": {
        "type": "TALK_ROLE_PLAYER",
        "_id": ""
      },
      "talkContentTextMapHash": 3414459381,
      "talkAssetPath": "",
      "talkAssetPathAlter": "",
      "talkAudioName": "",
      "actionBefore": "",
      "actionWhile": "",
      "actionAfter": "",
      "optionIcon": "",
      "iconPath": ""
    },
    {
      "id": 1904304118,
      "nextDialogs": [
        1904304119
      ],
      "talkRole": {
        "type": "TALK_ROLE_PLAYER",
        "_id": ""
      },
      "talkContentTextMapHash": 2222610269,
      "talkAssetPath": "",
      "talkAssetPathAlter": "",
      "talkAudioName": "",
      "actionBefore": "",
      "actionWhile": "",
      "actionAfter": "",
      "optionIcon": "",
      "iconPath": ""
    },
    {
      "id": 1904304119,
      "nextDialogs": [
        1904304120
      ],
      "talkRole": {
        "type": "TALK_ROLE_NPC",
        "_id": "1024"
      },
      "talkContentTextMapHash": 1862378253,
      "talkAssetPath": "",
      "talkAssetPathAlter": "",
      "talkAudioName": "",
      "actionBefore": "",
      "actionWhile": "",
      "actionAfter": "",
      "optionIcon": "",
      "iconPath": ""
    },
    {
      "id": 1904304120,
      "nextDialogs": [
        1904304121
      ],
      "talkRole": {
        "type": "TALK_ROLE_NPC",
        "_id": "1024"
      },
      "talkContentTextMapHash": 4255881797,
      "talkAssetPath": "",
      "talkAssetPathAlter": "",
      "talkAudioName": "",
      "actionBefore": "",
      "actionWhile": "",
      "actionAfter": "",
      "optionIcon": "",
      "iconPath": ""
    },
    {
      "id": 1904304121,
      "nextDialogs": [
        1904304122
      ],
      "talkRole": {
        "type": "TALK_ROLE_NPC",
        "_id": "1413"
      },
      "talkContentTextMapHash": 582635437,
      "talkAssetPath": "",
      "talkAssetPathAlter": "",
      "talkAudioName": "",
      "actionBefore": "",
      "actionWhile": "",
      "actionAfter": "",
      "optionIcon": "",
      "iconPath": ""
    },
    {
      "id": 1904304122,
      "nextDialogs": [
        1904304123
      ],
      "talkRole": {
        "type": "TALK_ROLE_NPC",
        "_id": "1024"
      },
      "talkContentTextMapHash": 855323317,
      "talkAssetPath": "",
      "talkAssetPathAlter": "",
      "talkAudioName": "",
      "actionBefore": "",
      "actionWhile": "",
      "actionAfter": "",
      "optionIcon": "",
      "iconPath": ""
    },
    {
      "id": 1904304123,
      "nextDialogs": [
        1904304124
      ],
      "talkRole": {
        "type": "TALK_ROLE_NPC",
        "_id": "1413"
      },
      "talkContentTextMapHash": 1253995205,
      "talkAssetPath": "",
      "talkAssetPathAlter": "",
      "talkAudioName": "",
      "actionBefore": "",
      "actionWhile": "",
      "actionAfter": "",
      "optionIcon": "",
      "iconPath": ""
    },
    {
      "id": 1904304124,
      "nextDialogs": [
        1904304125
      ],
      "talkRole": {
        "type": "TALK_ROLE_NPC",
        "_id": "1024"
      },
      "talkContentTextMapHash": 3882164405,
      "talkAssetPath": "",
      "talkAssetPathAlter": "",
      "talkAudioName": "",
      "actionBefore": "",
      "actionWhile": "",
      "actionAfter": "",
      "optionIcon": "",
      "iconPath": ""
    },
    {
      "id": 1904304125,
      "nextDialogs": [
        1904304126
      ],
      "talkRole": {
        "type": "TALK_ROLE_NPC",
        "_id": "1413"
      },
      "talkContentTextMapHash": 2389875725,
      "talkAssetPath": "",
      "talkAssetPathAlter": "",
      "talkAudioName": "",
      "actionBefore": "",
      "actionWhile": "",
      "actionAfter": "",
      "optionIcon": "",
      "iconPath": ""
    },
    {
      "id": 1904304126,
      "nextDialogs": [
        1904304127
      ],
      "talkRole": {
        "type": "TALK_ROLE_NPC",
        "_id": "1024"
      },
      "talkContentTextMapHash": 1046535693,
      "talkAssetPath": "",
      "talkAssetPathAlter": "",
      "talkAudioName": "",
      "actionBefore": "",
      "actionWhile": "",
      "actionAfter": "",
      "optionIcon": "",
      "iconPath": ""
    },
    {
      "id": 1904304127,
      "nextDialogs": [
        1904304128,
        1904304129
      ],
      "talkRole": {
        "type": "TALK_ROLE_NPC",
        "_id": "1024"
      },
      "talkContentTextMapHash": 2895337117,
      "talkAssetPath": "",
      "talkAssetPathAlter": "",
      "talkAudioName": "",
      "actionBefore": "",
      "actionWhile": "",
      "actionAfter": "",
      "optionIcon": "",
      "iconPath": ""
    },
    {
      "id": 1904304128,
      "nextDialogs": [
        1904304130
      ],
      "talkRole": {
        "type": "TALK_ROLE_PLAYER",
        "_id": ""
      },
      "talkContentTextMapHash": 1651775397,
      "talkAssetPath": "",
      "talkAssetPathAlter": "",
      "talkAudioName": "",
      "actionBefore": "",
      "actionWhile": "",
      "actionAfter": "",
      "optionIcon": "",
      "iconPath": ""
    },
    {
      "id": 1904304129,
      "nextDialogs": [
        1904304130
      ],
      "talkRole": {
        "type": "TALK_ROLE_PLAYER",
        "_id": ""
      },
      "talkContentTextMapHash": 460569229,
      "talkAssetPath": "",
      "talkAssetPathAlter": "",
      "talkAudioName": "",
      "actionBefore": "",
      "actionWhile": "",
      "actionAfter": "",
      "optionIcon": "",
      "iconPath": ""
    },
    {
      "id": 1904304130,
      "nextDialogs": [
        1904304131
      ],
      "talkRole": {
        "type": "TALK_ROLE_NPC",
        "_id": "1024"
      },
      "talkContentTextMapHash": 2510953701,
      "talkAssetPath": "",
      "talkAssetPathAlter": "",
      "talkAudioName": "",
      "actionBefore": "",
      "actionWhile": "",
      "actionAfter": "",
      "optionIcon": "",
      "iconPath": ""
    },
    {
      "id": 1904304131,
      "nextDialogs": [
        1904304132
      ],
      "talkRole": {
        "type": "TALK_ROLE_NPC",
        "_id": "1413"
      },
      "talkContentTextMapHash": 3251255069,
      "talkAssetPath": "",
      "talkAssetPathAlter": "",
      "talkAudioName": "",
      "actionBefore": "",
      "actionWhile": "",
      "actionAfter": "",
      "optionIcon": "",
      "iconPath": ""
    },
    {
      "id": 1904304132,
      "talkRole": {
        "type": "TALK_ROLE_NPC",
        "_id": "1024"
      },
      "talkContentTextMapHash": 366270581,
      "talkAssetPath": "",
      "talkAssetPathAlter": "",
      "talkAudioName": "",
      "actionBefore": "",
      "actionWhile": "",
      "actionAfter": "",
      "optionIcon": "",
      "iconPath": ""
    }
  ]
}