{
  "talkId": 154,
  "KPGKDHAFHFE": "COOP",
  "dialogList": [
    {
      "id": 190500901,
      "nextDialogs": [
        190500902,
        190500903
      ],
      "talkRole": {
        "type": "TALK_ROLE_NPC",
        "_id": "506"
      },
      "talkContentTextMapHash": 1048158210,
      "talkAssetPath": "",
      "talkAssetPathAlter": "",
      "talkAudioName": "",
      "actionBefore": "",
      "actionWhile": "",
      "actionAfter": "",
      "optionIcon": "",
      "iconPath": ""
    },
    {
      "id": 190500902,
      "nextDialogs": [
        190500904
      ],
      "talkShowType": "TALK_SHOW_FORCE_SELECT",
      "talkRole": {
        "type": "TALK_ROLE_PLAYER",
        "_id": ""
      },
      "talkContentTextMapHash": 3808981866,
      "talkAssetPath": "",
      "talkAssetPathAlter": "",
      "talkAudioName": "",
      "actionBefore": "",
      "actionWhile": "",
      "actionAfter": "",
      "optionIcon": "",
      "iconPath": ""
    },
    {
      "id": 190500903,
      "nextDialogs": [
        190500904
      ],
      "talkShowType": "TALK_SHOW_FORCE_SELECT",
      "talkRole": {
        "type": "TALK_ROLE_PLAYER",
        "_id": ""
      },
      "talkContentTextMapHash": 1700799378,
      "talkAssetPath": "",
      "talkAssetPathAlter": "",
      "talkAudioName": "",
      "actionBefore": "",
      "actionWhile": "",
      "actionAfter": "",
      "optionIcon": "",
      "iconPath": ""
    },
    {
      "id": 190500904,
      "nextDialogs": [
        190500905
      ],
      "talkRole": {
        "type": "TALK_ROLE_NPC",
        "_id": "506"
      },
      "talkContentTextMapHash": 412249538,
      "talkAssetPath": "",
      "talkAssetPathAlter": "",
      "talkAudioName": "",
      "actionBefore": "",
      "actionWhile": "",
      "actionAfter": "",
      "optionIcon": "",
      "iconPath": ""
    },
    {
      "id": 190500905,
      "nextDialogs": [
        190500906
      ],
      "talkRole": {
        "type": "TALK_ROLE_NPC",
        "_id": "506"
      },
      "talkContentTextMapHash": 1055913570,
      "talkAssetPath": "",
      "talkAssetPathAlter": "",
      "talkAudioName": "",
      "actionBefore": "",
      "actionWhile": "",
      "actionAfter": "",
      "optionIcon": "",
      "iconPath": ""
    },
    {
      "id": 190500906,
      "talkRole": {
        "type": "TALK_ROLE_NPC",
        "_id": "506"
      },
      "talkContentTextMapHash": 813408042,
      "talkAssetPath": "",
      "talkAssetPathAlter": "",
      "talkAudioName": "",
      "actionBefore": "",
      "actionWhile": "",
      "actionAfter": "",
      "optionIcon": "",
      "iconPath": ""
    }
  ]
}