{
  "talkId": 213,
  "KPGKDHAFHFE": "COOP",
  "dialogList": [
    {
      "id": 190521001,
      "nextDialogs": [
        190521002
      ],
      "talkRole": {
        "type": "TALK_ROLE_NPC",
        "_id": "12216"
      },
      "talkContentTextMapHash": 1389824986,
      "talkAssetPath": "",
      "talkAssetPathAlter": "",
      "talkAudioName": "",
      "actionBefore": "",
      "actionWhile": "",
      "actionAfter": "",
      "optionIcon": "",
      "iconPath": ""
    },
    {
      "id": 190521002,
      "nextDialogs": [
        190521003
      ],
      "talkRole": {
        "type": "TALK_ROLE_NPC",
        "_id": "506"
      },
      "talkContentTextMapHash": 523112034,
      "talkAssetPath": "",
      "talkAssetPathAlter": "",
      "talkAudioName": "",
      "actionBefore": "",
      "actionWhile": "",
      "actionAfter": "",
      "optionIcon": "",
      "iconPath": ""
    },
    {
      "id": 190521003,
      "nextDialogs": [
        190521004
      ],
      "talkRole": {
        "type": "TALK_ROLE_NPC",
        "_id": "12216"
      },
      "talkContentTextMapHash": 3716110938,
      "talkAssetPath": "",
      "talkAssetPathAlter": "",
      "talkAudioName": "",
      "actionBefore": "",
      "actionWhile": "",
      "actionAfter": "",
      "optionIcon": "",
      "iconPath": ""
    },
    {
      "id": 190521004,
      "nextDialogs": [
        190521005
      ],
      "talkRole": {
        "type": "TALK_ROLE_NPC",
        "_id": "12216"
      },
      "talkContentTextMapHash": 1577035826,
      "talkAssetPath": "",
      "talkAssetPathAlter": "",
      "talkAudioName": "",
      "actionBefore": "",
      "actionWhile": "",
      "actionAfter": "",
      "optionIcon": "",
      "iconPath": ""
    },
    {
      "id": 190521005,
      "nextDialogs": [
        190521006
      ],
      "talkRole": {
        "type": "TALK_ROLE_NPC",
        "_id": "506"
      },
      "talkContentTextMapHash": 3342610890,
      "talkAssetPath": "",
      "talkAssetPathAlter": "",
      "talkAudioName": "",
      "actionBefore": "",
      "actionWhile": "",
      "actionAfter": "",
      "optionIcon": "",
      "iconPath": ""
    },
    {
      "id": 190521006,
      "nextDialogs": [
        190521007
      ],
      "talkRole": {
        "type": "TALK_ROLE_NPC",
        "_id": "12216"
      },
      "talkContentTextMapHash": 188390386,
      "talkAssetPath": "",
      "talkAssetPathAlter": "",
      "talkAudioName": "",
      "actionBefore": "",
      "actionWhile": "",
      "actionAfter": "",
      "optionIcon": "",
      "iconPath": ""
    },
    {
      "id": 190521007,
      "nextDialogs": [
        190521008
      ],
      "talkRole": {
        "type": "TALK_ROLE_NPC",
        "_id": "506"
      },
      "talkContentTextMapHash": 926037866,
      "talkAssetPath": "",
      "talkAssetPathAlter": "",
      "talkAudioName": "",
      "actionBefore": "",
      "actionWhile": "",
      "actionAfter": "",
      "optionIcon": "",
      "iconPath": ""
    },
    {
      "id": 190521008,
      "nextDialogs": [
        190521009
      ],
      "talkRole": {
        "type": "TALK_ROLE_NPC",
        "_id": "12216"
      },
      "talkContentTextMapHash": 4222758682,
      "talkAssetPath": "",
      "talkAssetPathAlter": "",
      "talkAudioName": "",
      "actionBefore": "",
      "actionWhile": "",
      "actionAfter": "",
      "optionIcon": "",
      "iconPath": ""
    },
    {
      "id": 190521009,
      "nextDialogs": [
        190521010
      ],
      "talkRole": {
        "type": "TALK_ROLE_NPC",
        "_id": "506"
      },
      "talkContentTextMapHash": 2248814666,
      "talkAssetPath": "",
      "talkAssetPathAlter": "",
      "talkAudioName": "",
      "actionBefore": "",
      "actionWhile": "",
      "actionAfter": "",
      "optionIcon": "",
      "iconPath": ""
    },
    {
      "id": 190521010,
      "nextDialogs": [
        190521011
      ],
      "talkRole": {
        "type": "TALK_ROLE_NPC",
        "_id": "12216"
      },
      "talkContentTextMapHash": 1217919522,
      "talkAssetPath": "",
      "talkAssetPathAlter": "",
      "talkAudioName": "",
      "actionBefore": "",
      "actionWhile": "",
      "actionAfter": "",
      "optionIcon": "",
      "iconPath": ""
    },
    {
      "id": 190521011,
      "nextDialogs": [
        190521012
      ],
      "talkShowType": "TALK_SHOW_FORCE_SELECT",
      "talkRole": {
        "type": "TALK_ROLE_PLAYER",
        "_id": ""
      },
      "talkContentTextMapHash": 1665318442,
      "talkAssetPath": "",
      "talkAssetPathAlter": "",
      "talkAudioName": "",
      "actionBefore": "",
      "actionWhile": "",
      "actionAfter": "",
      "optionIcon": "",
      "iconPath": ""
    },
    {
      "id": 190521012,
      "nextDialogs": [
        190521013
      ],
      "talkRole": {
        "type": "TALK_ROLE_NPC",
        "_id": "12216"
      },
      "talkContentTextMapHash": 3037265946,
      "talkAssetPath": "",
      "talkAssetPathAlter": "",
      "talkAudioName": "",
      "actionBefore": "",
      "actionWhile": "",
      "actionAfter": "",
      "optionIcon": "",
      "iconPath": ""
    },
    {
      "id": 190521013,
      "nextDialogs": [
        190521014
      ],
      "talkRole": {
        "type": "TALK_ROLE_NPC",
        "_id": "506"
      },
      "talkContentTextMapHash": 3030688186,
      "talkAssetPath": "",
      "talkAssetPathAlter": "",
      "talkAudioName": "",
      "actionBefore": "",
      "actionWhile": "",
      "actionAfter": "",
      "optionIcon": "",
      "iconPath": ""
    },
    {
      "id": 190521014,
      "nextDialogs": [
        190521015
      ],
      "talkRole": {
        "type": "TALK_ROLE_NPC",
        "_id": "12216"
      },
      "talkContentTextMapHash": 1249207538,
      "talkAssetPath": "",
      "talkAssetPathAlter": "",
      "talkAudioName": "",
      "actionBefore": "",
      "actionWhile": "",
      "actionAfter": "",
      "optionIcon": "",
      "iconPath": ""
    },
    {
      "id": 190521015,
      "nextDialogs": [
        190521016
      ],
      "talkShowType": "TALK_SHOW_FORCE_SELECT",
      "talkRole": {
        "type": "TALK_ROLE_PLAYER",
        "_id": ""
      },
      "talkContentTextMapHash": 2162289994,
      "talkAssetPath": "",
      "talkAssetPathAlter": "",
      "talkAudioName": "",
      "actionBefore": "",
      "actionWhile": "",
      "actionAfter": "",
      "optionIcon": "",
      "iconPath": ""
    },
    {
      "id": 190521016,
      "nextDialogs": [
        190521017
      ],
      "talkRole": {
        "type": "TALK_ROLE_NPC",
        "_id": "12216"
      },
      "talkContentTextMapHash": 388503090,
      "talkAssetPath": "",
      "talkAssetPathAlter": "",
      "talkAudioName": "",
      "actionBefore": "",
      "actionWhile": "",
      "actionAfter": "",
      "optionIcon": "",
      "iconPath": ""
    },
    {
      "id": 190521017,
      "nextDialogs": [
        190521018
      ],
      "talkRole": {
        "type": "TALK_ROLE_NPC",
        "_id": "12216"
      },
      "talkContentTextMapHash": 3041686218,
      "talkAssetPath": "",
      "talkAssetPathAlter": "",
      "talkAudioName": "",
      "actionBefore": "",
      "actionWhile": "",
      "actionAfter": "",
      "optionIcon": "",
      "iconPath": ""
    },
    {
      "id": 190521018,
      "nextDialogs": [
        190521019
      ],
      "talkRole": {
        "type": "TALK_ROLE_NPC",
        "_id": "12216"
      },
      "talkContentTextMapHash": 3872210746,
      "talkAssetPath": "",
      "talkAssetPathAlter": "",
      "talkAudioName": "",
      "actionBefore": "",
      "actionWhile": "",
      "actionAfter": "",
      "optionIcon": "",
      "iconPath": ""
    },
    {
      "id": 190521019,
      "talkRole": {
        "type": "TALK_ROLE_NPC",
        "_id": "12216"
      },
      "talkContentTextMapHash": 4001149586,
      "talkAssetPath": "",
      "talkAssetPathAlter": "",
      "talkAudioName": "",
      "actionBefore": "",
      "actionWhile": "",
      "actionAfter": "",
      "optionIcon": "",
      "iconPath": ""
    }
  ]
}