{
  "talkId": 155,
  "KPGKDHAFHFE": "COOP",
  "dialogList": [
    {
      "id": 190501001,
      "nextDialogs": [
        190501002,
        190501003
      ],
      "talkRole": {
        "type": "TALK_ROLE_NPC",
        "_id": "506"
      },
      "talkContentTextMapHash": 942014546,
      "talkAssetPath": "",
      "talkAssetPathAlter": "",
      "talkAudioName": "",
      "actionBefore": "",
      "actionWhile": "",
      "actionAfter": "",
      "optionIcon": "",
      "iconPath": ""
    },
    {
      "id": 190501002,
      "nextDialogs": [
        190501004
      ],
      "talkShowType": "TALK_SHOW_FORCE_SELECT",
      "talkRole": {
        "type": "TALK_ROLE_PLAYER",
        "_id": ""
      },
      "talkContentTextMapHash": 2462729394,
      "talkAssetPath": "",
      "talkAssetPathAlter": "",
      "talkAudioName": "",
      "actionBefore": "",
      "actionWhile": "",
      "actionAfter": "",
      "optionIcon": "",
      "iconPath": ""
    },
    {
      "id": 190501003,
      "nextDialogs": [
        190501004
      ],
      "talkShowType": "TALK_SHOW_FORCE_SELECT",
      "talkRole": {
        "type": "TALK_ROLE_PLAYER",
        "_id": ""
      },
      "talkContentTextMapHash": 1902094002,
      "talkAssetPath": "",
      "talkAssetPathAlter": "",
      "talkAudioName": "",
      "actionBefore": "",
      "actionWhile": "",
      "actionAfter": "",
      "optionIcon": "",
      "iconPath": ""
    },
    {
      "id": 190501004,
      "nextDialogs": [
        190501005
      ],
      "talkRole": {
        "type": "TALK_ROLE_NPC",
        "_id": "506"
      },
      "talkContentTextMapHash": 1362376346,
      "talkAssetPath": "",
      "talkAssetPathAlter": "",
      "talkAudioName": "",
      "actionBefore": "",
      "actionWhile": "",
      "actionAfter": "",
      "optionIcon": "",
      "iconPath": ""
    },
    {
      "id": 190501005,
      "nextDialogs": [
        190501006
      ],
      "talkRole": {
        "type": "TALK_ROLE_NPC",
        "_id": "506"
      },
      "talkContentTextMapHash": 1878072458,
      "talkAssetPath": "",
      "talkAssetPathAlter": "",
      "talkAudioName": "",
      "actionBefore": "",
      "actionWhile": "",
      "actionAfter": "",
      "optionIcon": "",
      "iconPath": ""
    },
    {
      "id": 190501006,
      "talkRole": {
        "type": "TALK_ROLE_NPC",
        "_id": "506"
      },
      "talkContentTextMapHash": 2948312130,
      "talkAssetPath": "",
      "talkAssetPathAlter": "",
      "talkAudioName": "",
      "actionBefore": "",
      "actionWhile": "",
      "actionAfter": "",
      "optionIcon": "",
      "iconPath": ""
    }
  ]
}