{
  "talkId": 123,
  "KPGKDHAFHFE": "COOP",
  "dialogList": [
    {
      "id": 190520201,
      "nextDialogs": [
        190520202
      ],
      "talkRole": {
        "type": "TALK_ROLE_NPC",
        "_id": "506"
      },
      "talkContentTextMapHash": 2441665922,
      "talkAssetPath": "",
      "talkAssetPathAlter": "",
      "talkAudioName": "",
      "actionBefore": "",
      "actionWhile": "",
      "actionAfter": "",
      "optionIcon": "",
      "iconPath": ""
    },
    {
      "id": 190520202,
      "nextDialogs": [
        190520203,
        190520204
      ],
      "talkRole": {
        "type": "TALK_ROLE_NPC",
        "_id": "506"
      },
      "talkContentTextMapHash": 2318146610,
      "talkAssetPath": "",
      "talkAssetPathAlter": "",
      "talkAudioName": "",
      "actionBefore": "",
      "actionWhile": "",
      "actionAfter": "",
      "optionIcon": "",
      "iconPath": ""
    },
    {
      "id": 190520203,
      "nextDialogs": [
        190520205
      ],
      "talkShowType": "TALK_SHOW_FORCE_SELECT",
      "talkRole": {
        "type": "TALK_ROLE_PLAYER",
        "_id": ""
      },
      "talkContentTextMapHash": 4042634154,
      "talkAssetPath": "",
      "talkAssetPathAlter": "",
      "talkAudioName": "",
      "actionBefore": "",
      "actionWhile": "",
      "actionAfter": "",
      "optionIcon": "",
      "iconPath": ""
    },
    {
      "id": 190520204,
      "nextDialogs": [
        190520205
      ],
      "talkShowType": "TALK_SHOW_FORCE_SELECT",
      "talkRole": {
        "type": "TALK_ROLE_PLAYER",
        "_id": ""
      },
      "talkContentTextMapHash": 4246139170,
      "talkAssetPath": "",
      "talkAssetPathAlter": "",
      "talkAudioName": "",
      "actionBefore": "",
      "actionWhile": "",
      "actionAfter": "",
      "optionIcon": "",
      "iconPath": ""
    },
    {
      "id": 190520205,
      "nextDialogs": [
        190520206
      ],
      "talkRole": {
        "type": "TALK_ROLE_NPC",
        "_id": "506"
      },
      "talkContentTextMapHash": 2556101562,
      "talkAssetPath": "",
      "talkAssetPathAlter": "",
      "talkAudioName": "",
      "actionBefore": "",
      "actionWhile": "",
      "actionAfter": "",
      "optionIcon": "",
      "iconPath": ""
    },
    {
      "id": 190520206,
      "talkRole": {
        "type": "TALK_ROLE_NPC",
        "_id": "506"
      },
      "talkContentTextMapHash": 1834842378,
      "talkAssetPath": "",
      "talkAssetPathAlter": "",
      "talkAudioName": "",
      "actionBefore": "",
      "actionWhile": "",
      "actionAfter": "",
      "optionIcon": "",
      "iconPath": ""
    }
  ]
}