{
  "talkId": 192,
  "KPGKDHAFHFE": "COOP",
  "dialogList": [
    {
      "id": 190540501,
      "nextDialogs": [
        190540502
      ],
      "talkRole": {
        "type": "TALK_ROLE_NPC",
        "_id": "2306"
      },
      "talkContentTextMapHash": 1308287146,
      "talkAssetPath": "",
      "talkAssetPathAlter": "",
      "talkAudioName": "",
      "actionBefore": "",
      "actionWhile": "",
      "actionAfter": "",
      "optionIcon": "",
      "iconPath": ""
    },
    {
      "id": 190540502,
      "nextDialogs": [
        190540503
      ],
      "talkRole": {
        "type": "TALK_ROLE_NPC",
        "_id": "12222"
      },
      "talkContentTextMapHash": 2648269602,
      "talkAssetPath": "",
      "talkAssetPathAlter": "",
      "talkAudioName": "",
      "actionBefore": "",
      "actionWhile": "",
      "actionAfter": "",
      "optionIcon": "",
      "iconPath": ""
    },
    {
      "id": 190540503,
      "nextDialogs": [
        190540504
      ],
      "talkRole": {
        "type": "TALK_ROLE_NPC",
        "_id": "12224"
      },
      "talkContentTextMapHash": 878177410,
      "talkAssetPath": "",
      "talkAssetPathAlter": "",
      "talkAudioName": "",
      "actionBefore": "",
      "actionWhile": "",
      "actionAfter": "",
      "optionIcon": "",
      "iconPath": ""
    },
    {
      "id": 190540504,
      "nextDialogs": [
        190540505
      ],
      "talkRole": {
        "type": "TALK_ROLE_NPC",
        "_id": "12226"
      },
      "talkContentTextMapHash": 583864930,
      "talkAssetPath": "",
      "talkAssetPathAlter": "",
      "talkAudioName": "",
      "actionBefore": "",
      "actionWhile": "",
      "actionAfter": "",
      "optionIcon": "",
      "iconPath": ""
    },
    {
      "id": 190540505,
      "nextDialogs": [
        190540506
      ],
      "talkRole": {
        "type": "TALK_ROLE_NPC",
        "_id": "12225"
      },
      "talkContentTextMapHash": 3703849946,
      "talkAssetPath": "",
      "talkAssetPathAlter": "",
      "talkAudioName": "",
      "actionBefore": "",
      "actionWhile": "",
      "actionAfter": "",
      "optionIcon": "",
      "iconPath": ""
    },
    {
      "id": 190540506,
      "nextDialogs": [
        190540507
      ],
      "talkRole": {
        "type": "TALK_ROLE_NPC",
        "_id": "506"
      },
      "talkContentTextMapHash": 2011232058,
      "talkAssetPath": "",
      "talkAssetPathAlter": "",
      "talkAudioName": "",
      "actionBefore": "",
      "actionWhile": "",
      "actionAfter": "",
      "optionIcon": "",
      "iconPath": ""
    },
    {
      "id": 190540507,
      "nextDialogs": [
        190540508
      ],
      "talkRole": {
        "type": "TALK_ROLE_NPC",
        "_id": "506"
      },
      "talkContentTextMapHash": 66590026,
      "talkAssetPath": "",
      "talkAssetPathAlter": "",
      "talkAudioName": "",
      "actionBefore": "",
      "actionWhile": "",
      "actionAfter": "",
      "optionIcon": "",
      "iconPath": ""
    },
    {
      "id": 190540508,
      "nextDialogs": [
        190540509
      ],
      "talkRole": {
        "type": "TALK_ROLE_NPC",
        "_id": "506"
      },
      "talkContentTextMapHash": 1701285074,
      "talkAssetPath": "",
      "talkAssetPathAlter": "",
      "talkAudioName": "",
      "actionBefore": "",
      "actionWhile": "",
      "actionAfter": "",
      "optionIcon": "",
      "iconPath": ""
    },
    {
      "id": 190540509,
      "nextDialogs": [
        190540510
      ],
      "talkShowType": "TALK_SHOW_FORCE_SELECT",
      "talkRole": {
        "type": "TALK_ROLE_PLAYER",
        "_id": ""
      },
      "talkContentTextMapHash": 1888757842,
      "talkAssetPath": "",
      "talkAssetPathAlter": "",
      "talkAudioName": "",
      "actionBefore": "",
      "actionWhile": "",
      "actionAfter": "",
      "optionIcon": "",
      "iconPath": ""
    },
    {
      "id": 190540510,
      "nextDialogs": [
        190540511
      ],
      "talkRole": {
        "type": "TALK_ROLE_NPC",
        "_id": "506"
      },
      "talkContentTextMapHash": 3104049514,
      "talkAssetPath": "",
      "talkAssetPathAlter": "",
      "talkAudioName": "",
      "actionBefore": "",
      "actionWhile": "",
      "actionAfter": "",
      "optionIcon": "",
      "iconPath": ""
    },
    {
      "id": 190540511,
      "talkRole": {
        "type": "TALK_ROLE_NPC",
        "_id": "506"
      },
      "talkContentTextMapHash": 3661512730,
      "talkAssetPath": "",
      "talkAssetPathAlter": "",
      "talkAudioName": "",
      "actionBefore": "",
      "actionWhile": "",
      "actionAfter": "",
      "optionIcon": "",
      "iconPath": ""
    }
  ]
}