{
  "talkId": 81,
  "KPGKDHAFHFE": "COOP",
  "dialogList": [
    {
      "id": 190600101,
      "nextDialogs": [
        190600102
      ],
      "talkRole": {
        "type": "TALK_ROLE_NPC",
        "_id": "3042"
      },
      "talkContentTextMapHash": 3462998058,
      "talkAssetPath": "",
      "talkAssetPathAlter": "",
      "talkAudioName": "",
      "actionBefore": "",
      "actionWhile": "",
      "actionAfter": "",
      "optionIcon": "",
      "iconPath": ""
    },
    {
      "id": 190600102,
      "nextDialogs": [
        190600103
      ],
      "talkRole": {
        "type": "TALK_ROLE_NPC",
        "_id": "511"
      },
      "talkContentTextMapHash": 2616085290,
      "talkAssetPath": "",
      "talkAssetPathAlter": "",
      "talkAudioName": "",
      "actionBefore": "",
      "actionWhile": "",
      "actionAfter": "",
      "optionIcon": "",
      "iconPath": ""
    },
    {
      "id": 190600103,
      "nextDialogs": [
        190600104
      ],
      "talkRole": {
        "type": "TALK_ROLE_NPC",
        "_id": "3041"
      },
      "talkContentTextMapHash": 3068367114,
      "talkAssetPath": "",
      "talkAssetPathAlter": "",
      "talkAudioName": "",
      "actionBefore": "",
      "actionWhile": "",
      "actionAfter": "",
      "optionIcon": "",
      "iconPath": ""
    },
    {
      "id": 190600104,
      "nextDialogs": [
        190600105
      ],
      "talkRole": {
        "type": "TALK_ROLE_NPC",
        "_id": "3041"
      },
      "talkContentTextMapHash": 3427124962,
      "talkAssetPath": "",
      "talkAssetPathAlter": "",
      "talkAudioName": "",
      "actionBefore": "",
      "actionWhile": "",
      "actionAfter": "",
      "optionIcon": "",
      "iconPath": ""
    },
    {
      "id": 190600105,
      "nextDialogs": [
        190600106
      ],
      "talkRole": {
        "type": "TALK_ROLE_NPC",
        "_id": "3042"
      },
      "talkContentTextMapHash": 55720946,
      "talkAssetPath": "",
      "talkAssetPathAlter": "",
      "talkAudioName": "",
      "actionBefore": "",
      "actionWhile": "",
      "actionAfter": "",
      "optionIcon": "",
      "iconPath": ""
    },
    {
      "id": 190600106,
      "nextDialogs": [
        190600107
      ],
      "talkRole": {
        "type": "TALK_ROLE_NPC",
        "_id": "511"
      },
      "talkContentTextMapHash": 1092018074,
      "talkAssetPath": "",
      "talkAssetPathAlter": "",
      "talkAudioName": "",
      "actionBefore": "",
      "actionWhile": "",
      "actionAfter": "",
      "optionIcon": "",
      "iconPath": ""
    },
    {
      "id": 190600107,
      "nextDialogs": [
        190600108
      ],
      "talkRole": {
        "type": "TALK_ROLE_NPC",
        "_id": "3041"
      },
      "talkContentTextMapHash": 2766601258,
      "talkAssetPath": "",
      "talkAssetPathAlter": "",
      "talkAudioName": "",
      "actionBefore": "",
      "actionWhile": "",
      "actionAfter": "",
      "optionIcon": "",
      "iconPath": ""
    },
    {
      "id": 190600108,
      "nextDialogs": [
        190600109
      ],
      "talkRole": {
        "type": "TALK_ROLE_NPC",
        "_id": "511"
      },
      "talkContentTextMapHash": 3478353250,
      "talkAssetPath": "",
      "talkAssetPathAlter": "",
      "talkAudioName": "",
      "actionBefore": "",
      "actionWhile": "",
      "actionAfter": "",
      "optionIcon": "",
      "iconPath": ""
    },
    {
      "id": 190600109,
      "nextDialogs": [
        190600110
      ],
      "talkRole": {
        "type": "TALK_ROLE_NPC",
        "_id": "3041"
      },
      "talkContentTextMapHash": 1136710426,
      "talkAssetPath": "",
      "talkAssetPathAlter": "",
      "talkAudioName": "",
      "actionBefore": "",
      "actionWhile": "",
      "actionAfter": "",
      "optionIcon": "",
      "iconPath": ""
    },
    {
      "id": 190600110,
      "nextDialogs": [
        190600111
      ],
      "talkRole": {
        "type": "TALK_ROLE_NPC",
        "_id": "511"
      },
      "talkContentTextMapHash": 3651015930,
      "talkAssetPath": "",
      "talkAssetPathAlter": "",
      "talkAudioName": "",
      "actionBefore": "",
      "actionWhile": "",
      "actionAfter": "",
      "optionIcon": "",
      "iconPath": ""
    },
    {
      "id": 190600111,
      "nextDialogs": [
        190600112
      ],
      "talkRole": {
        "type": "TALK_ROLE_NPC",
        "_id": "1005"
      },
      "talkContentTextMapHash": 1199104010,
      "talkAssetPath": "",
      "talkAssetPathAlter": "",
      "talkAudioName": "",
      "actionBefore": "",
      "actionWhile": "",
      "actionAfter": "",
      "optionIcon": "",
      "iconPath": ""
    },
    {
      "id": 190600112,
      "nextDialogs": [
        190600113
      ],
      "talkRole": {
        "type": "TALK_ROLE_NPC",
        "_id": "3042"
      },
      "talkContentTextMapHash": 4027472154,
      "talkAssetPath": "",
      "talkAssetPathAlter": "",
      "talkAudioName": "",
      "actionBefore": "",
      "actionWhile": "",
      "actionAfter": "",
      "optionIcon": "",
      "iconPath": ""
    },
    {
      "id": 190600113,
      "nextDialogs": [
        190600114
      ],
      "talkRole": {
        "type": "TALK_ROLE_NPC",
        "_id": "3042"
      },
      "talkContentTextMapHash": 2797979922,
      "talkAssetPath": "",
      "talkAssetPathAlter": "",
      "talkAudioName": "",
      "actionBefore": "",
      "actionWhile": "",
      "actionAfter": "",
      "optionIcon": "",
      "iconPath": ""
    },
    {
      "id": 190600114,
      "nextDialogs": [
        190600115
      ],
      "talkRole": {
        "type": "TALK_ROLE_NPC",
        "_id": "3042"
      },
      "talkContentTextMapHash": 2728564970,
      "talkAssetPath": "",
      "talkAssetPathAlter": "",
      "talkAudioName": "",
      "actionBefore": "",
      "actionWhile": "",
      "actionAfter": "",
      "optionIcon": "",
      "iconPath": ""
    },
    {
      "id": 190600115,
      "nextDialogs": [
        190600116
      ],
      "talkRole": {
        "type": "TALK_ROLE_NPC",
        "_id": "3042"
      },
      "talkContentTextMapHash": 1749024610,
      "talkAssetPath": "",
      "talkAssetPathAlter": "",
      "talkAudioName": "",
      "actionBefore": "",
      "actionWhile": "",
      "actionAfter": "",
      "optionIcon": "",
      "iconPath": ""
    },
    {
      "id": 190600116,
      "nextDialogs": [
        190600117
      ],
      "talkRole": {
        "type": "TALK_ROLE_NPC",
        "_id": "1005"
      },
      "talkContentTextMapHash": 2163714346,
      "talkAssetPath": "",
      "talkAssetPathAlter": "",
      "talkAudioName": "",
      "actionBefore": "",
      "actionWhile": "",
      "actionAfter": "",
      "optionIcon": "",
      "iconPath": ""
    },
    {
      "id": 190600117,
      "nextDialogs": [
        190600118
      ],
      "talkRole": {
        "type": "TALK_ROLE_NPC",
        "_id": "3041"
      },
      "talkContentTextMapHash": 1222575282,
      "talkAssetPath": "",
      "talkAssetPathAlter": "",
      "talkAudioName": "",
      "actionBefore": "",
      "actionWhile": "",
      "actionAfter": "",
      "optionIcon": "",
      "iconPath": ""
    },
    {
      "id": 190600118,
      "nextDialogs": [
        190600119
      ],
      "talkRole": {
        "type": "TALK_ROLE_NPC",
        "_id": "3042"
      },
      "talkContentTextMapHash": 3875065330,
      "talkAssetPath": "",
      "talkAssetPathAlter": "",
      "talkAudioName": "",
      "actionBefore": "",
      "actionWhile": "",
      "actionAfter": "",
      "optionIcon": "",
      "iconPath": ""
    },
    {
      "id": 190600119,
      "nextDialogs": [
        190600120
      ],
      "talkRole": {
        "type": "TALK_ROLE_NPC",
        "_id": "3041"
      },
      "talkContentTextMapHash": 3239107778,
      "talkAssetPath": "",
      "talkAssetPathAlter": "",
      "talkAudioName": "",
      "actionBefore": "",
      "actionWhile": "",
      "actionAfter": "",
      "optionIcon": "",
      "iconPath": ""
    },
    {
      "id": 190600120,
      "nextDialogs": [
        190600121
      ],
      "talkRole": {
        "type": "TALK_ROLE_NPC",
        "_id": "511"
      },
      "talkContentTextMapHash": 2804095306,
      "talkAssetPath": "",
      "talkAssetPathAlter": "",
      "talkAudioName": "",
      "actionBefore": "",
      "actionWhile": "",
      "actionAfter": "",
      "optionIcon": "",
      "iconPath": ""
    },
    {
      "id": 190600121,
      "nextDialogs": [
        190600122
      ],
      "talkRole": {
        "type": "TALK_ROLE_NPC",
        "_id": "3042"
      },
      "talkContentTextMapHash": 17392234,
      "talkAssetPath": "",
      "talkAssetPathAlter": "",
      "talkAudioName": "",
      "actionBefore": "",
      "actionWhile": "",
      "actionAfter": "",
      "optionIcon": "",
      "iconPath": ""
    },
    {
      "id": 190600122,
      "nextDialogs": [
        190600123
      ],
      "talkRole": {
        "type": "TALK_ROLE_NPC",
        "_id": "3042"
      },
      "talkContentTextMapHash": 3654731874,
      "talkAssetPath": "",
      "talkAssetPathAlter": "",
      "talkAudioName": "",
      "actionBefore": "",
      "actionWhile": "",
      "actionAfter": "",
      "optionIcon": "",
      "iconPath": ""
    },
    {
      "id": 190600123,
      "nextDialogs": [
        190600124
      ],
      "talkRole": {
        "type": "TALK_ROLE_NPC",
        "_id": "3041"
      },
      "talkContentTextMapHash": 2359374346,
      "talkAssetPath": "",
      "talkAssetPathAlter": "",
      "talkAudioName": "",
      "actionBefore": "",
      "actionWhile": "",
      "actionAfter": "",
      "optionIcon": "",
      "iconPath": ""
    },
    {
      "id": 190600124,
      "nextDialogs": [
        190600125
      ],
      "talkRole": {
        "type": "TALK_ROLE_NPC",
        "_id": "3041"
      },
      "talkContentTextMapHash": 596291954,
      "talkAssetPath": "",
      "talkAssetPathAlter": "",
      "talkAudioName": "",
      "actionBefore": "",
      "actionWhile": "",
      "actionAfter": "",
      "optionIcon": "",
      "iconPath": ""
    },
    {
      "id": 190600125,
      "nextDialogs": [
        190600126
      ],
      "talkRole": {
        "type": "TALK_ROLE_NPC",
        "_id": "511"
      },
      "talkContentTextMapHash": 3897870666,
      "talkAssetPath": "",
      "talkAssetPathAlter": "",
      "talkAudioName": "",
      "actionBefore": "",
      "actionWhile": "",
      "actionAfter": "",
      "optionIcon": "",
      "iconPath": ""
    },
    {
      "id": 190600126,
      "nextDialogs": [
        190600127
      ],
      "talkRole": {
        "type": "TALK_ROLE_NPC",
        "_id": "511"
      },
      "talkContentTextMapHash": 4044055170,
      "talkAssetPath": "",
      "talkAssetPathAlter": "",
      "talkAudioName": "",
      "actionBefore": "",
      "actionWhile": "",
      "actionAfter": "",
      "optionIcon": "",
      "iconPath": ""
    },
    {
      "id": 190600127,
      "nextDialogs": [
        190600128
      ],
      "talkRole": {
        "type": "TALK_ROLE_NPC",
        "_id": "511"
      },
      "talkContentTextMapHash": 1128614386,
      "talkAssetPath": "",
      "talkAssetPathAlter": "",
      "talkAudioName": "",
      "actionBefore": "",
      "actionWhile": "",
      "actionAfter": "",
      "optionIcon": "",
      "iconPath": ""
    },
    {
      "id": 190600128,
      "nextDialogs": [
        190600129
      ],
      "talkRole": {
        "type": "TALK_ROLE_NPC",
        "_id": "511"
      },
      "talkContentTextMapHash": 606039546,
      "talkAssetPath": "",
      "talkAssetPathAlter": "",
      "talkAudioName": "",
      "actionBefore": "",
      "actionWhile": "",
      "actionAfter": "",
      "optionIcon": "",
      "iconPath": ""
    },
    {
      "id": 190600129,
      "nextDialogs": [
        190600130
      ],
      "talkRole": {
        "type": "TALK_ROLE_NPC",
        "_id": "3041"
      },
      "talkContentTextMapHash": 3406765586,
      "talkAssetPath": "",
      "talkAssetPathAlter": "",
      "talkAudioName": "",
      "actionBefore": "",
      "actionWhile": "",
      "actionAfter": "",
      "optionIcon": "",
      "iconPath": ""
    },
    {
      "id": 190600130,
      "nextDialogs": [
        190600131
      ],
      "talkRole": {
        "type": "TALK_ROLE_NPC",
        "_id": "511"
      },
      "talkContentTextMapHash": 2883883722,
      "talkAssetPath": "",
      "talkAssetPathAlter": "",
      "talkAudioName": "",
      "actionBefore": "",
      "actionWhile": "",
      "actionAfter": "",
      "optionIcon": "",
      "iconPath": ""
    },
    {
      "id": 190600131,
      "nextDialogs": [
        190600132
      ],
      "talkRole": {
        "type": "TALK_ROLE_NPC",
        "_id": "511"
      },
      "talkContentTextMapHash": 195146498,
      "talkAssetPath": "",
      "talkAssetPathAlter": "",
      "talkAudioName": "",
      "actionBefore": "",
      "actionWhile": "",
      "actionAfter": "",
      "optionIcon": "",
      "iconPath": ""
    },
    {
      "id": 190600132,
      "nextDialogs": [
        190600133
      ],
      "talkRole": {
        "type": "TALK_ROLE_NPC",
        "_id": "3041"
      },
      "talkContentTextMapHash": 2432810682,
      "talkAssetPath": "",
      "talkAssetPathAlter": "",
      "talkAudioName": "",
      "actionBefore": "",
      "actionWhile": "",
      "actionAfter": "",
      "optionIcon": "",
      "iconPath": ""
    },
    {
      "id": 190600133,
      "nextDialogs": [
        190600134
      ],
      "talkRole": {
        "type": "TALK_ROLE_NPC",
        "_id": "511"
      },
      "talkContentTextMapHash": 1390366218,
      "talkAssetPath": "",
      "talkAssetPathAlter": "",
      "talkAudioName": "",
      "actionBefore": "",
      "actionWhile": "",
      "actionAfter": "",
      "optionIcon": "",
      "iconPath": ""
    },
    {
      "id": 190600134,
      "nextDialogs": [
        190600135
      ],
      "talkRole": {
        "type": "TALK_ROLE_NPC",
        "_id": "511"
      },
      "talkContentTextMapHash": 139383482,
      "talkAssetPath": "",
      "talkAssetPathAlter": "",
      "talkAudioName": "",
      "actionBefore": "",
      "actionWhile": "",
      "actionAfter": "",
      "optionIcon": "",
      "iconPath": ""
    },
    {
      "id": 190600135,
      "nextDialogs": [
        190600136
      ],
      "talkRole": {
        "type": "TALK_ROLE_NPC",
        "_id": "3041"
      },
      "talkContentTextMapHash": 700164810,
      "talkAssetPath": "",
      "talkAssetPathAlter": "",
      "talkAudioName": "",
      "actionBefore": "",
      "actionWhile": "",
      "actionAfter": "",
      "optionIcon": "",
      "iconPath": ""
    },
    {
      "id": 190600136,
      "nextDialogs": [
        190600137
      ],
      "talkRole": {
        "type": "TALK_ROLE_NPC",
        "_id": "511"
      },
      "talkContentTextMapHash": 2403729922,
      "talkAssetPath": "",
      "talkAssetPathAlter": "",
      "talkAudioName": "",
      "actionBefore": "",
      "actionWhile": "",
      "actionAfter": "",
      "optionIcon": "",
      "iconPath": ""
    },
    {
      "id": 190600137,
      "nextDialogs": [
        190600138
      ],
      "talkRole": {
        "type": "TALK_ROLE_NPC",
        "_id": "3041"
      },
      "talkContentTextMapHash": 4085658402,
      "talkAssetPath": "",
      "talkAssetPathAlter": "",
      "talkAudioName": "",
      "actionBefore": "",
      "actionWhile": "",
      "actionAfter": "",
      "optionIcon": "",
      "iconPath": ""
    },
    {
      "id": 190600138,
      "nextDialogs": [
        190600139
      ],
      "talkRole": {
        "type": "TALK_ROLE_NPC",
        "_id": "511"
      },
      "talkContentTextMapHash": 2229863266,
      "talkAssetPath": "",
      "talkAssetPathAlter": "",
      "talkAudioName": "",
      "actionBefore": "",
      "actionWhile": "",
      "actionAfter": "",
      "optionIcon": "",
      "iconPath": ""
    },
    {
      "id": 190600139,
      "nextDialogs": [
        190600140
      ],
      "talkRole": {
        "type": "TALK_ROLE_NPC",
        "_id": "3041"
      },
      "talkContentTextMapHash": 1911253570,
      "talkAssetPath": "",
      "talkAssetPathAlter": "",
      "talkAudioName": "",
      "actionBefore": "",
      "actionWhile": "",
      "actionAfter": "",
      "optionIcon": "",
      "iconPath": ""
    },
    {
      "id": 190600140,
      "nextDialogs": [
        190600141
      ],
      "talkRole": {
        "type": "TALK_ROLE_NPC",
        "_id": "3042"
      },
      "talkContentTextMapHash": 1457669258,
      "talkAssetPath": "",
      "talkAssetPathAlter": "",
      "talkAudioName": "",
      "actionBefore": "",
      "actionWhile": "",
      "actionAfter": "",
      "optionIcon": "",
      "iconPath": ""
    },
    {
      "id": 190600141,
      "talkRole": {
        "type": "TALK_ROLE_NPC",
        "_id": "3041"
      },
      "talkContentTextMapHash": 732867890,
      "talkAssetPath": "",
      "talkAssetPathAlter": "",
      "talkAudioName": "",
      "actionBefore": "",
      "actionWhile": "",
      "actionAfter": "",
      "optionIcon": "",
      "iconPath": ""
    }
  ]
}