{
  "talkId": 125,
  "KPGKDHAFHFE": "COOP",
  "dialogList": [
    {
      "id": 190602001,
      "nextDialogs": [
        190602002
      ],
      "talkRole": {
        "type": "TALK_ROLE_NPC",
        "_id": "511"
      },
      "talkContentTextMapHash": 664844482,
      "talkAssetPath": "",
      "talkAssetPathAlter": "",
      "talkAudioName": "",
      "actionBefore": "",
      "actionWhile": "",
      "actionAfter": "",
      "optionIcon": "",
      "iconPath": ""
    },
    {
      "id": 190602002,
      "nextDialogs": [
        190602003
      ],
      "talkRole": {
        "type": "TALK_ROLE_NPC",
        "_id": "511"
      },
      "talkContentTextMapHash": 2685155610,
      "talkAssetPath": "",
      "talkAssetPathAlter": "",
      "talkAudioName": "",
      "actionBefore": "",
      "actionWhile": "",
      "actionAfter": "",
      "optionIcon": "",
      "iconPath": ""
    },
    {
      "id": 190602003,
      "nextDialogs": [
        190602004
      ],
      "talkRole": {
        "type": "TALK_ROLE_NPC",
        "_id": "1005"
      },
      "talkContentTextMapHash": 237912914,
      "talkAssetPath": "",
      "talkAssetPathAlter": "",
      "talkAudioName": "",
      "actionBefore": "",
      "actionWhile": "",
      "actionAfter": "",
      "optionIcon": "",
      "iconPath": ""
    },
    {
      "id": 190602004,
      "nextDialogs": [
        190602005
      ],
      "talkRole": {
        "type": "TALK_ROLE_NPC",
        "_id": "511"
      },
      "talkContentTextMapHash": 1879662778,
      "talkAssetPath": "",
      "talkAssetPathAlter": "",
      "talkAudioName": "",
      "actionBefore": "",
      "actionWhile": "",
      "actionAfter": "",
      "optionIcon": "",
      "iconPath": ""
    },
    {
      "id": 190602005,
      "nextDialogs": [
        190602006
      ],
      "talkRole": {
        "type": "TALK_ROLE_NPC",
        "_id": "511"
      },
      "talkContentTextMapHash": 2009093898,
      "talkAssetPath": "",
      "talkAssetPathAlter": "",
      "talkAudioName": "",
      "actionBefore": "",
      "actionWhile": "",
      "actionAfter": "",
      "optionIcon": "",
      "iconPath": ""
    },
    {
      "id": 190602006,
      "nextDialogs": [
        190602007
      ],
      "talkRole": {
        "type": "TALK_ROLE_NPC",
        "_id": "511"
      },
      "talkContentTextMapHash": 1002736554,
      "talkAssetPath": "",
      "talkAssetPathAlter": "",
      "talkAudioName": "",
      "actionBefore": "",
      "actionWhile": "",
      "actionAfter": "",
      "optionIcon": "",
      "iconPath": ""
    },
    {
      "id": 190602007,
      "talkRole": {
        "type": "TALK_ROLE_NPC",
        "_id": "511"
      },
      "talkContentTextMapHash": 3796923722,
      "talkAssetPath": "",
      "talkAssetPathAlter": "",
      "talkAudioName": "",
      "actionBefore": "",
      "actionWhile": "",
      "actionAfter": "",
      "optionIcon": "",
      "iconPath": ""
    }
  ]
}