{
  "talkId": 640,
  "KPGKDHAFHFE": "COOP",
  "dialogList": [
    {
      "id": 190601601,
      "talkRole": {
        "type": "TALK_ROLE_NPC",
        "_id": "511"
      },
      "talkContentTextMapHash": 3358866298,
      "talkAssetPath": "",
      "talkAssetPathAlter": "",
      "talkAudioName": "",
      "actionBefore": "",
      "actionWhile": "",
      "actionAfter": "",
      "optionIcon": "",
      "iconPath": ""
    }
  ]
}