{
  "talkId": 656,
  "KPGKDHAFHFE": "COOP",
  "dialogList": [
    {
      "id": 190601501,
      "nextDialogs": [
        190601502
      ],
      "talkRole": {
        "type": "TALK_ROLE_NPC",
        "_id": "511"
      },
      "talkContentTextMapHash": 763468618,
      "talkAssetPath": "",
      "talkAssetPathAlter": "",
      "talkAudioName": "",
      "actionBefore": "",
      "actionWhile": "",
      "actionAfter": "",
      "optionIcon": "",
      "iconPath": ""
    },
    {
      "id": 190601502,
      "nextDialogs": [
        190601503
      ],
      "talkRole": {
        "type": "TALK_ROLE_NPC",
        "_id": "511"
      },
      "talkContentTextMapHash": 656904346,
      "talkAssetPath": "",
      "talkAssetPathAlter": "",
      "talkAudioName": "",
      "actionBefore": "",
      "actionWhile": "",
      "actionAfter": "",
      "optionIcon": "",
      "iconPath": ""
    },
    {
      "id": 190601503,
      "talkRole": {
        "type": "TALK_ROLE_NPC",
        "_id": "511"
      },
      "talkContentTextMapHash": 594450722,
      "talkAssetPath": "",
      "talkAssetPathAlter": "",
      "talkAudioName": "",
      "actionBefore": "",
      "actionWhile": "",
      "actionAfter": "",
      "optionIcon": "",
      "iconPath": ""
    }
  ]
}