{
  "talkId": 49,
  "KPGKDHAFHFE": "COOP",
  "dialogList": [
    {
      "id": 1906206101,
      "nextDialogs": [
        1906206102
      ],
      "talkRole": {
        "type": "TALK_ROLE_NPC",
        "_id": "11001"
      },
      "talkContentTextMapHash": 3651404149,
      "talkAssetPath": "",
      "talkAssetPathAlter": "",
      "talkAudioName": "",
      "actionBefore": "",
      "actionWhile": "",
      "actionAfter": "",
      "optionIcon": "",
      "iconPath": ""
    },
    {
      "id": 1906206102,
      "nextDialogs": [
        1906206103
      ],
      "talkShowType": "TALK_SHOW_FORCE_SELECT",
      "talkRole": {
        "type": "TALK_ROLE_PLAYER",
        "_id": ""
      },
      "talkContentTextMapHash": 739887181,
      "talkAssetPath": "",
      "talkAssetPathAlter": "",
      "talkAudioName": "",
      "actionBefore": "",
      "actionWhile": "",
      "actionAfter": "",
      "optionIcon": "",
      "iconPath": ""
    },
    {
      "id": 1906206103,
      "nextDialogs": [
        1906206104
      ],
      "talkRole": {
        "type": "TALK_ROLE_NPC",
        "_id": "11001"
      },
      "talkContentTextMapHash": 2020324077,
      "talkAssetPath": "",
      "talkAssetPathAlter": "",
      "talkAudioName": "",
      "actionBefore": "",
      "actionWhile": "",
      "actionAfter": "",
      "optionIcon": "",
      "iconPath": ""
    },
    {
      "id": 1906206104,
      "nextDialogs": [
        1906206105
      ],
      "talkShowType": "TALK_SHOW_FORCE_SELECT",
      "talkRole": {
        "type": "TALK_ROLE_PLAYER",
        "_id": ""
      },
      "talkContentTextMapHash": 115053309,
      "talkAssetPath": "",
      "talkAssetPathAlter": "",
      "talkAudioName": "",
      "actionBefore": "",
      "actionWhile": "",
      "actionAfter": "",
      "optionIcon": "",
      "iconPath": ""
    },
    {
      "id": 1906206105,
      "nextDialogs": [
        1906206106,
        1906206107
      ],
      "talkRole": {
        "type": "TALK_ROLE_NPC",
        "_id": "11001"
      },
      "talkContentTextMapHash": 2992947405,
      "talkAssetPath": "",
      "talkAssetPathAlter": "",
      "talkAudioName": "",
      "actionBefore": "",
      "actionWhile": "",
      "actionAfter": "",
      "optionIcon": "",
      "iconPath": ""
    },
    {
      "id": 1906206106,
      "nextDialogs": [
        1906206108
      ],
      "talkRole": {
        "type": "TALK_ROLE_PLAYER",
        "_id": ""
      },
      "talkContentTextMapHash": 503227325,
      "talkAssetPath": "",
      "talkAssetPathAlter": "",
      "talkAudioName": "",
      "actionBefore": "",
      "actionWhile": "",
      "actionAfter": "",
      "optionIcon": "",
      "iconPath": ""
    },
    {
      "id": 1906206107,
      "nextDialogs": [
        1906206108
      ],
      "talkRole": {
        "type": "TALK_ROLE_PLAYER",
        "_id": ""
      },
      "talkContentTextMapHash": 3979130325,
      "talkAssetPath": "",
      "talkAssetPathAlter": "",
      "talkAudioName": "",
      "actionBefore": "",
      "actionWhile": "",
      "actionAfter": "",
      "optionIcon": "",
      "iconPath": ""
    },
    {
      "id": 1906206108,
      "nextDialogs": [
        1906206109
      ],
      "talkRole": {
        "type": "TALK_ROLE_NPC",
        "_id": "11001"
      },
      "talkContentTextMapHash": 915148277,
      "talkAssetPath": "",
      "talkAssetPathAlter": "",
      "talkAudioName": "",
      "actionBefore": "",
      "actionWhile": "",
      "actionAfter": "",
      "optionIcon": "",
      "iconPath": ""
    },
    {
      "id": 1906206109,
      "nextDialogs": [
        1906206110
      ],
      "talkRole": {
        "type": "TALK_ROLE_NPC",
        "_id": "11001"
      },
      "talkContentTextMapHash": 312709813,
      "talkAssetPath": "",
      "talkAssetPathAlter": "",
      "talkAudioName": "",
      "actionBefore": "",
      "actionWhile": "",
      "actionAfter": "",
      "optionIcon": "",
      "iconPath": ""
    },
    {
      "id": 1906206110,
      "nextDialogs": [
        1906206111
      ],
      "talkRole": {
        "type": "TALK_ROLE_NPC",
        "_id": "11001"
      },
      "talkContentTextMapHash": 4256027245,
      "talkAssetPath": "",
      "talkAssetPathAlter": "",
      "talkAudioName": "",
      "actionBefore": "",
      "actionWhile": "",
      "actionAfter": "",
      "optionIcon": "",
      "iconPath": ""
    },
    {
      "id": 1906206111,
      "nextDialogs": [
        1906206112
      ],
      "talkRole": {
        "type": "TALK_ROLE_NPC",
        "_id": "11001"
      },
      "talkContentTextMapHash": 2771674189,
      "talkAssetPath": "",
      "talkAssetPathAlter": "",
      "talkAudioName": "",
      "actionBefore": "",
      "actionWhile": "",
      "actionAfter": "",
      "optionIcon": "",
      "iconPath": ""
    },
    {
      "id": 1906206112,
      "nextDialogs": [
        1906206113
      ],
      "talkRole": {
        "type": "TALK_ROLE_NPC",
        "_id": "11001"
      },
      "talkContentTextMapHash": 782580949,
      "talkAssetPath": "",
      "talkAssetPathAlter": "",
      "talkAudioName": "",
      "actionBefore": "",
      "actionWhile": "",
      "actionAfter": "",
      "optionIcon": "",
      "iconPath": ""
    },
    {
      "id": 1906206113,
      "nextDialogs": [
        1906206114
      ],
      "talkRole": {
        "type": "TALK_ROLE_NPC",
        "_id": "11001"
      },
      "talkContentTextMapHash": 316795109,
      "talkAssetPath": "",
      "talkAssetPathAlter": "",
      "talkAudioName": "",
      "actionBefore": "",
      "actionWhile": "",
      "actionAfter": "",
      "optionIcon": "",
      "iconPath": ""
    },
    {
      "id": 1906206114,
      "nextDialogs": [
        1906206115
      ],
      "talkShowType": "TALK_SHOW_FORCE_SELECT",
      "talkRole": {
        "type": "TALK_ROLE_PLAYER",
        "_id": ""
      },
      "talkContentTextMapHash": 1751112877,
      "talkAssetPath": "",
      "talkAssetPathAlter": "",
      "talkAudioName": "",
      "actionBefore": "",
      "actionWhile": "",
      "actionAfter": "",
      "optionIcon": "",
      "iconPath": ""
    },
    {
      "id": 1906206115,
      "nextDialogs": [
        1906206116
      ],
      "talkRole": {
        "type": "TALK_ROLE_NPC",
        "_id": "11001"
      },
      "talkContentTextMapHash": 4024488157,
      "talkAssetPath": "",
      "talkAssetPathAlter": "",
      "talkAudioName": "",
      "actionBefore": "",
      "actionWhile": "",
      "actionAfter": "",
      "optionIcon": "",
      "iconPath": ""
    },
    {
      "id": 1906206116,
      "nextDialogs": [
        1906206117
      ],
      "talkRole": {
        "type": "TALK_ROLE_NPC",
        "_id": "11001"
      },
      "talkContentTextMapHash": 1054760565,
      "talkAssetPath": "",
      "talkAssetPathAlter": "",
      "talkAudioName": "",
      "actionBefore": "",
      "actionWhile": "",
      "actionAfter": "",
      "optionIcon": "",
      "iconPath": ""
    },
    {
      "id": 1906206117,
      "nextDialogs": [
        1906206118
      ],
      "talkShowType": "TALK_SHOW_FORCE_SELECT",
      "talkRole": {
        "type": "TALK_ROLE_PLAYER",
        "_id": ""
      },
      "talkContentTextMapHash": 255892053,
      "talkAssetPath": "",
      "talkAssetPathAlter": "",
      "talkAudioName": "",
      "actionBefore": "",
      "actionWhile": "",
      "actionAfter": "",
      "optionIcon": "",
      "iconPath": ""
    },
    {
      "id": 1906206118,
      "nextDialogs": [
        1906206119
      ],
      "talkRole": {
        "type": "TALK_ROLE_NPC",
        "_id": "11001"
      },
      "talkContentTextMapHash": 3299351237,
      "talkAssetPath": "",
      "talkAssetPathAlter": "",
      "talkAudioName": "",
      "actionBefore": "",
      "actionWhile": "",
      "actionAfter": "",
      "optionIcon": "",
      "iconPath": ""
    },
    {
      "id": 1906206119,
      "nextDialogs": [
        1906206120
      ],
      "talkShowType": "TALK_SHOW_FORCE_SELECT",
      "talkRole": {
        "type": "TALK_ROLE_PLAYER",
        "_id": ""
      },
      "talkContentTextMapHash": 4132304637,
      "talkAssetPath": "",
      "talkAssetPathAlter": "",
      "talkAudioName": "",
      "actionBefore": "",
      "actionWhile": "",
      "actionAfter": "",
      "optionIcon": "",
      "iconPath": ""
    },
    {
      "id": 1906206120,
      "talkRole": {
        "type": "TALK_ROLE_NPC",
        "_id": "11001"
      },
      "talkContentTextMapHash": 3666810933,
      "talkAssetPath": "",
      "talkAssetPathAlter": "",
      "talkAudioName": "",
      "actionBefore": "",
      "actionWhile": "",
      "actionAfter": "",
      "optionIcon": "",
      "iconPath": ""
    }
  ]
}