{
  "talkId": 24,
  "KPGKDHAFHFE": "COOP",
  "dialogList": [
    {
      "id": 190750101,
      "nextDialogs": [
        190750102
      ],
      "talkRole": {
        "type": "TALK_ROLE_NPC",
        "_id": "515"
      },
      "talkContentTextMapHash": 1612602770,
      "talkAssetPath": "",
      "talkAssetPathAlter": "",
      "talkAudioName": "",
      "actionBefore": "",
      "actionWhile": "",
      "actionAfter": "",
      "optionIcon": "",
      "iconPath": ""
    },
    {
      "id": 190750102,
      "nextDialogs": [
        190750103
      ],
      "talkRole": {
        "type": "TALK_ROLE_BLACK_SCREEN",
        "_id": ""
      },
      "talkContentTextMapHash": 4273224522,
      "talkAssetPath": "",
      "talkAssetPathAlter": "",
      "talkAudioName": "",
      "actionBefore": "",
      "actionWhile": "",
      "actionAfter": "",
      "optionIcon": "",
      "iconPath": ""
    },
    {
      "id": 190750103,
      "nextDialogs": [
        190750199
      ],
      "talkRole": {
        "type": "TALK_ROLE_NPC",
        "_id": "515"
      },
      "talkContentTextMapHash": 651330314,
      "talkAssetPath": "",
      "talkAssetPathAlter": "",
      "talkAudioName": "",
      "actionBefore": "",
      "actionWhile": "",
      "actionAfter": "",
      "optionIcon": "",
      "iconPath": ""
    },
    {
      "id": 190750104,
      "nextDialogs": [
        190750105
      ],
      "talkRole": {
        "type": "TALK_ROLE_NPC",
        "_id": "515"
      },
      "talkContentTextMapHash": 1401002386,
      "talkAssetPath": "",
      "talkAssetPathAlter": "",
      "talkAudioName": "",
      "actionBefore": "",
      "actionWhile": "",
      "actionAfter": "",
      "optionIcon": "",
      "iconPath": ""
    },
    {
      "id": 190750105,
      "nextDialogs": [
        190750106
      ],
      "talkRole": {
        "type": "TALK_ROLE_NPC",
        "_id": "515"
      },
      "talkContentTextMapHash": 3326397378,
      "talkAssetPath": "",
      "talkAssetPathAlter": "",
      "talkAudioName": "",
      "actionBefore": "",
      "actionWhile": "",
      "actionAfter": "",
      "optionIcon": "",
      "iconPath": ""
    },
    {
      "id": 190750106,
      "nextDialogs": [
        190750198
      ],
      "talkRole": {
        "type": "TALK_ROLE_NPC",
        "_id": "515"
      },
      "talkContentTextMapHash": 2382191074,
      "talkAssetPath": "",
      "talkAssetPathAlter": "",
      "talkAudioName": "",
      "actionBefore": "",
      "actionWhile": "",
      "actionAfter": "",
      "optionIcon": "",
      "iconPath": ""
    },
    {
      "id": 190750107,
      "nextDialogs": [
        190750108
      ],
      "talkRole": {
        "type": "TALK_ROLE_NPC",
        "_id": "515"
      },
      "talkContentTextMapHash": 2879005570,
      "talkAssetPath": "",
      "talkAssetPathAlter": "",
      "talkAudioName": "",
      "actionBefore": "",
      "actionWhile": "",
      "actionAfter": "",
      "optionIcon": "",
      "iconPath": ""
    },
    {
      "id": 190750108,
      "nextDialogs": [
        190750109
      ],
      "talkRole": {
        "type": "TALK_ROLE_NPC",
        "_id": "515"
      },
      "talkContentTextMapHash": 1215647050,
      "talkAssetPath": "",
      "talkAssetPathAlter": "",
      "talkAudioName": "",
      "actionBefore": "",
      "actionWhile": "",
      "actionAfter": "",
      "optionIcon": "",
      "iconPath": ""
    },
    {
      "id": 190750109,
      "nextDialogs": [
        190750197,
        190750196
      ],
      "talkRole": {
        "type": "TALK_ROLE_NPC",
        "_id": "515"
      },
      "talkContentTextMapHash": 3526193866,
      "talkAssetPath": "",
      "talkAssetPathAlter": "",
      "talkAudioName": "",
      "actionBefore": "",
      "actionWhile": "",
      "actionAfter": "",
      "optionIcon": "",
      "iconPath": ""
    },
    {
      "id": 190750110,
      "nextDialogs": [
        190750111
      ],
      "talkRole": {
        "type": "TALK_ROLE_NPC",
        "_id": "515"
      },
      "talkContentTextMapHash": 2397175730,
      "talkAssetPath": "",
      "talkAssetPathAlter": "",
      "talkAudioName": "",
      "actionBefore": "",
      "actionWhile": "",
      "actionAfter": "",
      "optionIcon": "",
      "iconPath": ""
    },
    {
      "id": 190750111,
      "nextDialogs": [
        190750112
      ],
      "talkRole": {
        "type": "TALK_ROLE_NPC",
        "_id": "515"
      },
      "talkContentTextMapHash": 2966066250,
      "talkAssetPath": "",
      "talkAssetPathAlter": "",
      "talkAudioName": "",
      "actionBefore": "",
      "actionWhile": "",
      "actionAfter": "",
      "optionIcon": "",
      "iconPath": ""
    },
    {
      "id": 190750112,
      "nextDialogs": [
        190750113
      ],
      "talkRole": {
        "type": "TALK_ROLE_NPC",
        "_id": "515"
      },
      "talkContentTextMapHash": 3044878962,
      "talkAssetPath": "",
      "talkAssetPathAlter": "",
      "talkAudioName": "",
      "actionBefore": "",
      "actionWhile": "",
      "actionAfter": "",
      "optionIcon": "",
      "iconPath": ""
    },
    {
      "id": 190750113,
      "nextDialogs": [
        190750114
      ],
      "talkRole": {
        "type": "TALK_ROLE_NPC",
        "_id": "515"
      },
      "talkContentTextMapHash": 3302402418,
      "talkAssetPath": "",
      "talkAssetPathAlter": "",
      "talkAudioName": "",
      "actionBefore": "",
      "actionWhile": "",
      "actionAfter": "",
      "optionIcon": "",
      "iconPath": ""
    },
    {
      "id": 190750114,
      "nextDialogs": [
        190750115
      ],
      "talkRole": {
        "type": "TALK_ROLE_NPC",
        "_id": "515"
      },
      "talkContentTextMapHash": 3544507578,
      "talkAssetPath": "",
      "talkAssetPathAlter": "",
      "talkAudioName": "",
      "actionBefore": "",
      "actionWhile": "",
      "actionAfter": "",
      "optionIcon": "",
      "iconPath": ""
    },
    {
      "id": 190750115,
      "nextDialogs": [
        190750116
      ],
      "talkRole": {
        "type": "TALK_ROLE_NPC",
        "_id": "515"
      },
      "talkContentTextMapHash": 3173083714,
      "talkAssetPath": "",
      "talkAssetPathAlter": "",
      "talkAudioName": "",
      "actionBefore": "",
      "actionWhile": "",
      "actionAfter": "",
      "optionIcon": "",
      "iconPath": ""
    },
    {
      "id": 190750116,
      "nextDialogs": [
        190750117
      ],
      "talkRole": {
        "type": "TALK_ROLE_NPC",
        "_id": "515"
      },
      "talkContentTextMapHash": 487588914,
      "talkAssetPath": "",
      "talkAssetPathAlter": "",
      "talkAudioName": "",
      "actionBefore": "",
      "actionWhile": "",
      "actionAfter": "",
      "optionIcon": "",
      "iconPath": ""
    },
    {
      "id": 190750117,
      "nextDialogs": [
        190750195
      ],
      "talkRole": {
        "type": "TALK_ROLE_NPC",
        "_id": "515"
      },
      "talkContentTextMapHash": 905214898,
      "talkAssetPath": "",
      "talkAssetPathAlter": "",
      "talkAudioName": "",
      "actionBefore": "",
      "actionWhile": "",
      "actionAfter": "",
      "optionIcon": "",
      "iconPath": ""
    },
    {
      "id": 190750118,
      "nextDialogs": [
        190750119
      ],
      "talkRole": {
        "type": "TALK_ROLE_NPC",
        "_id": "515"
      },
      "talkContentTextMapHash": 1162048378,
      "talkAssetPath": "",
      "talkAssetPathAlter": "",
      "talkAudioName": "",
      "actionBefore": "",
      "actionWhile": "",
      "actionAfter": "",
      "optionIcon": "",
      "iconPath": ""
    },
    {
      "id": 190750119,
      "nextDialogs": [
        190750120
      ],
      "talkRole": {
        "type": "TALK_ROLE_NPC",
        "_id": "515"
      },
      "talkContentTextMapHash": 1129627962,
      "talkAssetPath": "",
      "talkAssetPathAlter": "",
      "talkAudioName": "",
      "actionBefore": "",
      "actionWhile": "",
      "actionAfter": "",
      "optionIcon": "",
      "iconPath": ""
    },
    {
      "id": 190750120,
      "nextDialogs": [
        190750194
      ],
      "talkRole": {
        "type": "TALK_ROLE_NPC",
        "_id": "515"
      },
      "talkContentTextMapHash": 3991706850,
      "talkAssetPath": "",
      "talkAssetPathAlter": "",
      "talkAudioName": "",
      "actionBefore": "",
      "actionWhile": "",
      "actionAfter": "",
      "optionIcon": "",
      "iconPath": ""
    },
    {
      "id": 190750121,
      "nextDialogs": [
        190750122
      ],
      "talkRole": {
        "type": "TALK_ROLE_NPC",
        "_id": "515"
      },
      "talkContentTextMapHash": 2461567338,
      "talkAssetPath": "",
      "talkAssetPathAlter": "",
      "talkAudioName": "",
      "actionBefore": "",
      "actionWhile": "",
      "actionAfter": "",
      "optionIcon": "",
      "iconPath": ""
    },
    {
      "id": 190750122,
      "nextDialogs": [
        190750123
      ],
      "talkRole": {
        "type": "TALK_ROLE_NPC",
        "_id": "515"
      },
      "talkContentTextMapHash": 2309555482,
      "talkAssetPath": "",
      "talkAssetPathAlter": "",
      "talkAudioName": "",
      "actionBefore": "",
      "actionWhile": "",
      "actionAfter": "",
      "optionIcon": "",
      "iconPath": ""
    },
    {
      "id": 190750123,
      "nextDialogs": [
        190750193
      ],
      "talkRole": {
        "type": "TALK_ROLE_NPC",
        "_id": "515"
      },
      "talkContentTextMapHash": 3847527642,
      "talkAssetPath": "",
      "talkAssetPathAlter": "",
      "talkAudioName": "",
      "actionBefore": "",
      "actionWhile": "",
      "actionAfter": "",
      "optionIcon": "",
      "iconPath": ""
    },
    {
      "id": 190750124,
      "nextDialogs": [
        190750192
      ],
      "talkRole": {
        "type": "TALK_ROLE_NPC",
        "_id": "515"
      },
      "talkContentTextMapHash": 3307761498,
      "talkAssetPath": "",
      "talkAssetPathAlter": "",
      "talkAudioName": "",
      "actionBefore": "",
      "actionWhile": "",
      "actionAfter": "",
      "optionIcon": "",
      "iconPath": ""
    },
    {
      "id": 190750125,
      "nextDialogs": [
        190750126
      ],
      "talkRole": {
        "type": "TALK_ROLE_NPC",
        "_id": "515"
      },
      "talkContentTextMapHash": 3272780362,
      "talkAssetPath": "",
      "talkAssetPathAlter": "",
      "talkAudioName": "",
      "actionBefore": "",
      "actionWhile": "",
      "actionAfter": "",
      "optionIcon": "",
      "iconPath": ""
    },
    {
      "id": 190750126,
      "nextDialogs": [
        190750191,
        190750190
      ],
      "talkRole": {
        "type": "TALK_ROLE_NPC",
        "_id": "515"
      },
      "talkContentTextMapHash": 299974938,
      "talkAssetPath": "",
      "talkAssetPathAlter": "",
      "talkAudioName": "",
      "actionBefore": "",
      "actionWhile": "",
      "actionAfter": "",
      "optionIcon": "",
      "iconPath": ""
    },
    {
      "id": 190750127,
      "nextDialogs": [
        190750128
      ],
      "talkRole": {
        "type": "TALK_ROLE_NPC",
        "_id": "515"
      },
      "talkContentTextMapHash": 2419158434,
      "talkAssetPath": "",
      "talkAssetPathAlter": "",
      "talkAudioName": "",
      "actionBefore": "",
      "actionWhile": "",
      "actionAfter": "",
      "optionIcon": "",
      "iconPath": ""
    },
    {
      "id": 190750128,
      "nextDialogs": [
        190750129
      ],
      "talkRole": {
        "type": "TALK_ROLE_NPC",
        "_id": "515"
      },
      "talkContentTextMapHash": 1312112706,
      "talkAssetPath": "",
      "talkAssetPathAlter": "",
      "talkAudioName": "",
      "actionBefore": "",
      "actionWhile": "",
      "actionAfter": "",
      "optionIcon": "",
      "iconPath": ""
    },
    {
      "id": 190750129,
      "nextDialogs": [
        190750130
      ],
      "talkRole": {
        "type": "TALK_ROLE_NPC",
        "_id": "515"
      },
      "talkContentTextMapHash": 3092065322,
      "talkAssetPath": "",
      "talkAssetPathAlter": "",
      "talkAudioName": "",
      "actionBefore": "",
      "actionWhile": "",
      "actionAfter": "",
      "optionIcon": "",
      "iconPath": ""
    },
    {
      "id": 190750130,
      "talkRole": {
        "type": "TALK_ROLE_NPC",
        "_id": "515"
      },
      "talkContentTextMapHash": 425602426,
      "talkAssetPath": "",
      "talkAssetPathAlter": "",
      "talkAudioName": "",
      "actionBefore": "",
      "actionWhile": "",
      "actionAfter": "",
      "optionIcon": "",
      "iconPath": ""
    },
    {
      "id": 190750190,
      "nextDialogs": [
        190750127
      ],
      "talkRole": {
        "type": "TALK_ROLE_PLAYER",
        "_id": ""
      },
      "talkContentTextMapHash": 1078805930,
      "talkAssetPath": "",
      "talkAssetPathAlter": "",
      "talkAudioName": "",
      "actionBefore": "",
      "actionWhile": "",
      "actionAfter": "",
      "optionIcon": "",
      "iconPath": ""
    },
    {
      "id": 190750191,
      "nextDialogs": [
        190750127
      ],
      "talkRole": {
        "type": "TALK_ROLE_PLAYER",
        "_id": ""
      },
      "talkContentTextMapHash": 3621493842,
      "talkAssetPath": "",
      "talkAssetPathAlter": "",
      "talkAudioName": "",
      "actionBefore": "",
      "actionWhile": "",
      "actionAfter": "",
      "optionIcon": "",
      "iconPath": ""
    },
    {
      "id": 190750192,
      "nextDialogs": [
        190750125
      ],
      "talkShowType": "TALK_SHOW_FORCE_SELECT",
      "talkRole": {
        "type": "TALK_ROLE_PLAYER",
        "_id": ""
      },
      "talkContentTextMapHash": 597199170,
      "talkAssetPath": "",
      "talkAssetPathAlter": "",
      "talkAudioName": "",
      "actionBefore": "",
      "actionWhile": "",
      "actionAfter": "",
      "optionIcon": "",
      "iconPath": ""
    },
    {
      "id": 190750193,
      "nextDialogs": [
        190750124
      ],
      "talkShowType": "TALK_SHOW_FORCE_SELECT",
      "talkRole": {
        "type": "TALK_ROLE_PLAYER",
        "_id": ""
      },
      "talkContentTextMapHash": 1941699170,
      "talkAssetPath": "",
      "talkAssetPathAlter": "",
      "talkAudioName": "",
      "actionBefore": "",
      "actionWhile": "",
      "actionAfter": "",
      "optionIcon": "",
      "iconPath": ""
    },
    {
      "id": 190750194,
      "nextDialogs": [
        190750121
      ],
      "talkShowType": "TALK_SHOW_FORCE_SELECT",
      "talkRole": {
        "type": "TALK_ROLE_PLAYER",
        "_id": ""
      },
      "talkContentTextMapHash": 2495926090,
      "talkAssetPath": "",
      "talkAssetPathAlter": "",
      "talkAudioName": "",
      "actionBefore": "",
      "actionWhile": "",
      "actionAfter": "",
      "optionIcon": "",
      "iconPath": ""
    },
    {
      "id": 190750195,
      "nextDialogs": [
        190750118
      ],
      "talkShowType": "TALK_SHOW_FORCE_SELECT",
      "talkRole": {
        "type": "TALK_ROLE_PLAYER",
        "_id": ""
      },
      "talkContentTextMapHash": 2759579994,
      "talkAssetPath": "",
      "talkAssetPathAlter": "",
      "talkAudioName": "",
      "actionBefore": "",
      "actionWhile": "",
      "actionAfter": "",
      "optionIcon": "",
      "iconPath": ""
    },
    {
      "id": 190750196,
      "nextDialogs": [
        190750110
      ],
      "talkRole": {
        "type": "TALK_ROLE_PLAYER",
        "_id": ""
      },
      "talkContentTextMapHash": 3629001938,
      "talkAssetPath": "",
      "talkAssetPathAlter": "",
      "talkAudioName": "",
      "actionBefore": "",
      "actionWhile": "",
      "actionAfter": "",
      "optionIcon": "",
      "iconPath": ""
    },
    {
      "id": 190750197,
      "nextDialogs": [
        190750110
      ],
      "talkRole": {
        "type": "TALK_ROLE_PLAYER",
        "_id": ""
      },
      "talkContentTextMapHash": 4221102530,
      "talkAssetPath": "",
      "talkAssetPathAlter": "",
      "talkAudioName": "",
      "actionBefore": "",
      "actionWhile": "",
      "actionAfter": "",
      "optionIcon": "",
      "iconPath": ""
    },
    {
      "id": 190750198,
      "nextDialogs": [
        190750107
      ],
      "talkShowType": "TALK_SHOW_FORCE_SELECT",
      "talkRole": {
        "type": "TALK_ROLE_PLAYER",
        "_id": ""
      },
      "talkContentTextMapHash": 869247962,
      "talkAssetPath": "",
      "talkAssetPathAlter": "",
      "talkAudioName": "",
      "actionBefore": "",
      "actionWhile": "",
      "actionAfter": "",
      "optionIcon": "",
      "iconPath": ""
    },
    {
      "id": 190750199,
      "nextDialogs": [
        190750104
      ],
      "talkShowType": "TALK_SHOW_FORCE_SELECT",
      "talkRole": {
        "type": "TALK_ROLE_PLAYER",
        "_id": ""
      },
      "talkContentTextMapHash": 766891706,
      "talkAssetPath": "",
      "talkAssetPathAlter": "",
      "talkAudioName": "",
      "actionBefore": "",
      "actionWhile": "",
      "actionAfter": "",
      "optionIcon": "",
      "iconPath": ""
    }
  ]
}