{
  "talkId": 215,
  "KPGKDHAFHFE": "COOP",
  "dialogList": [
    {
      "id": 190770601,
      "talkRole": {
        "type": "TALK_ROLE_NPC",
        "_id": "515"
      },
      "talkContentTextMapHash": 1163252322,
      "talkAssetPath": "",
      "talkAssetPathAlter": "",
      "talkAudioName": "",
      "actionBefore": "",
      "actionWhile": "",
      "actionAfter": "",
      "optionIcon": "",
      "iconPath": ""
    }
  ]
}