{
  "talkId": 38,
  "KPGKDHAFHFE": "COOP",
  "dialogList": [
    {
      "id": 190770101,
      "nextDialogs": [
        190770102
      ],
      "talkRole": {
        "type": "TALK_ROLE_NPC",
        "_id": "1050"
      },
      "talkContentTextMapHash": 3089878490,
      "talkAssetPath": "",
      "talkAssetPathAlter": "",
      "talkAudioName": "",
      "actionBefore": "",
      "actionWhile": "",
      "actionAfter": "",
      "optionIcon": "",
      "iconPath": ""
    },
    {
      "id": 190770102,
      "nextDialogs": [
        190770103
      ],
      "talkRole": {
        "type": "TALK_ROLE_NPC",
        "_id": "515"
      },
      "talkContentTextMapHash": 233007682,
      "talkAssetPath": "",
      "talkAssetPathAlter": "",
      "talkAudioName": "",
      "actionBefore": "",
      "actionWhile": "",
      "actionAfter": "",
      "optionIcon": "",
      "iconPath": ""
    },
    {
      "id": 190770103,
      "nextDialogs": [
        190770104
      ],
      "talkRole": {
        "type": "TALK_ROLE_NPC",
        "_id": "1050"
      },
      "talkContentTextMapHash": 677390106,
      "talkAssetPath": "",
      "talkAssetPathAlter": "",
      "talkAudioName": "",
      "actionBefore": "",
      "actionWhile": "",
      "actionAfter": "",
      "optionIcon": "",
      "iconPath": ""
    },
    {
      "id": 190770104,
      "nextDialogs": [
        190770105
      ],
      "talkRole": {
        "type": "TALK_ROLE_NPC",
        "_id": "1050"
      },
      "talkContentTextMapHash": 3298730306,
      "talkAssetPath": "",
      "talkAssetPathAlter": "",
      "talkAudioName": "",
      "actionBefore": "",
      "actionWhile": "",
      "actionAfter": "",
      "optionIcon": "",
      "iconPath": ""
    },
    {
      "id": 190770105,
      "nextDialogs": [
        190770106
      ],
      "talkRole": {
        "type": "TALK_ROLE_NPC",
        "_id": "1050"
      },
      "talkContentTextMapHash": 2898140258,
      "talkAssetPath": "",
      "talkAssetPathAlter": "",
      "talkAudioName": "",
      "actionBefore": "",
      "actionWhile": "",
      "actionAfter": "",
      "optionIcon": "",
      "iconPath": ""
    },
    {
      "id": 190770106,
      "nextDialogs": [
        190770107
      ],
      "talkRole": {
        "type": "TALK_ROLE_NPC",
        "_id": "1050"
      },
      "talkContentTextMapHash": 2922308650,
      "talkAssetPath": "",
      "talkAssetPathAlter": "",
      "talkAudioName": "",
      "actionBefore": "",
      "actionWhile": "",
      "actionAfter": "",
      "optionIcon": "",
      "iconPath": ""
    },
    {
      "id": 190770107,
      "nextDialogs": [
        190770108
      ],
      "talkRole": {
        "type": "TALK_ROLE_NPC",
        "_id": "515"
      },
      "talkContentTextMapHash": 3129728762,
      "talkAssetPath": "",
      "talkAssetPathAlter": "",
      "talkAudioName": "",
      "actionBefore": "",
      "actionWhile": "",
      "actionAfter": "",
      "optionIcon": "",
      "iconPath": ""
    },
    {
      "id": 190770108,
      "nextDialogs": [
        190770109
      ],
      "talkRole": {
        "type": "TALK_ROLE_NPC",
        "_id": "1050"
      },
      "talkContentTextMapHash": 798246642,
      "talkAssetPath": "",
      "talkAssetPathAlter": "",
      "talkAudioName": "",
      "actionBefore": "",
      "actionWhile": "",
      "actionAfter": "",
      "optionIcon": "",
      "iconPath": ""
    },
    {
      "id": 190770109,
      "nextDialogs": [
        190770110
      ],
      "talkRole": {
        "type": "TALK_ROLE_NPC",
        "_id": "1050"
      },
      "talkContentTextMapHash": 4235208082,
      "talkAssetPath": "",
      "talkAssetPathAlter": "",
      "talkAudioName": "",
      "actionBefore": "",
      "actionWhile": "",
      "actionAfter": "",
      "optionIcon": "",
      "iconPath": ""
    },
    {
      "id": 190770110,
      "nextDialogs": [
        190770111
      ],
      "talkRole": {
        "type": "TALK_ROLE_NPC",
        "_id": "515"
      },
      "talkContentTextMapHash": 3802710354,
      "talkAssetPath": "",
      "talkAssetPathAlter": "",
      "talkAudioName": "",
      "actionBefore": "",
      "actionWhile": "",
      "actionAfter": "",
      "optionIcon": "",
      "iconPath": ""
    },
    {
      "id": 190770111,
      "nextDialogs": [
        190770112
      ],
      "talkRole": {
        "type": "TALK_ROLE_NPC",
        "_id": "1050"
      },
      "talkContentTextMapHash": 805333106,
      "talkAssetPath": "",
      "talkAssetPathAlter": "",
      "talkAudioName": "",
      "actionBefore": "",
      "actionWhile": "",
      "actionAfter": "",
      "optionIcon": "",
      "iconPath": ""
    },
    {
      "id": 190770112,
      "nextDialogs": [
        190770113
      ],
      "talkRole": {
        "type": "TALK_ROLE_NPC",
        "_id": "1050"
      },
      "talkContentTextMapHash": 558243538,
      "talkAssetPath": "",
      "talkAssetPathAlter": "",
      "talkAudioName": "",
      "actionBefore": "",
      "actionWhile": "",
      "actionAfter": "",
      "optionIcon": "",
      "iconPath": ""
    },
    {
      "id": 190770113,
      "nextDialogs": [
        190770114
      ],
      "talkRole": {
        "type": "TALK_ROLE_NPC",
        "_id": "515"
      },
      "talkContentTextMapHash": 3431617394,
      "talkAssetPath": "",
      "talkAssetPathAlter": "",
      "talkAudioName": "",
      "actionBefore": "",
      "actionWhile": "",
      "actionAfter": "",
      "optionIcon": "",
      "iconPath": ""
    },
    {
      "id": 190770114,
      "nextDialogs": [
        190770115
      ],
      "talkRole": {
        "type": "TALK_ROLE_NPC",
        "_id": "1050"
      },
      "talkContentTextMapHash": 3644711058,
      "talkAssetPath": "",
      "talkAssetPathAlter": "",
      "talkAudioName": "",
      "actionBefore": "",
      "actionWhile": "",
      "actionAfter": "",
      "optionIcon": "",
      "iconPath": ""
    },
    {
      "id": 190770115,
      "nextDialogs": [
        190770116
      ],
      "talkRole": {
        "type": "TALK_ROLE_NPC",
        "_id": "1050"
      },
      "talkContentTextMapHash": 3942984874,
      "talkAssetPath": "",
      "talkAssetPathAlter": "",
      "talkAudioName": "",
      "actionBefore": "",
      "actionWhile": "",
      "actionAfter": "",
      "optionIcon": "",
      "iconPath": ""
    },
    {
      "id": 190770116,
      "nextDialogs": [
        190770117
      ],
      "talkRole": {
        "type": "TALK_ROLE_NPC",
        "_id": "515"
      },
      "talkContentTextMapHash": 936890450,
      "talkAssetPath": "",
      "talkAssetPathAlter": "",
      "talkAudioName": "",
      "actionBefore": "",
      "actionWhile": "",
      "actionAfter": "",
      "optionIcon": "",
      "iconPath": ""
    },
    {
      "id": 190770117,
      "nextDialogs": [
        190770118
      ],
      "talkRole": {
        "type": "TALK_ROLE_NPC",
        "_id": "1050"
      },
      "talkContentTextMapHash": 733341914,
      "talkAssetPath": "",
      "talkAssetPathAlter": "",
      "talkAudioName": "",
      "actionBefore": "",
      "actionWhile": "",
      "actionAfter": "",
      "optionIcon": "",
      "iconPath": ""
    },
    {
      "id": 190770118,
      "nextDialogs": [
        190770119
      ],
      "talkRole": {
        "type": "TALK_ROLE_NPC",
        "_id": "1050"
      },
      "talkContentTextMapHash": 148405202,
      "talkAssetPath": "",
      "talkAssetPathAlter": "",
      "talkAudioName": "",
      "actionBefore": "",
      "actionWhile": "",
      "actionAfter": "",
      "optionIcon": "",
      "iconPath": ""
    },
    {
      "id": 190770119,
      "talkRole": {
        "type": "TALK_ROLE_NPC",
        "_id": "515"
      },
      "talkContentTextMapHash": 862679586,
      "talkAssetPath": "",
      "talkAssetPathAlter": "",
      "talkAudioName": "",
      "actionBefore": "",
      "actionWhile": "",
      "actionAfter": "",
      "optionIcon": "",
      "iconPath": ""
    }
  ],
  "PLPFOOINAAJ": [
    "[3_330201489:-291.818,245.122,2836.076,0.000,317.544,0.000]",
    "[3_330201490:-293.668,245.096,2836.079,0.000,42.047,0.000]",
    "[3_3995:-295.098,242.046,2852.843,0.000,183.640,0.000]"
  ]
}