{
  "talkId": 71,
  "KPGKDHAFHFE": "COOP",
  "dialogList": [
    {
      "id": 1908502101,
      "nextDialogs": [
        1908502102
      ],
      "talkRole": {
        "type": "TALK_ROLE_NPC",
        "_id": "140901"
      },
      "talkContentTextMapHash": 94953389,
      "talkAssetPath": "",
      "talkAssetPathAlter": "",
      "talkAudioName": "",
      "actionBefore": "",
      "actionWhile": "",
      "actionAfter": "",
      "optionIcon": "",
      "iconPath": ""
    },
    {
      "id": 1908502102,
      "nextDialogs": [
        1908502103
      ],
      "talkRole": {
        "type": "TALK_ROLE_NPC",
        "_id": "140901"
      },
      "talkContentTextMapHash": 3608400733,
      "talkAssetPath": "",
      "talkAssetPathAlter": "",
      "talkAudioName": "",
      "actionBefore": "",
      "actionWhile": "",
      "actionAfter": "",
      "optionIcon": "",
      "iconPath": ""
    },
    {
      "id": 1908502103,
      "nextDialogs": [
        1908502104
      ],
      "talkShowType": "TALK_SHOW_FORCE_SELECT",
      "talkRole": {
        "type": "TALK_ROLE_PLAYER",
        "_id": ""
      },
      "talkContentTextMapHash": 598016541,
      "talkAssetPath": "",
      "talkAssetPathAlter": "",
      "talkAudioName": "",
      "actionBefore": "",
      "actionWhile": "",
      "actionAfter": "",
      "optionIcon": "",
      "iconPath": ""
    },
    {
      "id": 1908502104,
      "nextDialogs": [
        1908502105
      ],
      "talkRole": {
        "type": "TALK_ROLE_NPC",
        "_id": "140901"
      },
      "talkContentTextMapHash": 1712609637,
      "talkAssetPath": "",
      "talkAssetPathAlter": "",
      "talkAudioName": "",
      "actionBefore": "",
      "actionWhile": "",
      "actionAfter": "",
      "optionIcon": "",
      "iconPath": ""
    },
    {
      "id": 1908502105,
      "nextDialogs": [
        1908502106
      ],
      "talkRole": {
        "type": "TALK_ROLE_NPC",
        "_id": "1027"
      },
      "talkContentTextMapHash": 958924581,
      "talkAssetPath": "",
      "talkAssetPathAlter": "",
      "talkAudioName": "",
      "actionBefore": "",
      "actionWhile": "",
      "actionAfter": "",
      "optionIcon": "",
      "iconPath": ""
    },
    {
      "id": 1908502106,
      "nextDialogs": [
        1908502107
      ],
      "talkRole": {
        "type": "TALK_ROLE_NPC",
        "_id": "140901"
      },
      "talkContentTextMapHash": 3342366813,
      "talkAssetPath": "",
      "talkAssetPathAlter": "",
      "talkAudioName": "",
      "actionBefore": "",
      "actionWhile": "",
      "actionAfter": "",
      "optionIcon": "",
      "iconPath": ""
    },
    {
      "id": 1908502107,
      "nextDialogs": [
        1908502108
      ],
      "talkRole": {
        "type": "TALK_ROLE_NPC",
        "_id": "140901"
      },
      "talkContentTextMapHash": 2731619933,
      "talkAssetPath": "",
      "talkAssetPathAlter": "",
      "talkAudioName": "",
      "actionBefore": "",
      "actionWhile": "",
      "actionAfter": "",
      "optionIcon": "",
      "iconPath": ""
    },
    {
      "id": 1908502108,
      "nextDialogs": [
        1908502109
      ],
      "talkRole": {
        "type": "TALK_ROLE_NPC",
        "_id": "1027"
      },
      "talkContentTextMapHash": 2767354549,
      "talkAssetPath": "",
      "talkAssetPathAlter": "",
      "talkAudioName": "",
      "actionBefore": "",
      "actionWhile": "",
      "actionAfter": "",
      "optionIcon": "",
      "iconPath": ""
    },
    {
      "id": 1908502109,
      "nextDialogs": [
        1908502110
      ],
      "talkRole": {
        "type": "TALK_ROLE_NPC",
        "_id": "140901"
      },
      "talkContentTextMapHash": 4045314293,
      "talkAssetPath": "",
      "talkAssetPathAlter": "",
      "talkAudioName": "",
      "actionBefore": "",
      "actionWhile": "",
      "actionAfter": "",
      "optionIcon": "",
      "iconPath": ""
    },
    {
      "id": 1908502110,
      "nextDialogs": [
        1908502111
      ],
      "talkRole": {
        "type": "TALK_ROLE_NPC",
        "_id": "140901"
      },
      "talkContentTextMapHash": 3208510389,
      "talkAssetPath": "",
      "talkAssetPathAlter": "",
      "talkAudioName": "",
      "actionBefore": "",
      "actionWhile": "",
      "actionAfter": "",
      "optionIcon": "",
      "iconPath": ""
    },
    {
      "id": 1908502111,
      "nextDialogs": [
        1908502112
      ],
      "talkRole": {
        "type": "TALK_ROLE_NPC",
        "_id": "140901"
      },
      "talkContentTextMapHash": 171743437,
      "talkAssetPath": "",
      "talkAssetPathAlter": "",
      "talkAudioName": "",
      "actionBefore": "",
      "actionWhile": "",
      "actionAfter": "",
      "optionIcon": "",
      "iconPath": ""
    },
    {
      "id": 1908502112,
      "nextDialogs": [
        1908502113
      ],
      "talkRole": {
        "type": "TALK_ROLE_NPC",
        "_id": "140901"
      },
      "talkContentTextMapHash": 1692394741,
      "talkAssetPath": "",
      "talkAssetPathAlter": "",
      "talkAudioName": "",
      "actionBefore": "",
      "actionWhile": "",
      "actionAfter": "",
      "optionIcon": "",
      "iconPath": ""
    },
    {
      "id": 1908502113,
      "nextDialogs": [
        1908502114
      ],
      "talkRole": {
        "type": "TALK_ROLE_NPC",
        "_id": "1027"
      },
      "talkContentTextMapHash": 2896330653,
      "talkAssetPath": "",
      "talkAssetPathAlter": "",
      "talkAudioName": "",
      "actionBefore": "",
      "actionWhile": "",
      "actionAfter": "",
      "optionIcon": "",
      "iconPath": ""
    },
    {
      "id": 1908502114,
      "nextDialogs": [
        1908502115
      ],
      "talkRole": {
        "type": "TALK_ROLE_NPC",
        "_id": "1027"
      },
      "talkContentTextMapHash": 4126598237,
      "talkAssetPath": "",
      "talkAssetPathAlter": "",
      "talkAudioName": "",
      "actionBefore": "",
      "actionWhile": "",
      "actionAfter": "",
      "optionIcon": "",
      "iconPath": ""
    },
    {
      "id": 1908502115,
      "nextDialogs": [
        1908502116
      ],
      "talkRole": {
        "type": "TALK_ROLE_NPC",
        "_id": "140901"
      },
      "talkContentTextMapHash": 296688949,
      "talkAssetPath": "",
      "talkAssetPathAlter": "",
      "talkAudioName": "",
      "actionBefore": "",
      "actionWhile": "",
      "actionAfter": "",
      "optionIcon": "",
      "iconPath": ""
    },
    {
      "id": 1908502116,
      "nextDialogs": [
        1908502117
      ],
      "talkRole": {
        "type": "TALK_ROLE_NPC",
        "_id": "140901"
      },
      "talkContentTextMapHash": 3102884381,
      "talkAssetPath": "",
      "talkAssetPathAlter": "",
      "talkAudioName": "",
      "actionBefore": "",
      "actionWhile": "",
      "actionAfter": "",
      "optionIcon": "",
      "iconPath": ""
    },
    {
      "id": 1908502117,
      "nextDialogs": [
        1908502118
      ],
      "talkRole": {
        "type": "TALK_ROLE_NPC",
        "_id": "1027"
      },
      "talkContentTextMapHash": 2802608557,
      "talkAssetPath": "",
      "talkAssetPathAlter": "",
      "talkAudioName": "",
      "actionBefore": "",
      "actionWhile": "",
      "actionAfter": "",
      "optionIcon": "",
      "iconPath": ""
    },
    {
      "id": 1908502118,
      "nextDialogs": [
        1908502119
      ],
      "talkRole": {
        "type": "TALK_ROLE_NPC",
        "_id": "140901"
      },
      "talkContentTextMapHash": 3224295917,
      "talkAssetPath": "",
      "talkAssetPathAlter": "",
      "talkAudioName": "",
      "actionBefore": "",
      "actionWhile": "",
      "actionAfter": "",
      "optionIcon": "",
      "iconPath": ""
    },
    {
      "id": 1908502119,
      "nextDialogs": [
        1908502120
      ],
      "talkRole": {
        "type": "TALK_ROLE_NPC",
        "_id": "140901"
      },
      "talkContentTextMapHash": 3229607101,
      "talkAssetPath": "",
      "talkAssetPathAlter": "",
      "talkAudioName": "",
      "actionBefore": "",
      "actionWhile": "",
      "actionAfter": "",
      "optionIcon": "",
      "iconPath": ""
    },
    {
      "id": 1908502120,
      "nextDialogs": [
        1908502121
      ],
      "talkRole": {
        "type": "TALK_ROLE_NPC",
        "_id": "140901"
      },
      "talkContentTextMapHash": 1609560093,
      "talkAssetPath": "",
      "talkAssetPathAlter": "",
      "talkAudioName": "",
      "actionBefore": "",
      "actionWhile": "",
      "actionAfter": "",
      "optionIcon": "",
      "iconPath": ""
    },
    {
      "id": 1908502121,
      "nextDialogs": [
        1908502122
      ],
      "talkShowType": "TALK_SHOW_FORCE_SELECT",
      "talkRole": {
        "type": "TALK_ROLE_PLAYER",
        "_id": ""
      },
      "talkContentTextMapHash": 658271453,
      "talkAssetPath": "",
      "talkAssetPathAlter": "",
      "talkAudioName": "",
      "actionBefore": "",
      "actionWhile": "",
      "actionAfter": "",
      "optionIcon": "",
      "iconPath": ""
    },
    {
      "id": 1908502122,
      "nextDialogs": [
        1908502123
      ],
      "talkRole": {
        "type": "TALK_ROLE_NPC",
        "_id": "140901"
      },
      "talkContentTextMapHash": 2318156653,
      "talkAssetPath": "",
      "talkAssetPathAlter": "",
      "talkAudioName": "",
      "actionBefore": "",
      "actionWhile": "",
      "actionAfter": "",
      "optionIcon": "",
      "iconPath": ""
    },
    {
      "id": 1908502123,
      "nextDialogs": [
        1908502124
      ],
      "talkRole": {
        "type": "TALK_ROLE_NPC",
        "_id": "140901"
      },
      "talkContentTextMapHash": 1477391373,
      "talkAssetPath": "",
      "talkAssetPathAlter": "",
      "talkAudioName": "",
      "actionBefore": "",
      "actionWhile": "",
      "actionAfter": "",
      "optionIcon": "",
      "iconPath": ""
    },
    {
      "id": 1908502124,
      "nextDialogs": [
        1908502125
      ],
      "talkShowType": "TALK_SHOW_FORCE_SELECT",
      "talkRole": {
        "type": "TALK_ROLE_PLAYER",
        "_id": ""
      },
      "talkContentTextMapHash": 1259171285,
      "talkAssetPath": "",
      "talkAssetPathAlter": "",
      "talkAudioName": "",
      "actionBefore": "",
      "actionWhile": "",
      "actionAfter": "",
      "optionIcon": "",
      "iconPath": ""
    },
    {
      "id": 1908502125,
      "nextDialogs": [
        1908502126
      ],
      "talkRole": {
        "type": "TALK_ROLE_NPC",
        "_id": "140901"
      },
      "talkContentTextMapHash": 2533069653,
      "talkAssetPath": "",
      "talkAssetPathAlter": "",
      "talkAudioName": "",
      "actionBefore": "",
      "actionWhile": "",
      "actionAfter": "",
      "optionIcon": "",
      "iconPath": ""
    },
    {
      "id": 1908502126,
      "nextDialogs": [
        1908502127
      ],
      "talkRole": {
        "type": "TALK_ROLE_NPC",
        "_id": "1027"
      },
      "talkContentTextMapHash": 3647988333,
      "talkAssetPath": "",
      "talkAssetPathAlter": "",
      "talkAudioName": "",
      "actionBefore": "",
      "actionWhile": "",
      "actionAfter": "",
      "optionIcon": "",
      "iconPath": ""
    },
    {
      "id": 1908502127,
      "nextDialogs": [
        1908502128
      ],
      "talkRole": {
        "type": "TALK_ROLE_NPC",
        "_id": "140901"
      },
      "talkContentTextMapHash": 3222568805,
      "talkAssetPath": "",
      "talkAssetPathAlter": "",
      "talkAudioName": "",
      "actionBefore": "",
      "actionWhile": "",
      "actionAfter": "",
      "optionIcon": "",
      "iconPath": ""
    },
    {
      "id": 1908502128,
      "nextDialogs": [
        1908502129
      ],
      "talkRole": {
        "type": "TALK_ROLE_NPC",
        "_id": "140901"
      },
      "talkContentTextMapHash": 3570528989,
      "talkAssetPath": "",
      "talkAssetPathAlter": "",
      "talkAudioName": "",
      "actionBefore": "",
      "actionWhile": "",
      "actionAfter": "",
      "optionIcon": "",
      "iconPath": ""
    },
    {
      "id": 1908502129,
      "nextDialogs": [
        1908502130
      ],
      "talkRole": {
        "type": "TALK_ROLE_NPC",
        "_id": "140901"
      },
      "talkContentTextMapHash": 1028248285,
      "talkAssetPath": "",
      "talkAssetPathAlter": "",
      "talkAudioName": "",
      "actionBefore": "",
      "actionWhile": "",
      "actionAfter": "",
      "optionIcon": "",
      "iconPath": ""
    },
    {
      "id": 1908502130,
      "nextDialogs": [
        1908502131
      ],
      "talkRole": {
        "type": "TALK_ROLE_NPC",
        "_id": "140901"
      },
      "talkContentTextMapHash": 767205037,
      "talkAssetPath": "",
      "talkAssetPathAlter": "",
      "talkAudioName": "",
      "actionBefore": "",
      "actionWhile": "",
      "actionAfter": "",
      "optionIcon": "",
      "iconPath": ""
    },
    {
      "id": 1908502131,
      "nextDialogs": [
        1908502132
      ],
      "talkRole": {
        "type": "TALK_ROLE_NPC",
        "_id": "140901"
      },
      "talkContentTextMapHash": 3426793509,
      "talkAssetPath": "",
      "talkAssetPathAlter": "",
      "talkAudioName": "",
      "actionBefore": "",
      "actionWhile": "",
      "actionAfter": "",
      "optionIcon": "",
      "iconPath": ""
    },
    {
      "id": 1908502132,
      "nextDialogs": [
        1908502133
      ],
      "talkRole": {
        "type": "TALK_ROLE_NPC",
        "_id": "1027"
      },
      "talkContentTextMapHash": 3506015349,
      "talkAssetPath": "",
      "talkAssetPathAlter": "",
      "talkAudioName": "",
      "actionBefore": "",
      "actionWhile": "",
      "actionAfter": "",
      "optionIcon": "",
      "iconPath": ""
    },
    {
      "id": 1908502133,
      "nextDialogs": [
        0
      ],
      "talkRole": {
        "type": "TALK_ROLE_NPC",
        "_id": "1027"
      },
      "talkContentTextMapHash": 3274777341,
      "talkAssetPath": "",
      "talkAssetPathAlter": "",
      "talkAudioName": "",
      "actionBefore": "",
      "actionWhile": "",
      "actionAfter": "",
      "optionIcon": "",
      "iconPath": ""
    }
  ]
}