{
  "talkId": 100,
  "KPGKDHAFHFE": "COOP",
  "dialogList": [
    {
      "id": 1908503201,
      "nextDialogs": [
        1908503301
      ],
      "talkRole": {
        "type": "TALK_ROLE_NPC",
        "_id": "140901"
      },
      "talkContentTextMapHash": 927176925,
      "talkAssetPath": "",
      "talkAssetPathAlter": "",
      "talkAudioName": "",
      "actionBefore": "",
      "actionWhile": "",
      "actionAfter": "",
      "optionIcon": "",
      "iconPath": ""
    }
  ]
}