{
  "talkId": 119,
  "KPGKDHAFHFE": "COOP",
  "dialogList": [
    {
      "id": 1908701101,
      "nextDialogs": [
        1908701102
      ],
      "talkRole": {
        "type": "TALK_ROLE_NPC",
        "_id": "140901"
      },
      "talkContentTextMapHash": 343998565,
      "talkAssetPath": "",
      "talkAssetPathAlter": "",
      "talkAudioName": "",
      "actionBefore": "",
      "actionWhile": "",
      "actionAfter": "",
      "optionIcon": "",
      "iconPath": ""
    },
    {
      "id": 1908701102,
      "nextDialogs": [
        1908701103
      ],
      "talkRole": {
        "type": "TALK_ROLE_NPC",
        "_id": "1027"
      },
      "talkContentTextMapHash": 5824605,
      "talkAssetPath": "",
      "talkAssetPathAlter": "",
      "talkAudioName": "",
      "actionBefore": "",
      "actionWhile": "",
      "actionAfter": "",
      "optionIcon": "",
      "iconPath": ""
    },
    {
      "id": 1908701103,
      "nextDialogs": [
        1908701104
      ],
      "talkRole": {
        "type": "TALK_ROLE_NPC",
        "_id": "140901"
      },
      "talkContentTextMapHash": 1128286757,
      "talkAssetPath": "",
      "talkAssetPathAlter": "",
      "talkAudioName": "",
      "actionBefore": "",
      "actionWhile": "",
      "actionAfter": "",
      "optionIcon": "",
      "iconPath": ""
    },
    {
      "id": 1908701104,
      "nextDialogs": [
        1908701105
      ],
      "talkRole": {
        "type": "TALK_ROLE_NPC",
        "_id": "140901"
      },
      "talkContentTextMapHash": 3665642077,
      "talkAssetPath": "",
      "talkAssetPathAlter": "",
      "talkAudioName": "",
      "actionBefore": "",
      "actionWhile": "",
      "actionAfter": "",
      "optionIcon": "",
      "iconPath": ""
    },
    {
      "id": 1908701105,
      "nextDialogs": [
        1908701106
      ],
      "talkRole": {
        "type": "TALK_ROLE_NPC",
        "_id": "140901"
      },
      "talkContentTextMapHash": 1467151197,
      "talkAssetPath": "",
      "talkAssetPathAlter": "",
      "talkAudioName": "",
      "actionBefore": "",
      "actionWhile": "",
      "actionAfter": "",
      "optionIcon": "",
      "iconPath": ""
    },
    {
      "id": 1908701106,
      "nextDialogs": [
        1908701107
      ],
      "talkRole": {
        "type": "TALK_ROLE_NPC",
        "_id": "140901"
      },
      "talkContentTextMapHash": 3889327765,
      "talkAssetPath": "",
      "talkAssetPathAlter": "",
      "talkAudioName": "",
      "actionBefore": "",
      "actionWhile": "",
      "actionAfter": "",
      "optionIcon": "",
      "iconPath": ""
    },
    {
      "id": 1908701107,
      "talkRole": {
        "type": "TALK_ROLE_NPC",
        "_id": "1027"
      },
      "talkContentTextMapHash": 4213032557,
      "talkAssetPath": "",
      "talkAssetPathAlter": "",
      "talkAudioName": "",
      "actionBefore": "",
      "actionWhile": "",
      "actionAfter": "",
      "optionIcon": "",
      "iconPath": ""
    }
  ]
}