{
  "talkId": 8,
  "KPGKDHAFHFE": "COOP",
  "dialogList": [
    {
      "id": 1908101301,
      "nextDialogs": [
        1908101401
      ],
      "talkRole": {
        "type": "TALK_ROLE_NPC",
        "_id": "1027"
      },
      "talkContentTextMapHash": 3292872613,
      "talkAssetPath": "",
      "talkAssetPathAlter": "",
      "talkAudioName": "",
      "actionBefore": "",
      "actionWhile": "",
      "actionAfter": "",
      "optionIcon": "",
      "iconPath": ""
    }
  ]
}