{
  "talkId": 136,
  "KPGKDHAFHFE": "COOP",
  "dialogList": [
    {
      "id": 1908801401,
      "nextDialogs": [
        1908801402
      ],
      "talkRole": {
        "type": "TALK_ROLE_NPC",
        "_id": "140901"
      },
      "talkContentTextMapHash": 3543550549,
      "talkAssetPath": "",
      "talkAssetPathAlter": "",
      "talkAudioName": "",
      "actionBefore": "",
      "actionWhile": "",
      "actionAfter": "",
      "optionIcon": "",
      "iconPath": ""
    },
    {
      "id": 1908801402,
      "nextDialogs": [
        1908801403
      ],
      "talkRole": {
        "type": "TALK_ROLE_NPC",
        "_id": "140901"
      },
      "talkContentTextMapHash": 2906293309,
      "talkAssetPath": "",
      "talkAssetPathAlter": "",
      "talkAudioName": "",
      "actionBefore": "",
      "actionWhile": "",
      "actionAfter": "",
      "optionIcon": "",
      "iconPath": ""
    },
    {
      "id": 1908801403,
      "nextDialogs": [
        1908801404
      ],
      "talkRole": {
        "type": "TALK_ROLE_NPC",
        "_id": "140901"
      },
      "talkContentTextMapHash": 4173784725,
      "talkAssetPath": "",
      "talkAssetPathAlter": "",
      "talkAudioName": "",
      "actionBefore": "",
      "actionWhile": "",
      "actionAfter": "",
      "optionIcon": "",
      "iconPath": ""
    },
    {
      "id": 1908801404,
      "nextDialogs": [
        1908801405
      ],
      "talkRole": {
        "type": "TALK_ROLE_NPC",
        "_id": "140901"
      },
      "talkContentTextMapHash": 1966596461,
      "talkAssetPath": "",
      "talkAssetPathAlter": "",
      "talkAudioName": "",
      "actionBefore": "",
      "actionWhile": "",
      "actionAfter": "",
      "optionIcon": "",
      "iconPath": ""
    },
    {
      "id": 1908801405,
      "nextDialogs": [
        1908801406
      ],
      "talkRole": {
        "type": "TALK_ROLE_NPC",
        "_id": "1027"
      },
      "talkContentTextMapHash": 3591986173,
      "talkAssetPath": "",
      "talkAssetPathAlter": "",
      "talkAudioName": "",
      "actionBefore": "",
      "actionWhile": "",
      "actionAfter": "",
      "optionIcon": "",
      "iconPath": ""
    },
    {
      "id": 1908801406,
      "nextDialogs": [
        1908801407
      ],
      "talkRole": {
        "type": "TALK_ROLE_NPC",
        "_id": "140901"
      },
      "talkContentTextMapHash": 3506390741,
      "talkAssetPath": "",
      "talkAssetPathAlter": "",
      "talkAudioName": "",
      "actionBefore": "",
      "actionWhile": "",
      "actionAfter": "",
      "optionIcon": "",
      "iconPath": ""
    },
    {
      "id": 1908801407,
      "nextDialogs": [
        1908801408
      ],
      "talkRole": {
        "type": "TALK_ROLE_NPC",
        "_id": "140901"
      },
      "talkContentTextMapHash": 436233765,
      "talkAssetPath": "",
      "talkAssetPathAlter": "",
      "talkAudioName": "",
      "actionBefore": "",
      "actionWhile": "",
      "actionAfter": "",
      "optionIcon": "",
      "iconPath": ""
    },
    {
      "id": 1908801408,
      "nextDialogs": [
        1908801409
      ],
      "talkRole": {
        "type": "TALK_ROLE_NPC",
        "_id": "1027"
      },
      "talkContentTextMapHash": 2409553709,
      "talkAssetPath": "",
      "talkAssetPathAlter": "",
      "talkAudioName": "",
      "actionBefore": "",
      "actionWhile": "",
      "actionAfter": "",
      "optionIcon": "",
      "iconPath": ""
    },
    {
      "id": 1908801409,
      "nextDialogs": [
        1908801410
      ],
      "talkRole": {
        "type": "TALK_ROLE_NPC",
        "_id": "1027"
      },
      "talkContentTextMapHash": 1148686341,
      "talkAssetPath": "",
      "talkAssetPathAlter": "",
      "talkAudioName": "",
      "actionBefore": "",
      "actionWhile": "",
      "actionAfter": "",
      "optionIcon": "",
      "iconPath": ""
    },
    {
      "id": 1908801410,
      "nextDialogs": [
        1908801411
      ],
      "talkRole": {
        "type": "TALK_ROLE_NPC",
        "_id": "140901"
      },
      "talkContentTextMapHash": 3371706701,
      "talkAssetPath": "",
      "talkAssetPathAlter": "",
      "talkAudioName": "",
      "actionBefore": "",
      "actionWhile": "",
      "actionAfter": "",
      "optionIcon": "",
      "iconPath": ""
    },
    {
      "id": 1908801411,
      "nextDialogs": [
        1908801412
      ],
      "talkRole": {
        "type": "TALK_ROLE_NPC",
        "_id": "1027"
      },
      "talkContentTextMapHash": 3348385389,
      "talkAssetPath": "",
      "talkAssetPathAlter": "",
      "talkAudioName": "",
      "actionBefore": "",
      "actionWhile": "",
      "actionAfter": "",
      "optionIcon": "",
      "iconPath": ""
    },
    {
      "id": 1908801412,
      "nextDialogs": [
        1908801413
      ],
      "talkRole": {
        "type": "TALK_ROLE_NPC",
        "_id": "1027"
      },
      "talkContentTextMapHash": 1467975141,
      "talkAssetPath": "",
      "talkAssetPathAlter": "",
      "talkAudioName": "",
      "actionBefore": "",
      "actionWhile": "",
      "actionAfter": "",
      "optionIcon": "",
      "iconPath": ""
    },
    {
      "id": 1908801413,
      "nextDialogs": [
        1908801414
      ],
      "talkRole": {
        "type": "TALK_ROLE_NPC",
        "_id": "1027"
      },
      "talkContentTextMapHash": 731238765,
      "talkAssetPath": "",
      "talkAssetPathAlter": "",
      "talkAudioName": "",
      "actionBefore": "",
      "actionWhile": "",
      "actionAfter": "",
      "optionIcon": "",
      "iconPath": ""
    },
    {
      "id": 1908801414,
      "nextDialogs": [
        1908801415
      ],
      "talkRole": {
        "type": "TALK_ROLE_NPC",
        "_id": "1027"
      },
      "talkContentTextMapHash": 1135756845,
      "talkAssetPath": "",
      "talkAssetPathAlter": "",
      "talkAudioName": "",
      "actionBefore": "",
      "actionWhile": "",
      "actionAfter": "",
      "optionIcon": "",
      "iconPath": ""
    },
    {
      "id": 1908801415,
      "nextDialogs": [
        1908801416
      ],
      "talkRole": {
        "type": "TALK_ROLE_NPC",
        "_id": "140901"
      },
      "talkContentTextMapHash": 256556333,
      "talkAssetPath": "",
      "talkAssetPathAlter": "",
      "talkAudioName": "",
      "actionBefore": "",
      "actionWhile": "",
      "actionAfter": "",
      "optionIcon": "",
      "iconPath": ""
    },
    {
      "id": 1908801416,
      "nextDialogs": [
        1908801417
      ],
      "talkShowType": "TALK_SHOW_FORCE_SELECT",
      "talkRole": {
        "type": "TALK_ROLE_PLAYER",
        "_id": ""
      },
      "talkContentTextMapHash": 1620767061,
      "talkAssetPath": "",
      "talkAssetPathAlter": "",
      "talkAudioName": "",
      "actionBefore": "",
      "actionWhile": "",
      "actionAfter": "",
      "optionIcon": "",
      "iconPath": ""
    },
    {
      "id": 1908801417,
      "nextDialogs": [
        1908801418
      ],
      "talkRole": {
        "type": "TALK_ROLE_NPC",
        "_id": "140901"
      },
      "talkContentTextMapHash": 3672551333,
      "talkAssetPath": "",
      "talkAssetPathAlter": "",
      "talkAudioName": "",
      "actionBefore": "",
      "actionWhile": "",
      "actionAfter": "",
      "optionIcon": "",
      "iconPath": ""
    },
    {
      "id": 1908801418,
      "nextDialogs": [
        1908801419
      ],
      "talkRole": {
        "type": "TALK_ROLE_NPC",
        "_id": "140901"
      },
      "talkContentTextMapHash": 462499437,
      "talkAssetPath": "",
      "talkAssetPathAlter": "",
      "talkAudioName": "",
      "actionBefore": "",
      "actionWhile": "",
      "actionAfter": "",
      "optionIcon": "",
      "iconPath": ""
    },
    {
      "id": 1908801419,
      "talkRole": {
        "type": "TALK_ROLE_NPC",
        "_id": "140901"
      },
      "talkContentTextMapHash": 2120004229,
      "talkAssetPath": "",
      "talkAssetPathAlter": "",
      "talkAudioName": "",
      "actionBefore": "",
      "actionWhile": "",
      "actionAfter": "",
      "optionIcon": "",
      "iconPath": ""
    }
  ]
}