{
  "talkId": 12,
  "KPGKDHAFHFE": "COOP",
  "dialogList": [
    {
      "id": 1908101601,
      "nextDialogs": [
        1908101602
      ],
      "talkRole": {
        "type": "TALK_ROLE_NPC",
        "_id": "1027"
      },
      "talkContentTextMapHash": 2204282965,
      "talkAssetPath": "",
      "talkAssetPathAlter": "",
      "talkAudioName": "",
      "actionBefore": "",
      "actionWhile": "",
      "actionAfter": "",
      "optionIcon": "",
      "iconPath": ""
    },
    {
      "id": 1908101602,
      "nextDialogs": [
        1908101603
      ],
      "talkRole": {
        "type": "TALK_ROLE_NPC",
        "_id": "1027"
      },
      "talkContentTextMapHash": 2437445237,
      "talkAssetPath": "",
      "talkAssetPathAlter": "",
      "talkAudioName": "",
      "actionBefore": "",
      "actionWhile": "",
      "actionAfter": "",
      "optionIcon": "",
      "iconPath": ""
    },
    {
      "id": 1908101603,
      "nextDialogs": [
        0
      ],
      "talkRole": {
        "type": "TALK_ROLE_NPC",
        "_id": "1027"
      },
      "talkContentTextMapHash": 2150741893,
      "talkAssetPath": "",
      "talkAssetPathAlter": "",
      "talkAudioName": "",
      "actionBefore": "",
      "actionWhile": "",
      "actionAfter": "",
      "optionIcon": "",
      "iconPath": ""
    }
  ]
}