{
  "talkId": 258,
  "KPGKDHAFHFE": "COOP",
  "dialogList": [
    {
      "id": 1908601401,
      "nextDialogs": [
        0
      ],
      "talkRole": {
        "type": "TALK_ROLE_NPC",
        "_id": "1027"
      },
      "talkContentTextMapHash": 3988563829,
      "talkAssetPath": "",
      "talkAssetPathAlter": "",
      "talkAudioName": "",
      "actionBefore": "",
      "actionWhile": "",
      "actionAfter": "",
      "optionIcon": "",
      "iconPath": ""
    }
  ]
}