{
  "talkId": 147,
  "KPGKDHAFHFE": "COOP",
  "dialogList": [
    {
      "id": 1908902101,
      "nextDialogs": [
        1908902102
      ],
      "talkRole": {
        "type": "TALK_ROLE_NPC",
        "_id": "1027"
      },
      "talkContentTextMapHash": 1088075781,
      "talkAssetPath": "",
      "talkAssetPathAlter": "",
      "talkAudioName": "",
      "actionBefore": "",
      "actionWhile": "",
      "actionAfter": "",
      "optionIcon": "",
      "iconPath": ""
    },
    {
      "id": 1908902102,
      "nextDialogs": [
        1908902103
      ],
      "talkRole": {
        "type": "TALK_ROLE_NPC",
        "_id": "1027"
      },
      "talkContentTextMapHash": 2254639197,
      "talkAssetPath": "",
      "talkAssetPathAlter": "",
      "talkAudioName": "",
      "actionBefore": "",
      "actionWhile": "",
      "actionAfter": "",
      "optionIcon": "",
      "iconPath": ""
    },
    {
      "id": 1908902103,
      "nextDialogs": [
        1908902104
      ],
      "talkShowType": "TALK_SHOW_FORCE_SELECT",
      "talkRole": {
        "type": "TALK_ROLE_PLAYER",
        "_id": ""
      },
      "talkContentTextMapHash": 2056139709,
      "talkAssetPath": "",
      "talkAssetPathAlter": "",
      "talkAudioName": "",
      "actionBefore": "",
      "actionWhile": "",
      "actionAfter": "",
      "optionIcon": "",
      "iconPath": ""
    },
    {
      "id": 1908902104,
      "nextDialogs": [
        1908902105
      ],
      "talkRole": {
        "type": "TALK_ROLE_NPC",
        "_id": "1027"
      },
      "talkContentTextMapHash": 593614773,
      "talkAssetPath": "",
      "talkAssetPathAlter": "",
      "talkAudioName": "",
      "actionBefore": "",
      "actionWhile": "",
      "actionAfter": "",
      "optionIcon": "",
      "iconPath": ""
    },
    {
      "id": 1908902105,
      "nextDialogs": [
        1908902106
      ],
      "talkRole": {
        "type": "TALK_ROLE_NPC",
        "_id": "1027"
      },
      "talkContentTextMapHash": 892033653,
      "talkAssetPath": "",
      "talkAssetPathAlter": "",
      "talkAudioName": "",
      "actionBefore": "",
      "actionWhile": "",
      "actionAfter": "",
      "optionIcon": "",
      "iconPath": ""
    },
    {
      "id": 1908902106,
      "nextDialogs": [
        1908902107
      ],
      "talkRole": {
        "type": "TALK_ROLE_NPC",
        "_id": "1027"
      },
      "talkContentTextMapHash": 2122849597,
      "talkAssetPath": "",
      "talkAssetPathAlter": "",
      "talkAudioName": "",
      "actionBefore": "",
      "actionWhile": "",
      "actionAfter": "",
      "optionIcon": "",
      "iconPath": ""
    },
    {
      "id": 1908902107,
      "nextDialogs": [
        1908902108
      ],
      "talkRole": {
        "type": "TALK_ROLE_NPC",
        "_id": "1027"
      },
      "talkContentTextMapHash": 4068749245,
      "talkAssetPath": "",
      "talkAssetPathAlter": "",
      "talkAudioName": "",
      "actionBefore": "",
      "actionWhile": "",
      "actionAfter": "",
      "optionIcon": "",
      "iconPath": ""
    },
    {
      "id": 1908902108,
      "nextDialogs": [
        1908902109
      ],
      "talkRole": {
        "type": "TALK_ROLE_NPC",
        "_id": "1027"
      },
      "talkContentTextMapHash": 2145404029,
      "talkAssetPath": "",
      "talkAssetPathAlter": "",
      "talkAudioName": "",
      "actionBefore": "",
      "actionWhile": "",
      "actionAfter": "",
      "optionIcon": "",
      "iconPath": ""
    },
    {
      "id": 1908902109,
      "nextDialogs": [
        1908902110
      ],
      "talkRole": {
        "type": "TALK_ROLE_NPC",
        "_id": "1027"
      },
      "talkContentTextMapHash": 3023789093,
      "talkAssetPath": "",
      "talkAssetPathAlter": "",
      "talkAudioName": "",
      "actionBefore": "",
      "actionWhile": "",
      "actionAfter": "",
      "optionIcon": "",
      "iconPath": ""
    },
    {
      "id": 1908902110,
      "nextDialogs": [
        1908902111
      ],
      "talkShowType": "TALK_SHOW_FORCE_SELECT",
      "talkRole": {
        "type": "TALK_ROLE_PLAYER",
        "_id": ""
      },
      "talkContentTextMapHash": 2761758029,
      "talkAssetPath": "",
      "talkAssetPathAlter": "",
      "talkAudioName": "",
      "actionBefore": "",
      "actionWhile": "",
      "actionAfter": "",
      "optionIcon": "",
      "iconPath": ""
    },
    {
      "id": 1908902111,
      "nextDialogs": [
        1908902112
      ],
      "talkRole": {
        "type": "TALK_ROLE_NPC",
        "_id": "1027"
      },
      "talkContentTextMapHash": 421330981,
      "talkAssetPath": "",
      "talkAssetPathAlter": "",
      "talkAudioName": "",
      "actionBefore": "",
      "actionWhile": "",
      "actionAfter": "",
      "optionIcon": "",
      "iconPath": ""
    },
    {
      "id": 1908902112,
      "nextDialogs": [
        1908902113
      ],
      "talkRole": {
        "type": "TALK_ROLE_NPC",
        "_id": "1027"
      },
      "talkContentTextMapHash": 946516285,
      "talkAssetPath": "",
      "talkAssetPathAlter": "",
      "talkAudioName": "",
      "actionBefore": "",
      "actionWhile": "",
      "actionAfter": "",
      "optionIcon": "",
      "iconPath": ""
    },
    {
      "id": 1908902113,
      "nextDialogs": [
        1908902114
      ],
      "talkRole": {
        "type": "TALK_ROLE_NPC",
        "_id": "1027"
      },
      "talkContentTextMapHash": 1422861293,
      "talkAssetPath": "",
      "talkAssetPathAlter": "",
      "talkAudioName": "",
      "actionBefore": "",
      "actionWhile": "",
      "actionAfter": "",
      "optionIcon": "",
      "iconPath": ""
    },
    {
      "id": 1908902114,
      "talkRole": {
        "type": "TALK_ROLE_NPC",
        "_id": "1027"
      },
      "talkContentTextMapHash": 3692281589,
      "talkAssetPath": "",
      "talkAssetPathAlter": "",
      "talkAudioName": "",
      "actionBefore": "",
      "actionWhile": "",
      "actionAfter": "",
      "optionIcon": "",
      "iconPath": ""
    }
  ]
}