{
  "talkId": 80,
  "KPGKDHAFHFE": "COOP",
  "dialogList": [
    {
      "id": 190930401,
      "nextDialogs": [
        190930402
      ],
      "talkRole": {
        "type": "TALK_ROLE_NPC",
        "_id": "516"
      },
      "talkContentTextMapHash": 311500858,
      "talkAssetPath": "",
      "talkAssetPathAlter": "",
      "talkAudioName": "",
      "actionBefore": "",
      "actionWhile": "",
      "actionAfter": "",
      "optionIcon": "",
      "iconPath": ""
    },
    {
      "id": 190930402,
      "nextDialogs": [
        190930403
      ],
      "talkRole": {
        "type": "TALK_ROLE_NPC",
        "_id": "516"
      },
      "talkContentTextMapHash": 1745108010,
      "talkAssetPath": "",
      "talkAssetPathAlter": "",
      "talkAudioName": "",
      "actionBefore": "",
      "actionWhile": "",
      "actionAfter": "",
      "optionIcon": "",
      "iconPath": ""
    },
    {
      "id": 190930403,
      "nextDialogs": [
        190930404
      ],
      "talkRole": {
        "type": "TALK_ROLE_NPC",
        "_id": "516"
      },
      "talkContentTextMapHash": 3390503754,
      "talkAssetPath": "",
      "talkAssetPathAlter": "",
      "talkAudioName": "",
      "actionBefore": "",
      "actionWhile": "",
      "actionAfter": "",
      "optionIcon": "",
      "iconPath": ""
    },
    {
      "id": 190930404,
      "talkRole": {
        "type": "TALK_ROLE_NPC",
        "_id": "516"
      },
      "talkContentTextMapHash": 3081965042,
      "talkAssetPath": "",
      "talkAssetPathAlter": "",
      "talkAudioName": "",
      "actionBefore": "",
      "actionWhile": "",
      "actionAfter": "",
      "optionIcon": "",
      "iconPath": ""
    }
  ]
}