{
  "talkId": 115,
  "KPGKDHAFHFE": "COOP",
  "dialogList": [
    {
      "id": 1910404101,
      "nextDialogs": [
        1910404102
      ],
      "talkRole": {
        "type": "TALK_ROLE_NPC",
        "_id": "153901"
      },
      "talkContentTextMapHash": 2299140325,
      "talkAssetPath": "",
      "talkAssetPathAlter": "",
      "talkAudioName": "",
      "actionBefore": "",
      "actionWhile": "",
      "actionAfter": "",
      "optionIcon": "",
      "iconPath": ""
    },
    {
      "id": 1910404102,
      "nextDialogs": [
        1910404103
      ],
      "talkRole": {
        "type": "TALK_ROLE_NPC",
        "_id": "153901"
      },
      "talkContentTextMapHash": 2957767317,
      "talkAssetPath": "",
      "talkAssetPathAlter": "",
      "talkAudioName": "",
      "actionBefore": "",
      "actionWhile": "",
      "actionAfter": "",
      "optionIcon": "",
      "iconPath": ""
    },
    {
      "id": 1910404103,
      "nextDialogs": [
        1910404104
      ],
      "talkRole": {
        "type": "TALK_ROLE_NPC",
        "_id": "153901"
      },
      "talkContentTextMapHash": 801983109,
      "talkAssetPath": "",
      "talkAssetPathAlter": "",
      "talkAudioName": "",
      "actionBefore": "",
      "actionWhile": "",
      "actionAfter": "",
      "optionIcon": "",
      "iconPath": ""
    },
    {
      "id": 1910404104,
      "nextDialogs": [
        1910404105
      ],
      "talkRole": {
        "type": "TALK_ROLE_NPC",
        "_id": "153701"
      },
      "talkContentTextMapHash": 136793077,
      "talkAssetPath": "",
      "talkAssetPathAlter": "",
      "talkAudioName": "",
      "actionBefore": "",
      "actionWhile": "",
      "actionAfter": "",
      "optionIcon": "",
      "iconPath": ""
    },
    {
      "id": 1910404105,
      "nextDialogs": [
        1910404106
      ],
      "talkRole": {
        "type": "TALK_ROLE_NPC",
        "_id": "153701"
      },
      "talkContentTextMapHash": 2633416437,
      "talkAssetPath": "",
      "talkAssetPathAlter": "",
      "talkAudioName": "",
      "actionBefore": "",
      "actionWhile": "",
      "actionAfter": "",
      "optionIcon": "",
      "iconPath": ""
    },
    {
      "id": 1910404106,
      "nextDialogs": [
        1910404107
      ],
      "talkRole": {
        "type": "TALK_ROLE_NPC",
        "_id": "153901"
      },
      "talkContentTextMapHash": 90690293,
      "talkAssetPath": "",
      "talkAssetPathAlter": "",
      "talkAudioName": "",
      "actionBefore": "",
      "actionWhile": "",
      "actionAfter": "",
      "optionIcon": "",
      "iconPath": ""
    },
    {
      "id": 1910404107,
      "nextDialogs": [
        1910404108
      ],
      "talkRole": {
        "type": "TALK_ROLE_NPC",
        "_id": "153701"
      },
      "talkContentTextMapHash": 1280391469,
      "talkAssetPath": "",
      "talkAssetPathAlter": "",
      "talkAudioName": "",
      "actionBefore": "",
      "actionWhile": "",
      "actionAfter": "",
      "optionIcon": "",
      "iconPath": ""
    },
    {
      "id": 1910404108,
      "nextDialogs": [
        1910404109
      ],
      "talkRole": {
        "type": "TALK_ROLE_NPC",
        "_id": "502"
      },
      "talkContentTextMapHash": 3673494917,
      "talkAssetPath": "",
      "talkAssetPathAlter": "",
      "talkAudioName": "",
      "actionBefore": "",
      "actionWhile": "",
      "actionAfter": "",
      "optionIcon": "",
      "iconPath": ""
    },
    {
      "id": 1910404109,
      "nextDialogs": [
        1910404110
      ],
      "talkRole": {
        "type": "TALK_ROLE_NPC",
        "_id": "502"
      },
      "talkContentTextMapHash": 352058301,
      "talkAssetPath": "",
      "talkAssetPathAlter": "",
      "talkAudioName": "",
      "actionBefore": "",
      "actionWhile": "",
      "actionAfter": "",
      "optionIcon": "",
      "iconPath": ""
    },
    {
      "id": 1910404110,
      "nextDialogs": [
        1910404111
      ],
      "talkRole": {
        "type": "TALK_ROLE_NPC",
        "_id": "153701"
      },
      "talkContentTextMapHash": 2088212509,
      "talkAssetPath": "",
      "talkAssetPathAlter": "",
      "talkAudioName": "",
      "actionBefore": "",
      "actionWhile": "",
      "actionAfter": "",
      "optionIcon": "",
      "iconPath": ""
    },
    {
      "id": 1910404111,
      "nextDialogs": [
        1910404112
      ],
      "talkRole": {
        "type": "TALK_ROLE_NPC",
        "_id": "502"
      },
      "talkContentTextMapHash": 2458066221,
      "talkAssetPath": "",
      "talkAssetPathAlter": "",
      "talkAudioName": "",
      "actionBefore": "",
      "actionWhile": "",
      "actionAfter": "",
      "optionIcon": "",
      "iconPath": ""
    },
    {
      "id": 1910404112,
      "nextDialogs": [
        1910404113
      ],
      "talkRole": {
        "type": "TALK_ROLE_NPC",
        "_id": "502"
      },
      "talkContentTextMapHash": 590699141,
      "talkAssetPath": "",
      "talkAssetPathAlter": "",
      "talkAudioName": "",
      "actionBefore": "",
      "actionWhile": "",
      "actionAfter": "",
      "optionIcon": "",
      "iconPath": ""
    },
    {
      "id": 1910404113,
      "nextDialogs": [
        1910404114
      ],
      "talkRole": {
        "type": "TALK_ROLE_NPC",
        "_id": "502"
      },
      "talkContentTextMapHash": 1550408477,
      "talkAssetPath": "",
      "talkAssetPathAlter": "",
      "talkAudioName": "",
      "actionBefore": "",
      "actionWhile": "",
      "actionAfter": "",
      "optionIcon": "",
      "iconPath": ""
    },
    {
      "id": 1910404114,
      "nextDialogs": [
        1910404115
      ],
      "talkRole": {
        "type": "TALK_ROLE_NPC",
        "_id": "153701"
      },
      "talkContentTextMapHash": 1420950885,
      "talkAssetPath": "",
      "talkAssetPathAlter": "",
      "talkAudioName": "",
      "actionBefore": "",
      "actionWhile": "",
      "actionAfter": "",
      "optionIcon": "",
      "iconPath": ""
    },
    {
      "id": 1910404115,
      "nextDialogs": [
        1910404116
      ],
      "talkRole": {
        "type": "TALK_ROLE_NPC",
        "_id": "502"
      },
      "talkContentTextMapHash": 1609459717,
      "talkAssetPath": "",
      "talkAssetPathAlter": "",
      "talkAudioName": "",
      "actionBefore": "",
      "actionWhile": "",
      "actionAfter": "",
      "optionIcon": "",
      "iconPath": ""
    },
    {
      "id": 1910404116,
      "nextDialogs": [
        1910404117
      ],
      "talkRole": {
        "type": "TALK_ROLE_NPC",
        "_id": "502"
      },
      "talkContentTextMapHash": 3756381797,
      "talkAssetPath": "",
      "talkAssetPathAlter": "",
      "talkAudioName": "",
      "actionBefore": "",
      "actionWhile": "",
      "actionAfter": "",
      "optionIcon": "",
      "iconPath": ""
    },
    {
      "id": 1910404117,
      "nextDialogs": [
        1910404118
      ],
      "talkRole": {
        "type": "TALK_ROLE_NPC",
        "_id": "502"
      },
      "talkContentTextMapHash": 1637851157,
      "talkAssetPath": "",
      "talkAssetPathAlter": "",
      "talkAudioName": "",
      "actionBefore": "",
      "actionWhile": "",
      "actionAfter": "",
      "optionIcon": "",
      "iconPath": ""
    },
    {
      "id": 1910404118,
      "nextDialogs": [
        1910404119
      ],
      "talkRole": {
        "type": "TALK_ROLE_NPC",
        "_id": "153701"
      },
      "talkContentTextMapHash": 1516006261,
      "talkAssetPath": "",
      "talkAssetPathAlter": "",
      "talkAudioName": "",
      "actionBefore": "",
      "actionWhile": "",
      "actionAfter": "",
      "optionIcon": "",
      "iconPath": ""
    },
    {
      "id": 1910404119,
      "nextDialogs": [
        0
      ],
      "talkRole": {
        "type": "TALK_ROLE_NPC",
        "_id": "153901"
      },
      "talkContentTextMapHash": 1012477101,
      "talkAssetPath": "",
      "talkAssetPathAlter": "",
      "talkAudioName": "",
      "actionBefore": "",
      "actionWhile": "",
      "actionAfter": "",
      "optionIcon": "",
      "iconPath": ""
    }
  ]
}