{
  "talkId": 127,
  "KPGKDHAFHFE": "COOP",
  "dialogList": [
    {
      "id": 1910502101,
      "nextDialogs": [
        1910502102
      ],
      "talkRole": {
        "type": "TALK_ROLE_NPC",
        "_id": "153901"
      },
      "talkContentTextMapHash": 472988765,
      "talkAssetPath": "",
      "talkAssetPathAlter": "",
      "talkAudioName": "",
      "actionBefore": "",
      "actionWhile": "",
      "actionAfter": "",
      "optionIcon": "",
      "iconPath": ""
    },
    {
      "id": 1910502102,
      "nextDialogs": [
        1910502103
      ],
      "talkRole": {
        "type": "TALK_ROLE_NPC",
        "_id": "153901"
      },
      "talkContentTextMapHash": 2357290013,
      "talkAssetPath": "",
      "talkAssetPathAlter": "",
      "talkAudioName": "",
      "actionBefore": "",
      "actionWhile": "",
      "actionAfter": "",
      "optionIcon": "",
      "iconPath": ""
    },
    {
      "id": 1910502103,
      "nextDialogs": [
        1910502104
      ],
      "talkRole": {
        "type": "TALK_ROLE_NPC",
        "_id": "153701"
      },
      "talkContentTextMapHash": 985151541,
      "talkAssetPath": "",
      "talkAssetPathAlter": "",
      "talkAudioName": "",
      "actionBefore": "",
      "actionWhile": "",
      "actionAfter": "",
      "optionIcon": "",
      "iconPath": ""
    },
    {
      "id": 1910502104,
      "nextDialogs": [
        1910502105
      ],
      "talkRole": {
        "type": "TALK_ROLE_NPC",
        "_id": "153701"
      },
      "talkContentTextMapHash": 1494397165,
      "talkAssetPath": "",
      "talkAssetPathAlter": "",
      "talkAudioName": "",
      "actionBefore": "",
      "actionWhile": "",
      "actionAfter": "",
      "optionIcon": "",
      "iconPath": ""
    },
    {
      "id": 1910502105,
      "nextDialogs": [
        1910502106
      ],
      "talkRole": {
        "type": "TALK_ROLE_NPC",
        "_id": "153901"
      },
      "talkContentTextMapHash": 1310800565,
      "talkAssetPath": "",
      "talkAssetPathAlter": "",
      "talkAudioName": "",
      "actionBefore": "",
      "actionWhile": "",
      "actionAfter": "",
      "optionIcon": "",
      "iconPath": ""
    },
    {
      "id": 1910502106,
      "nextDialogs": [
        1910502107
      ],
      "talkRole": {
        "type": "TALK_ROLE_NPC",
        "_id": "153901"
      },
      "talkContentTextMapHash": 3964021365,
      "talkAssetPath": "",
      "talkAssetPathAlter": "",
      "talkAudioName": "",
      "actionBefore": "",
      "actionWhile": "",
      "actionAfter": "",
      "optionIcon": "",
      "iconPath": ""
    },
    {
      "id": 1910502107,
      "nextDialogs": [
        1910502108
      ],
      "talkRole": {
        "type": "TALK_ROLE_NPC",
        "_id": "153901"
      },
      "talkContentTextMapHash": 4294252397,
      "talkAssetPath": "",
      "talkAssetPathAlter": "",
      "talkAudioName": "",
      "actionBefore": "",
      "actionWhile": "",
      "actionAfter": "",
      "optionIcon": "",
      "iconPath": ""
    },
    {
      "id": 1910502108,
      "nextDialogs": [
        1910502109
      ],
      "talkRole": {
        "type": "TALK_ROLE_NPC",
        "_id": "502"
      },
      "talkContentTextMapHash": 2151799101,
      "talkAssetPath": "",
      "talkAssetPathAlter": "",
      "talkAudioName": "",
      "actionBefore": "",
      "actionWhile": "",
      "actionAfter": "",
      "optionIcon": "",
      "iconPath": ""
    },
    {
      "id": 1910502109,
      "nextDialogs": [
        1910502110
      ],
      "talkShowType": "TALK_SHOW_FORCE_SELECT",
      "talkRole": {
        "type": "TALK_ROLE_PLAYER",
        "_id": ""
      },
      "talkContentTextMapHash": 1800260661,
      "talkAssetPath": "",
      "talkAssetPathAlter": "",
      "talkAudioName": "",
      "actionBefore": "",
      "actionWhile": "",
      "actionAfter": "",
      "optionIcon": "",
      "iconPath": ""
    },
    {
      "id": 1910502110,
      "nextDialogs": [
        1910502111
      ],
      "talkRole": {
        "type": "TALK_ROLE_NPC",
        "_id": "502"
      },
      "talkContentTextMapHash": 1781234989,
      "talkAssetPath": "",
      "talkAssetPathAlter": "",
      "talkAudioName": "",
      "actionBefore": "",
      "actionWhile": "",
      "actionAfter": "",
      "optionIcon": "",
      "iconPath": ""
    },
    {
      "id": 1910502111,
      "nextDialogs": [
        1910502112
      ],
      "talkRole": {
        "type": "TALK_ROLE_NPC",
        "_id": "502"
      },
      "talkContentTextMapHash": 3683430421,
      "talkAssetPath": "",
      "talkAssetPathAlter": "",
      "talkAudioName": "",
      "actionBefore": "",
      "actionWhile": "",
      "actionAfter": "",
      "optionIcon": "",
      "iconPath": ""
    },
    {
      "id": 1910502112,
      "nextDialogs": [
        1910502113
      ],
      "talkRole": {
        "type": "TALK_ROLE_NPC",
        "_id": "502"
      },
      "talkContentTextMapHash": 863280445,
      "talkAssetPath": "",
      "talkAssetPathAlter": "",
      "talkAudioName": "",
      "actionBefore": "",
      "actionWhile": "",
      "actionAfter": "",
      "optionIcon": "",
      "iconPath": ""
    },
    {
      "id": 1910502113,
      "nextDialogs": [
        1910502114
      ],
      "talkRole": {
        "type": "TALK_ROLE_NPC",
        "_id": "502"
      },
      "talkContentTextMapHash": 2823415205,
      "talkAssetPath": "",
      "talkAssetPathAlter": "",
      "talkAudioName": "",
      "actionBefore": "",
      "actionWhile": "",
      "actionAfter": "",
      "optionIcon": "",
      "iconPath": ""
    },
    {
      "id": 1910502114,
      "nextDialogs": [
        1910502115
      ],
      "talkRole": {
        "type": "TALK_ROLE_NPC",
        "_id": "502"
      },
      "talkContentTextMapHash": 3726833333,
      "talkAssetPath": "",
      "talkAssetPathAlter": "",
      "talkAudioName": "",
      "actionBefore": "",
      "actionWhile": "",
      "actionAfter": "",
      "optionIcon": "",
      "iconPath": ""
    },
    {
      "id": 1910502115,
      "nextDialogs": [
        0
      ],
      "talkRole": {
        "type": "TALK_ROLE_NPC",
        "_id": "502"
      },
      "talkContentTextMapHash": 849592997,
      "talkAssetPath": "",
      "talkAssetPathAlter": "",
      "talkAudioName": "",
      "actionBefore": "",
      "actionWhile": "",
      "actionAfter": "",
      "optionIcon": "",
      "iconPath": ""
    }
  ]
}