{
  "talkId": 25,
  "KPGKDHAFHFE": "COOP",
  "dialogList": [
    {
      "id": 1910201101,
      "nextDialogs": [
        1910201102
      ],
      "talkRole": {
        "type": "TALK_ROLE_NPC",
        "_id": "502"
      },
      "talkContentTextMapHash": 2146037605,
      "talkAssetPath": "",
      "talkAssetPathAlter": "",
      "talkAudioName": "",
      "actionBefore": "",
      "actionWhile": "",
      "actionAfter": "",
      "optionIcon": "",
      "iconPath": ""
    },
    {
      "id": 1910201102,
      "nextDialogs": [
        1910201103
      ],
      "talkShowType": "TALK_SHOW_FORCE_SELECT",
      "talkRole": {
        "type": "TALK_ROLE_PLAYER",
        "_id": ""
      },
      "talkContentTextMapHash": 3494920613,
      "talkAssetPath": "",
      "talkAssetPathAlter": "",
      "talkAudioName": "",
      "actionBefore": "",
      "actionWhile": "",
      "actionAfter": "",
      "optionIcon": "",
      "iconPath": ""
    },
    {
      "id": 1910201103,
      "nextDialogs": [
        1910201104
      ],
      "talkRole": {
        "type": "TALK_ROLE_NPC",
        "_id": "502"
      },
      "talkContentTextMapHash": 4285996829,
      "talkAssetPath": "",
      "talkAssetPathAlter": "",
      "talkAudioName": "",
      "actionBefore": "",
      "actionWhile": "",
      "actionAfter": "",
      "optionIcon": "",
      "iconPath": ""
    },
    {
      "id": 1910201104,
      "nextDialogs": [
        1910201105
      ],
      "talkRole": {
        "type": "TALK_ROLE_NPC",
        "_id": "502"
      },
      "talkContentTextMapHash": 374474901,
      "talkAssetPath": "",
      "talkAssetPathAlter": "",
      "talkAudioName": "",
      "actionBefore": "",
      "actionWhile": "",
      "actionAfter": "",
      "optionIcon": "",
      "iconPath": ""
    },
    {
      "id": 1910201105,
      "nextDialogs": [
        1910201106
      ],
      "talkRole": {
        "type": "TALK_ROLE_NPC",
        "_id": "502"
      },
      "talkContentTextMapHash": 4015364597,
      "talkAssetPath": "",
      "talkAssetPathAlter": "",
      "talkAudioName": "",
      "actionBefore": "",
      "actionWhile": "",
      "actionAfter": "",
      "optionIcon": "",
      "iconPath": ""
    },
    {
      "id": 1910201106,
      "nextDialogs": [
        1910201107
      ],
      "talkShowType": "TALK_SHOW_FORCE_SELECT",
      "talkRole": {
        "type": "TALK_ROLE_PLAYER",
        "_id": ""
      },
      "talkContentTextMapHash": 2416767205,
      "talkAssetPath": "",
      "talkAssetPathAlter": "",
      "talkAudioName": "",
      "actionBefore": "",
      "actionWhile": "",
      "actionAfter": "",
      "optionIcon": "",
      "iconPath": ""
    },
    {
      "id": 1910201107,
      "nextDialogs": [
        1910201108
      ],
      "talkRole": {
        "type": "TALK_ROLE_NPC",
        "_id": "502"
      },
      "talkContentTextMapHash": 2320798973,
      "talkAssetPath": "",
      "talkAssetPathAlter": "",
      "talkAudioName": "",
      "actionBefore": "",
      "actionWhile": "",
      "actionAfter": "",
      "optionIcon": "",
      "iconPath": ""
    },
    {
      "id": 1910201108,
      "nextDialogs": [
        0
      ],
      "talkRole": {
        "type": "TALK_ROLE_NPC",
        "_id": "502"
      },
      "talkContentTextMapHash": 544936261,
      "talkAssetPath": "",
      "talkAssetPathAlter": "",
      "talkAudioName": "",
      "actionBefore": "",
      "actionWhile": "",
      "actionAfter": "",
      "optionIcon": "",
      "iconPath": ""
    }
  ]
}