{
  "talkId": 90,
  "KPGKDHAFHFE": "COOP",
  "dialogList": [
    {
      "id": 1910401101,
      "nextDialogs": [
        1910401102
      ],
      "talkRole": {
        "type": "TALK_ROLE_NPC",
        "_id": "502"
      },
      "talkContentTextMapHash": 1767278285,
      "talkAssetPath": "",
      "talkAssetPathAlter": "",
      "talkAudioName": "",
      "actionBefore": "",
      "actionWhile": "",
      "actionAfter": "",
      "optionIcon": "",
      "iconPath": ""
    },
    {
      "id": 1910401102,
      "nextDialogs": [
        0
      ],
      "talkRole": {
        "type": "TALK_ROLE_NPC",
        "_id": "502"
      },
      "talkContentTextMapHash": 520151069,
      "talkAssetPath": "",
      "talkAssetPathAlter": "",
      "talkAudioName": "",
      "actionBefore": "",
      "actionWhile": "",
      "actionAfter": "",
      "optionIcon": "",
      "iconPath": ""
    }
  ]
}