{
  "talkId": 212,
  "KPGKDHAFHFE": "COOP",
  "dialogList": [
    {
      "id": 1910702701,
      "nextDialogs": [
        0
      ],
      "talkRole": {
        "type": "TALK_ROLE_NPC",
        "_id": "10806"
      },
      "talkContentTextMapHash": 1416061533,
      "talkAssetPath": "",
      "talkAssetPathAlter": "",
      "talkAudioName": "",
      "actionBefore": "",
      "actionWhile": "",
      "actionAfter": "",
      "optionIcon": "",
      "iconPath": ""
    }
  ]
}