{
  "talkId": 159,
  "KPGKDHAFHFE": "COOP",
  "dialogList": [
    {
      "id": 1910204501,
      "nextDialogs": [
        1910204502
      ],
      "talkRole": {
        "type": "TALK_ROLE_NPC",
        "_id": "502"
      },
      "talkContentTextMapHash": 4290357245,
      "talkAssetPath": "",
      "talkAssetPathAlter": "",
      "talkAudioName": "",
      "actionBefore": "",
      "actionWhile": "",
      "actionAfter": "",
      "optionIcon": "",
      "iconPath": ""
    },
    {
      "id": 1910204502,
      "nextDialogs": [
        1910204503
      ],
      "talkRole": {
        "type": "TALK_ROLE_NPC",
        "_id": "10803"
      },
      "talkContentTextMapHash": 2896751805,
      "talkAssetPath": "",
      "talkAssetPathAlter": "",
      "talkAudioName": "",
      "actionBefore": "",
      "actionWhile": "",
      "actionAfter": "",
      "optionIcon": "",
      "iconPath": ""
    },
    {
      "id": 1910204503,
      "nextDialogs": [
        0
      ],
      "talkRole": {
        "type": "TALK_ROLE_NPC",
        "_id": "502"
      },
      "talkContentTextMapHash": 1482186229,
      "talkAssetPath": "",
      "talkAssetPathAlter": "",
      "talkAudioName": "",
      "actionBefore": "",
      "actionWhile": "",
      "actionAfter": "",
      "optionIcon": "",
      "iconPath": ""
    }
  ]
}