{
  "talkId": 102,
  "KPGKDHAFHFE": "COOP",
  "dialogList": [
    {
      "id": 191130301,
      "nextDialogs": [
        191130302
      ],
      "talkRole": {
        "type": "TALK_ROLE_NPC",
        "_id": "503"
      },
      "talkContentTextMapHash": 4245916458,
      "talkAssetPath": "",
      "talkAssetPathAlter": "",
      "talkAudioName": "",
      "actionBefore": "",
      "actionWhile": "",
      "actionAfter": "",
      "optionIcon": "",
      "iconPath": ""
    },
    {
      "id": 191130302,
      "nextDialogs": [
        191130303
      ],
      "talkRole": {
        "type": "TALK_ROLE_NPC",
        "_id": "503"
      },
      "talkContentTextMapHash": 1699668482,
      "talkAssetPath": "",
      "talkAssetPathAlter": "",
      "talkAudioName": "",
      "actionBefore": "",
      "actionWhile": "",
      "actionAfter": "",
      "optionIcon": "",
      "iconPath": ""
    },
    {
      "id": 191130303,
      "talkRole": {
        "type": "TALK_ROLE_NPC",
        "_id": "503"
      },
      "talkContentTextMapHash": 1078608634,
      "talkAssetPath": "",
      "talkAssetPathAlter": "",
      "talkAudioName": "",
      "actionBefore": "",
      "actionWhile": "",
      "actionAfter": "",
      "optionIcon": "",
      "iconPath": ""
    }
  ]
}