{
  "talkId": 225,
  "KPGKDHAFHFE": "COOP",
  "dialogList": [
    {
      "id": 191211001,
      "nextDialogs": [
        191211002
      ],
      "talkRole": {
        "type": "TALK_ROLE_NPC",
        "_id": "503"
      },
      "talkContentTextMapHash": 192231194,
      "talkAssetPath": "",
      "talkAssetPathAlter": "",
      "talkAudioName": "",
      "actionBefore": "",
      "actionWhile": "",
      "actionAfter": "",
      "optionIcon": "",
      "iconPath": ""
    },
    {
      "id": 191211002,
      "nextDialogs": [
        191211003
      ],
      "talkRole": {
        "type": "TALK_ROLE_NPC",
        "_id": "503"
      },
      "talkContentTextMapHash": 3886833818,
      "talkAssetPath": "",
      "talkAssetPathAlter": "",
      "talkAudioName": "",
      "actionBefore": "",
      "actionWhile": "",
      "actionAfter": "",
      "optionIcon": "",
      "iconPath": ""
    },
    {
      "id": 191211003,
      "nextDialogs": [
        191211004
      ],
      "talkShowType": "TALK_SHOW_FORCE_SELECT",
      "talkRole": {
        "type": "TALK_ROLE_PLAYER",
        "_id": ""
      },
      "talkContentTextMapHash": 962905466,
      "talkAssetPath": "",
      "talkAssetPathAlter": "",
      "talkAudioName": "",
      "actionBefore": "",
      "actionWhile": "",
      "actionAfter": "",
      "optionIcon": "",
      "iconPath": ""
    },
    {
      "id": 191211004,
      "nextDialogs": [
        191211005
      ],
      "talkRole": {
        "type": "TALK_ROLE_NPC",
        "_id": "503"
      },
      "talkContentTextMapHash": 1046136378,
      "talkAssetPath": "",
      "talkAssetPathAlter": "",
      "talkAudioName": "",
      "actionBefore": "",
      "actionWhile": "",
      "actionAfter": "",
      "optionIcon": "",
      "iconPath": ""
    },
    {
      "id": 191211005,
      "nextDialogs": [
        191211006
      ],
      "talkRole": {
        "type": "TALK_ROLE_NPC",
        "_id": "503"
      },
      "talkContentTextMapHash": 3312176306,
      "talkAssetPath": "",
      "talkAssetPathAlter": "",
      "talkAudioName": "",
      "actionBefore": "",
      "actionWhile": "",
      "actionAfter": "",
      "optionIcon": "",
      "iconPath": ""
    },
    {
      "id": 191211006,
      "nextDialogs": [
        191211007,
        191211010
      ],
      "talkRole": {
        "type": "TALK_ROLE_NPC",
        "_id": "503"
      },
      "talkContentTextMapHash": 2713513842,
      "talkAssetPath": "",
      "talkAssetPathAlter": "",
      "talkAudioName": "",
      "actionBefore": "",
      "actionWhile": "",
      "actionAfter": "",
      "optionIcon": "",
      "iconPath": ""
    },
    {
      "id": 191211007,
      "nextDialogs": [
        191211008
      ],
      "talkShowType": "TALK_SHOW_FORCE_SELECT",
      "talkRole": {
        "type": "TALK_ROLE_PLAYER",
        "_id": ""
      },
      "talkContentTextMapHash": 438218754,
      "talkAssetPath": "",
      "talkAssetPathAlter": "",
      "talkAudioName": "",
      "actionBefore": "",
      "actionWhile": "",
      "actionAfter": "",
      "optionIcon": "",
      "iconPath": ""
    },
    {
      "id": 191211008,
      "nextDialogs": [
        191211009
      ],
      "talkRole": {
        "type": "TALK_ROLE_NPC",
        "_id": "503"
      },
      "talkContentTextMapHash": 558008386,
      "talkAssetPath": "",
      "talkAssetPathAlter": "",
      "talkAudioName": "",
      "actionBefore": "",
      "actionWhile": "",
      "actionAfter": "",
      "optionIcon": "",
      "iconPath": ""
    },
    {
      "id": 191211009,
      "nextDialogs": [
        191211013
      ],
      "talkRole": {
        "type": "TALK_ROLE_NPC",
        "_id": "503"
      },
      "talkContentTextMapHash": 2402686778,
      "talkAssetPath": "",
      "talkAssetPathAlter": "",
      "talkAudioName": "",
      "actionBefore": "",
      "actionWhile": "",
      "actionAfter": "",
      "optionIcon": "",
      "iconPath": ""
    },
    {
      "id": 191211010,
      "nextDialogs": [
        191211011
      ],
      "talkShowType": "TALK_SHOW_FORCE_SELECT",
      "talkRole": {
        "type": "TALK_ROLE_PLAYER",
        "_id": ""
      },
      "talkContentTextMapHash": 2014776042,
      "talkAssetPath": "",
      "talkAssetPathAlter": "",
      "talkAudioName": "",
      "actionBefore": "",
      "actionWhile": "",
      "actionAfter": "",
      "optionIcon": "",
      "iconPath": ""
    },
    {
      "id": 191211011,
      "nextDialogs": [
        191211012
      ],
      "talkRole": {
        "type": "TALK_ROLE_NPC",
        "_id": "503"
      },
      "talkContentTextMapHash": 922508834,
      "talkAssetPath": "",
      "talkAssetPathAlter": "",
      "talkAudioName": "",
      "actionBefore": "",
      "actionWhile": "",
      "actionAfter": "",
      "optionIcon": "",
      "iconPath": ""
    },
    {
      "id": 191211012,
      "nextDialogs": [
        191211013
      ],
      "talkRole": {
        "type": "TALK_ROLE_NPC",
        "_id": "503"
      },
      "talkContentTextMapHash": 3087921546,
      "talkAssetPath": "",
      "talkAssetPathAlter": "",
      "talkAudioName": "",
      "actionBefore": "",
      "actionWhile": "",
      "actionAfter": "",
      "optionIcon": "",
      "iconPath": ""
    },
    {
      "id": 191211013,
      "nextDialogs": [
        191211014
      ],
      "talkRole": {
        "type": "TALK_ROLE_NPC",
        "_id": "503"
      },
      "talkContentTextMapHash": 2371155074,
      "talkAssetPath": "",
      "talkAssetPathAlter": "",
      "talkAudioName": "",
      "actionBefore": "",
      "actionWhile": "",
      "actionAfter": "",
      "optionIcon": "",
      "iconPath": ""
    },
    {
      "id": 191211014,
      "talkRole": {
        "type": "TALK_ROLE_NPC",
        "_id": "503"
      },
      "talkContentTextMapHash": 4268812554,
      "talkAssetPath": "",
      "talkAssetPathAlter": "",
      "talkAudioName": "",
      "actionBefore": "",
      "actionWhile": "",
      "actionAfter": "",
      "optionIcon": "",
      "iconPath": ""
    }
  ]
}