{
  "talkId": 15,
  "KPGKDHAFHFE": "COOP",
  "dialogList": [
    {
      "id": 191320101,
      "nextDialogs": [
        191320102,
        191320104,
        191320106
      ],
      "talkRole": {
        "type": "TALK_ROLE_NPC",
        "_id": "507"
      },
      "talkContentTextMapHash": 153732882,
      "talkAssetPath": "",
      "talkAssetPathAlter": "",
      "talkAudioName": "",
      "actionBefore": "",
      "actionWhile": "",
      "actionAfter": "",
      "optionIcon": "",
      "iconPath": ""
    },
    {
      "id": 191320102,
      "nextDialogs": [
        191320103
      ],
      "talkShowType": "TALK_SHOW_FORCE_SELECT",
      "talkRole": {
        "type": "TALK_ROLE_PLAYER",
        "_id": ""
      },
      "talkContentTextMapHash": 986484842,
      "talkAssetPath": "",
      "talkAssetPathAlter": "",
      "talkAudioName": "",
      "actionBefore": "",
      "actionWhile": "",
      "actionAfter": "",
      "optionIcon": "",
      "iconPath": ""
    },
    {
      "id": 191320103,
      "nextDialogs": [
        191320108
      ],
      "talkRole": {
        "type": "TALK_ROLE_NPC",
        "_id": "507"
      },
      "talkContentTextMapHash": 3906661234,
      "talkAssetPath": "",
      "talkAssetPathAlter": "",
      "talkAudioName": "",
      "actionBefore": "",
      "actionWhile": "",
      "actionAfter": "",
      "optionIcon": "",
      "iconPath": ""
    },
    {
      "id": 191320104,
      "nextDialogs": [
        191320105
      ],
      "talkShowType": "TALK_SHOW_FORCE_SELECT",
      "talkRole": {
        "type": "TALK_ROLE_PLAYER",
        "_id": ""
      },
      "talkContentTextMapHash": 3172897322,
      "talkAssetPath": "",
      "talkAssetPathAlter": "",
      "talkAudioName": "",
      "actionBefore": "",
      "actionWhile": "",
      "actionAfter": "",
      "optionIcon": "",
      "iconPath": ""
    },
    {
      "id": 191320105,
      "nextDialogs": [
        191320108
      ],
      "talkRole": {
        "type": "TALK_ROLE_NPC",
        "_id": "507"
      },
      "talkContentTextMapHash": 2940551562,
      "talkAssetPath": "",
      "talkAssetPathAlter": "",
      "talkAudioName": "",
      "actionBefore": "",
      "actionWhile": "",
      "actionAfter": "",
      "optionIcon": "",
      "iconPath": ""
    },
    {
      "id": 191320106,
      "nextDialogs": [
        191320107
      ],
      "talkShowType": "TALK_SHOW_FORCE_SELECT",
      "talkRole": {
        "type": "TALK_ROLE_PLAYER",
        "_id": ""
      },
      "talkContentTextMapHash": 2960913506,
      "talkAssetPath": "",
      "talkAssetPathAlter": "",
      "talkAudioName": "",
      "actionBefore": "",
      "actionWhile": "",
      "actionAfter": "",
      "optionIcon": "",
      "iconPath": ""
    },
    {
      "id": 191320107,
      "nextDialogs": [
        191320108
      ],
      "talkRole": {
        "type": "TALK_ROLE_NPC",
        "_id": "507"
      },
      "talkContentTextMapHash": 1573860474,
      "talkAssetPath": "",
      "talkAssetPathAlter": "",
      "talkAudioName": "",
      "actionBefore": "",
      "actionWhile": "",
      "actionAfter": "",
      "optionIcon": "",
      "iconPath": ""
    },
    {
      "id": 191320108,
      "nextDialogs": [
        191320109
      ],
      "talkRole": {
        "type": "TALK_ROLE_NPC",
        "_id": "507"
      },
      "talkContentTextMapHash": 381735906,
      "talkAssetPath": "",
      "talkAssetPathAlter": "",
      "talkAudioName": "",
      "actionBefore": "",
      "actionWhile": "",
      "actionAfter": "",
      "optionIcon": "",
      "iconPath": ""
    },
    {
      "id": 191320109,
      "nextDialogs": [
        191320110
      ],
      "talkRole": {
        "type": "TALK_ROLE_NPC",
        "_id": "507"
      },
      "talkContentTextMapHash": 3793497018,
      "talkAssetPath": "",
      "talkAssetPathAlter": "",
      "talkAudioName": "",
      "actionBefore": "",
      "actionWhile": "",
      "actionAfter": "",
      "optionIcon": "",
      "iconPath": ""
    },
    {
      "id": 191320110,
      "nextDialogs": [
        191320111
      ],
      "talkRole": {
        "type": "TALK_ROLE_NPC",
        "_id": "507"
      },
      "talkContentTextMapHash": 3809760554,
      "talkAssetPath": "",
      "talkAssetPathAlter": "",
      "talkAudioName": "",
      "actionBefore": "",
      "actionWhile": "",
      "actionAfter": "",
      "optionIcon": "",
      "iconPath": ""
    },
    {
      "id": 191320111,
      "nextDialogs": [
        191320112
      ],
      "talkShowType": "TALK_SHOW_FORCE_SELECT",
      "talkRole": {
        "type": "TALK_ROLE_PLAYER",
        "_id": ""
      },
      "talkContentTextMapHash": 2947582626,
      "talkAssetPath": "",
      "talkAssetPathAlter": "",
      "talkAudioName": "",
      "actionBefore": "",
      "actionWhile": "",
      "actionAfter": "",
      "optionIcon": "",
      "iconPath": ""
    },
    {
      "id": 191320112,
      "nextDialogs": [
        191320113
      ],
      "talkRole": {
        "type": "TALK_ROLE_NPC",
        "_id": "507"
      },
      "talkContentTextMapHash": 2712575226,
      "talkAssetPath": "",
      "talkAssetPathAlter": "",
      "talkAudioName": "",
      "actionBefore": "",
      "actionWhile": "",
      "actionAfter": "",
      "optionIcon": "",
      "iconPath": ""
    },
    {
      "id": 191320113,
      "nextDialogs": [
        191320114
      ],
      "talkShowType": "TALK_SHOW_FORCE_SELECT",
      "talkRole": {
        "type": "TALK_ROLE_PLAYER",
        "_id": ""
      },
      "talkContentTextMapHash": 452208010,
      "talkAssetPath": "",
      "talkAssetPathAlter": "",
      "talkAudioName": "",
      "actionBefore": "",
      "actionWhile": "",
      "actionAfter": "",
      "optionIcon": "",
      "iconPath": ""
    },
    {
      "id": 191320114,
      "nextDialogs": [
        191320115
      ],
      "talkRole": {
        "type": "TALK_ROLE_NPC",
        "_id": "507"
      },
      "talkContentTextMapHash": 544638938,
      "talkAssetPath": "",
      "talkAssetPathAlter": "",
      "talkAudioName": "",
      "actionBefore": "",
      "actionWhile": "",
      "actionAfter": "",
      "optionIcon": "",
      "iconPath": ""
    },
    {
      "id": 191320115,
      "nextDialogs": [
        191320116
      ],
      "talkRole": {
        "type": "TALK_ROLE_NPC",
        "_id": "507"
      },
      "talkContentTextMapHash": 2474699746,
      "talkAssetPath": "",
      "talkAssetPathAlter": "",
      "talkAudioName": "",
      "actionBefore": "",
      "actionWhile": "",
      "actionAfter": "",
      "optionIcon": "",
      "iconPath": ""
    },
    {
      "id": 191320116,
      "nextDialogs": [
        191320117
      ],
      "talkShowType": "TALK_SHOW_FORCE_SELECT",
      "talkRole": {
        "type": "TALK_ROLE_PLAYER",
        "_id": ""
      },
      "talkContentTextMapHash": 2515953114,
      "talkAssetPath": "",
      "talkAssetPathAlter": "",
      "talkAudioName": "",
      "actionBefore": "",
      "actionWhile": "",
      "actionAfter": "",
      "optionIcon": "",
      "iconPath": ""
    },
    {
      "id": 191320117,
      "nextDialogs": [
        191320118
      ],
      "talkRole": {
        "type": "TALK_ROLE_NPC",
        "_id": "507"
      },
      "talkContentTextMapHash": 4151304338,
      "talkAssetPath": "",
      "talkAssetPathAlter": "",
      "talkAudioName": "",
      "actionBefore": "",
      "actionWhile": "",
      "actionAfter": "",
      "optionIcon": "",
      "iconPath": ""
    },
    {
      "id": 191320118,
      "nextDialogs": [
        191320119
      ],
      "talkRole": {
        "type": "TALK_ROLE_NPC",
        "_id": "507"
      },
      "talkContentTextMapHash": 49720162,
      "talkAssetPath": "",
      "talkAssetPathAlter": "",
      "talkAudioName": "",
      "actionBefore": "",
      "actionWhile": "",
      "actionAfter": "",
      "optionIcon": "",
      "iconPath": ""
    },
    {
      "id": 191320119,
      "nextDialogs": [
        191320120
      ],
      "talkRole": {
        "type": "TALK_ROLE_NPC",
        "_id": "507"
      },
      "talkContentTextMapHash": 2448250122,
      "talkAssetPath": "",
      "talkAssetPathAlter": "",
      "talkAudioName": "",
      "actionBefore": "",
      "actionWhile": "",
      "actionAfter": "",
      "optionIcon": "",
      "iconPath": ""
    },
    {
      "id": 191320120,
      "nextDialogs": [
        191320121
      ],
      "talkRole": {
        "type": "TALK_ROLE_NPC",
        "_id": "507"
      },
      "talkContentTextMapHash": 3417526866,
      "talkAssetPath": "",
      "talkAssetPathAlter": "",
      "talkAudioName": "",
      "actionBefore": "",
      "actionWhile": "",
      "actionAfter": "",
      "optionIcon": "",
      "iconPath": ""
    },
    {
      "id": 191320121,
      "nextDialogs": [
        191320122
      ],
      "talkShowType": "TALK_SHOW_FORCE_SELECT",
      "talkRole": {
        "type": "TALK_ROLE_PLAYER",
        "_id": ""
      },
      "talkContentTextMapHash": 2648755506,
      "talkAssetPath": "",
      "talkAssetPathAlter": "",
      "talkAudioName": "",
      "actionBefore": "",
      "actionWhile": "",
      "actionAfter": "",
      "optionIcon": "",
      "iconPath": ""
    },
    {
      "id": 191320122,
      "nextDialogs": [
        191320123
      ],
      "talkRole": {
        "type": "TALK_ROLE_NPC",
        "_id": "507"
      },
      "talkContentTextMapHash": 454308962,
      "talkAssetPath": "",
      "talkAssetPathAlter": "",
      "talkAudioName": "",
      "actionBefore": "",
      "actionWhile": "",
      "actionAfter": "",
      "optionIcon": "",
      "iconPath": ""
    },
    {
      "id": 191320123,
      "nextDialogs": [
        191320124
      ],
      "talkRole": {
        "type": "TALK_ROLE_NPC",
        "_id": "507"
      },
      "talkContentTextMapHash": 70415138,
      "talkAssetPath": "",
      "talkAssetPathAlter": "",
      "talkAudioName": "",
      "actionBefore": "",
      "actionWhile": "",
      "actionAfter": "",
      "optionIcon": "",
      "iconPath": ""
    },
    {
      "id": 191320124,
      "nextDialogs": [
        191320125
      ],
      "talkRole": {
        "type": "TALK_ROLE_NPC",
        "_id": "507"
      },
      "talkContentTextMapHash": 2067354522,
      "talkAssetPath": "",
      "talkAssetPathAlter": "",
      "talkAudioName": "",
      "actionBefore": "",
      "actionWhile": "",
      "actionAfter": "",
      "optionIcon": "",
      "iconPath": ""
    },
    {
      "id": 191320125,
      "nextDialogs": [
        191320126
      ],
      "talkShowType": "TALK_SHOW_FORCE_SELECT",
      "talkRole": {
        "type": "TALK_ROLE_PLAYER",
        "_id": ""
      },
      "talkContentTextMapHash": 2356859994,
      "talkAssetPath": "",
      "talkAssetPathAlter": "",
      "talkAudioName": "",
      "actionBefore": "",
      "actionWhile": "",
      "actionAfter": "",
      "optionIcon": "",
      "iconPath": ""
    },
    {
      "id": 191320126,
      "nextDialogs": [
        191320127
      ],
      "talkRole": {
        "type": "TALK_ROLE_NPC",
        "_id": "507"
      },
      "talkContentTextMapHash": 2360078794,
      "talkAssetPath": "",
      "talkAssetPathAlter": "",
      "talkAudioName": "",
      "actionBefore": "",
      "actionWhile": "",
      "actionAfter": "",
      "optionIcon": "",
      "iconPath": ""
    },
    {
      "id": 191320127,
      "nextDialogs": [
        191320128,
        191320129
      ],
      "talkRole": {
        "type": "TALK_ROLE_NPC",
        "_id": "507"
      },
      "talkContentTextMapHash": 3755089554,
      "talkAssetPath": "",
      "talkAssetPathAlter": "",
      "talkAudioName": "",
      "actionBefore": "",
      "actionWhile": "",
      "actionAfter": "",
      "optionIcon": "",
      "iconPath": ""
    },
    {
      "id": 191320128,
      "nextDialogs": [
        191320130
      ],
      "talkShowType": "TALK_SHOW_FORCE_SELECT",
      "talkRole": {
        "type": "TALK_ROLE_PLAYER",
        "_id": ""
      },
      "talkContentTextMapHash": 3609878410,
      "talkAssetPath": "",
      "talkAssetPathAlter": "",
      "talkAudioName": "",
      "actionBefore": "",
      "actionWhile": "",
      "actionAfter": "",
      "optionIcon": "",
      "iconPath": ""
    },
    {
      "id": 191320129,
      "nextDialogs": [
        191320130
      ],
      "talkShowType": "TALK_SHOW_FORCE_SELECT",
      "talkRole": {
        "type": "TALK_ROLE_PLAYER",
        "_id": ""
      },
      "talkContentTextMapHash": 300222818,
      "talkAssetPath": "",
      "talkAssetPathAlter": "",
      "talkAudioName": "",
      "actionBefore": "",
      "actionWhile": "",
      "actionAfter": "",
      "optionIcon": "",
      "iconPath": ""
    },
    {
      "id": 191320130,
      "talkRole": {
        "type": "TALK_ROLE_NPC",
        "_id": "507"
      },
      "talkContentTextMapHash": 4096178034,
      "talkAssetPath": "",
      "talkAssetPathAlter": "",
      "talkAudioName": "",
      "actionBefore": "",
      "actionWhile": "",
      "actionAfter": "",
      "optionIcon": "",
      "iconPath": ""
    }
  ]
}