{
  "talkId": 35,
  "KPGKDHAFHFE": "COOP",
  "dialogList": [
    {
      "id": 191330101,
      "nextDialogs": [
        191330102
      ],
      "talkRole": {
        "type": "TALK_ROLE_NPC",
        "_id": "508"
      },
      "talkContentTextMapHash": 2867170570,
      "talkRoleNameTextMapHash": 1287835963,
      "talkAssetPath": "",
      "talkAssetPathAlter": "",
      "talkAudioName": "",
      "actionBefore": "",
      "actionWhile": "",
      "actionAfter": "",
      "optionIcon": "",
      "iconPath": ""
    },
    {
      "id": 191330102,
      "nextDialogs": [
        191330103
      ],
      "talkRole": {
        "type": "TALK_ROLE_NPC",
        "_id": "2020"
      },
      "talkContentTextMapHash": 4002673282,
      "talkAssetPath": "",
      "talkAssetPathAlter": "",
      "talkAudioName": "",
      "actionBefore": "",
      "actionWhile": "",
      "actionAfter": "",
      "optionIcon": "",
      "iconPath": ""
    },
    {
      "id": 191330103,
      "nextDialogs": [
        191330104
      ],
      "talkRole": {
        "type": "TALK_ROLE_NPC",
        "_id": "508"
      },
      "talkContentTextMapHash": 366236994,
      "talkRoleNameTextMapHash": 2154377395,
      "talkAssetPath": "",
      "talkAssetPathAlter": "",
      "talkAudioName": "",
      "actionBefore": "",
      "actionWhile": "",
      "actionAfter": "",
      "optionIcon": "",
      "iconPath": ""
    },
    {
      "id": 191330104,
      "nextDialogs": [
        191330105
      ],
      "talkShowType": "TALK_SHOW_FORCE_SELECT",
      "talkRole": {
        "type": "TALK_ROLE_PLAYER",
        "_id": ""
      },
      "talkContentTextMapHash": 3991644050,
      "talkAssetPath": "",
      "talkAssetPathAlter": "",
      "talkAudioName": "",
      "actionBefore": "",
      "actionWhile": "",
      "actionAfter": "",
      "optionIcon": "",
      "iconPath": ""
    },
    {
      "id": 191330105,
      "nextDialogs": [
        191330106
      ],
      "talkRole": {
        "type": "TALK_ROLE_NPC",
        "_id": "508"
      },
      "talkContentTextMapHash": 1510886458,
      "talkRoleNameTextMapHash": 1212162683,
      "talkAssetPath": "",
      "talkAssetPathAlter": "",
      "talkAudioName": "",
      "actionBefore": "",
      "actionWhile": "",
      "actionAfter": "",
      "optionIcon": "",
      "iconPath": ""
    },
    {
      "id": 191330106,
      "nextDialogs": [
        191330107,
        191330108
      ],
      "talkRole": {
        "type": "TALK_ROLE_NPC",
        "_id": "508"
      },
      "talkContentTextMapHash": 709888514,
      "talkRoleNameTextMapHash": 3009092059,
      "talkAssetPath": "",
      "talkAssetPathAlter": "",
      "talkAudioName": "",
      "actionBefore": "",
      "actionWhile": "",
      "actionAfter": "",
      "optionIcon": "",
      "iconPath": ""
    },
    {
      "id": 191330107,
      "nextDialogs": [
        191330109
      ],
      "talkShowType": "TALK_SHOW_FORCE_SELECT",
      "talkRole": {
        "type": "TALK_ROLE_PLAYER",
        "_id": ""
      },
      "talkContentTextMapHash": 1456267634,
      "talkAssetPath": "",
      "talkAssetPathAlter": "",
      "talkAudioName": "",
      "actionBefore": "",
      "actionWhile": "",
      "actionAfter": "",
      "optionIcon": "",
      "iconPath": ""
    },
    {
      "id": 191330108,
      "nextDialogs": [
        191330109
      ],
      "talkShowType": "TALK_SHOW_FORCE_SELECT",
      "talkRole": {
        "type": "TALK_ROLE_PLAYER",
        "_id": ""
      },
      "talkContentTextMapHash": 1885886194,
      "talkAssetPath": "",
      "talkAssetPathAlter": "",
      "talkAudioName": "",
      "actionBefore": "",
      "actionWhile": "",
      "actionAfter": "",
      "optionIcon": "",
      "iconPath": ""
    },
    {
      "id": 191330109,
      "nextDialogs": [
        191330110
      ],
      "talkRole": {
        "type": "TALK_ROLE_NPC",
        "_id": "508"
      },
      "talkContentTextMapHash": 84395442,
      "talkRoleNameTextMapHash": 568625083,
      "talkAssetPath": "",
      "talkAssetPathAlter": "",
      "talkAudioName": "",
      "actionBefore": "",
      "actionWhile": "",
      "actionAfter": "",
      "optionIcon": "",
      "iconPath": ""
    },
    {
      "id": 191330110,
      "nextDialogs": [
        191330111
      ],
      "talkRole": {
        "type": "TALK_ROLE_NPC",
        "_id": "508"
      },
      "talkContentTextMapHash": 3707840186,
      "talkRoleNameTextMapHash": 2453754051,
      "talkAssetPath": "",
      "talkAssetPathAlter": "",
      "talkAudioName": "",
      "actionBefore": "",
      "actionWhile": "",
      "actionAfter": "",
      "optionIcon": "",
      "iconPath": ""
    },
    {
      "id": 191330111,
      "nextDialogs": [
        191330112
      ],
      "talkRole": {
        "type": "TALK_ROLE_NPC",
        "_id": "2020"
      },
      "talkContentTextMapHash": 345579738,
      "talkAssetPath": "",
      "talkAssetPathAlter": "",
      "talkAudioName": "",
      "actionBefore": "",
      "actionWhile": "",
      "actionAfter": "",
      "optionIcon": "",
      "iconPath": ""
    },
    {
      "id": 191330112,
      "nextDialogs": [
        191330113
      ],
      "talkRole": {
        "type": "TALK_ROLE_NPC",
        "_id": "2020"
      },
      "talkContentTextMapHash": 289131978,
      "talkAssetPath": "",
      "talkAssetPathAlter": "",
      "talkAudioName": "",
      "actionBefore": "",
      "actionWhile": "",
      "actionAfter": "",
      "optionIcon": "",
      "iconPath": ""
    },
    {
      "id": 191330113,
      "nextDialogs": [
        191330114
      ],
      "talkRole": {
        "type": "TALK_ROLE_NPC",
        "_id": "508"
      },
      "talkContentTextMapHash": 2519999250,
      "talkRoleNameTextMapHash": 756533475,
      "talkAssetPath": "",
      "talkAssetPathAlter": "",
      "talkAudioName": "",
      "actionBefore": "",
      "actionWhile": "",
      "actionAfter": "",
      "optionIcon": "",
      "iconPath": ""
    },
    {
      "id": 191330114,
      "nextDialogs": [
        191330115
      ],
      "talkShowType": "TALK_SHOW_FORCE_SELECT",
      "talkRole": {
        "type": "TALK_ROLE_PLAYER",
        "_id": ""
      },
      "talkContentTextMapHash": 3690408682,
      "talkAssetPath": "",
      "talkAssetPathAlter": "",
      "talkAudioName": "",
      "actionBefore": "",
      "actionWhile": "",
      "actionAfter": "",
      "optionIcon": "",
      "iconPath": ""
    },
    {
      "id": 191330115,
      "nextDialogs": [
        191330116
      ],
      "talkRole": {
        "type": "TALK_ROLE_NPC",
        "_id": "508"
      },
      "talkContentTextMapHash": 4274513130,
      "talkRoleNameTextMapHash": 221755675,
      "talkAssetPath": "",
      "talkAssetPathAlter": "",
      "talkAudioName": "",
      "actionBefore": "",
      "actionWhile": "",
      "actionAfter": "",
      "optionIcon": "",
      "iconPath": ""
    },
    {
      "id": 191330116,
      "nextDialogs": [
        191330117
      ],
      "talkRole": {
        "type": "TALK_ROLE_NPC",
        "_id": "508"
      },
      "talkContentTextMapHash": 118331706,
      "talkRoleNameTextMapHash": 2957927803,
      "talkAssetPath": "",
      "talkAssetPathAlter": "",
      "talkAudioName": "",
      "actionBefore": "",
      "actionWhile": "",
      "actionAfter": "",
      "optionIcon": "",
      "iconPath": ""
    },
    {
      "id": 191330117,
      "nextDialogs": [
        191330118
      ],
      "talkRole": {
        "type": "TALK_ROLE_NPC",
        "_id": "508"
      },
      "talkContentTextMapHash": 2821817762,
      "talkRoleNameTextMapHash": 2750815339,
      "talkAssetPath": "",
      "talkAssetPathAlter": "",
      "talkAudioName": "",
      "actionBefore": "",
      "actionWhile": "",
      "actionAfter": "",
      "optionIcon": "",
      "iconPath": ""
    },
    {
      "id": 191330118,
      "nextDialogs": [
        191330119
      ],
      "talkShowType": "TALK_SHOW_FORCE_SELECT",
      "talkRole": {
        "type": "TALK_ROLE_PLAYER",
        "_id": ""
      },
      "talkContentTextMapHash": 1948378066,
      "talkAssetPath": "",
      "talkAssetPathAlter": "",
      "talkAudioName": "",
      "actionBefore": "",
      "actionWhile": "",
      "actionAfter": "",
      "optionIcon": "",
      "iconPath": ""
    },
    {
      "id": 191330119,
      "nextDialogs": [
        191330120
      ],
      "talkRole": {
        "type": "TALK_ROLE_NPC",
        "_id": "508"
      },
      "talkContentTextMapHash": 2747386370,
      "talkRoleNameTextMapHash": 1533374707,
      "talkAssetPath": "",
      "talkAssetPathAlter": "",
      "talkAudioName": "",
      "actionBefore": "",
      "actionWhile": "",
      "actionAfter": "",
      "optionIcon": "",
      "iconPath": ""
    },
    {
      "id": 191330120,
      "nextDialogs": [
        191330121
      ],
      "talkRole": {
        "type": "TALK_ROLE_NPC",
        "_id": "508"
      },
      "talkContentTextMapHash": 285667650,
      "talkRoleNameTextMapHash": 2902293579,
      "talkAssetPath": "",
      "talkAssetPathAlter": "",
      "talkAudioName": "",
      "actionBefore": "",
      "actionWhile": "",
      "actionAfter": "",
      "optionIcon": "",
      "iconPath": ""
    },
    {
      "id": 191330121,
      "nextDialogs": [
        191330122
      ],
      "talkRole": {
        "type": "TALK_ROLE_NPC",
        "_id": "508"
      },
      "talkContentTextMapHash": 1000543522,
      "talkRoleNameTextMapHash": 88923539,
      "talkAssetPath": "",
      "talkAssetPathAlter": "",
      "talkAudioName": "",
      "actionBefore": "",
      "actionWhile": "",
      "actionAfter": "",
      "optionIcon": "",
      "iconPath": ""
    },
    {
      "id": 191330122,
      "nextDialogs": [
        191330123
      ],
      "talkRole": {
        "type": "TALK_ROLE_NPC",
        "_id": "508"
      },
      "talkContentTextMapHash": 947462594,
      "talkRoleNameTextMapHash": 3651942251,
      "talkAssetPath": "",
      "talkAssetPathAlter": "",
      "talkAudioName": "",
      "actionBefore": "",
      "actionWhile": "",
      "actionAfter": "",
      "optionIcon": "",
      "iconPath": ""
    },
    {
      "id": 191330123,
      "nextDialogs": [
        191330124
      ],
      "talkRole": {
        "type": "TALK_ROLE_NPC",
        "_id": "2020"
      },
      "talkContentTextMapHash": 1620459650,
      "talkAssetPath": "",
      "talkAssetPathAlter": "",
      "talkAudioName": "",
      "actionBefore": "",
      "actionWhile": "",
      "actionAfter": "",
      "optionIcon": "",
      "iconPath": ""
    },
    {
      "id": 191330124,
      "talkRole": {
        "type": "TALK_ROLE_NPC",
        "_id": "508"
      },
      "talkContentTextMapHash": 380573922,
      "talkRoleNameTextMapHash": 2889089259,
      "talkAssetPath": "",
      "talkAssetPathAlter": "",
      "talkAudioName": "",
      "actionBefore": "",
      "actionWhile": "",
      "actionAfter": "",
      "optionIcon": "",
      "iconPath": ""
    }
  ]
}