{
  "talkId": 43,
  "KPGKDHAFHFE": "COOP",
  "dialogList": [
    {
      "id": 191330301,
      "nextDialogs": [
        191330302
      ],
      "talkRole": {
        "type": "TALK_ROLE_NPC",
        "_id": "12301"
      },
      "talkContentTextMapHash": 932700002,
      "talkAssetPath": "",
      "talkAssetPathAlter": "",
      "talkAudioName": "",
      "actionBefore": "",
      "actionWhile": "",
      "actionAfter": "",
      "optionIcon": "",
      "iconPath": ""
    },
    {
      "id": 191330302,
      "nextDialogs": [
        191330303
      ],
      "talkRole": {
        "type": "TALK_ROLE_NPC",
        "_id": "12302"
      },
      "talkContentTextMapHash": 4076110978,
      "talkAssetPath": "",
      "talkAssetPathAlter": "",
      "talkAudioName": "",
      "actionBefore": "",
      "actionWhile": "",
      "actionAfter": "",
      "optionIcon": "",
      "iconPath": ""
    },
    {
      "id": 191330303,
      "nextDialogs": [
        191330304
      ],
      "talkRole": {
        "type": "TALK_ROLE_NPC",
        "_id": "12302"
      },
      "talkContentTextMapHash": 4234690138,
      "talkAssetPath": "",
      "talkAssetPathAlter": "",
      "talkAudioName": "",
      "actionBefore": "",
      "actionWhile": "",
      "actionAfter": "",
      "optionIcon": "",
      "iconPath": ""
    },
    {
      "id": 191330304,
      "nextDialogs": [
        191330305
      ],
      "talkRole": {
        "type": "TALK_ROLE_NPC",
        "_id": "508"
      },
      "talkContentTextMapHash": 981951682,
      "talkRoleNameTextMapHash": 1263837251,
      "talkAssetPath": "",
      "talkAssetPathAlter": "",
      "talkAudioName": "",
      "actionBefore": "",
      "actionWhile": "",
      "actionAfter": "",
      "optionIcon": "",
      "iconPath": ""
    },
    {
      "id": 191330305,
      "nextDialogs": [
        191330306
      ],
      "talkRole": {
        "type": "TALK_ROLE_NPC",
        "_id": "12302"
      },
      "talkContentTextMapHash": 3878896234,
      "talkAssetPath": "",
      "talkAssetPathAlter": "",
      "talkAudioName": "",
      "actionBefore": "",
      "actionWhile": "",
      "actionAfter": "",
      "optionIcon": "",
      "iconPath": ""
    },
    {
      "id": 191330306,
      "nextDialogs": [
        191330307
      ],
      "talkRole": {
        "type": "TALK_ROLE_NPC",
        "_id": "508"
      },
      "talkContentTextMapHash": 4229090826,
      "talkRoleNameTextMapHash": 2129751307,
      "talkAssetPath": "",
      "talkAssetPathAlter": "",
      "talkAudioName": "",
      "actionBefore": "",
      "actionWhile": "",
      "actionAfter": "",
      "optionIcon": "",
      "iconPath": ""
    },
    {
      "id": 191330307,
      "nextDialogs": [
        191330308
      ],
      "talkRole": {
        "type": "TALK_ROLE_NPC",
        "_id": "508"
      },
      "talkContentTextMapHash": 2032052178,
      "talkRoleNameTextMapHash": 527194387,
      "talkAssetPath": "",
      "talkAssetPathAlter": "",
      "talkAudioName": "",
      "actionBefore": "",
      "actionWhile": "",
      "actionAfter": "",
      "optionIcon": "",
      "iconPath": ""
    },
    {
      "id": 191330308,
      "nextDialogs": [
        191330309
      ],
      "talkRole": {
        "type": "TALK_ROLE_NPC",
        "_id": "12302"
      },
      "talkContentTextMapHash": 528904922,
      "talkAssetPath": "",
      "talkAssetPathAlter": "",
      "talkAudioName": "",
      "actionBefore": "",
      "actionWhile": "",
      "actionAfter": "",
      "optionIcon": "",
      "iconPath": ""
    },
    {
      "id": 191330309,
      "nextDialogs": [
        191330310
      ],
      "talkRole": {
        "type": "TALK_ROLE_NPC",
        "_id": "12301"
      },
      "talkContentTextMapHash": 4070004010,
      "talkAssetPath": "",
      "talkAssetPathAlter": "",
      "talkAudioName": "",
      "actionBefore": "",
      "actionWhile": "",
      "actionAfter": "",
      "optionIcon": "",
      "iconPath": ""
    },
    {
      "id": 191330310,
      "nextDialogs": [
        191330311
      ],
      "talkRole": {
        "type": "TALK_ROLE_NPC",
        "_id": "508"
      },
      "talkContentTextMapHash": 3864387922,
      "talkRoleNameTextMapHash": 3137490323,
      "talkAssetPath": "",
      "talkAssetPathAlter": "",
      "talkAudioName": "",
      "actionBefore": "",
      "actionWhile": "",
      "actionAfter": "",
      "optionIcon": "",
      "iconPath": ""
    },
    {
      "id": 191330311,
      "nextDialogs": [
        191330312
      ],
      "talkRole": {
        "type": "TALK_ROLE_NPC",
        "_id": "508"
      },
      "talkContentTextMapHash": 1008219338,
      "talkRoleNameTextMapHash": 1276986507,
      "talkAssetPath": "",
      "talkAssetPathAlter": "",
      "talkAudioName": "",
      "actionBefore": "",
      "actionWhile": "",
      "actionAfter": "",
      "optionIcon": "",
      "iconPath": ""
    },
    {
      "id": 191330312,
      "nextDialogs": [
        191330313
      ],
      "talkRole": {
        "type": "TALK_ROLE_NPC",
        "_id": "12302"
      },
      "talkContentTextMapHash": 2383575306,
      "talkAssetPath": "",
      "talkAssetPathAlter": "",
      "talkAudioName": "",
      "actionBefore": "",
      "actionWhile": "",
      "actionAfter": "",
      "optionIcon": "",
      "iconPath": ""
    },
    {
      "id": 191330313,
      "nextDialogs": [
        191330314
      ],
      "talkRole": {
        "type": "TALK_ROLE_NPC",
        "_id": "12302"
      },
      "talkContentTextMapHash": 696013434,
      "talkAssetPath": "",
      "talkAssetPathAlter": "",
      "talkAudioName": "",
      "actionBefore": "",
      "actionWhile": "",
      "actionAfter": "",
      "optionIcon": "",
      "iconPath": ""
    },
    {
      "id": 191330314,
      "nextDialogs": [
        191330315
      ],
      "talkRole": {
        "type": "TALK_ROLE_NPC",
        "_id": "12302"
      },
      "talkContentTextMapHash": 960439954,
      "talkAssetPath": "",
      "talkAssetPathAlter": "",
      "talkAudioName": "",
      "actionBefore": "",
      "actionWhile": "",
      "actionAfter": "",
      "optionIcon": "",
      "iconPath": ""
    },
    {
      "id": 191330315,
      "nextDialogs": [
        191330316
      ],
      "talkRole": {
        "type": "TALK_ROLE_NPC",
        "_id": "12302"
      },
      "talkContentTextMapHash": 2732935202,
      "talkAssetPath": "",
      "talkAssetPathAlter": "",
      "talkAudioName": "",
      "actionBefore": "",
      "actionWhile": "",
      "actionAfter": "",
      "optionIcon": "",
      "iconPath": ""
    },
    {
      "id": 191330316,
      "nextDialogs": [
        191330317
      ],
      "talkRole": {
        "type": "TALK_ROLE_NPC",
        "_id": "12301"
      },
      "talkContentTextMapHash": 2766831442,
      "talkAssetPath": "",
      "talkAssetPathAlter": "",
      "talkAudioName": "",
      "actionBefore": "",
      "actionWhile": "",
      "actionAfter": "",
      "optionIcon": "",
      "iconPath": ""
    },
    {
      "id": 191330317,
      "nextDialogs": [
        191330318
      ],
      "talkRole": {
        "type": "TALK_ROLE_NPC",
        "_id": "12301"
      },
      "talkContentTextMapHash": 216133450,
      "talkAssetPath": "",
      "talkAssetPathAlter": "",
      "talkAudioName": "",
      "actionBefore": "",
      "actionWhile": "",
      "actionAfter": "",
      "optionIcon": "",
      "iconPath": ""
    },
    {
      "id": 191330318,
      "nextDialogs": [
        191330319
      ],
      "talkShowType": "TALK_SHOW_FORCE_SELECT",
      "talkRole": {
        "type": "TALK_ROLE_PLAYER",
        "_id": ""
      },
      "talkContentTextMapHash": 3516578018,
      "talkAssetPath": "",
      "talkAssetPathAlter": "",
      "talkAudioName": "",
      "actionBefore": "",
      "actionWhile": "",
      "actionAfter": "",
      "optionIcon": "",
      "iconPath": ""
    },
    {
      "id": 191330319,
      "nextDialogs": [
        191330320
      ],
      "talkRole": {
        "type": "TALK_ROLE_NPC",
        "_id": "12302"
      },
      "talkContentTextMapHash": 963558170,
      "talkAssetPath": "",
      "talkAssetPathAlter": "",
      "talkAudioName": "",
      "actionBefore": "",
      "actionWhile": "",
      "actionAfter": "",
      "optionIcon": "",
      "iconPath": ""
    },
    {
      "id": 191330320,
      "nextDialogs": [
        191330321
      ],
      "talkRole": {
        "type": "TALK_ROLE_NPC",
        "_id": "12302"
      },
      "talkContentTextMapHash": 2754689818,
      "talkAssetPath": "",
      "talkAssetPathAlter": "",
      "talkAudioName": "",
      "actionBefore": "",
      "actionWhile": "",
      "actionAfter": "",
      "optionIcon": "",
      "iconPath": ""
    },
    {
      "id": 191330321,
      "nextDialogs": [
        191330322,
        191330323
      ],
      "talkRole": {
        "type": "TALK_ROLE_NPC",
        "_id": "508"
      },
      "talkContentTextMapHash": 261650810,
      "talkRoleNameTextMapHash": 4052674795,
      "talkAssetPath": "",
      "talkAssetPathAlter": "",
      "talkAudioName": "",
      "actionBefore": "",
      "actionWhile": "",
      "actionAfter": "",
      "optionIcon": "",
      "iconPath": ""
    },
    {
      "id": 191330322,
      "nextDialogs": [
        191330324
      ],
      "talkShowType": "TALK_SHOW_FORCE_SELECT",
      "talkRole": {
        "type": "TALK_ROLE_PLAYER",
        "_id": ""
      },
      "talkContentTextMapHash": 2943509498,
      "talkAssetPath": "",
      "talkAssetPathAlter": "",
      "talkAudioName": "",
      "actionBefore": "",
      "actionWhile": "",
      "actionAfter": "",
      "optionIcon": "",
      "iconPath": ""
    },
    {
      "id": 191330323,
      "nextDialogs": [
        191330324
      ],
      "talkShowType": "TALK_SHOW_FORCE_SELECT",
      "talkRole": {
        "type": "TALK_ROLE_PLAYER",
        "_id": ""
      },
      "talkContentTextMapHash": 3954737618,
      "talkAssetPath": "",
      "talkAssetPathAlter": "",
      "talkAudioName": "",
      "actionBefore": "",
      "actionWhile": "",
      "actionAfter": "",
      "optionIcon": "",
      "iconPath": ""
    },
    {
      "id": 191330324,
      "nextDialogs": [
        191330325
      ],
      "talkRole": {
        "type": "TALK_ROLE_NPC",
        "_id": "508"
      },
      "talkContentTextMapHash": 2899680010,
      "talkRoleNameTextMapHash": 1223574563,
      "talkAssetPath": "",
      "talkAssetPathAlter": "",
      "talkAudioName": "",
      "actionBefore": "",
      "actionWhile": "",
      "actionAfter": "",
      "optionIcon": "",
      "iconPath": ""
    },
    {
      "id": 191330325,
      "nextDialogs": [
        191330326
      ],
      "talkRole": {
        "type": "TALK_ROLE_NPC",
        "_id": "508"
      },
      "talkContentTextMapHash": 1139573386,
      "talkRoleNameTextMapHash": 4267361947,
      "talkAssetPath": "",
      "talkAssetPathAlter": "",
      "talkAudioName": "",
      "actionBefore": "",
      "actionWhile": "",
      "actionAfter": "",
      "optionIcon": "",
      "iconPath": ""
    },
    {
      "id": 191330326,
      "nextDialogs": [
        191330327
      ],
      "talkRole": {
        "type": "TALK_ROLE_NPC",
        "_id": "508"
      },
      "talkContentTextMapHash": 2746181170,
      "talkRoleNameTextMapHash": 4284344147,
      "talkAssetPath": "",
      "talkAssetPathAlter": "",
      "talkAudioName": "",
      "actionBefore": "",
      "actionWhile": "",
      "actionAfter": "",
      "optionIcon": "",
      "iconPath": ""
    },
    {
      "id": 191330327,
      "nextDialogs": [
        191330328
      ],
      "talkRole": {
        "type": "TALK_ROLE_NPC",
        "_id": "12302"
      },
      "talkContentTextMapHash": 1250246986,
      "talkAssetPath": "",
      "talkAssetPathAlter": "",
      "talkAudioName": "",
      "actionBefore": "",
      "actionWhile": "",
      "actionAfter": "",
      "optionIcon": "",
      "iconPath": ""
    },
    {
      "id": 191330328,
      "nextDialogs": [
        191330329
      ],
      "talkRole": {
        "type": "TALK_ROLE_NPC",
        "_id": "12302"
      },
      "talkContentTextMapHash": 3696975978,
      "talkAssetPath": "",
      "talkAssetPathAlter": "",
      "talkAudioName": "",
      "actionBefore": "",
      "actionWhile": "",
      "actionAfter": "",
      "optionIcon": "",
      "iconPath": ""
    },
    {
      "id": 191330329,
      "nextDialogs": [
        191330330
      ],
      "talkRole": {
        "type": "TALK_ROLE_NPC",
        "_id": "12301"
      },
      "talkContentTextMapHash": 972849674,
      "talkAssetPath": "",
      "talkAssetPathAlter": "",
      "talkAudioName": "",
      "actionBefore": "",
      "actionWhile": "",
      "actionAfter": "",
      "optionIcon": "",
      "iconPath": ""
    },
    {
      "id": 191330330,
      "nextDialogs": [
        191330331
      ],
      "talkRole": {
        "type": "TALK_ROLE_NPC",
        "_id": "12301"
      },
      "talkContentTextMapHash": 1204692874,
      "talkAssetPath": "",
      "talkAssetPathAlter": "",
      "talkAudioName": "",
      "actionBefore": "",
      "actionWhile": "",
      "actionAfter": "",
      "optionIcon": "",
      "iconPath": ""
    },
    {
      "id": 191330331,
      "nextDialogs": [
        191330332
      ],
      "talkRole": {
        "type": "TALK_ROLE_NPC",
        "_id": "508"
      },
      "talkContentTextMapHash": 502199930,
      "talkRoleNameTextMapHash": 3246461075,
      "talkAssetPath": "",
      "talkAssetPathAlter": "",
      "talkAudioName": "",
      "actionBefore": "",
      "actionWhile": "",
      "actionAfter": "",
      "optionIcon": "",
      "iconPath": ""
    },
    {
      "id": 191330332,
      "nextDialogs": [
        191330333
      ],
      "talkRole": {
        "type": "TALK_ROLE_NPC",
        "_id": "508"
      },
      "talkContentTextMapHash": 2708857626,
      "talkRoleNameTextMapHash": 3028278667,
      "talkAssetPath": "",
      "talkAssetPathAlter": "",
      "talkAudioName": "",
      "actionBefore": "",
      "actionWhile": "",
      "actionAfter": "",
      "optionIcon": "",
      "iconPath": ""
    },
    {
      "id": 191330333,
      "nextDialogs": [
        191330334
      ],
      "talkRole": {
        "type": "TALK_ROLE_NPC",
        "_id": "12302"
      },
      "talkContentTextMapHash": 3078403986,
      "talkAssetPath": "",
      "talkAssetPathAlter": "",
      "talkAudioName": "",
      "actionBefore": "",
      "actionWhile": "",
      "actionAfter": "",
      "optionIcon": "",
      "iconPath": ""
    },
    {
      "id": 191330334,
      "nextDialogs": [
        191330335
      ],
      "talkRole": {
        "type": "TALK_ROLE_NPC",
        "_id": "508"
      },
      "talkContentTextMapHash": 1582365634,
      "talkRoleNameTextMapHash": 41532347,
      "talkAssetPath": "",
      "talkAssetPathAlter": "",
      "talkAudioName": "",
      "actionBefore": "",
      "actionWhile": "",
      "actionAfter": "",
      "optionIcon": "",
      "iconPath": ""
    },
    {
      "id": 191330335,
      "nextDialogs": [
        191330336
      ],
      "talkRole": {
        "type": "TALK_ROLE_NPC",
        "_id": "508"
      },
      "talkContentTextMapHash": 264993954,
      "talkRoleNameTextMapHash": 1825461739,
      "talkAssetPath": "",
      "talkAssetPathAlter": "",
      "talkAudioName": "",
      "actionBefore": "",
      "actionWhile": "",
      "actionAfter": "",
      "optionIcon": "",
      "iconPath": ""
    },
    {
      "id": 191330336,
      "nextDialogs": [
        191330337
      ],
      "talkRole": {
        "type": "TALK_ROLE_NPC",
        "_id": "12301"
      },
      "talkContentTextMapHash": 1216439946,
      "talkAssetPath": "",
      "talkAssetPathAlter": "",
      "talkAudioName": "",
      "actionBefore": "",
      "actionWhile": "",
      "actionAfter": "",
      "optionIcon": "",
      "iconPath": ""
    },
    {
      "id": 191330337,
      "nextDialogs": [
        191330338
      ],
      "talkRole": {
        "type": "TALK_ROLE_NPC",
        "_id": "12302"
      },
      "talkContentTextMapHash": 1876461474,
      "talkAssetPath": "",
      "talkAssetPathAlter": "",
      "talkAudioName": "",
      "actionBefore": "",
      "actionWhile": "",
      "actionAfter": "",
      "optionIcon": "",
      "iconPath": ""
    },
    {
      "id": 191330338,
      "nextDialogs": [
        191330339
      ],
      "talkRole": {
        "type": "TALK_ROLE_NPC",
        "_id": "508"
      },
      "talkContentTextMapHash": 923899698,
      "talkRoleNameTextMapHash": 4096333267,
      "talkAssetPath": "",
      "talkAssetPathAlter": "",
      "talkAudioName": "",
      "actionBefore": "",
      "actionWhile": "",
      "actionAfter": "",
      "optionIcon": "",
      "iconPath": ""
    },
    {
      "id": 191330339,
      "nextDialogs": [
        191330340
      ],
      "talkRole": {
        "type": "TALK_ROLE_NPC",
        "_id": "12302"
      },
      "talkContentTextMapHash": 3573759306,
      "talkAssetPath": "",
      "talkAssetPathAlter": "",
      "talkAudioName": "",
      "actionBefore": "",
      "actionWhile": "",
      "actionAfter": "",
      "optionIcon": "",
      "iconPath": ""
    },
    {
      "id": 191330340,
      "nextDialogs": [
        191330341
      ],
      "talkRole": {
        "type": "TALK_ROLE_NPC",
        "_id": "508"
      },
      "talkContentTextMapHash": 158662434,
      "talkRoleNameTextMapHash": 1146090555,
      "talkAssetPath": "",
      "talkAssetPathAlter": "",
      "talkAudioName": "",
      "actionBefore": "",
      "actionWhile": "",
      "actionAfter": "",
      "optionIcon": "",
      "iconPath": ""
    },
    {
      "id": 191330341,
      "nextDialogs": [
        191330342
      ],
      "talkRole": {
        "type": "TALK_ROLE_NPC",
        "_id": "508"
      },
      "talkContentTextMapHash": 2346692186,
      "talkRoleNameTextMapHash": 2190289283,
      "talkAssetPath": "",
      "talkAssetPathAlter": "",
      "talkAudioName": "",
      "actionBefore": "",
      "actionWhile": "",
      "actionAfter": "",
      "optionIcon": "",
      "iconPath": ""
    },
    {
      "id": 191330342,
      "nextDialogs": [
        191330343
      ],
      "talkRole": {
        "type": "TALK_ROLE_NPC",
        "_id": "508"
      },
      "talkContentTextMapHash": 4260239266,
      "talkRoleNameTextMapHash": 1975021795,
      "talkAssetPath": "",
      "talkAssetPathAlter": "",
      "talkAudioName": "",
      "actionBefore": "",
      "actionWhile": "",
      "actionAfter": "",
      "optionIcon": "",
      "iconPath": ""
    },
    {
      "id": 191330343,
      "nextDialogs": [
        191330344
      ],
      "talkRole": {
        "type": "TALK_ROLE_NPC",
        "_id": "12302"
      },
      "talkContentTextMapHash": 606143362,
      "talkAssetPath": "",
      "talkAssetPathAlter": "",
      "talkAudioName": "",
      "actionBefore": "",
      "actionWhile": "",
      "actionAfter": "",
      "optionIcon": "",
      "iconPath": ""
    },
    {
      "id": 191330344,
      "talkRole": {
        "type": "TALK_ROLE_NPC",
        "_id": "508"
      },
      "talkContentTextMapHash": 3821198538,
      "talkRoleNameTextMapHash": 1912145067,
      "talkAssetPath": "",
      "talkAssetPathAlter": "",
      "talkAudioName": "",
      "actionBefore": "",
      "actionWhile": "",
      "actionAfter": "",
      "optionIcon": "",
      "iconPath": ""
    }
  ]
}