{
  "talkId": 182,
  "KPGKDHAFHFE": "COOP",
  "dialogList": [
    {
      "id": 191371301,
      "nextDialogs": [
        191371302
      ],
      "talkRole": {
        "type": "TALK_ROLE_NPC",
        "_id": "12309"
      },
      "talkContentTextMapHash": 2881688258,
      "talkRoleNameTextMapHash": 1453116483,
      "talkAssetPath": "",
      "talkAssetPathAlter": "",
      "talkAudioName": "",
      "actionBefore": "",
      "actionWhile": "",
      "actionAfter": "",
      "optionIcon": "",
      "iconPath": ""
    },
    {
      "id": 191371302,
      "nextDialogs": [
        191371303
      ],
      "talkShowType": "TALK_SHOW_FORCE_SELECT",
      "talkRole": {
        "type": "TALK_ROLE_NPC",
        "_id": "507"
      },
      "talkContentTextMapHash": 2619668554,
      "talkAssetPath": "",
      "talkAssetPathAlter": "",
      "talkAudioName": "",
      "actionBefore": "",
      "actionWhile": "",
      "actionAfter": "",
      "optionIcon": "",
      "iconPath": ""
    },
    {
      "id": 191371303,
      "talkRole": {
        "type": "TALK_ROLE_NPC",
        "_id": "507"
      },
      "talkContentTextMapHash": 550045154,
      "talkAssetPath": "",
      "talkAssetPathAlter": "",
      "talkAudioName": "",
      "actionBefore": "",
      "actionWhile": "",
      "actionAfter": "",
      "optionIcon": "",
      "iconPath": ""
    }
  ]
}