{
  "talkId": 29,
  "KPGKDHAFHFE": "COOP",
  "dialogList": [
    {
      "id": 191320801,
      "nextDialogs": [
        191320802
      ],
      "talkRole": {
        "type": "TALK_ROLE_NPC",
        "_id": "508"
      },
      "talkContentTextMapHash": 2638017810,
      "talkRoleNameTextMapHash": 1310744019,
      "talkAssetPath": "",
      "talkAssetPathAlter": "",
      "talkAudioName": "",
      "actionBefore": "",
      "actionWhile": "",
      "actionAfter": "",
      "optionIcon": "",
      "iconPath": ""
    },
    {
      "id": 191320802,
      "nextDialogs": [
        191320803
      ],
      "talkRole": {
        "type": "TALK_ROLE_NPC",
        "_id": "508"
      },
      "talkContentTextMapHash": 1654072138,
      "talkRoleNameTextMapHash": 981326323,
      "talkAssetPath": "",
      "talkAssetPathAlter": "",
      "talkAudioName": "",
      "actionBefore": "",
      "actionWhile": "",
      "actionAfter": "",
      "optionIcon": "",
      "iconPath": ""
    },
    {
      "id": 191320803,
      "nextDialogs": [
        191320804
      ],
      "talkShowType": "TALK_SHOW_FORCE_SELECT",
      "talkRole": {
        "type": "TALK_ROLE_PLAYER",
        "_id": ""
      },
      "talkContentTextMapHash": 3370891842,
      "talkAssetPath": "",
      "talkAssetPathAlter": "",
      "talkAudioName": "",
      "actionBefore": "",
      "actionWhile": "",
      "actionAfter": "",
      "optionIcon": "",
      "iconPath": ""
    },
    {
      "id": 191320804,
      "nextDialogs": [
        191320805
      ],
      "talkRole": {
        "type": "TALK_ROLE_NPC",
        "_id": "508"
      },
      "talkContentTextMapHash": 659727866,
      "talkRoleNameTextMapHash": 1679972323,
      "talkAssetPath": "",
      "talkAssetPathAlter": "",
      "talkAudioName": "",
      "actionBefore": "",
      "actionWhile": "",
      "actionAfter": "",
      "optionIcon": "",
      "iconPath": ""
    },
    {
      "id": 191320805,
      "talkRole": {
        "type": "TALK_ROLE_NPC",
        "_id": "508"
      },
      "talkContentTextMapHash": 3169843594,
      "talkRoleNameTextMapHash": 495172379,
      "talkAssetPath": "",
      "talkAssetPathAlter": "",
      "talkAudioName": "",
      "actionBefore": "",
      "actionWhile": "",
      "actionAfter": "",
      "optionIcon": "",
      "iconPath": ""
    }
  ]
}