{
  "talkId": 304,
  "KPGKDHAFHFE": "COOP",
  "dialogList": [
    {
      "id": 191370901,
      "nextDialogs": [
        191370902
      ],
      "talkRole": {
        "type": "TALK_ROLE_NPC",
        "_id": "12309"
      },
      "talkContentTextMapHash": 973054114,
      "talkAssetPath": "",
      "talkAssetPathAlter": "",
      "talkAudioName": "",
      "actionBefore": "",
      "actionWhile": "",
      "actionAfter": "",
      "optionIcon": "",
      "iconPath": ""
    },
    {
      "id": 191370902,
      "talkRole": {
        "type": "TALK_ROLE_NPC",
        "_id": "12309"
      },
      "talkContentTextMapHash": 4057458370,
      "talkAssetPath": "",
      "talkAssetPathAlter": "",
      "talkAudioName": "",
      "actionBefore": "",
      "actionWhile": "",
      "actionAfter": "",
      "optionIcon": "",
      "iconPath": ""
    }
  ]
}