{
  "talkId": 252,
  "KPGKDHAFHFE": "COOP",
  "dialogList": [
    {
      "id": 191370501,
      "nextDialogs": [
        191370502
      ],
      "talkRole": {
        "type": "TALK_ROLE_NPC",
        "_id": "12307"
      },
      "talkContentTextMapHash": 807539210,
      "talkAssetPath": "",
      "talkAssetPathAlter": "",
      "talkAudioName": "",
      "actionBefore": "",
      "actionWhile": "",
      "actionAfter": "",
      "optionIcon": "",
      "iconPath": ""
    },
    {
      "id": 191370502,
      "talkRole": {
        "type": "TALK_ROLE_NPC",
        "_id": "12307"
      },
      "talkContentTextMapHash": 1005191426,
      "talkAssetPath": "",
      "talkAssetPathAlter": "",
      "talkAudioName": "",
      "actionBefore": "",
      "actionWhile": "",
      "actionAfter": "",
      "optionIcon": "",
      "iconPath": ""
    }
  ]
}