{
  "talkId": 187,
  "KPGKDHAFHFE": "COOP",
  "dialogList": [
    {
      "id": 191460701,
      "nextDialogs": [
        191460702
      ],
      "talkRole": {
        "type": "TALK_ROLE_NPC",
        "_id": "12530"
      },
      "talkContentTextMapHash": 1795186250,
      "talkAssetPath": "",
      "talkAssetPathAlter": "",
      "talkAudioName": "",
      "actionBefore": "",
      "actionWhile": "",
      "actionAfter": "",
      "optionIcon": "",
      "iconPath": ""
    },
    {
      "id": 191460702,
      "nextDialogs": [
        191460703
      ],
      "talkShowType": "TALK_SHOW_FORCE_SELECT",
      "talkRole": {
        "type": "TALK_ROLE_PLAYER",
        "_id": ""
      },
      "talkContentTextMapHash": 1025481770,
      "talkAssetPath": "",
      "talkAssetPathAlter": "",
      "talkAudioName": "",
      "actionBefore": "",
      "actionWhile": "",
      "actionAfter": "",
      "optionIcon": "",
      "iconPath": ""
    },
    {
      "id": 191460703,
      "nextDialogs": [
        191460704
      ],
      "talkRole": {
        "type": "TALK_ROLE_NPC",
        "_id": "12530"
      },
      "talkContentTextMapHash": 2145499426,
      "talkAssetPath": "",
      "talkAssetPathAlter": "",
      "talkAudioName": "",
      "actionBefore": "",
      "actionWhile": "",
      "actionAfter": "",
      "optionIcon": "",
      "iconPath": ""
    },
    {
      "id": 191460704,
      "nextDialogs": [
        191460705
      ],
      "talkRole": {
        "type": "TALK_ROLE_NPC",
        "_id": "12530"
      },
      "talkContentTextMapHash": 1348500122,
      "talkAssetPath": "",
      "talkAssetPathAlter": "",
      "talkAudioName": "",
      "actionBefore": "",
      "actionWhile": "",
      "actionAfter": "",
      "optionIcon": "",
      "iconPath": ""
    },
    {
      "id": 191460705,
      "talkRole": {
        "type": "TALK_ROLE_NPC",
        "_id": "12530"
      },
      "talkContentTextMapHash": 3051147994,
      "talkAssetPath": "",
      "talkAssetPathAlter": "",
      "talkAudioName": "",
      "actionBefore": "",
      "actionWhile": "",
      "actionAfter": "",
      "optionIcon": "",
      "iconPath": ""
    }
  ]
}