{
  "talkId": 113,
  "KPGKDHAFHFE": "COOP",
  "dialogList": [
    {
      "id": 191570201,
      "nextDialogs": [
        191570203
      ],
      "talkRole": {
        "type": "TALK_ROLE_NPC",
        "_id": "512"
      },
      "talkContentTextMapHash": 3674529482,
      "talkAssetPath": "",
      "talkAssetPathAlter": "",
      "talkAudioName": "",
      "actionBefore": "",
      "actionWhile": "",
      "actionAfter": "",
      "optionIcon": "",
      "iconPath": ""
    },
    {
      "id": 191570202,
      "talkShowType": "TALK_SHOW_FORCE_SELECT",
      "talkRole": {
        "type": "TALK_ROLE_PLAYER",
        "_id": ""
      },
      "talkContentTextMapHash": 3714919482,
      "talkAssetPath": "",
      "talkAssetPathAlter": "",
      "talkAudioName": "",
      "actionBefore": "",
      "actionWhile": "",
      "actionAfter": "",
      "optionIcon": "",
      "iconPath": ""
    },
    {
      "id": 191570203,
      "nextDialogs": [
        191570204
      ],
      "talkRole": {
        "type": "TALK_ROLE_NPC",
        "_id": "512"
      },
      "talkContentTextMapHash": 2990290562,
      "talkAssetPath": "",
      "talkAssetPathAlter": "",
      "talkAudioName": "",
      "actionBefore": "",
      "actionWhile": "",
      "actionAfter": "",
      "optionIcon": "",
      "iconPath": ""
    },
    {
      "id": 191570204,
      "nextDialogs": [
        191570205
      ],
      "talkRole": {
        "type": "TALK_ROLE_NPC",
        "_id": "512"
      },
      "talkContentTextMapHash": 844340154,
      "talkAssetPath": "",
      "talkAssetPathAlter": "",
      "talkAudioName": "",
      "actionBefore": "",
      "actionWhile": "",
      "actionAfter": "",
      "optionIcon": "",
      "iconPath": ""
    },
    {
      "id": 191570205,
      "nextDialogs": [
        191570206
      ],
      "talkRole": {
        "type": "TALK_ROLE_NPC",
        "_id": "512"
      },
      "talkContentTextMapHash": 3754864874,
      "talkAssetPath": "",
      "talkAssetPathAlter": "",
      "talkAudioName": "",
      "actionBefore": "",
      "actionWhile": "",
      "actionAfter": "",
      "optionIcon": "",
      "iconPath": ""
    },
    {
      "id": 191570206,
      "nextDialogs": [
        191570207
      ],
      "talkRole": {
        "type": "TALK_ROLE_NPC",
        "_id": "512"
      },
      "talkContentTextMapHash": 340398746,
      "talkAssetPath": "",
      "talkAssetPathAlter": "",
      "talkAudioName": "",
      "actionBefore": "",
      "actionWhile": "",
      "actionAfter": "",
      "optionIcon": "",
      "iconPath": ""
    },
    {
      "id": 191570207,
      "nextDialogs": [
        191570209
      ],
      "talkRole": {
        "type": "TALK_ROLE_NPC",
        "_id": "512"
      },
      "talkContentTextMapHash": 829791322,
      "talkAssetPath": "",
      "talkAssetPathAlter": "",
      "talkAudioName": "",
      "actionBefore": "",
      "actionWhile": "",
      "actionAfter": "",
      "optionIcon": "",
      "iconPath": ""
    },
    {
      "id": 191570208,
      "talkShowType": "TALK_SHOW_FORCE_SELECT",
      "talkRole": {
        "type": "TALK_ROLE_PLAYER",
        "_id": ""
      },
      "talkContentTextMapHash": 1662203698,
      "talkAssetPath": "",
      "talkAssetPathAlter": "",
      "talkAudioName": "",
      "actionBefore": "",
      "actionWhile": "",
      "actionAfter": "",
      "optionIcon": "",
      "iconPath": ""
    },
    {
      "id": 191570209,
      "nextDialogs": [
        191570210
      ],
      "talkRole": {
        "type": "TALK_ROLE_NPC",
        "_id": "512"
      },
      "talkContentTextMapHash": 1015009506,
      "talkAssetPath": "",
      "talkAssetPathAlter": "",
      "talkAudioName": "",
      "actionBefore": "",
      "actionWhile": "",
      "actionAfter": "",
      "optionIcon": "",
      "iconPath": ""
    },
    {
      "id": 191570210,
      "nextDialogs": [
        191570212
      ],
      "talkRole": {
        "type": "TALK_ROLE_NPC",
        "_id": "512"
      },
      "talkContentTextMapHash": 3406090018,
      "talkAssetPath": "",
      "talkAssetPathAlter": "",
      "talkAudioName": "",
      "actionBefore": "",
      "actionWhile": "",
      "actionAfter": "",
      "optionIcon": "",
      "iconPath": ""
    },
    {
      "id": 191570211,
      "talkShowType": "TALK_SHOW_FORCE_SELECT",
      "talkRole": {
        "type": "TALK_ROLE_PLAYER",
        "_id": ""
      },
      "talkContentTextMapHash": 621668298,
      "talkAssetPath": "",
      "talkAssetPathAlter": "",
      "talkAudioName": "",
      "actionBefore": "",
      "actionWhile": "",
      "actionAfter": "",
      "optionIcon": "",
      "iconPath": ""
    },
    {
      "id": 191570212,
      "nextDialogs": [
        191570213
      ],
      "talkRole": {
        "type": "TALK_ROLE_NPC",
        "_id": "512"
      },
      "talkContentTextMapHash": 2937604898,
      "talkAssetPath": "",
      "talkAssetPathAlter": "",
      "talkAudioName": "",
      "actionBefore": "",
      "actionWhile": "",
      "actionAfter": "",
      "optionIcon": "",
      "iconPath": ""
    },
    {
      "id": 191570213,
      "nextDialogs": [
        191570214
      ],
      "talkRole": {
        "type": "TALK_ROLE_NPC",
        "_id": "512"
      },
      "talkContentTextMapHash": 2702250210,
      "talkAssetPath": "",
      "talkAssetPathAlter": "",
      "talkAudioName": "",
      "actionBefore": "",
      "actionWhile": "",
      "actionAfter": "",
      "optionIcon": "",
      "iconPath": ""
    },
    {
      "id": 191570214,
      "nextDialogs": [
        191570215
      ],
      "talkRole": {
        "type": "TALK_ROLE_NPC",
        "_id": "512"
      },
      "talkContentTextMapHash": 1835488274,
      "talkAssetPath": "",
      "talkAssetPathAlter": "",
      "talkAudioName": "",
      "actionBefore": "",
      "actionWhile": "",
      "actionAfter": "",
      "optionIcon": "",
      "iconPath": ""
    },
    {
      "id": 191570215,
      "nextDialogs": [
        191570216
      ],
      "talkRole": {
        "type": "TALK_ROLE_NPC",
        "_id": "512"
      },
      "talkContentTextMapHash": 2452050194,
      "talkAssetPath": "",
      "talkAssetPathAlter": "",
      "talkAudioName": "",
      "actionBefore": "",
      "actionWhile": "",
      "actionAfter": "",
      "optionIcon": "",
      "iconPath": ""
    },
    {
      "id": 191570216,
      "nextDialogs": [
        191570217
      ],
      "talkRole": {
        "type": "TALK_ROLE_NPC",
        "_id": "512"
      },
      "talkContentTextMapHash": 3422353418,
      "talkAssetPath": "",
      "talkAssetPathAlter": "",
      "talkAudioName": "",
      "actionBefore": "",
      "actionWhile": "",
      "actionAfter": "",
      "optionIcon": "",
      "iconPath": ""
    },
    {
      "id": 191570217,
      "nextDialogs": [
        191570219
      ],
      "talkRole": {
        "type": "TALK_ROLE_NPC",
        "_id": "512"
      },
      "talkContentTextMapHash": 430973090,
      "talkAssetPath": "",
      "talkAssetPathAlter": "",
      "talkAudioName": "",
      "actionBefore": "",
      "actionWhile": "",
      "actionAfter": "",
      "optionIcon": "",
      "iconPath": ""
    },
    {
      "id": 191570218,
      "talkShowType": "TALK_SHOW_FORCE_SELECT",
      "talkRole": {
        "type": "TALK_ROLE_PLAYER",
        "_id": ""
      },
      "talkContentTextMapHash": 827756858,
      "talkAssetPath": "",
      "talkAssetPathAlter": "",
      "talkAudioName": "",
      "actionBefore": "",
      "actionWhile": "",
      "actionAfter": "",
      "optionIcon": "",
      "iconPath": ""
    },
    {
      "id": 191570219,
      "nextDialogs": [
        191570221
      ],
      "talkRole": {
        "type": "TALK_ROLE_NPC",
        "_id": "512"
      },
      "talkContentTextMapHash": 3615396258,
      "talkAssetPath": "",
      "talkAssetPathAlter": "",
      "talkAudioName": "",
      "actionBefore": "",
      "actionWhile": "",
      "actionAfter": "",
      "optionIcon": "",
      "iconPath": ""
    },
    {
      "id": 191570220,
      "talkShowType": "TALK_SHOW_FORCE_SELECT",
      "talkRole": {
        "type": "TALK_ROLE_PLAYER",
        "_id": ""
      },
      "talkContentTextMapHash": 1153741786,
      "talkAssetPath": "",
      "talkAssetPathAlter": "",
      "talkAudioName": "",
      "actionBefore": "",
      "actionWhile": "",
      "actionAfter": "",
      "optionIcon": "",
      "iconPath": ""
    },
    {
      "id": 191570221,
      "nextDialogs": [
        191570223
      ],
      "talkRole": {
        "type": "TALK_ROLE_NPC",
        "_id": "512"
      },
      "talkContentTextMapHash": 3302905050,
      "talkAssetPath": "",
      "talkAssetPathAlter": "",
      "talkAudioName": "",
      "actionBefore": "",
      "actionWhile": "",
      "actionAfter": "",
      "optionIcon": "",
      "iconPath": ""
    },
    {
      "id": 191570222,
      "talkShowType": "TALK_SHOW_FORCE_SELECT",
      "talkRole": {
        "type": "TALK_ROLE_PLAYER",
        "_id": ""
      },
      "talkContentTextMapHash": 2244099114,
      "talkAssetPath": "",
      "talkAssetPathAlter": "",
      "talkAudioName": "",
      "actionBefore": "",
      "actionWhile": "",
      "actionAfter": "",
      "optionIcon": "",
      "iconPath": ""
    },
    {
      "id": 191570223,
      "nextDialogs": [
        191570224
      ],
      "talkRole": {
        "type": "TALK_ROLE_NPC",
        "_id": "512"
      },
      "talkContentTextMapHash": 2788840738,
      "talkAssetPath": "",
      "talkAssetPathAlter": "",
      "talkAudioName": "",
      "actionBefore": "",
      "actionWhile": "",
      "actionAfter": "",
      "optionIcon": "",
      "iconPath": ""
    },
    {
      "id": 191570224,
      "talkRole": {
        "type": "TALK_ROLE_NPC",
        "_id": "512"
      },
      "talkContentTextMapHash": 2751020866,
      "talkAssetPath": "",
      "talkAssetPathAlter": "",
      "talkAudioName": "",
      "actionBefore": "",
      "actionWhile": "",
      "actionAfter": "",
      "optionIcon": "",
      "iconPath": ""
    }
  ]
}