{
  "talkId": 282,
  "KPGKDHAFHFE": "COOP",
  "dialogList": [
    {
      "id": 191530601,
      "nextDialogs": [
        191530602
      ],
      "talkRole": {
        "type": "TALK_ROLE_NPC",
        "_id": "512"
      },
      "talkContentTextMapHash": 2282526418,
      "talkAssetPath": "",
      "talkAssetPathAlter": "",
      "talkAudioName": "",
      "actionBefore": "",
      "actionWhile": "",
      "actionAfter": "",
      "optionIcon": "",
      "iconPath": ""
    },
    {
      "id": 191530602,
      "nextDialogs": [
        191530603
      ],
      "talkRole": {
        "type": "TALK_ROLE_NPC",
        "_id": "512"
      },
      "talkContentTextMapHash": 706819490,
      "talkAssetPath": "",
      "talkAssetPathAlter": "",
      "talkAudioName": "",
      "actionBefore": "",
      "actionWhile": "",
      "actionAfter": "",
      "optionIcon": "",
      "iconPath": ""
    },
    {
      "id": 191530603,
      "nextDialogs": [
        191530604
      ],
      "talkRole": {
        "type": "TALK_ROLE_NPC",
        "_id": "512"
      },
      "talkContentTextMapHash": 3049734730,
      "talkAssetPath": "",
      "talkAssetPathAlter": "",
      "talkAudioName": "",
      "actionBefore": "",
      "actionWhile": "",
      "actionAfter": "",
      "optionIcon": "",
      "iconPath": ""
    },
    {
      "id": 191530604,
      "nextDialogs": [
        191530605
      ],
      "talkRole": {
        "type": "TALK_ROLE_NPC",
        "_id": "512"
      },
      "talkContentTextMapHash": 219254082,
      "talkAssetPath": "",
      "talkAssetPathAlter": "",
      "talkAudioName": "",
      "actionBefore": "",
      "actionWhile": "",
      "actionAfter": "",
      "optionIcon": "",
      "iconPath": ""
    },
    {
      "id": 191530605,
      "talkRole": {
        "type": "TALK_ROLE_NPC",
        "_id": "512"
      },
      "talkContentTextMapHash": 4073070986,
      "talkAssetPath": "",
      "talkAssetPathAlter": "",
      "talkAudioName": "",
      "actionBefore": "",
      "actionWhile": "",
      "actionAfter": "",
      "optionIcon": "",
      "iconPath": ""
    }
  ]
}