{
  "talkId": 304,
  "KPGKDHAFHFE": "COOP",
  "dialogList": [
    {
      "id": 191590604,
      "nextDialogs": [
        191590605
      ],
      "talkRole": {
        "type": "TALK_ROLE_NPC",
        "_id": "512"
      },
      "talkContentTextMapHash": 3211761010,
      "talkAssetPath": "",
      "talkAssetPathAlter": "",
      "talkAudioName": "",
      "actionBefore": "",
      "actionWhile": "",
      "actionAfter": "",
      "optionIcon": "",
      "iconPath": ""
    },
    {
      "id": 191590605,
      "nextDialogs": [
        191590606
      ],
      "talkRole": {
        "type": "TALK_ROLE_NPC",
        "_id": "512"
      },
      "talkContentTextMapHash": 4122322170,
      "talkAssetPath": "",
      "talkAssetPathAlter": "",
      "talkAudioName": "",
      "actionBefore": "",
      "actionWhile": "",
      "actionAfter": "",
      "optionIcon": "",
      "iconPath": ""
    },
    {
      "id": 191590606,
      "nextDialogs": [
        191590607
      ],
      "talkRole": {
        "type": "TALK_ROLE_NPC",
        "_id": "512"
      },
      "talkContentTextMapHash": 505082754,
      "talkAssetPath": "",
      "talkAssetPathAlter": "",
      "talkAudioName": "",
      "actionBefore": "",
      "actionWhile": "",
      "actionAfter": "",
      "optionIcon": "",
      "iconPath": ""
    },
    {
      "id": 191590607,
      "nextDialogs": [
        191590608
      ],
      "talkShowType": "TALK_SHOW_FORCE_SELECT",
      "talkRole": {
        "type": "TALK_ROLE_PLAYER",
        "_id": ""
      },
      "talkContentTextMapHash": 177050522,
      "talkAssetPath": "",
      "talkAssetPathAlter": "",
      "talkAudioName": "",
      "actionBefore": "",
      "actionWhile": "",
      "actionAfter": "",
      "optionIcon": "",
      "iconPath": ""
    },
    {
      "id": 191590608,
      "nextDialogs": [
        191590609
      ],
      "talkRole": {
        "type": "TALK_ROLE_NPC",
        "_id": "512"
      },
      "talkContentTextMapHash": 2824551794,
      "talkAssetPath": "",
      "talkAssetPathAlter": "",
      "talkAudioName": "",
      "actionBefore": "",
      "actionWhile": "",
      "actionAfter": "",
      "optionIcon": "",
      "iconPath": ""
    },
    {
      "id": 191590609,
      "nextDialogs": [
        191590610
      ],
      "talkShowType": "TALK_SHOW_FORCE_SELECT",
      "talkRole": {
        "type": "TALK_ROLE_PLAYER",
        "_id": ""
      },
      "talkContentTextMapHash": 89597290,
      "talkAssetPath": "",
      "talkAssetPathAlter": "",
      "talkAudioName": "",
      "actionBefore": "",
      "actionWhile": "",
      "actionAfter": "",
      "optionIcon": "",
      "iconPath": ""
    },
    {
      "id": 191590610,
      "nextDialogs": [
        191590611,
        191590612
      ],
      "talkRole": {
        "type": "TALK_ROLE_NPC",
        "_id": "512"
      },
      "talkContentTextMapHash": 1302642306,
      "talkAssetPath": "",
      "talkAssetPathAlter": "",
      "talkAudioName": "",
      "actionBefore": "",
      "actionWhile": "",
      "actionAfter": "",
      "optionIcon": "",
      "iconPath": ""
    },
    {
      "id": 191590611,
      "nextDialogs": [
        191590613
      ],
      "talkRole": {
        "type": "TALK_ROLE_PLAYER",
        "_id": ""
      },
      "talkContentTextMapHash": 553507690,
      "talkAssetPath": "",
      "talkAssetPathAlter": "",
      "talkAudioName": "",
      "actionBefore": "",
      "actionWhile": "",
      "actionAfter": "",
      "optionIcon": "",
      "iconPath": ""
    },
    {
      "id": 191590612,
      "nextDialogs": [
        191590613
      ],
      "talkRole": {
        "type": "TALK_ROLE_PLAYER",
        "_id": ""
      },
      "talkContentTextMapHash": 2572410258,
      "talkAssetPath": "",
      "talkAssetPathAlter": "",
      "talkAudioName": "",
      "actionBefore": "",
      "actionWhile": "",
      "actionAfter": "",
      "optionIcon": "",
      "iconPath": ""
    },
    {
      "id": 191590613,
      "nextDialogs": [
        191590614
      ],
      "talkRole": {
        "type": "TALK_ROLE_NPC",
        "_id": "512"
      },
      "talkContentTextMapHash": 1537739874,
      "talkAssetPath": "",
      "talkAssetPathAlter": "",
      "talkAudioName": "",
      "actionBefore": "",
      "actionWhile": "",
      "actionAfter": "",
      "optionIcon": "",
      "iconPath": ""
    },
    {
      "id": 191590614,
      "nextDialogs": [
        191590615
      ],
      "talkRole": {
        "type": "TALK_ROLE_NPC",
        "_id": "512"
      },
      "talkContentTextMapHash": 2267967938,
      "talkAssetPath": "",
      "talkAssetPathAlter": "",
      "talkAudioName": "",
      "actionBefore": "",
      "actionWhile": "",
      "actionAfter": "",
      "optionIcon": "",
      "iconPath": ""
    },
    {
      "id": 191590615,
      "nextDialogs": [
        191590616
      ],
      "talkShowType": "TALK_SHOW_FORCE_SELECT",
      "talkRole": {
        "type": "TALK_ROLE_PLAYER",
        "_id": ""
      },
      "talkContentTextMapHash": 2870658818,
      "talkAssetPath": "",
      "talkAssetPathAlter": "",
      "talkAudioName": "",
      "actionBefore": "",
      "actionWhile": "",
      "actionAfter": "",
      "optionIcon": "",
      "iconPath": ""
    },
    {
      "id": 191590616,
      "nextDialogs": [
        191590617
      ],
      "talkRole": {
        "type": "TALK_ROLE_NPC",
        "_id": "512"
      },
      "talkContentTextMapHash": 699569138,
      "talkAssetPath": "",
      "talkAssetPathAlter": "",
      "talkAudioName": "",
      "actionBefore": "",
      "actionWhile": "",
      "actionAfter": "",
      "optionIcon": "",
      "iconPath": ""
    },
    {
      "id": 191590617,
      "nextDialogs": [
        191590618
      ],
      "talkRole": {
        "type": "TALK_ROLE_NPC",
        "_id": "512"
      },
      "talkContentTextMapHash": 951280818,
      "talkAssetPath": "",
      "talkAssetPathAlter": "",
      "talkAudioName": "",
      "actionBefore": "",
      "actionWhile": "",
      "actionAfter": "",
      "optionIcon": "",
      "iconPath": ""
    },
    {
      "id": 191590618,
      "nextDialogs": [
        191590619
      ],
      "talkRole": {
        "type": "TALK_ROLE_NPC",
        "_id": "512"
      },
      "talkContentTextMapHash": 1142127098,
      "talkAssetPath": "",
      "talkAssetPathAlter": "",
      "talkAudioName": "",
      "actionBefore": "",
      "actionWhile": "",
      "actionAfter": "",
      "optionIcon": "",
      "iconPath": ""
    },
    {
      "id": 191590619,
      "nextDialogs": [
        191590620
      ],
      "talkRole": {
        "type": "TALK_ROLE_NPC",
        "_id": "512"
      },
      "talkContentTextMapHash": 4044308642,
      "talkAssetPath": "",
      "talkAssetPathAlter": "",
      "talkAudioName": "",
      "actionBefore": "",
      "actionWhile": "",
      "actionAfter": "",
      "optionIcon": "",
      "iconPath": ""
    },
    {
      "id": 191590620,
      "nextDialogs": [
        191590621
      ],
      "talkShowType": "TALK_SHOW_FORCE_SELECT",
      "talkRole": {
        "type": "TALK_ROLE_PLAYER",
        "_id": ""
      },
      "talkContentTextMapHash": 3874280210,
      "talkAssetPath": "",
      "talkAssetPathAlter": "",
      "talkAudioName": "",
      "actionBefore": "",
      "actionWhile": "",
      "actionAfter": "",
      "optionIcon": "",
      "iconPath": ""
    },
    {
      "id": 191590621,
      "nextDialogs": [
        191590622
      ],
      "talkRole": {
        "type": "TALK_ROLE_NPC",
        "_id": "512"
      },
      "talkContentTextMapHash": 844633922,
      "talkAssetPath": "",
      "talkAssetPathAlter": "",
      "talkAudioName": "",
      "actionBefore": "",
      "actionWhile": "",
      "actionAfter": "",
      "optionIcon": "",
      "iconPath": ""
    },
    {
      "id": 191590622,
      "nextDialogs": [
        191590623
      ],
      "talkRole": {
        "type": "TALK_ROLE_NPC",
        "_id": "512"
      },
      "talkContentTextMapHash": 4215550962,
      "talkAssetPath": "",
      "talkAssetPathAlter": "",
      "talkAudioName": "",
      "actionBefore": "",
      "actionWhile": "",
      "actionAfter": "",
      "optionIcon": "",
      "iconPath": ""
    },
    {
      "id": 191590623,
      "talkRole": {
        "type": "TALK_ROLE_NPC",
        "_id": "512"
      },
      "talkContentTextMapHash": 4212342826,
      "talkAssetPath": "",
      "talkAssetPathAlter": "",
      "talkAudioName": "",
      "actionBefore": "",
      "actionWhile": "",
      "actionAfter": "",
      "optionIcon": "",
      "iconPath": ""
    }
  ]
}