{
  "talkId": 4,
  "KPGKDHAFHFE": "COOP",
  "dialogList": [
    {
      "id": 191700101,
      "nextDialogs": [
        191700102
      ],
      "talkRole": {
        "type": "TALK_ROLE_NPC",
        "_id": "1050"
      },
      "talkContentTextMapHash": 2059746714,
      "talkAssetPath": "",
      "talkAssetPathAlter": "",
      "talkAudioName": "",
      "actionBefore": "",
      "actionWhile": "",
      "actionAfter": "",
      "optionIcon": "",
      "iconPath": ""
    },
    {
      "id": 191700102,
      "nextDialogs": [
        191700103
      ],
      "talkRole": {
        "type": "TALK_ROLE_NPC",
        "_id": "1050"
      },
      "talkContentTextMapHash": 907567058,
      "talkAssetPath": "",
      "talkAssetPathAlter": "",
      "talkAudioName": "",
      "actionBefore": "",
      "actionWhile": "",
      "actionAfter": "",
      "optionIcon": "",
      "iconPath": ""
    },
    {
      "id": 191700103,
      "nextDialogs": [
        191700104
      ],
      "talkRole": {
        "type": "TALK_ROLE_NPC",
        "_id": "1051"
      },
      "talkContentTextMapHash": 1273102482,
      "talkAssetPath": "",
      "talkAssetPathAlter": "",
      "talkAudioName": "",
      "actionBefore": "",
      "actionWhile": "",
      "actionAfter": "",
      "optionIcon": "",
      "iconPath": ""
    },
    {
      "id": 191700104,
      "nextDialogs": [
        191700105
      ],
      "talkRole": {
        "type": "TALK_ROLE_NPC",
        "_id": "1050"
      },
      "talkContentTextMapHash": 1541709842,
      "talkAssetPath": "",
      "talkAssetPathAlter": "",
      "talkAudioName": "",
      "actionBefore": "",
      "actionWhile": "",
      "actionAfter": "",
      "optionIcon": "",
      "iconPath": ""
    },
    {
      "id": 191700105,
      "nextDialogs": [
        191700106
      ],
      "talkRole": {
        "type": "TALK_ROLE_NPC",
        "_id": "1051"
      },
      "talkContentTextMapHash": 1386144418,
      "talkAssetPath": "",
      "talkAssetPathAlter": "",
      "talkAudioName": "",
      "actionBefore": "",
      "actionWhile": "",
      "actionAfter": "",
      "optionIcon": "",
      "iconPath": ""
    },
    {
      "id": 191700106,
      "nextDialogs": [
        191700107
      ],
      "talkRole": {
        "type": "TALK_ROLE_NPC",
        "_id": "1050"
      },
      "talkContentTextMapHash": 2336616562,
      "talkAssetPath": "",
      "talkAssetPathAlter": "",
      "talkAudioName": "",
      "actionBefore": "",
      "actionWhile": "",
      "actionAfter": "",
      "optionIcon": "",
      "iconPath": ""
    },
    {
      "id": 191700107,
      "nextDialogs": [
        191700108
      ],
      "talkShowType": "TALK_SHOW_FORCE_SELECT",
      "talkRole": {
        "type": "TALK_ROLE_PLAYER",
        "_id": ""
      },
      "talkContentTextMapHash": 2000720754,
      "talkAssetPath": "",
      "talkAssetPathAlter": "",
      "talkAudioName": "",
      "actionBefore": "",
      "actionWhile": "",
      "actionAfter": "",
      "optionIcon": "",
      "iconPath": ""
    },
    {
      "id": 191700108,
      "nextDialogs": [
        191700109
      ],
      "talkRole": {
        "type": "TALK_ROLE_NPC",
        "_id": "1051"
      },
      "talkContentTextMapHash": 2743851770,
      "talkAssetPath": "",
      "talkAssetPathAlter": "",
      "talkAudioName": "",
      "actionBefore": "",
      "actionWhile": "",
      "actionAfter": "",
      "optionIcon": "",
      "iconPath": ""
    },
    {
      "id": 191700109,
      "nextDialogs": [
        191700110,
        191700111
      ],
      "talkRole": {
        "type": "TALK_ROLE_NPC",
        "_id": "1050"
      },
      "talkContentTextMapHash": 3912559730,
      "talkAssetPath": "",
      "talkAssetPathAlter": "",
      "talkAudioName": "",
      "actionBefore": "",
      "actionWhile": "",
      "actionAfter": "",
      "optionIcon": "",
      "iconPath": ""
    },
    {
      "id": 191700110,
      "nextDialogs": [
        191700112
      ],
      "talkRole": {
        "type": "TALK_ROLE_PLAYER",
        "_id": ""
      },
      "talkContentTextMapHash": 1277328026,
      "talkAssetPath": "",
      "talkAssetPathAlter": "",
      "talkAudioName": "",
      "actionBefore": "",
      "actionWhile": "",
      "actionAfter": "",
      "optionIcon": "",
      "iconPath": ""
    },
    {
      "id": 191700111,
      "nextDialogs": [
        191700112
      ],
      "talkRole": {
        "type": "TALK_ROLE_PLAYER",
        "_id": ""
      },
      "talkContentTextMapHash": 2377280610,
      "talkAssetPath": "",
      "talkAssetPathAlter": "",
      "talkAudioName": "",
      "actionBefore": "",
      "actionWhile": "",
      "actionAfter": "",
      "optionIcon": "",
      "iconPath": ""
    },
    {
      "id": 191700112,
      "nextDialogs": [
        191700113
      ],
      "talkRole": {
        "type": "TALK_ROLE_NPC",
        "_id": "1050"
      },
      "talkContentTextMapHash": 3372825386,
      "talkAssetPath": "",
      "talkAssetPathAlter": "",
      "talkAudioName": "",
      "actionBefore": "",
      "actionWhile": "",
      "actionAfter": "",
      "optionIcon": "",
      "iconPath": ""
    },
    {
      "id": 191700113,
      "nextDialogs": [
        191700114,
        191700115
      ],
      "talkRole": {
        "type": "TALK_ROLE_NPC",
        "_id": "1050"
      },
      "talkContentTextMapHash": 2454260402,
      "talkAssetPath": "",
      "talkAssetPathAlter": "",
      "talkAudioName": "",
      "actionBefore": "",
      "actionWhile": "",
      "actionAfter": "",
      "optionIcon": "",
      "iconPath": ""
    },
    {
      "id": 191700114,
      "nextDialogs": [
        191700116
      ],
      "talkRole": {
        "type": "TALK_ROLE_PLAYER",
        "_id": ""
      },
      "talkContentTextMapHash": 518315666,
      "talkAssetPath": "",
      "talkAssetPathAlter": "",
      "talkAudioName": "",
      "actionBefore": "",
      "actionWhile": "",
      "actionAfter": "",
      "optionIcon": "",
      "iconPath": ""
    },
    {
      "id": 191700115,
      "nextDialogs": [
        191700116
      ],
      "talkRole": {
        "type": "TALK_ROLE_PLAYER",
        "_id": ""
      },
      "talkContentTextMapHash": 3502557034,
      "talkAssetPath": "",
      "talkAssetPathAlter": "",
      "talkAudioName": "",
      "actionBefore": "",
      "actionWhile": "",
      "actionAfter": "",
      "optionIcon": "",
      "iconPath": ""
    },
    {
      "id": 191700116,
      "nextDialogs": [
        191700117
      ],
      "talkRole": {
        "type": "TALK_ROLE_NPC",
        "_id": "1050"
      },
      "talkContentTextMapHash": 3077509778,
      "talkAssetPath": "",
      "talkAssetPathAlter": "",
      "talkAudioName": "",
      "actionBefore": "",
      "actionWhile": "",
      "actionAfter": "",
      "optionIcon": "",
      "iconPath": ""
    },
    {
      "id": 191700117,
      "nextDialogs": [
        191700118
      ],
      "talkShowType": "TALK_SHOW_FORCE_SELECT",
      "talkRole": {
        "type": "TALK_ROLE_PLAYER",
        "_id": ""
      },
      "talkContentTextMapHash": 1448285962,
      "talkAssetPath": "",
      "talkAssetPathAlter": "",
      "talkAudioName": "",
      "actionBefore": "",
      "actionWhile": "",
      "actionAfter": "",
      "optionIcon": "",
      "iconPath": ""
    },
    {
      "id": 191700118,
      "nextDialogs": [
        191700119
      ],
      "talkRole": {
        "type": "TALK_ROLE_NPC",
        "_id": "1050"
      },
      "talkContentTextMapHash": 3518547522,
      "talkAssetPath": "",
      "talkAssetPathAlter": "",
      "talkAudioName": "",
      "actionBefore": "",
      "actionWhile": "",
      "actionAfter": "",
      "optionIcon": "",
      "iconPath": ""
    },
    {
      "id": 191700119,
      "nextDialogs": [
        191700120
      ],
      "talkShowType": "TALK_SHOW_FORCE_SELECT",
      "talkRole": {
        "type": "TALK_ROLE_PLAYER",
        "_id": ""
      },
      "talkContentTextMapHash": 2046046434,
      "talkAssetPath": "",
      "talkAssetPathAlter": "",
      "talkAudioName": "",
      "actionBefore": "",
      "actionWhile": "",
      "actionAfter": "",
      "optionIcon": "",
      "iconPath": ""
    },
    {
      "id": 191700120,
      "nextDialogs": [
        191700121
      ],
      "talkRole": {
        "type": "TALK_ROLE_NPC",
        "_id": "1050"
      },
      "talkContentTextMapHash": 859384018,
      "talkAssetPath": "",
      "talkAssetPathAlter": "",
      "talkAudioName": "",
      "actionBefore": "",
      "actionWhile": "",
      "actionAfter": "",
      "optionIcon": "",
      "iconPath": ""
    },
    {
      "id": 191700121,
      "nextDialogs": [
        191700122
      ],
      "talkShowType": "TALK_SHOW_FORCE_SELECT",
      "talkRole": {
        "type": "TALK_ROLE_PLAYER",
        "_id": ""
      },
      "talkContentTextMapHash": 3505905106,
      "talkAssetPath": "",
      "talkAssetPathAlter": "",
      "talkAudioName": "",
      "actionBefore": "",
      "actionWhile": "",
      "actionAfter": "",
      "optionIcon": "",
      "iconPath": ""
    },
    {
      "id": 191700122,
      "nextDialogs": [
        191700123
      ],
      "talkRole": {
        "type": "TALK_ROLE_NPC",
        "_id": "1050"
      },
      "talkContentTextMapHash": 1858314186,
      "talkAssetPath": "",
      "talkAssetPathAlter": "",
      "talkAudioName": "",
      "actionBefore": "",
      "actionWhile": "",
      "actionAfter": "",
      "optionIcon": "",
      "iconPath": ""
    },
    {
      "id": 191700123,
      "nextDialogs": [
        191700124
      ],
      "talkRole": {
        "type": "TALK_ROLE_NPC",
        "_id": "1050"
      },
      "talkContentTextMapHash": 4290386810,
      "talkAssetPath": "",
      "talkAssetPathAlter": "",
      "talkAudioName": "",
      "actionBefore": "",
      "actionWhile": "",
      "actionAfter": "",
      "optionIcon": "",
      "iconPath": ""
    },
    {
      "id": 191700124,
      "nextDialogs": [
        191700125
      ],
      "talkRole": {
        "type": "TALK_ROLE_NPC",
        "_id": "1051"
      },
      "talkContentTextMapHash": 3132861834,
      "talkAssetPath": "",
      "talkAssetPathAlter": "",
      "talkAudioName": "",
      "actionBefore": "",
      "actionWhile": "",
      "actionAfter": "",
      "optionIcon": "",
      "iconPath": ""
    },
    {
      "id": 191700125,
      "nextDialogs": [
        191700126
      ],
      "talkRole": {
        "type": "TALK_ROLE_NPC",
        "_id": "1050"
      },
      "talkContentTextMapHash": 2545171730,
      "talkAssetPath": "",
      "talkAssetPathAlter": "",
      "talkAudioName": "",
      "actionBefore": "",
      "actionWhile": "",
      "actionAfter": "",
      "optionIcon": "",
      "iconPath": ""
    },
    {
      "id": 191700126,
      "nextDialogs": [
        191700127
      ],
      "talkRole": {
        "type": "TALK_ROLE_NPC",
        "_id": "1051"
      },
      "talkContentTextMapHash": 1167861522,
      "talkAssetPath": "",
      "talkAssetPathAlter": "",
      "talkAudioName": "",
      "actionBefore": "",
      "actionWhile": "",
      "actionAfter": "",
      "optionIcon": "",
      "iconPath": ""
    },
    {
      "id": 191700127,
      "nextDialogs": [
        191700128
      ],
      "talkShowType": "TALK_SHOW_FORCE_SELECT",
      "talkRole": {
        "type": "TALK_ROLE_PLAYER",
        "_id": ""
      },
      "talkContentTextMapHash": 303245258,
      "talkAssetPath": "",
      "talkAssetPathAlter": "",
      "talkAudioName": "",
      "actionBefore": "",
      "actionWhile": "",
      "actionAfter": "",
      "optionIcon": "",
      "iconPath": ""
    },
    {
      "id": 191700128,
      "nextDialogs": [
        191700129
      ],
      "talkRole": {
        "type": "TALK_ROLE_NPC",
        "_id": "1050"
      },
      "talkContentTextMapHash": 1070109858,
      "talkAssetPath": "",
      "talkAssetPathAlter": "",
      "talkAudioName": "",
      "actionBefore": "",
      "actionWhile": "",
      "actionAfter": "",
      "optionIcon": "",
      "iconPath": ""
    },
    {
      "id": 191700129,
      "nextDialogs": [
        191700130
      ],
      "talkRole": {
        "type": "TALK_ROLE_NPC",
        "_id": "1050"
      },
      "talkContentTextMapHash": 546089074,
      "talkAssetPath": "",
      "talkAssetPathAlter": "",
      "talkAudioName": "",
      "actionBefore": "",
      "actionWhile": "",
      "actionAfter": "",
      "optionIcon": "",
      "iconPath": ""
    },
    {
      "id": 191700130,
      "nextDialogs": [
        191700131
      ],
      "talkRole": {
        "type": "TALK_ROLE_NPC",
        "_id": "1050"
      },
      "talkContentTextMapHash": 1341543106,
      "talkAssetPath": "",
      "talkAssetPathAlter": "",
      "talkAudioName": "",
      "actionBefore": "",
      "actionWhile": "",
      "actionAfter": "",
      "optionIcon": "",
      "iconPath": ""
    },
    {
      "id": 191700131,
      "nextDialogs": [
        191700132
      ],
      "talkShowType": "TALK_SHOW_FORCE_SELECT",
      "talkRole": {
        "type": "TALK_ROLE_PLAYER",
        "_id": ""
      },
      "talkContentTextMapHash": 1149400986,
      "talkAssetPath": "",
      "talkAssetPathAlter": "",
      "talkAudioName": "",
      "actionBefore": "",
      "actionWhile": "",
      "actionAfter": "",
      "optionIcon": "",
      "iconPath": ""
    },
    {
      "id": 191700132,
      "nextDialogs": [
        191700133
      ],
      "talkRole": {
        "type": "TALK_ROLE_NPC",
        "_id": "1050"
      },
      "talkContentTextMapHash": 1067317698,
      "talkAssetPath": "",
      "talkAssetPathAlter": "",
      "talkAudioName": "",
      "actionBefore": "",
      "actionWhile": "",
      "actionAfter": "",
      "optionIcon": "",
      "iconPath": ""
    },
    {
      "id": 191700133,
      "nextDialogs": [
        191700134
      ],
      "talkRole": {
        "type": "TALK_ROLE_NPC",
        "_id": "1050"
      },
      "talkContentTextMapHash": 154457602,
      "talkAssetPath": "",
      "talkAssetPathAlter": "",
      "talkAudioName": "",
      "actionBefore": "",
      "actionWhile": "",
      "actionAfter": "",
      "optionIcon": "",
      "iconPath": ""
    },
    {
      "id": 191700134,
      "nextDialogs": [
        191700135
      ],
      "talkShowType": "TALK_SHOW_FORCE_SELECT",
      "talkRole": {
        "type": "TALK_ROLE_PLAYER",
        "_id": ""
      },
      "talkContentTextMapHash": 700713602,
      "talkAssetPath": "",
      "talkAssetPathAlter": "",
      "talkAudioName": "",
      "actionBefore": "",
      "actionWhile": "",
      "actionAfter": "",
      "optionIcon": "",
      "iconPath": ""
    },
    {
      "id": 191700135,
      "nextDialogs": [
        191700136
      ],
      "talkRole": {
        "type": "TALK_ROLE_NPC",
        "_id": "1051"
      },
      "talkContentTextMapHash": 2326218530,
      "talkAssetPath": "",
      "talkAssetPathAlter": "",
      "talkAudioName": "",
      "actionBefore": "",
      "actionWhile": "",
      "actionAfter": "",
      "optionIcon": "",
      "iconPath": ""
    },
    {
      "id": 191700136,
      "nextDialogs": [
        191700137
      ],
      "talkRole": {
        "type": "TALK_ROLE_NPC",
        "_id": "1050"
      },
      "talkContentTextMapHash": 3959424458,
      "talkAssetPath": "",
      "talkAssetPathAlter": "",
      "talkAudioName": "",
      "actionBefore": "",
      "actionWhile": "",
      "actionAfter": "",
      "optionIcon": "",
      "iconPath": ""
    },
    {
      "id": 191700137,
      "nextDialogs": [
        191700138
      ],
      "talkRole": {
        "type": "TALK_ROLE_NPC",
        "_id": "1050"
      },
      "talkContentTextMapHash": 3467225626,
      "talkAssetPath": "",
      "talkAssetPathAlter": "",
      "talkAudioName": "",
      "actionBefore": "",
      "actionWhile": "",
      "actionAfter": "",
      "optionIcon": "",
      "iconPath": ""
    },
    {
      "id": 191700138,
      "nextDialogs": [
        191700139
      ],
      "talkRole": {
        "type": "TALK_ROLE_NPC",
        "_id": "1050"
      },
      "talkContentTextMapHash": 3274324762,
      "talkAssetPath": "",
      "talkAssetPathAlter": "",
      "talkAudioName": "",
      "actionBefore": "",
      "actionWhile": "",
      "actionAfter": "",
      "optionIcon": "",
      "iconPath": ""
    },
    {
      "id": 191700139,
      "talkRole": {
        "type": "TALK_ROLE_NPC",
        "_id": "1051"
      },
      "talkContentTextMapHash": 442609882,
      "talkAssetPath": "",
      "talkAssetPathAlter": "",
      "talkAudioName": "",
      "actionBefore": "",
      "actionWhile": "",
      "actionAfter": "",
      "optionIcon": "",
      "iconPath": ""
    }
  ]
}