{
  "talkId": 113,
  "KPGKDHAFHFE": "COOP",
  "dialogList": [
    {
      "id": 191730901,
      "nextDialogs": [
        191730902
      ],
      "talkRole": {
        "type": "TALK_ROLE_NPC",
        "_id": "513"
      },
      "talkContentTextMapHash": 292889650,
      "talkAssetPath": "",
      "talkAssetPathAlter": "",
      "talkAudioName": "",
      "actionBefore": "",
      "actionWhile": "",
      "actionAfter": "",
      "optionIcon": "",
      "iconPath": ""
    },
    {
      "id": 191730902,
      "nextDialogs": [
        191730903
      ],
      "talkRole": {
        "type": "TALK_ROLE_NPC",
        "_id": "513"
      },
      "talkContentTextMapHash": 2538865722,
      "talkAssetPath": "",
      "talkAssetPathAlter": "",
      "talkAudioName": "",
      "actionBefore": "",
      "actionWhile": "",
      "actionAfter": "",
      "optionIcon": "",
      "iconPath": ""
    },
    {
      "id": 191730903,
      "nextDialogs": [
        191730904
      ],
      "talkRole": {
        "type": "TALK_ROLE_NPC",
        "_id": "513"
      },
      "talkContentTextMapHash": 4104978986,
      "talkAssetPath": "",
      "talkAssetPathAlter": "",
      "talkAudioName": "",
      "actionBefore": "",
      "actionWhile": "",
      "actionAfter": "",
      "optionIcon": "",
      "iconPath": ""
    },
    {
      "id": 191730904,
      "nextDialogs": [
        191730905
      ],
      "talkShowType": "TALK_SHOW_FORCE_SELECT",
      "talkRole": {
        "type": "TALK_ROLE_PLAYER",
        "_id": ""
      },
      "talkContentTextMapHash": 429284354,
      "talkAssetPath": "",
      "talkAssetPathAlter": "",
      "talkAudioName": "",
      "actionBefore": "",
      "actionWhile": "",
      "actionAfter": "",
      "optionIcon": "",
      "iconPath": ""
    },
    {
      "id": 191730905,
      "nextDialogs": [
        191730906
      ],
      "talkRole": {
        "type": "TALK_ROLE_NPC",
        "_id": "513"
      },
      "talkContentTextMapHash": 2245866994,
      "talkAssetPath": "",
      "talkAssetPathAlter": "",
      "talkAudioName": "",
      "actionBefore": "",
      "actionWhile": "",
      "actionAfter": "",
      "optionIcon": "",
      "iconPath": ""
    },
    {
      "id": 191730906,
      "nextDialogs": [
        191730907
      ],
      "talkRole": {
        "type": "TALK_ROLE_NPC",
        "_id": "513"
      },
      "talkContentTextMapHash": 4056399594,
      "talkAssetPath": "",
      "talkAssetPathAlter": "",
      "talkAudioName": "",
      "actionBefore": "",
      "actionWhile": "",
      "actionAfter": "",
      "optionIcon": "",
      "iconPath": ""
    },
    {
      "id": 191730907,
      "nextDialogs": [
        191730908
      ],
      "talkShowType": "TALK_SHOW_FORCE_SELECT",
      "talkRole": {
        "type": "TALK_ROLE_PLAYER",
        "_id": ""
      },
      "talkContentTextMapHash": 1642986434,
      "talkAssetPath": "",
      "talkAssetPathAlter": "",
      "talkAudioName": "",
      "actionBefore": "",
      "actionWhile": "",
      "actionAfter": "",
      "optionIcon": "",
      "iconPath": ""
    },
    {
      "id": 191730908,
      "nextDialogs": [
        191730909,
        191730910
      ],
      "talkRole": {
        "type": "TALK_ROLE_NPC",
        "_id": "513"
      },
      "talkContentTextMapHash": 3601656178,
      "talkAssetPath": "",
      "talkAssetPathAlter": "",
      "talkAudioName": "",
      "actionBefore": "",
      "actionWhile": "",
      "actionAfter": "",
      "optionIcon": "",
      "iconPath": ""
    },
    {
      "id": 191730909,
      "nextDialogs": [
        191730911
      ],
      "talkRole": {
        "type": "TALK_ROLE_PLAYER",
        "_id": ""
      },
      "talkContentTextMapHash": 2956892586,
      "talkAssetPath": "",
      "talkAssetPathAlter": "",
      "talkAudioName": "",
      "actionBefore": "",
      "actionWhile": "",
      "actionAfter": "",
      "optionIcon": "",
      "iconPath": ""
    },
    {
      "id": 191730910,
      "nextDialogs": [
        191730911
      ],
      "talkRole": {
        "type": "TALK_ROLE_PLAYER",
        "_id": ""
      },
      "talkContentTextMapHash": 2809604762,
      "talkAssetPath": "",
      "talkAssetPathAlter": "",
      "talkAudioName": "",
      "actionBefore": "",
      "actionWhile": "",
      "actionAfter": "",
      "optionIcon": "",
      "iconPath": ""
    },
    {
      "id": 191730911,
      "nextDialogs": [
        191730912
      ],
      "talkRole": {
        "type": "TALK_ROLE_NPC",
        "_id": "513"
      },
      "talkContentTextMapHash": 1394499666,
      "talkAssetPath": "",
      "talkAssetPathAlter": "",
      "talkAudioName": "",
      "actionBefore": "",
      "actionWhile": "",
      "actionAfter": "",
      "optionIcon": "",
      "iconPath": ""
    },
    {
      "id": 191730912,
      "nextDialogs": [
        191730913,
        191730914
      ],
      "talkRole": {
        "type": "TALK_ROLE_NPC",
        "_id": "513"
      },
      "talkContentTextMapHash": 346443522,
      "talkAssetPath": "",
      "talkAssetPathAlter": "",
      "talkAudioName": "",
      "actionBefore": "",
      "actionWhile": "",
      "actionAfter": "",
      "optionIcon": "",
      "iconPath": ""
    },
    {
      "id": 191730913,
      "nextDialogs": [
        191730915
      ],
      "talkRole": {
        "type": "TALK_ROLE_PLAYER",
        "_id": ""
      },
      "talkContentTextMapHash": 1131884274,
      "talkAssetPath": "",
      "talkAssetPathAlter": "",
      "talkAudioName": "",
      "actionBefore": "",
      "actionWhile": "",
      "actionAfter": "",
      "optionIcon": "",
      "iconPath": ""
    },
    {
      "id": 191730914,
      "nextDialogs": [
        191730915
      ],
      "talkRole": {
        "type": "TALK_ROLE_PLAYER",
        "_id": ""
      },
      "talkContentTextMapHash": 2904859410,
      "talkAssetPath": "",
      "talkAssetPathAlter": "",
      "talkAudioName": "",
      "actionBefore": "",
      "actionWhile": "",
      "actionAfter": "",
      "optionIcon": "",
      "iconPath": ""
    },
    {
      "id": 191730915,
      "nextDialogs": [
        191730916
      ],
      "talkRole": {
        "type": "TALK_ROLE_NPC",
        "_id": "513"
      },
      "talkContentTextMapHash": 2207644818,
      "talkAssetPath": "",
      "talkAssetPathAlter": "",
      "talkAudioName": "",
      "actionBefore": "",
      "actionWhile": "",
      "actionAfter": "",
      "optionIcon": "",
      "iconPath": ""
    },
    {
      "id": 191730916,
      "nextDialogs": [
        191730917
      ],
      "talkShowType": "TALK_SHOW_FORCE_SELECT",
      "talkRole": {
        "type": "TALK_ROLE_PLAYER",
        "_id": ""
      },
      "talkContentTextMapHash": 3001693322,
      "talkAssetPath": "",
      "talkAssetPathAlter": "",
      "talkAudioName": "",
      "actionBefore": "",
      "actionWhile": "",
      "actionAfter": "",
      "optionIcon": "",
      "iconPath": ""
    },
    {
      "id": 191730917,
      "nextDialogs": [
        191730918
      ],
      "talkRole": {
        "type": "TALK_ROLE_NPC",
        "_id": "513"
      },
      "talkContentTextMapHash": 3807946618,
      "talkAssetPath": "",
      "talkAssetPathAlter": "",
      "talkAudioName": "",
      "actionBefore": "",
      "actionWhile": "",
      "actionAfter": "",
      "optionIcon": "",
      "iconPath": ""
    },
    {
      "id": 191730918,
      "nextDialogs": [
        191730919
      ],
      "talkRole": {
        "type": "TALK_ROLE_NPC",
        "_id": "513"
      },
      "talkContentTextMapHash": 4244654226,
      "talkAssetPath": "",
      "talkAssetPathAlter": "",
      "talkAudioName": "",
      "actionBefore": "",
      "actionWhile": "",
      "actionAfter": "",
      "optionIcon": "",
      "iconPath": ""
    },
    {
      "id": 191730919,
      "nextDialogs": [
        191730920
      ],
      "talkRole": {
        "type": "TALK_ROLE_NPC",
        "_id": "513"
      },
      "talkContentTextMapHash": 767415490,
      "talkAssetPath": "",
      "talkAssetPathAlter": "",
      "talkAudioName": "",
      "actionBefore": "",
      "actionWhile": "",
      "actionAfter": "",
      "optionIcon": "",
      "iconPath": ""
    },
    {
      "id": 191730920,
      "nextDialogs": [
        191730921
      ],
      "talkRole": {
        "type": "TALK_ROLE_NPC",
        "_id": "513"
      },
      "talkContentTextMapHash": 1506037522,
      "talkAssetPath": "",
      "talkAssetPathAlter": "",
      "talkAudioName": "",
      "actionBefore": "",
      "actionWhile": "",
      "actionAfter": "",
      "optionIcon": "",
      "iconPath": ""
    },
    {
      "id": 191730921,
      "nextDialogs": [
        191730922
      ],
      "talkRole": {
        "type": "TALK_ROLE_BLACK_SCREEN",
        "_id": ""
      },
      "talkContentTextMapHash": 360142434,
      "talkAssetPath": "",
      "talkAssetPathAlter": "",
      "talkAudioName": "",
      "actionBefore": "",
      "actionWhile": "",
      "actionAfter": "",
      "optionIcon": "",
      "iconPath": ""
    },
    {
      "id": 191730922,
      "nextDialogs": [
        191730923
      ],
      "talkRole": {
        "type": "TALK_ROLE_NPC",
        "_id": "513"
      },
      "talkContentTextMapHash": 3628814586,
      "talkAssetPath": "",
      "talkAssetPathAlter": "",
      "talkAudioName": "",
      "actionBefore": "",
      "actionWhile": "",
      "actionAfter": "",
      "optionIcon": "",
      "iconPath": ""
    },
    {
      "id": 191730923,
      "nextDialogs": [
        191730924
      ],
      "talkRole": {
        "type": "TALK_ROLE_NPC",
        "_id": "513"
      },
      "talkContentTextMapHash": 530324106,
      "talkAssetPath": "",
      "talkAssetPathAlter": "",
      "talkAudioName": "",
      "actionBefore": "",
      "actionWhile": "",
      "actionAfter": "",
      "optionIcon": "",
      "iconPath": ""
    },
    {
      "id": 191730924,
      "nextDialogs": [
        191730925
      ],
      "talkRole": {
        "type": "TALK_ROLE_NPC",
        "_id": "513"
      },
      "talkContentTextMapHash": 1184191498,
      "talkAssetPath": "",
      "talkAssetPathAlter": "",
      "talkAudioName": "",
      "actionBefore": "",
      "actionWhile": "",
      "actionAfter": "",
      "optionIcon": "",
      "iconPath": ""
    },
    {
      "id": 191730925,
      "nextDialogs": [
        191730926
      ],
      "talkShowType": "TALK_SHOW_FORCE_SELECT",
      "talkRole": {
        "type": "TALK_ROLE_PLAYER",
        "_id": ""
      },
      "talkContentTextMapHash": 525344674,
      "talkAssetPath": "",
      "talkAssetPathAlter": "",
      "talkAudioName": "",
      "actionBefore": "",
      "actionWhile": "",
      "actionAfter": "",
      "optionIcon": "",
      "iconPath": ""
    },
    {
      "id": 191730926,
      "talkRole": {
        "type": "TALK_ROLE_NPC",
        "_id": "513"
      },
      "talkContentTextMapHash": 2246431522,
      "talkAssetPath": "",
      "talkAssetPathAlter": "",
      "talkAudioName": "",
      "actionBefore": "",
      "actionWhile": "",
      "actionAfter": "",
      "optionIcon": "",
      "iconPath": ""
    }
  ]
}