{
  "talkId": 133,
  "KPGKDHAFHFE": "COOP",
  "dialogList": [
    {
      "id": 191731401,
      "nextDialogs": [
        191731402
      ],
      "talkRole": {
        "type": "TALK_ROLE_NPC",
        "_id": "4234"
      },
      "talkContentTextMapHash": 2690433730,
      "talkAssetPath": "",
      "talkAssetPathAlter": "",
      "talkAudioName": "",
      "actionBefore": "",
      "actionWhile": "",
      "actionAfter": "",
      "optionIcon": "",
      "iconPath": ""
    },
    {
      "id": 191731402,
      "nextDialogs": [
        191731403
      ],
      "talkRole": {
        "type": "TALK_ROLE_NPC",
        "_id": "1051"
      },
      "talkContentTextMapHash": 487122098,
      "talkAssetPath": "",
      "talkAssetPathAlter": "",
      "talkAudioName": "",
      "actionBefore": "",
      "actionWhile": "",
      "actionAfter": "",
      "optionIcon": "",
      "iconPath": ""
    },
    {
      "id": 191731403,
      "talkRole": {
        "type": "TALK_ROLE_NPC",
        "_id": "1050"
      },
      "talkContentTextMapHash": 4262126650,
      "talkAssetPath": "",
      "talkAssetPathAlter": "",
      "talkAudioName": "",
      "actionBefore": "",
      "actionWhile": "",
      "actionAfter": "",
      "optionIcon": "",
      "iconPath": ""
    }
  ]
}