{
  "talkId": 89,
  "KPGKDHAFHFE": "COOP",
  "dialogList": [
    {
      "id": 191730301,
      "nextDialogs": [
        191730302
      ],
      "talkRole": {
        "type": "TALK_ROLE_NPC",
        "_id": "1050"
      },
      "talkContentTextMapHash": 1139611634,
      "talkAssetPath": "",
      "talkAssetPathAlter": "",
      "talkAudioName": "",
      "actionBefore": "",
      "actionWhile": "",
      "actionAfter": "",
      "optionIcon": "",
      "iconPath": ""
    },
    {
      "id": 191730302,
      "nextDialogs": [
        191730303
      ],
      "talkShowType": "TALK_SHOW_FORCE_SELECT",
      "talkRole": {
        "type": "TALK_ROLE_PLAYER",
        "_id": ""
      },
      "talkContentTextMapHash": 3920578418,
      "talkAssetPath": "",
      "talkAssetPathAlter": "",
      "talkAudioName": "",
      "actionBefore": "",
      "actionWhile": "",
      "actionAfter": "",
      "optionIcon": "",
      "iconPath": ""
    },
    {
      "id": 191730303,
      "nextDialogs": [
        191730304
      ],
      "talkRole": {
        "type": "TALK_ROLE_NPC",
        "_id": "1050"
      },
      "talkContentTextMapHash": 1258063522,
      "talkAssetPath": "",
      "talkAssetPathAlter": "",
      "talkAudioName": "",
      "actionBefore": "",
      "actionWhile": "",
      "actionAfter": "",
      "optionIcon": "",
      "iconPath": ""
    },
    {
      "id": 191730304,
      "nextDialogs": [
        191730305
      ],
      "talkRole": {
        "type": "TALK_ROLE_NPC",
        "_id": "1050"
      },
      "talkContentTextMapHash": 3830813738,
      "talkAssetPath": "",
      "talkAssetPathAlter": "",
      "talkAudioName": "",
      "actionBefore": "",
      "actionWhile": "",
      "actionAfter": "",
      "optionIcon": "",
      "iconPath": ""
    },
    {
      "id": 191730305,
      "nextDialogs": [
        191730306
      ],
      "talkShowType": "TALK_SHOW_FORCE_SELECT",
      "talkRole": {
        "type": "TALK_ROLE_PLAYER",
        "_id": ""
      },
      "talkContentTextMapHash": 1262242538,
      "talkAssetPath": "",
      "talkAssetPathAlter": "",
      "talkAudioName": "",
      "actionBefore": "",
      "actionWhile": "",
      "actionAfter": "",
      "optionIcon": "",
      "iconPath": ""
    },
    {
      "id": 191730306,
      "nextDialogs": [
        191730307
      ],
      "talkRole": {
        "type": "TALK_ROLE_NPC",
        "_id": "1050"
      },
      "talkContentTextMapHash": 2351111674,
      "talkAssetPath": "",
      "talkAssetPathAlter": "",
      "talkAudioName": "",
      "actionBefore": "",
      "actionWhile": "",
      "actionAfter": "",
      "optionIcon": "",
      "iconPath": ""
    },
    {
      "id": 191730307,
      "nextDialogs": [
        191730308
      ],
      "talkRole": {
        "type": "TALK_ROLE_NEED_CLICK_BLACK_SCREEN",
        "_id": ""
      },
      "talkContentTextMapHash": 114230674,
      "talkAssetPath": "",
      "talkAssetPathAlter": "",
      "talkAudioName": "",
      "actionBefore": "",
      "actionWhile": "",
      "actionAfter": "",
      "optionIcon": "",
      "iconPath": ""
    },
    {
      "id": 191730308,
      "nextDialogs": [
        191730309
      ],
      "talkRole": {
        "type": "TALK_ROLE_NEED_CLICK_BLACK_SCREEN",
        "_id": ""
      },
      "talkContentTextMapHash": 3396315578,
      "talkAssetPath": "",
      "talkAssetPathAlter": "",
      "talkAudioName": "",
      "actionBefore": "",
      "actionWhile": "",
      "actionAfter": "",
      "optionIcon": "",
      "iconPath": ""
    },
    {
      "id": 191730309,
      "nextDialogs": [
        191730310
      ],
      "talkRole": {
        "type": "TALK_ROLE_NEED_CLICK_BLACK_SCREEN",
        "_id": ""
      },
      "talkContentTextMapHash": 3613935226,
      "talkAssetPath": "",
      "talkAssetPathAlter": "",
      "talkAudioName": "",
      "actionBefore": "",
      "actionWhile": "",
      "actionAfter": "",
      "optionIcon": "",
      "iconPath": ""
    },
    {
      "id": 191730310,
      "nextDialogs": [
        191730311
      ],
      "talkRole": {
        "type": "TALK_ROLE_NEED_CLICK_BLACK_SCREEN",
        "_id": ""
      },
      "talkContentTextMapHash": 4217174802,
      "talkAssetPath": "",
      "talkAssetPathAlter": "",
      "talkAudioName": "",
      "actionBefore": "",
      "actionWhile": "",
      "actionAfter": "",
      "optionIcon": "",
      "iconPath": ""
    },
    {
      "id": 191730311,
      "nextDialogs": [
        191730312
      ],
      "talkRole": {
        "type": "TALK_ROLE_NEED_CLICK_BLACK_SCREEN",
        "_id": ""
      },
      "talkContentTextMapHash": 2538068266,
      "talkAssetPath": "",
      "talkAssetPathAlter": "",
      "talkAudioName": "",
      "actionBefore": "",
      "actionWhile": "",
      "actionAfter": "",
      "optionIcon": "",
      "iconPath": ""
    },
    {
      "id": 191730312,
      "nextDialogs": [
        191730313
      ],
      "talkRole": {
        "type": "TALK_ROLE_NPC",
        "_id": "1050"
      },
      "talkContentTextMapHash": 2502780946,
      "talkAssetPath": "",
      "talkAssetPathAlter": "",
      "talkAudioName": "",
      "actionBefore": "",
      "actionWhile": "",
      "actionAfter": "",
      "optionIcon": "",
      "iconPath": ""
    },
    {
      "id": 191730313,
      "nextDialogs": [
        191730314
      ],
      "talkRole": {
        "type": "TALK_ROLE_NPC",
        "_id": "1050"
      },
      "talkContentTextMapHash": 1083901074,
      "talkAssetPath": "",
      "talkAssetPathAlter": "",
      "talkAudioName": "",
      "actionBefore": "",
      "actionWhile": "",
      "actionAfter": "",
      "optionIcon": "",
      "iconPath": ""
    },
    {
      "id": 191730314,
      "nextDialogs": [
        191730315
      ],
      "talkRole": {
        "type": "TALK_ROLE_NPC",
        "_id": "1050"
      },
      "talkContentTextMapHash": 1613684042,
      "talkAssetPath": "",
      "talkAssetPathAlter": "",
      "talkAudioName": "",
      "actionBefore": "",
      "actionWhile": "",
      "actionAfter": "",
      "optionIcon": "",
      "iconPath": ""
    },
    {
      "id": 191730315,
      "nextDialogs": [
        191730316
      ],
      "talkRole": {
        "type": "TALK_ROLE_NPC",
        "_id": "1050"
      },
      "talkContentTextMapHash": 844376122,
      "talkAssetPath": "",
      "talkAssetPathAlter": "",
      "talkAudioName": "",
      "actionBefore": "",
      "actionWhile": "",
      "actionAfter": "",
      "optionIcon": "",
      "iconPath": ""
    },
    {
      "id": 191730316,
      "nextDialogs": [
        191730317
      ],
      "talkRole": {
        "type": "TALK_ROLE_NPC",
        "_id": "1050"
      },
      "talkContentTextMapHash": 3923869986,
      "talkAssetPath": "",
      "talkAssetPathAlter": "",
      "talkAudioName": "",
      "actionBefore": "",
      "actionWhile": "",
      "actionAfter": "",
      "optionIcon": "",
      "iconPath": ""
    },
    {
      "id": 191730317,
      "nextDialogs": [
        191730318
      ],
      "talkRole": {
        "type": "TALK_ROLE_NPC",
        "_id": "1050"
      },
      "talkContentTextMapHash": 940755658,
      "talkAssetPath": "",
      "talkAssetPathAlter": "",
      "talkAudioName": "",
      "actionBefore": "",
      "actionWhile": "",
      "actionAfter": "",
      "optionIcon": "",
      "iconPath": ""
    },
    {
      "id": 191730318,
      "nextDialogs": [
        191730319
      ],
      "talkShowType": "TALK_SHOW_FORCE_SELECT",
      "talkRole": {
        "type": "TALK_ROLE_PLAYER",
        "_id": ""
      },
      "talkContentTextMapHash": 984021010,
      "talkAssetPath": "",
      "talkAssetPathAlter": "",
      "talkAudioName": "",
      "actionBefore": "",
      "actionWhile": "",
      "actionAfter": "",
      "optionIcon": "",
      "iconPath": ""
    },
    {
      "id": 191730319,
      "nextDialogs": [
        191730320
      ],
      "talkRole": {
        "type": "TALK_ROLE_NPC",
        "_id": "1050"
      },
      "talkContentTextMapHash": 688886082,
      "talkAssetPath": "",
      "talkAssetPathAlter": "",
      "talkAudioName": "",
      "actionBefore": "",
      "actionWhile": "",
      "actionAfter": "",
      "optionIcon": "",
      "iconPath": ""
    },
    {
      "id": 191730320,
      "nextDialogs": [
        191730321
      ],
      "talkRole": {
        "type": "TALK_ROLE_NPC",
        "_id": "1050"
      },
      "talkContentTextMapHash": 63889690,
      "talkAssetPath": "",
      "talkAssetPathAlter": "",
      "talkAudioName": "",
      "actionBefore": "",
      "actionWhile": "",
      "actionAfter": "",
      "optionIcon": "",
      "iconPath": ""
    },
    {
      "id": 191730321,
      "nextDialogs": [
        191730322
      ],
      "talkRole": {
        "type": "TALK_ROLE_NPC",
        "_id": "1050"
      },
      "talkContentTextMapHash": 753079122,
      "talkAssetPath": "",
      "talkAssetPathAlter": "",
      "talkAudioName": "",
      "actionBefore": "",
      "actionWhile": "",
      "actionAfter": "",
      "optionIcon": "",
      "iconPath": ""
    },
    {
      "id": 191730322,
      "nextDialogs": [
        191730323
      ],
      "talkRole": {
        "type": "TALK_ROLE_NPC",
        "_id": "1050"
      },
      "talkContentTextMapHash": 3631983146,
      "talkAssetPath": "",
      "talkAssetPathAlter": "",
      "talkAudioName": "",
      "actionBefore": "",
      "actionWhile": "",
      "actionAfter": "",
      "optionIcon": "",
      "iconPath": ""
    },
    {
      "id": 191730323,
      "nextDialogs": [
        191730324
      ],
      "talkRole": {
        "type": "TALK_ROLE_NPC",
        "_id": "1050"
      },
      "talkContentTextMapHash": 2841250386,
      "talkAssetPath": "",
      "talkAssetPathAlter": "",
      "talkAudioName": "",
      "actionBefore": "",
      "actionWhile": "",
      "actionAfter": "",
      "optionIcon": "",
      "iconPath": ""
    },
    {
      "id": 191730324,
      "nextDialogs": [
        191730325
      ],
      "talkRole": {
        "type": "TALK_ROLE_NPC",
        "_id": "1050"
      },
      "talkContentTextMapHash": 1373482578,
      "talkAssetPath": "",
      "talkAssetPathAlter": "",
      "talkAudioName": "",
      "actionBefore": "",
      "actionWhile": "",
      "actionAfter": "",
      "optionIcon": "",
      "iconPath": ""
    },
    {
      "id": 191730325,
      "nextDialogs": [
        191730326
      ],
      "talkShowType": "TALK_SHOW_FORCE_SELECT",
      "talkRole": {
        "type": "TALK_ROLE_PLAYER",
        "_id": ""
      },
      "talkContentTextMapHash": 3640374890,
      "talkAssetPath": "",
      "talkAssetPathAlter": "",
      "talkAudioName": "",
      "actionBefore": "",
      "actionWhile": "",
      "actionAfter": "",
      "optionIcon": "",
      "iconPath": ""
    },
    {
      "id": 191730326,
      "nextDialogs": [
        191730327
      ],
      "talkRole": {
        "type": "TALK_ROLE_NPC",
        "_id": "1051"
      },
      "talkContentTextMapHash": 3444179282,
      "talkAssetPath": "",
      "talkAssetPathAlter": "",
      "talkAudioName": "",
      "actionBefore": "",
      "actionWhile": "",
      "actionAfter": "",
      "optionIcon": "",
      "iconPath": ""
    },
    {
      "id": 191730327,
      "nextDialogs": [
        191730328
      ],
      "talkRole": {
        "type": "TALK_ROLE_NPC",
        "_id": "1050"
      },
      "talkContentTextMapHash": 21219842,
      "talkAssetPath": "",
      "talkAssetPathAlter": "",
      "talkAudioName": "",
      "actionBefore": "",
      "actionWhile": "",
      "actionAfter": "",
      "optionIcon": "",
      "iconPath": ""
    },
    {
      "id": 191730328,
      "nextDialogs": [
        191730329
      ],
      "talkRole": {
        "type": "TALK_ROLE_BLACK_SCREEN",
        "_id": ""
      },
      "talkContentTextMapHash": 1783255514,
      "talkAssetPath": "",
      "talkAssetPathAlter": "",
      "talkAudioName": "",
      "actionBefore": "",
      "actionWhile": "",
      "actionAfter": "",
      "optionIcon": "",
      "iconPath": ""
    },
    {
      "id": 191730329,
      "nextDialogs": [
        191730330
      ],
      "talkRole": {
        "type": "TALK_ROLE_NPC",
        "_id": "513"
      },
      "talkContentTextMapHash": 242183242,
      "talkAssetPath": "",
      "talkAssetPathAlter": "",
      "talkAudioName": "",
      "actionBefore": "",
      "actionWhile": "",
      "actionAfter": "",
      "optionIcon": "",
      "iconPath": ""
    },
    {
      "id": 191730330,
      "nextDialogs": [
        191730331
      ],
      "talkRole": {
        "type": "TALK_ROLE_NPC",
        "_id": "513"
      },
      "talkContentTextMapHash": 1401445418,
      "talkAssetPath": "",
      "talkAssetPathAlter": "",
      "talkAudioName": "",
      "actionBefore": "",
      "actionWhile": "",
      "actionAfter": "",
      "optionIcon": "",
      "iconPath": ""
    },
    {
      "id": 191730331,
      "nextDialogs": [
        191730332
      ],
      "talkShowType": "TALK_SHOW_FORCE_SELECT",
      "talkRole": {
        "type": "TALK_ROLE_PLAYER",
        "_id": ""
      },
      "talkContentTextMapHash": 3598503370,
      "talkAssetPath": "",
      "talkAssetPathAlter": "",
      "talkAudioName": "",
      "actionBefore": "",
      "actionWhile": "",
      "actionAfter": "",
      "optionIcon": "",
      "iconPath": ""
    },
    {
      "id": 191730332,
      "nextDialogs": [
        191730333
      ],
      "talkRole": {
        "type": "TALK_ROLE_NPC",
        "_id": "1050"
      },
      "talkContentTextMapHash": 119226642,
      "talkAssetPath": "",
      "talkAssetPathAlter": "",
      "talkAudioName": "",
      "actionBefore": "",
      "actionWhile": "",
      "actionAfter": "",
      "optionIcon": "",
      "iconPath": ""
    },
    {
      "id": 191730333,
      "nextDialogs": [
        191730334
      ],
      "talkRole": {
        "type": "TALK_ROLE_NPC",
        "_id": "513"
      },
      "talkContentTextMapHash": 1698454738,
      "talkAssetPath": "",
      "talkAssetPathAlter": "",
      "talkAudioName": "",
      "actionBefore": "",
      "actionWhile": "",
      "actionAfter": "",
      "optionIcon": "",
      "iconPath": ""
    },
    {
      "id": 191730334,
      "nextDialogs": [
        191730335
      ],
      "talkRole": {
        "type": "TALK_ROLE_NPC",
        "_id": "513"
      },
      "talkContentTextMapHash": 4004649674,
      "talkAssetPath": "",
      "talkAssetPathAlter": "",
      "talkAudioName": "",
      "actionBefore": "",
      "actionWhile": "",
      "actionAfter": "",
      "optionIcon": "",
      "iconPath": ""
    },
    {
      "id": 191730335,
      "nextDialogs": [
        191730336
      ],
      "talkShowType": "TALK_SHOW_FORCE_SELECT",
      "talkRole": {
        "type": "TALK_ROLE_PLAYER",
        "_id": ""
      },
      "talkContentTextMapHash": 1844883730,
      "talkAssetPath": "",
      "talkAssetPathAlter": "",
      "talkAudioName": "",
      "actionBefore": "",
      "actionWhile": "",
      "actionAfter": "",
      "optionIcon": "",
      "iconPath": ""
    },
    {
      "id": 191730336,
      "nextDialogs": [
        191730337
      ],
      "talkRole": {
        "type": "TALK_ROLE_NPC",
        "_id": "513"
      },
      "talkContentTextMapHash": 3888608498,
      "talkAssetPath": "",
      "talkAssetPathAlter": "",
      "talkAudioName": "",
      "actionBefore": "",
      "actionWhile": "",
      "actionAfter": "",
      "optionIcon": "",
      "iconPath": ""
    },
    {
      "id": 191730337,
      "nextDialogs": [
        191730338
      ],
      "talkRole": {
        "type": "TALK_ROLE_NPC",
        "_id": "513"
      },
      "talkContentTextMapHash": 3648563842,
      "talkAssetPath": "",
      "talkAssetPathAlter": "",
      "talkAudioName": "",
      "actionBefore": "",
      "actionWhile": "",
      "actionAfter": "",
      "optionIcon": "",
      "iconPath": ""
    },
    {
      "id": 191730338,
      "nextDialogs": [
        191730339
      ],
      "talkRole": {
        "type": "TALK_ROLE_NPC",
        "_id": "513"
      },
      "talkContentTextMapHash": 205185794,
      "talkAssetPath": "",
      "talkAssetPathAlter": "",
      "talkAudioName": "",
      "actionBefore": "",
      "actionWhile": "",
      "actionAfter": "",
      "optionIcon": "",
      "iconPath": ""
    },
    {
      "id": 191730339,
      "nextDialogs": [
        191730340
      ],
      "talkRole": {
        "type": "TALK_ROLE_NPC",
        "_id": "1051"
      },
      "talkContentTextMapHash": 2457049074,
      "talkAssetPath": "",
      "talkAssetPathAlter": "",
      "talkAudioName": "",
      "actionBefore": "",
      "actionWhile": "",
      "actionAfter": "",
      "optionIcon": "",
      "iconPath": ""
    },
    {
      "id": 191730340,
      "nextDialogs": [
        191730341
      ],
      "talkRole": {
        "type": "TALK_ROLE_NPC",
        "_id": "513"
      },
      "talkContentTextMapHash": 568595746,
      "talkAssetPath": "",
      "talkAssetPathAlter": "",
      "talkAudioName": "",
      "actionBefore": "",
      "actionWhile": "",
      "actionAfter": "",
      "optionIcon": "",
      "iconPath": ""
    },
    {
      "id": 191730341,
      "nextDialogs": [
        191730342
      ],
      "talkRole": {
        "type": "TALK_ROLE_NPC",
        "_id": "513"
      },
      "talkContentTextMapHash": 64768034,
      "talkAssetPath": "",
      "talkAssetPathAlter": "",
      "talkAudioName": "",
      "actionBefore": "",
      "actionWhile": "",
      "actionAfter": "",
      "optionIcon": "",
      "iconPath": ""
    },
    {
      "id": 191730342,
      "nextDialogs": [
        191730343
      ],
      "talkRole": {
        "type": "TALK_ROLE_NPC",
        "_id": "513"
      },
      "talkContentTextMapHash": 580473834,
      "talkAssetPath": "",
      "talkAssetPathAlter": "",
      "talkAudioName": "",
      "actionBefore": "",
      "actionWhile": "",
      "actionAfter": "",
      "optionIcon": "",
      "iconPath": ""
    },
    {
      "id": 191730343,
      "nextDialogs": [
        191730344
      ],
      "talkShowType": "TALK_SHOW_FORCE_SELECT",
      "talkRole": {
        "type": "TALK_ROLE_PLAYER",
        "_id": ""
      },
      "talkContentTextMapHash": 1995367490,
      "talkAssetPath": "",
      "talkAssetPathAlter": "",
      "talkAudioName": "",
      "actionBefore": "",
      "actionWhile": "",
      "actionAfter": "",
      "optionIcon": "",
      "iconPath": ""
    },
    {
      "id": 191730344,
      "nextDialogs": [
        191730345
      ],
      "talkRole": {
        "type": "TALK_ROLE_NPC",
        "_id": "513"
      },
      "talkContentTextMapHash": 1151783346,
      "talkAssetPath": "",
      "talkAssetPathAlter": "",
      "talkAudioName": "",
      "actionBefore": "",
      "actionWhile": "",
      "actionAfter": "",
      "optionIcon": "",
      "iconPath": ""
    },
    {
      "id": 191730345,
      "nextDialogs": [
        191730346
      ],
      "talkRole": {
        "type": "TALK_ROLE_NPC",
        "_id": "513"
      },
      "talkContentTextMapHash": 1152661602,
      "talkAssetPath": "",
      "talkAssetPathAlter": "",
      "talkAudioName": "",
      "actionBefore": "",
      "actionWhile": "",
      "actionAfter": "",
      "optionIcon": "",
      "iconPath": ""
    },
    {
      "id": 191730346,
      "nextDialogs": [
        191730347
      ],
      "talkRole": {
        "type": "TALK_ROLE_NPC",
        "_id": "513"
      },
      "talkContentTextMapHash": 1141127202,
      "talkAssetPath": "",
      "talkAssetPathAlter": "",
      "talkAudioName": "",
      "actionBefore": "",
      "actionWhile": "",
      "actionAfter": "",
      "optionIcon": "",
      "iconPath": ""
    },
    {
      "id": 191730347,
      "nextDialogs": [
        191730348
      ],
      "talkRole": {
        "type": "TALK_ROLE_NPC",
        "_id": "513"
      },
      "talkContentTextMapHash": 2178308674,
      "talkAssetPath": "",
      "talkAssetPathAlter": "",
      "talkAudioName": "",
      "actionBefore": "",
      "actionWhile": "",
      "actionAfter": "",
      "optionIcon": "",
      "iconPath": ""
    },
    {
      "id": 191730348,
      "nextDialogs": [
        191730349
      ],
      "talkRole": {
        "type": "TALK_ROLE_NPC",
        "_id": "1050"
      },
      "talkContentTextMapHash": 3184345850,
      "talkAssetPath": "",
      "talkAssetPathAlter": "",
      "talkAudioName": "",
      "actionBefore": "",
      "actionWhile": "",
      "actionAfter": "",
      "optionIcon": "",
      "iconPath": ""
    },
    {
      "id": 191730349,
      "nextDialogs": [
        191730350
      ],
      "talkRole": {
        "type": "TALK_ROLE_NPC",
        "_id": "513"
      },
      "talkContentTextMapHash": 3676720290,
      "talkAssetPath": "",
      "talkAssetPathAlter": "",
      "talkAudioName": "",
      "actionBefore": "",
      "actionWhile": "",
      "actionAfter": "",
      "optionIcon": "",
      "iconPath": ""
    },
    {
      "id": 191730350,
      "nextDialogs": [
        191730351
      ],
      "talkRole": {
        "type": "TALK_ROLE_NPC",
        "_id": "1051"
      },
      "talkContentTextMapHash": 2141092130,
      "talkAssetPath": "",
      "talkAssetPathAlter": "",
      "talkAudioName": "",
      "actionBefore": "",
      "actionWhile": "",
      "actionAfter": "",
      "optionIcon": "",
      "iconPath": ""
    },
    {
      "id": 191730351,
      "nextDialogs": [
        191730352
      ],
      "talkRole": {
        "type": "TALK_ROLE_NPC",
        "_id": "513"
      },
      "talkContentTextMapHash": 60587442,
      "talkAssetPath": "",
      "talkAssetPathAlter": "",
      "talkAudioName": "",
      "actionBefore": "",
      "actionWhile": "",
      "actionAfter": "",
      "optionIcon": "",
      "iconPath": ""
    },
    {
      "id": 191730352,
      "nextDialogs": [
        191730353
      ],
      "talkRole": {
        "type": "TALK_ROLE_NPC",
        "_id": "1050"
      },
      "talkContentTextMapHash": 1058164890,
      "talkAssetPath": "",
      "talkAssetPathAlter": "",
      "talkAudioName": "",
      "actionBefore": "",
      "actionWhile": "",
      "actionAfter": "",
      "optionIcon": "",
      "iconPath": ""
    },
    {
      "id": 191730353,
      "nextDialogs": [
        191730354
      ],
      "talkRole": {
        "type": "TALK_ROLE_NPC",
        "_id": "1051"
      },
      "talkContentTextMapHash": 2611156002,
      "talkAssetPath": "",
      "talkAssetPathAlter": "",
      "talkAudioName": "",
      "actionBefore": "",
      "actionWhile": "",
      "actionAfter": "",
      "optionIcon": "",
      "iconPath": ""
    },
    {
      "id": 191730354,
      "nextDialogs": [
        191730355,
        191730356
      ],
      "talkRole": {
        "type": "TALK_ROLE_NPC",
        "_id": "513"
      },
      "talkContentTextMapHash": 1631812474,
      "talkAssetPath": "",
      "talkAssetPathAlter": "",
      "talkAudioName": "",
      "actionBefore": "",
      "actionWhile": "",
      "actionAfter": "",
      "optionIcon": "",
      "iconPath": ""
    },
    {
      "id": 191730355,
      "nextDialogs": [
        191730357
      ],
      "talkRole": {
        "type": "TALK_ROLE_PLAYER",
        "_id": ""
      },
      "talkContentTextMapHash": 343574442,
      "talkAssetPath": "",
      "talkAssetPathAlter": "",
      "talkAudioName": "",
      "actionBefore": "",
      "actionWhile": "",
      "actionAfter": "",
      "optionIcon": "",
      "iconPath": ""
    },
    {
      "id": 191730356,
      "nextDialogs": [
        191730357
      ],
      "talkRole": {
        "type": "TALK_ROLE_PLAYER",
        "_id": ""
      },
      "talkContentTextMapHash": 2626334890,
      "talkAssetPath": "",
      "talkAssetPathAlter": "",
      "talkAudioName": "",
      "actionBefore": "",
      "actionWhile": "",
      "actionAfter": "",
      "optionIcon": "",
      "iconPath": ""
    },
    {
      "id": 191730357,
      "nextDialogs": [
        191730358
      ],
      "talkRole": {
        "type": "TALK_ROLE_NPC",
        "_id": "1050"
      },
      "talkContentTextMapHash": 2292118602,
      "talkAssetPath": "",
      "talkAssetPathAlter": "",
      "talkAudioName": "",
      "actionBefore": "",
      "actionWhile": "",
      "actionAfter": "",
      "optionIcon": "",
      "iconPath": ""
    },
    {
      "id": 191730358,
      "nextDialogs": [
        191730359
      ],
      "talkRole": {
        "type": "TALK_ROLE_NPC",
        "_id": "513"
      },
      "talkContentTextMapHash": 3105806322,
      "talkAssetPath": "",
      "talkAssetPathAlter": "",
      "talkAudioName": "",
      "actionBefore": "",
      "actionWhile": "",
      "actionAfter": "",
      "optionIcon": "",
      "iconPath": ""
    },
    {
      "id": 191730359,
      "nextDialogs": [
        191730360
      ],
      "talkRole": {
        "type": "TALK_ROLE_NPC",
        "_id": "513"
      },
      "talkContentTextMapHash": 2404927682,
      "talkAssetPath": "",
      "talkAssetPathAlter": "",
      "talkAudioName": "",
      "actionBefore": "",
      "actionWhile": "",
      "actionAfter": "",
      "optionIcon": "",
      "iconPath": ""
    },
    {
      "id": 191730360,
      "nextDialogs": [
        191730361
      ],
      "talkRole": {
        "type": "TALK_ROLE_NPC",
        "_id": "1050"
      },
      "talkContentTextMapHash": 1413129626,
      "talkAssetPath": "",
      "talkAssetPathAlter": "",
      "talkAudioName": "",
      "actionBefore": "",
      "actionWhile": "",
      "actionAfter": "",
      "optionIcon": "",
      "iconPath": ""
    },
    {
      "id": 191730361,
      "talkRole": {
        "type": "TALK_ROLE_NPC",
        "_id": "513"
      },
      "talkContentTextMapHash": 1109577114,
      "talkAssetPath": "",
      "talkAssetPathAlter": "",
      "talkAudioName": "",
      "actionBefore": "",
      "actionWhile": "",
      "actionAfter": "",
      "optionIcon": "",
      "iconPath": ""
    }
  ]
}