{
  "talkId": 44,
  "KPGKDHAFHFE": "COOP",
  "dialogList": [
    {
      "id": 191710401,
      "nextDialogs": [
        191710402
      ],
      "talkRole": {
        "type": "TALK_ROLE_NPC",
        "_id": "4003"
      },
      "talkContentTextMapHash": 364395938,
      "talkAssetPath": "",
      "talkAssetPathAlter": "",
      "talkAudioName": "",
      "actionBefore": "",
      "actionWhile": "",
      "actionAfter": "",
      "optionIcon": "",
      "iconPath": ""
    },
    {
      "id": 191710402,
      "nextDialogs": [
        191710403
      ],
      "talkRole": {
        "type": "TALK_ROLE_NPC",
        "_id": "1051"
      },
      "talkContentTextMapHash": 3785082250,
      "talkAssetPath": "",
      "talkAssetPathAlter": "",
      "talkAudioName": "",
      "actionBefore": "",
      "actionWhile": "",
      "actionAfter": "",
      "optionIcon": "",
      "iconPath": ""
    },
    {
      "id": 191710403,
      "nextDialogs": [
        191710404
      ],
      "talkRole": {
        "type": "TALK_ROLE_NPC",
        "_id": "4003"
      },
      "talkContentTextMapHash": 2030310714,
      "talkAssetPath": "",
      "talkAssetPathAlter": "",
      "talkAudioName": "",
      "actionBefore": "",
      "actionWhile": "",
      "actionAfter": "",
      "optionIcon": "",
      "iconPath": ""
    },
    {
      "id": 191710404,
      "nextDialogs": [
        191710405
      ],
      "talkRole": {
        "type": "TALK_ROLE_NPC",
        "_id": "1051"
      },
      "talkContentTextMapHash": 2794191898,
      "talkAssetPath": "",
      "talkAssetPathAlter": "",
      "talkAudioName": "",
      "actionBefore": "",
      "actionWhile": "",
      "actionAfter": "",
      "optionIcon": "",
      "iconPath": ""
    },
    {
      "id": 191710405,
      "nextDialogs": [
        191710406
      ],
      "talkRole": {
        "type": "TALK_ROLE_NPC",
        "_id": "4003"
      },
      "talkContentTextMapHash": 1553584906,
      "talkAssetPath": "",
      "talkAssetPathAlter": "",
      "talkAudioName": "",
      "actionBefore": "",
      "actionWhile": "",
      "actionAfter": "",
      "optionIcon": "",
      "iconPath": ""
    },
    {
      "id": 191710406,
      "nextDialogs": [
        191710407
      ],
      "talkRole": {
        "type": "TALK_ROLE_NPC",
        "_id": "1051"
      },
      "talkContentTextMapHash": 2456445602,
      "talkAssetPath": "",
      "talkAssetPathAlter": "",
      "talkAudioName": "",
      "actionBefore": "",
      "actionWhile": "",
      "actionAfter": "",
      "optionIcon": "",
      "iconPath": ""
    },
    {
      "id": 191710407,
      "nextDialogs": [
        191710408
      ],
      "talkRole": {
        "type": "TALK_ROLE_NPC",
        "_id": "4003"
      },
      "talkContentTextMapHash": 3626379778,
      "talkAssetPath": "",
      "talkAssetPathAlter": "",
      "talkAudioName": "",
      "actionBefore": "",
      "actionWhile": "",
      "actionAfter": "",
      "optionIcon": "",
      "iconPath": ""
    },
    {
      "id": 191710408,
      "nextDialogs": [
        191710409
      ],
      "talkRole": {
        "type": "TALK_ROLE_NPC",
        "_id": "513"
      },
      "talkContentTextMapHash": 2582712338,
      "talkAssetPath": "",
      "talkAssetPathAlter": "",
      "talkAudioName": "",
      "actionBefore": "",
      "actionWhile": "",
      "actionAfter": "",
      "optionIcon": "",
      "iconPath": ""
    },
    {
      "id": 191710409,
      "nextDialogs": [
        191710410
      ],
      "talkRole": {
        "type": "TALK_ROLE_NPC",
        "_id": "4003"
      },
      "talkContentTextMapHash": 1893810266,
      "talkAssetPath": "",
      "talkAssetPathAlter": "",
      "talkAudioName": "",
      "actionBefore": "",
      "actionWhile": "",
      "actionAfter": "",
      "optionIcon": "",
      "iconPath": ""
    },
    {
      "id": 191710410,
      "nextDialogs": [
        191710411
      ],
      "talkRole": {
        "type": "TALK_ROLE_NPC",
        "_id": "4003"
      },
      "talkContentTextMapHash": 344700098,
      "talkAssetPath": "",
      "talkAssetPathAlter": "",
      "talkAudioName": "",
      "actionBefore": "",
      "actionWhile": "",
      "actionAfter": "",
      "optionIcon": "",
      "iconPath": ""
    },
    {
      "id": 191710411,
      "nextDialogs": [
        191710412
      ],
      "talkRole": {
        "type": "TALK_ROLE_NPC",
        "_id": "513"
      },
      "talkContentTextMapHash": 496008106,
      "talkAssetPath": "",
      "talkAssetPathAlter": "",
      "talkAudioName": "",
      "actionBefore": "",
      "actionWhile": "",
      "actionAfter": "",
      "optionIcon": "",
      "iconPath": ""
    },
    {
      "id": 191710412,
      "nextDialogs": [
        191710413
      ],
      "talkRole": {
        "type": "TALK_ROLE_NPC",
        "_id": "4003"
      },
      "talkContentTextMapHash": 339291690,
      "talkAssetPath": "",
      "talkAssetPathAlter": "",
      "talkAudioName": "",
      "actionBefore": "",
      "actionWhile": "",
      "actionAfter": "",
      "optionIcon": "",
      "iconPath": ""
    },
    {
      "id": 191710413,
      "nextDialogs": [
        191710414
      ],
      "talkRole": {
        "type": "TALK_ROLE_NPC",
        "_id": "4003"
      },
      "talkContentTextMapHash": 1507057346,
      "talkAssetPath": "",
      "talkAssetPathAlter": "",
      "talkAudioName": "",
      "actionBefore": "",
      "actionWhile": "",
      "actionAfter": "",
      "optionIcon": "",
      "iconPath": ""
    },
    {
      "id": 191710414,
      "nextDialogs": [
        191710415
      ],
      "talkRole": {
        "type": "TALK_ROLE_NPC",
        "_id": "4003"
      },
      "talkContentTextMapHash": 324396474,
      "talkAssetPath": "",
      "talkAssetPathAlter": "",
      "talkAudioName": "",
      "actionBefore": "",
      "actionWhile": "",
      "actionAfter": "",
      "optionIcon": "",
      "iconPath": ""
    },
    {
      "id": 191710415,
      "nextDialogs": [
        191710416
      ],
      "talkRole": {
        "type": "TALK_ROLE_NPC",
        "_id": "513"
      },
      "talkContentTextMapHash": 2136515330,
      "talkAssetPath": "",
      "talkAssetPathAlter": "",
      "talkAudioName": "",
      "actionBefore": "",
      "actionWhile": "",
      "actionAfter": "",
      "optionIcon": "",
      "iconPath": ""
    },
    {
      "id": 191710416,
      "nextDialogs": [
        191710417
      ],
      "talkRole": {
        "type": "TALK_ROLE_NPC",
        "_id": "4003"
      },
      "talkContentTextMapHash": 3886390714,
      "talkAssetPath": "",
      "talkAssetPathAlter": "",
      "talkAudioName": "",
      "actionBefore": "",
      "actionWhile": "",
      "actionAfter": "",
      "optionIcon": "",
      "iconPath": ""
    },
    {
      "id": 191710417,
      "nextDialogs": [
        191710418
      ],
      "talkRole": {
        "type": "TALK_ROLE_NPC",
        "_id": "4003"
      },
      "talkContentTextMapHash": 103649770,
      "talkAssetPath": "",
      "talkAssetPathAlter": "",
      "talkAudioName": "",
      "actionBefore": "",
      "actionWhile": "",
      "actionAfter": "",
      "optionIcon": "",
      "iconPath": ""
    },
    {
      "id": 191710418,
      "nextDialogs": [
        191710419
      ],
      "talkRole": {
        "type": "TALK_ROLE_NPC",
        "_id": "4003"
      },
      "talkContentTextMapHash": 1685119642,
      "talkAssetPath": "",
      "talkAssetPathAlter": "",
      "talkAudioName": "",
      "actionBefore": "",
      "actionWhile": "",
      "actionAfter": "",
      "optionIcon": "",
      "iconPath": ""
    },
    {
      "id": 191710419,
      "nextDialogs": [
        191710420
      ],
      "talkRole": {
        "type": "TALK_ROLE_NPC",
        "_id": "513"
      },
      "talkContentTextMapHash": 805199706,
      "talkAssetPath": "",
      "talkAssetPathAlter": "",
      "talkAudioName": "",
      "actionBefore": "",
      "actionWhile": "",
      "actionAfter": "",
      "optionIcon": "",
      "iconPath": ""
    },
    {
      "id": 191710420,
      "nextDialogs": [
        191710421
      ],
      "talkRole": {
        "type": "TALK_ROLE_NPC",
        "_id": "4003"
      },
      "talkContentTextMapHash": 2423949562,
      "talkAssetPath": "",
      "talkAssetPathAlter": "",
      "talkAudioName": "",
      "actionBefore": "",
      "actionWhile": "",
      "actionAfter": "",
      "optionIcon": "",
      "iconPath": ""
    },
    {
      "id": 191710421,
      "nextDialogs": [
        191710422
      ],
      "talkRole": {
        "type": "TALK_ROLE_NPC",
        "_id": "4003"
      },
      "talkContentTextMapHash": 2713836114,
      "talkAssetPath": "",
      "talkAssetPathAlter": "",
      "talkAudioName": "",
      "actionBefore": "",
      "actionWhile": "",
      "actionAfter": "",
      "optionIcon": "",
      "iconPath": ""
    },
    {
      "id": 191710422,
      "nextDialogs": [
        191710423
      ],
      "talkRole": {
        "type": "TALK_ROLE_NPC",
        "_id": "513"
      },
      "talkContentTextMapHash": 642016826,
      "talkAssetPath": "",
      "talkAssetPathAlter": "",
      "talkAudioName": "",
      "actionBefore": "",
      "actionWhile": "",
      "actionAfter": "",
      "optionIcon": "",
      "iconPath": ""
    },
    {
      "id": 191710423,
      "nextDialogs": [
        191710424
      ],
      "talkRole": {
        "type": "TALK_ROLE_NPC",
        "_id": "4003"
      },
      "talkContentTextMapHash": 626241554,
      "talkAssetPath": "",
      "talkAssetPathAlter": "",
      "talkAudioName": "",
      "actionBefore": "",
      "actionWhile": "",
      "actionAfter": "",
      "optionIcon": "",
      "iconPath": ""
    },
    {
      "id": 191710424,
      "nextDialogs": [
        191710425
      ],
      "talkRole": {
        "type": "TALK_ROLE_NPC",
        "_id": "4003"
      },
      "talkContentTextMapHash": 2027034482,
      "talkAssetPath": "",
      "talkAssetPathAlter": "",
      "talkAudioName": "",
      "actionBefore": "",
      "actionWhile": "",
      "actionAfter": "",
      "optionIcon": "",
      "iconPath": ""
    },
    {
      "id": 191710425,
      "nextDialogs": [
        191710426
      ],
      "talkRole": {
        "type": "TALK_ROLE_NPC",
        "_id": "4003"
      },
      "talkContentTextMapHash": 1068763138,
      "talkAssetPath": "",
      "talkAssetPathAlter": "",
      "talkAudioName": "",
      "actionBefore": "",
      "actionWhile": "",
      "actionAfter": "",
      "optionIcon": "",
      "iconPath": ""
    },
    {
      "id": 191710426,
      "nextDialogs": [
        191710427
      ],
      "talkRole": {
        "type": "TALK_ROLE_NPC",
        "_id": "4003"
      },
      "talkContentTextMapHash": 3478486850,
      "talkAssetPath": "",
      "talkAssetPathAlter": "",
      "talkAudioName": "",
      "actionBefore": "",
      "actionWhile": "",
      "actionAfter": "",
      "optionIcon": "",
      "iconPath": ""
    },
    {
      "id": 191710427,
      "nextDialogs": [
        191710428
      ],
      "talkRole": {
        "type": "TALK_ROLE_NPC",
        "_id": "4003"
      },
      "talkContentTextMapHash": 1068371746,
      "talkAssetPath": "",
      "talkAssetPathAlter": "",
      "talkAudioName": "",
      "actionBefore": "",
      "actionWhile": "",
      "actionAfter": "",
      "optionIcon": "",
      "iconPath": ""
    },
    {
      "id": 191710428,
      "nextDialogs": [
        191710429
      ],
      "talkRole": {
        "type": "TALK_ROLE_NPC",
        "_id": "4003"
      },
      "talkContentTextMapHash": 55153522,
      "talkAssetPath": "",
      "talkAssetPathAlter": "",
      "talkAudioName": "",
      "actionBefore": "",
      "actionWhile": "",
      "actionAfter": "",
      "optionIcon": "",
      "iconPath": ""
    },
    {
      "id": 191710429,
      "nextDialogs": [
        191710430
      ],
      "talkRole": {
        "type": "TALK_ROLE_NPC",
        "_id": "513"
      },
      "talkContentTextMapHash": 15179034,
      "talkAssetPath": "",
      "talkAssetPathAlter": "",
      "talkAudioName": "",
      "actionBefore": "",
      "actionWhile": "",
      "actionAfter": "",
      "optionIcon": "",
      "iconPath": ""
    },
    {
      "id": 191710430,
      "nextDialogs": [
        191710431
      ],
      "talkRole": {
        "type": "TALK_ROLE_NPC",
        "_id": "4003"
      },
      "talkContentTextMapHash": 1625581114,
      "talkAssetPath": "",
      "talkAssetPathAlter": "",
      "talkAudioName": "",
      "actionBefore": "",
      "actionWhile": "",
      "actionAfter": "",
      "optionIcon": "",
      "iconPath": ""
    },
    {
      "id": 191710431,
      "nextDialogs": [
        191710432
      ],
      "talkRole": {
        "type": "TALK_ROLE_NPC",
        "_id": "513"
      },
      "talkContentTextMapHash": 1609500234,
      "talkAssetPath": "",
      "talkAssetPathAlter": "",
      "talkAudioName": "",
      "actionBefore": "",
      "actionWhile": "",
      "actionAfter": "",
      "optionIcon": "",
      "iconPath": ""
    },
    {
      "id": 191710432,
      "nextDialogs": [
        191710433
      ],
      "talkRole": {
        "type": "TALK_ROLE_NPC",
        "_id": "1051"
      },
      "talkContentTextMapHash": 618836962,
      "talkAssetPath": "",
      "talkAssetPathAlter": "",
      "talkAudioName": "",
      "actionBefore": "",
      "actionWhile": "",
      "actionAfter": "",
      "optionIcon": "",
      "iconPath": ""
    },
    {
      "id": 191710433,
      "nextDialogs": [
        191710434,
        191710435
      ],
      "talkRole": {
        "type": "TALK_ROLE_NPC",
        "_id": "513"
      },
      "talkContentTextMapHash": 1520652906,
      "talkAssetPath": "",
      "talkAssetPathAlter": "",
      "talkAudioName": "",
      "actionBefore": "",
      "actionWhile": "",
      "actionAfter": "",
      "optionIcon": "",
      "iconPath": ""
    },
    {
      "id": 191710434,
      "nextDialogs": [
        191710436,
        191710437
      ],
      "talkRole": {
        "type": "TALK_ROLE_PLAYER",
        "_id": ""
      },
      "talkContentTextMapHash": 661110114,
      "talkAssetPath": "",
      "talkAssetPathAlter": "",
      "talkAudioName": "",
      "actionBefore": "",
      "actionWhile": "",
      "actionAfter": "",
      "optionIcon": "",
      "iconPath": ""
    },
    {
      "id": 191710435,
      "nextDialogs": [
        191710436,
        191710437
      ],
      "talkRole": {
        "type": "TALK_ROLE_PLAYER",
        "_id": ""
      },
      "talkContentTextMapHash": 2494683466,
      "talkAssetPath": "",
      "talkAssetPathAlter": "",
      "talkAudioName": "",
      "actionBefore": "",
      "actionWhile": "",
      "actionAfter": "",
      "optionIcon": "",
      "iconPath": ""
    },
    {
      "id": 191710436,
      "nextDialogs": [
        191710438
      ],
      "talkRole": {
        "type": "TALK_ROLE_PLAYER",
        "_id": ""
      },
      "talkContentTextMapHash": 4208774738,
      "talkAssetPath": "",
      "talkAssetPathAlter": "",
      "talkAudioName": "",
      "actionBefore": "",
      "actionWhile": "",
      "actionAfter": "",
      "optionIcon": "",
      "iconPath": ""
    },
    {
      "id": 191710437,
      "nextDialogs": [
        191710438
      ],
      "talkRole": {
        "type": "TALK_ROLE_PLAYER",
        "_id": ""
      },
      "talkContentTextMapHash": 2942034274,
      "talkAssetPath": "",
      "talkAssetPathAlter": "",
      "talkAudioName": "",
      "actionBefore": "",
      "actionWhile": "",
      "actionAfter": "",
      "optionIcon": "",
      "iconPath": ""
    },
    {
      "id": 191710438,
      "nextDialogs": [
        191710439
      ],
      "talkRole": {
        "type": "TALK_ROLE_NPC",
        "_id": "1051"
      },
      "talkContentTextMapHash": 1588305330,
      "talkAssetPath": "",
      "talkAssetPathAlter": "",
      "talkAudioName": "",
      "actionBefore": "",
      "actionWhile": "",
      "actionAfter": "",
      "optionIcon": "",
      "iconPath": ""
    },
    {
      "id": 191710439,
      "nextDialogs": [
        191710440,
        191710441
      ],
      "talkRole": {
        "type": "TALK_ROLE_NPC",
        "_id": "1051"
      },
      "talkContentTextMapHash": 3404165970,
      "talkAssetPath": "",
      "talkAssetPathAlter": "",
      "talkAudioName": "",
      "actionBefore": "",
      "actionWhile": "",
      "actionAfter": "",
      "optionIcon": "",
      "iconPath": ""
    },
    {
      "id": 191710440,
      "nextDialogs": [
        191710442
      ],
      "talkRole": {
        "type": "TALK_ROLE_PLAYER",
        "_id": ""
      },
      "talkContentTextMapHash": 2907101690,
      "talkAssetPath": "",
      "talkAssetPathAlter": "",
      "talkAudioName": "",
      "actionBefore": "",
      "actionWhile": "",
      "actionAfter": "",
      "optionIcon": "",
      "iconPath": ""
    },
    {
      "id": 191710441,
      "nextDialogs": [
        191710442
      ],
      "talkRole": {
        "type": "TALK_ROLE_PLAYER",
        "_id": ""
      },
      "talkContentTextMapHash": 2720155266,
      "talkAssetPath": "",
      "talkAssetPathAlter": "",
      "talkAudioName": "",
      "actionBefore": "",
      "actionWhile": "",
      "actionAfter": "",
      "optionIcon": "",
      "iconPath": ""
    },
    {
      "id": 191710442,
      "nextDialogs": [
        191710443
      ],
      "talkRole": {
        "type": "TALK_ROLE_NPC",
        "_id": "513"
      },
      "talkContentTextMapHash": 3118758986,
      "talkAssetPath": "",
      "talkAssetPathAlter": "",
      "talkAudioName": "",
      "actionBefore": "",
      "actionWhile": "",
      "actionAfter": "",
      "optionIcon": "",
      "iconPath": ""
    },
    {
      "id": 191710443,
      "nextDialogs": [
        191710444
      ],
      "talkRole": {
        "type": "TALK_ROLE_NPC",
        "_id": "513"
      },
      "talkContentTextMapHash": 100434922,
      "talkAssetPath": "",
      "talkAssetPathAlter": "",
      "talkAudioName": "",
      "actionBefore": "",
      "actionWhile": "",
      "actionAfter": "",
      "optionIcon": "",
      "iconPath": ""
    },
    {
      "id": 191710444,
      "nextDialogs": [
        191710445
      ],
      "talkRole": {
        "type": "TALK_ROLE_NPC",
        "_id": "513"
      },
      "talkContentTextMapHash": 2859719186,
      "talkAssetPath": "",
      "talkAssetPathAlter": "",
      "talkAudioName": "",
      "actionBefore": "",
      "actionWhile": "",
      "actionAfter": "",
      "optionIcon": "",
      "iconPath": ""
    },
    {
      "id": 191710445,
      "nextDialogs": [
        191710446
      ],
      "talkRole": {
        "type": "TALK_ROLE_NPC",
        "_id": "513"
      },
      "talkContentTextMapHash": 3878757282,
      "talkAssetPath": "",
      "talkAssetPathAlter": "",
      "talkAudioName": "",
      "actionBefore": "",
      "actionWhile": "",
      "actionAfter": "",
      "optionIcon": "",
      "iconPath": ""
    },
    {
      "id": 191710446,
      "nextDialogs": [
        191710447
      ],
      "talkRole": {
        "type": "TALK_ROLE_NPC",
        "_id": "513"
      },
      "talkContentTextMapHash": 2580555522,
      "talkAssetPath": "",
      "talkAssetPathAlter": "",
      "talkAudioName": "",
      "actionBefore": "",
      "actionWhile": "",
      "actionAfter": "",
      "optionIcon": "",
      "iconPath": ""
    },
    {
      "id": 191710447,
      "nextDialogs": [
        191710448
      ],
      "talkRole": {
        "type": "TALK_ROLE_NPC",
        "_id": "1051"
      },
      "talkContentTextMapHash": 3077998034,
      "talkAssetPath": "",
      "talkAssetPathAlter": "",
      "talkAudioName": "",
      "actionBefore": "",
      "actionWhile": "",
      "actionAfter": "",
      "optionIcon": "",
      "iconPath": ""
    },
    {
      "id": 191710448,
      "nextDialogs": [
        191710449,
        191710450
      ],
      "talkRole": {
        "type": "TALK_ROLE_NPC",
        "_id": "4003"
      },
      "talkContentTextMapHash": 468118234,
      "talkAssetPath": "",
      "talkAssetPathAlter": "",
      "talkAudioName": "",
      "actionBefore": "",
      "actionWhile": "",
      "actionAfter": "",
      "optionIcon": "",
      "iconPath": ""
    },
    {
      "id": 191710449,
      "nextDialogs": [
        191710451
      ],
      "talkRole": {
        "type": "TALK_ROLE_PLAYER",
        "_id": ""
      },
      "talkContentTextMapHash": 3580390658,
      "talkAssetPath": "",
      "talkAssetPathAlter": "",
      "talkAudioName": "",
      "actionBefore": "",
      "actionWhile": "",
      "actionAfter": "",
      "optionIcon": "",
      "iconPath": ""
    },
    {
      "id": 191710450,
      "nextDialogs": [
        191710451
      ],
      "talkRole": {
        "type": "TALK_ROLE_PLAYER",
        "_id": ""
      },
      "talkContentTextMapHash": 401297722,
      "talkAssetPath": "",
      "talkAssetPathAlter": "",
      "talkAudioName": "",
      "actionBefore": "",
      "actionWhile": "",
      "actionAfter": "",
      "optionIcon": "",
      "iconPath": ""
    },
    {
      "id": 191710451,
      "nextDialogs": [
        191710452
      ],
      "talkRole": {
        "type": "TALK_ROLE_NPC",
        "_id": "513"
      },
      "talkContentTextMapHash": 3812993322,
      "talkAssetPath": "",
      "talkAssetPathAlter": "",
      "talkAudioName": "",
      "actionBefore": "",
      "actionWhile": "",
      "actionAfter": "",
      "optionIcon": "",
      "iconPath": ""
    },
    {
      "id": 191710452,
      "nextDialogs": [
        191710453
      ],
      "talkShowType": "TALK_SHOW_FORCE_SELECT",
      "talkRole": {
        "type": "TALK_ROLE_PLAYER",
        "_id": ""
      },
      "talkContentTextMapHash": 2742186034,
      "talkAssetPath": "",
      "talkAssetPathAlter": "",
      "talkAudioName": "",
      "actionBefore": "",
      "actionWhile": "",
      "actionAfter": "",
      "optionIcon": "",
      "iconPath": ""
    },
    {
      "id": 191710453,
      "nextDialogs": [
        191710454
      ],
      "talkRole": {
        "type": "TALK_ROLE_NPC",
        "_id": "513"
      },
      "talkContentTextMapHash": 3069284738,
      "talkAssetPath": "",
      "talkAssetPathAlter": "",
      "talkAudioName": "",
      "actionBefore": "",
      "actionWhile": "",
      "actionAfter": "",
      "optionIcon": "",
      "iconPath": ""
    },
    {
      "id": 191710454,
      "nextDialogs": [
        191710455
      ],
      "talkRole": {
        "type": "TALK_ROLE_NPC",
        "_id": "4003"
      },
      "talkContentTextMapHash": 3588873546,
      "talkAssetPath": "",
      "talkAssetPathAlter": "",
      "talkAudioName": "",
      "actionBefore": "",
      "actionWhile": "",
      "actionAfter": "",
      "optionIcon": "",
      "iconPath": ""
    },
    {
      "id": 191710455,
      "nextDialogs": [
        191710456
      ],
      "talkRole": {
        "type": "TALK_ROLE_NPC",
        "_id": "513"
      },
      "talkContentTextMapHash": 3542475946,
      "talkAssetPath": "",
      "talkAssetPathAlter": "",
      "talkAudioName": "",
      "actionBefore": "",
      "actionWhile": "",
      "actionAfter": "",
      "optionIcon": "",
      "iconPath": ""
    },
    {
      "id": 191710456,
      "nextDialogs": [
        191710457
      ],
      "talkRole": {
        "type": "TALK_ROLE_NPC",
        "_id": "1051"
      },
      "talkContentTextMapHash": 2439040978,
      "talkAssetPath": "",
      "talkAssetPathAlter": "",
      "talkAudioName": "",
      "actionBefore": "",
      "actionWhile": "",
      "actionAfter": "",
      "optionIcon": "",
      "iconPath": ""
    },
    {
      "id": 191710457,
      "nextDialogs": [
        191710458
      ],
      "talkRole": {
        "type": "TALK_ROLE_NPC",
        "_id": "513"
      },
      "talkContentTextMapHash": 1029519850,
      "talkAssetPath": "",
      "talkAssetPathAlter": "",
      "talkAudioName": "",
      "actionBefore": "",
      "actionWhile": "",
      "actionAfter": "",
      "optionIcon": "",
      "iconPath": ""
    },
    {
      "id": 191710458,
      "nextDialogs": [
        191710459,
        191710460
      ],
      "talkRole": {
        "type": "TALK_ROLE_NPC",
        "_id": "513"
      },
      "talkContentTextMapHash": 487497874,
      "talkAssetPath": "",
      "talkAssetPathAlter": "",
      "talkAudioName": "",
      "actionBefore": "",
      "actionWhile": "",
      "actionAfter": "",
      "optionIcon": "",
      "iconPath": ""
    },
    {
      "id": 191710459,
      "nextDialogs": [
        191710461
      ],
      "talkRole": {
        "type": "TALK_ROLE_PLAYER",
        "_id": ""
      },
      "talkContentTextMapHash": 351094738,
      "talkAssetPath": "",
      "talkAssetPathAlter": "",
      "talkAudioName": "",
      "actionBefore": "",
      "actionWhile": "",
      "actionAfter": "",
      "optionIcon": "",
      "iconPath": ""
    },
    {
      "id": 191710460,
      "nextDialogs": [
        191710461
      ],
      "talkRole": {
        "type": "TALK_ROLE_PLAYER",
        "_id": ""
      },
      "talkContentTextMapHash": 4266137754,
      "talkAssetPath": "",
      "talkAssetPathAlter": "",
      "talkAudioName": "",
      "actionBefore": "",
      "actionWhile": "",
      "actionAfter": "",
      "optionIcon": "",
      "iconPath": ""
    },
    {
      "id": 191710461,
      "nextDialogs": [
        191710462
      ],
      "talkRole": {
        "type": "TALK_ROLE_NPC",
        "_id": "513"
      },
      "talkContentTextMapHash": 3150850962,
      "talkAssetPath": "",
      "talkAssetPathAlter": "",
      "talkAudioName": "",
      "actionBefore": "",
      "actionWhile": "",
      "actionAfter": "",
      "optionIcon": "",
      "iconPath": ""
    },
    {
      "id": 191710462,
      "nextDialogs": [
        191710463
      ],
      "talkRole": {
        "type": "TALK_ROLE_NPC",
        "_id": "513"
      },
      "talkContentTextMapHash": 4060219458,
      "talkAssetPath": "",
      "talkAssetPathAlter": "",
      "talkAudioName": "",
      "actionBefore": "",
      "actionWhile": "",
      "actionAfter": "",
      "optionIcon": "",
      "iconPath": ""
    },
    {
      "id": 191710463,
      "nextDialogs": [
        191710464
      ],
      "talkRole": {
        "type": "TALK_ROLE_NPC",
        "_id": "513"
      },
      "talkContentTextMapHash": 1278516242,
      "talkAssetPath": "",
      "talkAssetPathAlter": "",
      "talkAudioName": "",
      "actionBefore": "",
      "actionWhile": "",
      "actionAfter": "",
      "optionIcon": "",
      "iconPath": ""
    },
    {
      "id": 191710464,
      "nextDialogs": [
        191710465
      ],
      "talkRole": {
        "type": "TALK_ROLE_NPC",
        "_id": "1051"
      },
      "talkContentTextMapHash": 1398955170,
      "talkAssetPath": "",
      "talkAssetPathAlter": "",
      "talkAudioName": "",
      "actionBefore": "",
      "actionWhile": "",
      "actionAfter": "",
      "optionIcon": "",
      "iconPath": ""
    },
    {
      "id": 191710465,
      "nextDialogs": [
        191710466
      ],
      "talkRole": {
        "type": "TALK_ROLE_NPC",
        "_id": "513"
      },
      "talkContentTextMapHash": 170337346,
      "talkAssetPath": "",
      "talkAssetPathAlter": "",
      "talkAudioName": "",
      "actionBefore": "",
      "actionWhile": "",
      "actionAfter": "",
      "optionIcon": "",
      "iconPath": ""
    },
    {
      "id": 191710466,
      "nextDialogs": [
        191710467
      ],
      "talkRole": {
        "type": "TALK_ROLE_NPC",
        "_id": "513"
      },
      "talkContentTextMapHash": 4281733114,
      "talkAssetPath": "",
      "talkAssetPathAlter": "",
      "talkAudioName": "",
      "actionBefore": "",
      "actionWhile": "",
      "actionAfter": "",
      "optionIcon": "",
      "iconPath": ""
    },
    {
      "id": 191710467,
      "nextDialogs": [
        191710468
      ],
      "talkRole": {
        "type": "TALK_ROLE_NPC",
        "_id": "513"
      },
      "talkContentTextMapHash": 4203555450,
      "talkAssetPath": "",
      "talkAssetPathAlter": "",
      "talkAudioName": "",
      "actionBefore": "",
      "actionWhile": "",
      "actionAfter": "",
      "optionIcon": "",
      "iconPath": ""
    },
    {
      "id": 191710468,
      "nextDialogs": [
        191710469
      ],
      "talkRole": {
        "type": "TALK_ROLE_NPC",
        "_id": "513"
      },
      "talkContentTextMapHash": 2717196458,
      "talkAssetPath": "",
      "talkAssetPathAlter": "",
      "talkAudioName": "",
      "actionBefore": "",
      "actionWhile": "",
      "actionAfter": "",
      "optionIcon": "",
      "iconPath": ""
    },
    {
      "id": 191710469,
      "nextDialogs": [
        191710470
      ],
      "talkRole": {
        "type": "TALK_ROLE_NPC",
        "_id": "4003"
      },
      "talkContentTextMapHash": 400712178,
      "talkAssetPath": "",
      "talkAssetPathAlter": "",
      "talkAudioName": "",
      "actionBefore": "",
      "actionWhile": "",
      "actionAfter": "",
      "optionIcon": "",
      "iconPath": ""
    },
    {
      "id": 191710470,
      "nextDialogs": [
        191710471
      ],
      "talkRole": {
        "type": "TALK_ROLE_NPC",
        "_id": "4003"
      },
      "talkContentTextMapHash": 494308522,
      "talkAssetPath": "",
      "talkAssetPathAlter": "",
      "talkAudioName": "",
      "actionBefore": "",
      "actionWhile": "",
      "actionAfter": "",
      "optionIcon": "",
      "iconPath": ""
    },
    {
      "id": 191710471,
      "nextDialogs": [
        191710472
      ],
      "talkRole": {
        "type": "TALK_ROLE_NPC",
        "_id": "1051"
      },
      "talkContentTextMapHash": 2427752642,
      "talkAssetPath": "",
      "talkAssetPathAlter": "",
      "talkAudioName": "",
      "actionBefore": "",
      "actionWhile": "",
      "actionAfter": "",
      "optionIcon": "",
      "iconPath": ""
    },
    {
      "id": 191710472,
      "nextDialogs": [
        191710473,
        191710474
      ],
      "talkRole": {
        "type": "TALK_ROLE_NPC",
        "_id": "513"
      },
      "talkContentTextMapHash": 2548422802,
      "talkAssetPath": "",
      "talkAssetPathAlter": "",
      "talkAudioName": "",
      "actionBefore": "",
      "actionWhile": "",
      "actionAfter": "",
      "optionIcon": "",
      "iconPath": ""
    },
    {
      "id": 191710473,
      "nextDialogs": [
        191710475
      ],
      "talkRole": {
        "type": "TALK_ROLE_PLAYER",
        "_id": ""
      },
      "talkContentTextMapHash": 2075831058,
      "talkAssetPath": "",
      "talkAssetPathAlter": "",
      "talkAudioName": "",
      "actionBefore": "",
      "actionWhile": "",
      "actionAfter": "",
      "optionIcon": "",
      "iconPath": ""
    },
    {
      "id": 191710474,
      "nextDialogs": [
        191710475
      ],
      "talkRole": {
        "type": "TALK_ROLE_PLAYER",
        "_id": ""
      },
      "talkContentTextMapHash": 604592826,
      "talkAssetPath": "",
      "talkAssetPathAlter": "",
      "talkAudioName": "",
      "actionBefore": "",
      "actionWhile": "",
      "actionAfter": "",
      "optionIcon": "",
      "iconPath": ""
    },
    {
      "id": 191710475,
      "talkRole": {
        "type": "TALK_ROLE_NPC",
        "_id": "4003"
      },
      "talkContentTextMapHash": 2058602074,
      "talkAssetPath": "",
      "talkAssetPathAlter": "",
      "talkAudioName": "",
      "actionBefore": "",
      "actionWhile": "",
      "actionAfter": "",
      "optionIcon": "",
      "iconPath": ""
    }
  ]
}