{
  "talkId": 280,
  "KPGKDHAFHFE": "COOP",
  "dialogList": [
    {
      "id": 191821501,
      "nextDialogs": [
        191821502
      ],
      "talkRole": {
        "type": "TALK_ROLE_NPC",
        "_id": "13934"
      },
      "talkContentTextMapHash": 97613738,
      "talkAssetPath": "",
      "talkAssetPathAlter": "",
      "talkAudioName": "",
      "actionBefore": "",
      "actionWhile": "",
      "actionAfter": "",
      "optionIcon": "",
      "iconPath": ""
    },
    {
      "id": 191821502,
      "nextDialogs": [
        191821503
      ],
      "talkRole": {
        "type": "TALK_ROLE_NPC",
        "_id": "13933"
      },
      "talkContentTextMapHash": 2157258570,
      "talkAssetPath": "",
      "talkAssetPathAlter": "",
      "talkAudioName": "",
      "actionBefore": "",
      "actionWhile": "",
      "actionAfter": "",
      "optionIcon": "",
      "iconPath": ""
    },
    {
      "id": 191821503,
      "nextDialogs": [
        191821504
      ],
      "talkRole": {
        "type": "TALK_ROLE_NPC",
        "_id": "13932"
      },
      "talkContentTextMapHash": 3731087354,
      "talkAssetPath": "",
      "talkAssetPathAlter": "",
      "talkAudioName": "",
      "actionBefore": "",
      "actionWhile": "",
      "actionAfter": "",
      "optionIcon": "",
      "iconPath": ""
    },
    {
      "id": 191821504,
      "nextDialogs": [
        191821505
      ],
      "talkRole": {
        "type": "TALK_ROLE_NPC",
        "_id": "13980"
      },
      "talkContentTextMapHash": 541289898,
      "talkAssetPath": "",
      "talkAssetPathAlter": "",
      "talkAudioName": "",
      "actionBefore": "",
      "actionWhile": "",
      "actionAfter": "",
      "optionIcon": "",
      "iconPath": ""
    },
    {
      "id": 191821505,
      "nextDialogs": [
        191821506
      ],
      "talkRole": {
        "type": "TALK_ROLE_NPC",
        "_id": "13979"
      },
      "talkContentTextMapHash": 44930738,
      "talkAssetPath": "",
      "talkAssetPathAlter": "",
      "talkAudioName": "",
      "actionBefore": "",
      "actionWhile": "",
      "actionAfter": "",
      "optionIcon": "",
      "iconPath": ""
    },
    {
      "id": 191821506,
      "nextDialogs": [
        191821507
      ],
      "talkRole": {
        "type": "TALK_ROLE_NPC",
        "_id": "13932"
      },
      "talkContentTextMapHash": 1188078426,
      "talkAssetPath": "",
      "talkAssetPathAlter": "",
      "talkAudioName": "",
      "actionBefore": "",
      "actionWhile": "",
      "actionAfter": "",
      "optionIcon": "",
      "iconPath": ""
    },
    {
      "id": 191821507,
      "nextDialogs": [
        191821508
      ],
      "talkRole": {
        "type": "TALK_ROLE_NPC",
        "_id": "13934"
      },
      "talkContentTextMapHash": 1113659322,
      "talkAssetPath": "",
      "talkAssetPathAlter": "",
      "talkAudioName": "",
      "actionBefore": "",
      "actionWhile": "",
      "actionAfter": "",
      "optionIcon": "",
      "iconPath": ""
    },
    {
      "id": 191821508,
      "nextDialogs": [
        191821509
      ],
      "talkShowType": "TALK_SHOW_FORCE_SELECT",
      "talkRole": {
        "type": "TALK_ROLE_PLAYER",
        "_id": ""
      },
      "talkContentTextMapHash": 2498440322,
      "talkAssetPath": "",
      "talkAssetPathAlter": "",
      "talkAudioName": "",
      "actionBefore": "",
      "actionWhile": "",
      "actionAfter": "",
      "optionIcon": "",
      "iconPath": ""
    },
    {
      "id": 191821509,
      "nextDialogs": [
        191821510
      ],
      "talkRole": {
        "type": "TALK_ROLE_NPC",
        "_id": "518"
      },
      "talkContentTextMapHash": 3182538090,
      "talkAssetPath": "",
      "talkAssetPathAlter": "",
      "talkAudioName": "",
      "actionBefore": "",
      "actionWhile": "",
      "actionAfter": "",
      "optionIcon": "",
      "iconPath": ""
    },
    {
      "id": 191821510,
      "nextDialogs": [
        191821511
      ],
      "talkRole": {
        "type": "TALK_ROLE_NPC",
        "_id": "518"
      },
      "talkContentTextMapHash": 3623572610,
      "talkAssetPath": "",
      "talkAssetPathAlter": "",
      "talkAudioName": "",
      "actionBefore": "",
      "actionWhile": "",
      "actionAfter": "",
      "optionIcon": "",
      "iconPath": ""
    },
    {
      "id": 191821511,
      "nextDialogs": [
        191821512
      ],
      "talkRole": {
        "type": "TALK_ROLE_NPC",
        "_id": "13932"
      },
      "talkContentTextMapHash": 628462058,
      "talkAssetPath": "",
      "talkAssetPathAlter": "",
      "talkAudioName": "",
      "actionBefore": "",
      "actionWhile": "",
      "actionAfter": "",
      "optionIcon": "",
      "iconPath": ""
    },
    {
      "id": 191821512,
      "nextDialogs": [
        191821513
      ],
      "talkRole": {
        "type": "TALK_ROLE_NPC",
        "_id": "518"
      },
      "talkContentTextMapHash": 1514758026,
      "talkAssetPath": "",
      "talkAssetPathAlter": "",
      "talkAudioName": "",
      "actionBefore": "",
      "actionWhile": "",
      "actionAfter": "",
      "optionIcon": "",
      "iconPath": ""
    },
    {
      "id": 191821513,
      "nextDialogs": [
        191821514
      ],
      "talkRole": {
        "type": "TALK_ROLE_NPC",
        "_id": "13933"
      },
      "talkContentTextMapHash": 431635626,
      "talkAssetPath": "",
      "talkAssetPathAlter": "",
      "talkAudioName": "",
      "actionBefore": "",
      "actionWhile": "",
      "actionAfter": "",
      "optionIcon": "",
      "iconPath": ""
    },
    {
      "id": 191821514,
      "nextDialogs": [
        191821515
      ],
      "talkRole": {
        "type": "TALK_ROLE_NPC",
        "_id": "518"
      },
      "talkContentTextMapHash": 2131617978,
      "talkAssetPath": "",
      "talkAssetPathAlter": "",
      "talkAudioName": "",
      "actionBefore": "",
      "actionWhile": "",
      "actionAfter": "",
      "optionIcon": "",
      "iconPath": ""
    },
    {
      "id": 191821515,
      "nextDialogs": [
        191821516,
        191821517
      ],
      "talkRole": {
        "type": "TALK_ROLE_NPC",
        "_id": "13934"
      },
      "talkContentTextMapHash": 717657594,
      "talkAssetPath": "",
      "talkAssetPathAlter": "",
      "talkAudioName": "",
      "actionBefore": "",
      "actionWhile": "",
      "actionAfter": "",
      "optionIcon": "",
      "iconPath": ""
    },
    {
      "id": 191821516,
      "nextDialogs": [
        191821518
      ],
      "talkRole": {
        "type": "TALK_ROLE_PLAYER",
        "_id": ""
      },
      "talkContentTextMapHash": 4230911850,
      "talkAssetPath": "",
      "talkAssetPathAlter": "",
      "talkAudioName": "",
      "actionBefore": "",
      "actionWhile": "",
      "actionAfter": "",
      "optionIcon": "",
      "iconPath": ""
    },
    {
      "id": 191821517,
      "nextDialogs": [
        191821518
      ],
      "talkRole": {
        "type": "TALK_ROLE_PLAYER",
        "_id": ""
      },
      "talkContentTextMapHash": 2135046978,
      "talkAssetPath": "",
      "talkAssetPathAlter": "",
      "talkAudioName": "",
      "actionBefore": "",
      "actionWhile": "",
      "actionAfter": "",
      "optionIcon": "",
      "iconPath": ""
    },
    {
      "id": 191821518,
      "nextDialogs": [
        191821519
      ],
      "talkRole": {
        "type": "TALK_ROLE_NPC",
        "_id": "518"
      },
      "talkContentTextMapHash": 2868883410,
      "talkAssetPath": "",
      "talkAssetPathAlter": "",
      "talkAudioName": "",
      "actionBefore": "",
      "actionWhile": "",
      "actionAfter": "",
      "optionIcon": "",
      "iconPath": ""
    },
    {
      "id": 191821519,
      "nextDialogs": [
        191821520
      ],
      "talkRole": {
        "type": "TALK_ROLE_NPC",
        "_id": "13934"
      },
      "talkContentTextMapHash": 3756851146,
      "talkAssetPath": "",
      "talkAssetPathAlter": "",
      "talkAudioName": "",
      "actionBefore": "",
      "actionWhile": "",
      "actionAfter": "",
      "optionIcon": "",
      "iconPath": ""
    },
    {
      "id": 191821520,
      "nextDialogs": [
        191821521
      ],
      "talkRole": {
        "type": "TALK_ROLE_NPC",
        "_id": "518"
      },
      "talkContentTextMapHash": 3845590074,
      "talkAssetPath": "",
      "talkAssetPathAlter": "",
      "talkAudioName": "",
      "actionBefore": "",
      "actionWhile": "",
      "actionAfter": "",
      "optionIcon": "",
      "iconPath": ""
    },
    {
      "id": 191821521,
      "talkRole": {
        "type": "TALK_ROLE_NPC",
        "_id": "13932"
      },
      "talkContentTextMapHash": 1255716042,
      "talkAssetPath": "",
      "talkAssetPathAlter": "",
      "talkAudioName": "",
      "actionBefore": "",
      "actionWhile": "",
      "actionAfter": "",
      "optionIcon": "",
      "iconPath": ""
    }
  ]
}