{
  "talkId": 181,
  "KPGKDHAFHFE": "COOP",
  "dialogList": [
    {
      "id": 191853402,
      "nextDialogs": [
        191853403
      ],
      "talkRole": {
        "type": "TALK_ROLE_NPC",
        "_id": "14016"
      },
      "talkContentTextMapHash": 1513250274,
      "talkAssetPath": "",
      "talkAssetPathAlter": "",
      "talkAudioName": "",
      "actionBefore": "",
      "actionWhile": "",
      "actionAfter": "",
      "optionIcon": "",
      "iconPath": ""
    },
    {
      "id": 191853403,
      "nextDialogs": [
        191853404
      ],
      "talkRole": {
        "type": "TALK_ROLE_NPC",
        "_id": "13937"
      },
      "talkContentTextMapHash": 4165893786,
      "talkAssetPath": "",
      "talkAssetPathAlter": "",
      "talkAudioName": "",
      "actionBefore": "",
      "actionWhile": "",
      "actionAfter": "",
      "optionIcon": "",
      "iconPath": ""
    },
    {
      "id": 191853404,
      "nextDialogs": [
        191853405
      ],
      "talkRole": {
        "type": "TALK_ROLE_NPC",
        "_id": "13937"
      },
      "talkContentTextMapHash": 3380314266,
      "talkAssetPath": "",
      "talkAssetPathAlter": "",
      "talkAudioName": "",
      "actionBefore": "",
      "actionWhile": "",
      "actionAfter": "",
      "optionIcon": "",
      "iconPath": ""
    },
    {
      "id": 191853405,
      "nextDialogs": [
        191853406
      ],
      "talkRole": {
        "type": "TALK_ROLE_NPC",
        "_id": "518"
      },
      "talkContentTextMapHash": 3951844122,
      "talkAssetPath": "",
      "talkAssetPathAlter": "",
      "talkAudioName": "",
      "actionBefore": "",
      "actionWhile": "",
      "actionAfter": "",
      "optionIcon": "",
      "iconPath": ""
    },
    {
      "id": 191853406,
      "nextDialogs": [
        191853407
      ],
      "talkRole": {
        "type": "TALK_ROLE_NPC",
        "_id": "13937"
      },
      "talkContentTextMapHash": 22720658,
      "talkAssetPath": "",
      "talkAssetPathAlter": "",
      "talkAudioName": "",
      "actionBefore": "",
      "actionWhile": "",
      "actionAfter": "",
      "optionIcon": "",
      "iconPath": ""
    },
    {
      "id": 191853407,
      "nextDialogs": [
        191853408
      ],
      "talkRole": {
        "type": "TALK_ROLE_NPC",
        "_id": "14016"
      },
      "talkContentTextMapHash": 1641460602,
      "talkAssetPath": "",
      "talkAssetPathAlter": "",
      "talkAudioName": "",
      "actionBefore": "",
      "actionWhile": "",
      "actionAfter": "",
      "optionIcon": "",
      "iconPath": ""
    },
    {
      "id": 191853408,
      "nextDialogs": [
        191853409
      ],
      "talkRole": {
        "type": "TALK_ROLE_NPC",
        "_id": "13937"
      },
      "talkContentTextMapHash": 3075798290,
      "talkAssetPath": "",
      "talkAssetPathAlter": "",
      "talkAudioName": "",
      "actionBefore": "",
      "actionWhile": "",
      "actionAfter": "",
      "optionIcon": "",
      "iconPath": ""
    },
    {
      "id": 191853409,
      "nextDialogs": [
        191853410
      ],
      "talkRole": {
        "type": "TALK_ROLE_NPC",
        "_id": "13937"
      },
      "talkContentTextMapHash": 3585544074,
      "talkAssetPath": "",
      "talkAssetPathAlter": "",
      "talkAudioName": "",
      "actionBefore": "",
      "actionWhile": "",
      "actionAfter": "",
      "optionIcon": "",
      "iconPath": ""
    },
    {
      "id": 191853410,
      "nextDialogs": [
        191853411
      ],
      "talkRole": {
        "type": "TALK_ROLE_NPC",
        "_id": "13937"
      },
      "talkContentTextMapHash": 3208702626,
      "talkAssetPath": "",
      "talkAssetPathAlter": "",
      "talkAudioName": "",
      "actionBefore": "",
      "actionWhile": "",
      "actionAfter": "",
      "optionIcon": "",
      "iconPath": ""
    },
    {
      "id": 191853411,
      "nextDialogs": [
        191853412
      ],
      "talkRole": {
        "type": "TALK_ROLE_PLAYER",
        "_id": ""
      },
      "talkContentTextMapHash": 1225522330,
      "talkAssetPath": "",
      "talkAssetPathAlter": "",
      "talkAudioName": "",
      "actionBefore": "",
      "actionWhile": "",
      "actionAfter": "",
      "optionIcon": "",
      "iconPath": ""
    },
    {
      "id": 191853412,
      "nextDialogs": [
        191853413
      ],
      "talkShowType": "TALK_SHOW_FORCE_SELECT",
      "talkRole": {
        "type": "TALK_ROLE_PLAYER",
        "_id": ""
      },
      "talkContentTextMapHash": 1460860146,
      "talkAssetPath": "",
      "talkAssetPathAlter": "",
      "talkAudioName": "",
      "actionBefore": "",
      "actionWhile": "",
      "actionAfter": "",
      "optionIcon": "",
      "iconPath": ""
    },
    {
      "id": 191853413,
      "nextDialogs": [
        191853414
      ],
      "talkRole": {
        "type": "TALK_ROLE_NPC",
        "_id": "518"
      },
      "talkContentTextMapHash": 3642264578,
      "talkAssetPath": "",
      "talkAssetPathAlter": "",
      "talkAudioName": "",
      "actionBefore": "",
      "actionWhile": "",
      "actionAfter": "",
      "optionIcon": "",
      "iconPath": ""
    },
    {
      "id": 191853414,
      "nextDialogs": [
        191853415
      ],
      "talkRole": {
        "type": "TALK_ROLE_NPC",
        "_id": "14016"
      },
      "talkContentTextMapHash": 3888130802,
      "talkAssetPath": "",
      "talkAssetPathAlter": "",
      "talkAudioName": "",
      "actionBefore": "",
      "actionWhile": "",
      "actionAfter": "",
      "optionIcon": "",
      "iconPath": ""
    },
    {
      "id": 191853415,
      "nextDialogs": [
        191853416
      ],
      "talkRole": {
        "type": "TALK_ROLE_NPC",
        "_id": "13937"
      },
      "talkContentTextMapHash": 1376307690,
      "talkAssetPath": "",
      "talkAssetPathAlter": "",
      "talkAudioName": "",
      "actionBefore": "",
      "actionWhile": "",
      "actionAfter": "",
      "optionIcon": "",
      "iconPath": ""
    },
    {
      "id": 191853416,
      "nextDialogs": [
        191853417
      ],
      "talkRole": {
        "type": "TALK_ROLE_NPC",
        "_id": "13937"
      },
      "talkContentTextMapHash": 3175066866,
      "talkAssetPath": "",
      "talkAssetPathAlter": "",
      "talkAudioName": "",
      "actionBefore": "",
      "actionWhile": "",
      "actionAfter": "",
      "optionIcon": "",
      "iconPath": ""
    },
    {
      "id": 191853417,
      "nextDialogs": [
        191853418
      ],
      "talkRole": {
        "type": "TALK_ROLE_NPC",
        "_id": "13937"
      },
      "talkContentTextMapHash": 619781722,
      "talkAssetPath": "",
      "talkAssetPathAlter": "",
      "talkAudioName": "",
      "actionBefore": "",
      "actionWhile": "",
      "actionAfter": "",
      "optionIcon": "",
      "iconPath": ""
    },
    {
      "id": 191853418,
      "nextDialogs": [
        191853419
      ],
      "talkRole": {
        "type": "TALK_ROLE_NPC",
        "_id": "13937"
      },
      "talkContentTextMapHash": 2842360018,
      "talkAssetPath": "",
      "talkAssetPathAlter": "",
      "talkAudioName": "",
      "actionBefore": "",
      "actionWhile": "",
      "actionAfter": "",
      "optionIcon": "",
      "iconPath": ""
    },
    {
      "id": 191853419,
      "nextDialogs": [
        191853420
      ],
      "talkShowType": "TALK_SHOW_FORCE_SELECT",
      "talkRole": {
        "type": "TALK_ROLE_PLAYER",
        "_id": ""
      },
      "talkContentTextMapHash": 778588818,
      "talkAssetPath": "",
      "talkAssetPathAlter": "",
      "talkAudioName": "",
      "actionBefore": "",
      "actionWhile": "",
      "actionAfter": "",
      "optionIcon": "",
      "iconPath": ""
    },
    {
      "id": 191853420,
      "nextDialogs": [
        191853421
      ],
      "talkRole": {
        "type": "TALK_ROLE_NPC",
        "_id": "13937"
      },
      "talkContentTextMapHash": 2862911066,
      "talkAssetPath": "",
      "talkAssetPathAlter": "",
      "talkAudioName": "",
      "actionBefore": "",
      "actionWhile": "",
      "actionAfter": "",
      "optionIcon": "",
      "iconPath": ""
    },
    {
      "id": 191853421,
      "nextDialogs": [
        191853422
      ],
      "talkRole": {
        "type": "TALK_ROLE_NPC",
        "_id": "518"
      },
      "talkContentTextMapHash": 2878786338,
      "talkAssetPath": "",
      "talkAssetPathAlter": "",
      "talkAudioName": "",
      "actionBefore": "",
      "actionWhile": "",
      "actionAfter": "",
      "optionIcon": "",
      "iconPath": ""
    },
    {
      "id": 191853422,
      "nextDialogs": [
        191853423
      ],
      "talkRole": {
        "type": "TALK_ROLE_NPC",
        "_id": "13937"
      },
      "talkContentTextMapHash": 909884618,
      "talkAssetPath": "",
      "talkAssetPathAlter": "",
      "talkAudioName": "",
      "actionBefore": "",
      "actionWhile": "",
      "actionAfter": "",
      "optionIcon": "",
      "iconPath": ""
    },
    {
      "id": 191853423,
      "nextDialogs": [
        191853424
      ],
      "talkRole": {
        "type": "TALK_ROLE_NPC",
        "_id": "14016"
      },
      "talkContentTextMapHash": 1721666818,
      "talkAssetPath": "",
      "talkAssetPathAlter": "",
      "talkAudioName": "",
      "actionBefore": "",
      "actionWhile": "",
      "actionAfter": "",
      "optionIcon": "",
      "iconPath": ""
    },
    {
      "id": 191853424,
      "nextDialogs": [
        191853425
      ],
      "talkShowType": "TALK_SHOW_FORCE_SELECT",
      "talkRole": {
        "type": "TALK_ROLE_PLAYER",
        "_id": ""
      },
      "talkContentTextMapHash": 472503698,
      "talkAssetPath": "",
      "talkAssetPathAlter": "",
      "talkAudioName": "",
      "actionBefore": "",
      "actionWhile": "",
      "actionAfter": "",
      "optionIcon": "",
      "iconPath": ""
    },
    {
      "id": 191853425,
      "nextDialogs": [
        191853426
      ],
      "talkRole": {
        "type": "TALK_ROLE_NPC",
        "_id": "13937"
      },
      "talkContentTextMapHash": 3157238642,
      "talkAssetPath": "",
      "talkAssetPathAlter": "",
      "talkAudioName": "",
      "actionBefore": "",
      "actionWhile": "",
      "actionAfter": "",
      "optionIcon": "",
      "iconPath": ""
    },
    {
      "id": 191853426,
      "nextDialogs": [
        191853427
      ],
      "talkRole": {
        "type": "TALK_ROLE_NPC",
        "_id": "518"
      },
      "talkContentTextMapHash": 1919663234,
      "talkAssetPath": "",
      "talkAssetPathAlter": "",
      "talkAudioName": "",
      "actionBefore": "",
      "actionWhile": "",
      "actionAfter": "",
      "optionIcon": "",
      "iconPath": ""
    },
    {
      "id": 191853427,
      "nextDialogs": [
        191853428
      ],
      "talkRole": {
        "type": "TALK_ROLE_NPC",
        "_id": "13937"
      },
      "talkContentTextMapHash": 1252193466,
      "talkAssetPath": "",
      "talkAssetPathAlter": "",
      "talkAudioName": "",
      "actionBefore": "",
      "actionWhile": "",
      "actionAfter": "",
      "optionIcon": "",
      "iconPath": ""
    },
    {
      "id": 191853428,
      "nextDialogs": [
        191853429
      ],
      "talkRole": {
        "type": "TALK_ROLE_NPC",
        "_id": "14016"
      },
      "talkContentTextMapHash": 554400410,
      "talkAssetPath": "",
      "talkAssetPathAlter": "",
      "talkAudioName": "",
      "actionBefore": "",
      "actionWhile": "",
      "actionAfter": "",
      "optionIcon": "",
      "iconPath": ""
    },
    {
      "id": 191853429,
      "nextDialogs": [
        191853430
      ],
      "talkRole": {
        "type": "TALK_ROLE_NPC",
        "_id": "13937"
      },
      "talkContentTextMapHash": 118715722,
      "talkAssetPath": "",
      "talkAssetPathAlter": "",
      "talkAudioName": "",
      "actionBefore": "",
      "actionWhile": "",
      "actionAfter": "",
      "optionIcon": "",
      "iconPath": ""
    },
    {
      "id": 191853430,
      "nextDialogs": [
        191853431
      ],
      "talkRole": {
        "type": "TALK_ROLE_NPC",
        "_id": "14016"
      },
      "talkContentTextMapHash": 183837202,
      "talkAssetPath": "",
      "talkAssetPathAlter": "",
      "talkAudioName": "",
      "actionBefore": "",
      "actionWhile": "",
      "actionAfter": "",
      "optionIcon": "",
      "iconPath": ""
    },
    {
      "id": 191853431,
      "nextDialogs": [
        191853432
      ],
      "talkRole": {
        "type": "TALK_ROLE_NPC",
        "_id": "518"
      },
      "talkContentTextMapHash": 1245213842,
      "talkAssetPath": "",
      "talkAssetPathAlter": "",
      "talkAudioName": "",
      "actionBefore": "",
      "actionWhile": "",
      "actionAfter": "",
      "optionIcon": "",
      "iconPath": ""
    },
    {
      "id": 191853432,
      "nextDialogs": [
        191853433
      ],
      "talkRole": {
        "type": "TALK_ROLE_NPC",
        "_id": "14016"
      },
      "talkContentTextMapHash": 1178623898,
      "talkAssetPath": "",
      "talkAssetPathAlter": "",
      "talkAudioName": "",
      "actionBefore": "",
      "actionWhile": "",
      "actionAfter": "",
      "optionIcon": "",
      "iconPath": ""
    },
    {
      "id": 191853433,
      "nextDialogs": [
        191853434
      ],
      "talkRole": {
        "type": "TALK_ROLE_NPC",
        "_id": "13942"
      },
      "talkContentTextMapHash": 4192165402,
      "talkAssetPath": "",
      "talkAssetPathAlter": "",
      "talkAudioName": "",
      "actionBefore": "",
      "actionWhile": "",
      "actionAfter": "",
      "optionIcon": "",
      "iconPath": ""
    },
    {
      "id": 191853434,
      "nextDialogs": [
        191853435
      ],
      "talkRole": {
        "type": "TALK_ROLE_BLACK_SCREEN",
        "_id": ""
      },
      "talkContentTextMapHash": 4104256090,
      "talkAssetPath": "",
      "talkAssetPathAlter": "",
      "talkAudioName": "",
      "actionBefore": "",
      "actionWhile": "",
      "actionAfter": "",
      "optionIcon": "",
      "iconPath": ""
    },
    {
      "id": 191853435,
      "nextDialogs": [
        191853436
      ],
      "talkRole": {
        "type": "TALK_ROLE_NPC",
        "_id": "14016"
      },
      "talkContentTextMapHash": 4247716082,
      "talkAssetPath": "",
      "talkAssetPathAlter": "",
      "talkAudioName": "",
      "actionBefore": "",
      "actionWhile": "",
      "actionAfter": "",
      "optionIcon": "",
      "iconPath": ""
    },
    {
      "id": 191853436,
      "nextDialogs": [
        191853437
      ],
      "talkRole": {
        "type": "TALK_ROLE_NPC",
        "_id": "518"
      },
      "talkContentTextMapHash": 2383528386,
      "talkAssetPath": "",
      "talkAssetPathAlter": "",
      "talkAudioName": "",
      "actionBefore": "",
      "actionWhile": "",
      "actionAfter": "",
      "optionIcon": "",
      "iconPath": ""
    },
    {
      "id": 191853437,
      "talkRole": {
        "type": "TALK_ROLE_PLAYER",
        "_id": ""
      },
      "talkContentTextMapHash": 992318362,
      "talkAssetPath": "",
      "talkAssetPathAlter": "",
      "talkAudioName": "",
      "actionBefore": "",
      "actionWhile": "",
      "actionAfter": "",
      "optionIcon": "",
      "iconPath": ""
    }
  ],
  "PLPFOOINAAJ": [
    "[3_340100569:3592.008,428.202,4593.083,0.000,39.810,0.000]",
    "[3_340100570:3593.948,428.202,4595.679,0.000,216.120,0.000]",
    "[3_340100622:3588.626,428.202,4601.463,0.000,315.120,0.000]",
    "[3_340100624:3587.040,428.202,4602.601,0.000,140.480,0.000]",
    "[3_340100625:3585.518,428.202,4601.333,0.000,114.780,0.000]"
  ]
}