{
  "talkId": 292,
  "KPGKDHAFHFE": "COOP",
  "dialogList": [
    {
      "id": 191851601,
      "nextDialogs": [
        191851602
      ],
      "talkRole": {
        "type": "TALK_ROLE_NPC",
        "_id": "14016"
      },
      "talkContentTextMapHash": 1762332626,
      "talkAssetPath": "",
      "talkAssetPathAlter": "",
      "talkAudioName": "",
      "actionBefore": "",
      "actionWhile": "",
      "actionAfter": "",
      "optionIcon": "",
      "iconPath": ""
    },
    {
      "id": 191851602,
      "nextDialogs": [
        191851603
      ],
      "talkRole": {
        "type": "TALK_ROLE_NPC",
        "_id": "5191"
      },
      "talkContentTextMapHash": 2667621346,
      "talkAssetPath": "",
      "talkAssetPathAlter": "",
      "talkAudioName": "",
      "actionBefore": "",
      "actionWhile": "",
      "actionAfter": "",
      "optionIcon": "",
      "iconPath": ""
    },
    {
      "id": 191851603,
      "nextDialogs": [
        191851604
      ],
      "talkShowType": "TALK_SHOW_FORCE_SELECT",
      "talkRole": {
        "type": "TALK_ROLE_PLAYER",
        "_id": ""
      },
      "talkContentTextMapHash": 2542510362,
      "talkAssetPath": "",
      "talkAssetPathAlter": "",
      "talkAudioName": "",
      "actionBefore": "",
      "actionWhile": "",
      "actionAfter": "",
      "optionIcon": "",
      "iconPath": ""
    },
    {
      "id": 191851604,
      "nextDialogs": [
        191851605
      ],
      "talkRole": {
        "type": "TALK_ROLE_BLACK_SCREEN",
        "_id": ""
      },
      "talkContentTextMapHash": 2238741098,
      "talkAssetPath": "",
      "talkAssetPathAlter": "",
      "talkAudioName": "",
      "actionBefore": "",
      "actionWhile": "",
      "actionAfter": "",
      "optionIcon": "",
      "iconPath": ""
    },
    {
      "id": 191851605,
      "nextDialogs": [
        191851606
      ],
      "talkRole": {
        "type": "TALK_ROLE_NPC",
        "_id": "14016"
      },
      "talkContentTextMapHash": 1383022362,
      "talkAssetPath": "",
      "talkAssetPathAlter": "",
      "talkAudioName": "",
      "actionBefore": "",
      "actionWhile": "",
      "actionAfter": "",
      "optionIcon": "",
      "iconPath": ""
    },
    {
      "id": 191851606,
      "nextDialogs": [
        191851607
      ],
      "talkShowType": "TALK_SHOW_FORCE_SELECT",
      "talkRole": {
        "type": "TALK_ROLE_PLAYER",
        "_id": ""
      },
      "talkContentTextMapHash": 1452442418,
      "talkAssetPath": "",
      "talkAssetPathAlter": "",
      "talkAudioName": "",
      "actionBefore": "",
      "actionWhile": "",
      "actionAfter": "",
      "optionIcon": "",
      "iconPath": ""
    },
    {
      "id": 191851607,
      "nextDialogs": [
        191851608
      ],
      "talkRole": {
        "type": "TALK_ROLE_NPC",
        "_id": "14016"
      },
      "talkContentTextMapHash": 96615546,
      "talkAssetPath": "",
      "talkAssetPathAlter": "",
      "talkAudioName": "",
      "actionBefore": "",
      "actionWhile": "",
      "actionAfter": "",
      "optionIcon": "",
      "iconPath": ""
    },
    {
      "id": 191851608,
      "nextDialogs": [
        191851609
      ],
      "talkRole": {
        "type": "TALK_ROLE_NPC",
        "_id": "5191"
      },
      "talkContentTextMapHash": 2354057714,
      "talkAssetPath": "",
      "talkAssetPathAlter": "",
      "talkAudioName": "",
      "actionBefore": "",
      "actionWhile": "",
      "actionAfter": "",
      "optionIcon": "",
      "iconPath": ""
    },
    {
      "id": 191851609,
      "nextDialogs": [
        191851610
      ],
      "talkShowType": "TALK_SHOW_FORCE_SELECT",
      "talkRole": {
        "type": "TALK_ROLE_PLAYER",
        "_id": ""
      },
      "talkContentTextMapHash": 660619298,
      "talkAssetPath": "",
      "talkAssetPathAlter": "",
      "talkAudioName": "",
      "actionBefore": "",
      "actionWhile": "",
      "actionAfter": "",
      "optionIcon": "",
      "iconPath": ""
    },
    {
      "id": 191851610,
      "nextDialogs": [
        191851611
      ],
      "talkRole": {
        "type": "TALK_ROLE_NPC",
        "_id": "5191"
      },
      "talkContentTextMapHash": 3912318050,
      "talkAssetPath": "",
      "talkAssetPathAlter": "",
      "talkAudioName": "",
      "actionBefore": "",
      "actionWhile": "",
      "actionAfter": "",
      "optionIcon": "",
      "iconPath": ""
    },
    {
      "id": 191851611,
      "nextDialogs": [
        191851612
      ],
      "talkRole": {
        "type": "TALK_ROLE_NPC",
        "_id": "5191"
      },
      "talkContentTextMapHash": 2445636994,
      "talkAssetPath": "",
      "talkAssetPathAlter": "",
      "talkAudioName": "",
      "actionBefore": "",
      "actionWhile": "",
      "actionAfter": "",
      "optionIcon": "",
      "iconPath": ""
    },
    {
      "id": 191851612,
      "nextDialogs": [
        191851613
      ],
      "talkRole": {
        "type": "TALK_ROLE_NPC",
        "_id": "518"
      },
      "talkContentTextMapHash": 1746165402,
      "talkAssetPath": "",
      "talkAssetPathAlter": "",
      "talkAudioName": "",
      "actionBefore": "",
      "actionWhile": "",
      "actionAfter": "",
      "optionIcon": "",
      "iconPath": ""
    },
    {
      "id": 191851613,
      "nextDialogs": [
        191851614
      ],
      "talkRole": {
        "type": "TALK_ROLE_NPC",
        "_id": "5191"
      },
      "talkContentTextMapHash": 2718603090,
      "talkAssetPath": "",
      "talkAssetPathAlter": "",
      "talkAudioName": "",
      "actionBefore": "",
      "actionWhile": "",
      "actionAfter": "",
      "optionIcon": "",
      "iconPath": ""
    },
    {
      "id": 191851614,
      "nextDialogs": [
        191851615
      ],
      "talkRole": {
        "type": "TALK_ROLE_NPC",
        "_id": "518"
      },
      "talkContentTextMapHash": 2423137322,
      "talkAssetPath": "",
      "talkAssetPathAlter": "",
      "talkAudioName": "",
      "actionBefore": "",
      "actionWhile": "",
      "actionAfter": "",
      "optionIcon": "",
      "iconPath": ""
    },
    {
      "id": 191851615,
      "nextDialogs": [
        191851616
      ],
      "talkRole": {
        "type": "TALK_ROLE_NPC",
        "_id": "5191"
      },
      "talkContentTextMapHash": 3032793698,
      "talkAssetPath": "",
      "talkAssetPathAlter": "",
      "talkAudioName": "",
      "actionBefore": "",
      "actionWhile": "",
      "actionAfter": "",
      "optionIcon": "",
      "iconPath": ""
    },
    {
      "id": 191851616,
      "nextDialogs": [
        191851617
      ],
      "talkRole": {
        "type": "TALK_ROLE_NPC",
        "_id": "5191"
      },
      "talkContentTextMapHash": 2667675778,
      "talkAssetPath": "",
      "talkAssetPathAlter": "",
      "talkAudioName": "",
      "actionBefore": "",
      "actionWhile": "",
      "actionAfter": "",
      "optionIcon": "",
      "iconPath": ""
    },
    {
      "id": 191851617,
      "nextDialogs": [
        191851618
      ],
      "talkRole": {
        "type": "TALK_ROLE_NPC",
        "_id": "14016"
      },
      "talkContentTextMapHash": 2875103418,
      "talkAssetPath": "",
      "talkAssetPathAlter": "",
      "talkAudioName": "",
      "actionBefore": "",
      "actionWhile": "",
      "actionAfter": "",
      "optionIcon": "",
      "iconPath": ""
    },
    {
      "id": 191851618,
      "nextDialogs": [
        191851619
      ],
      "talkRole": {
        "type": "TALK_ROLE_NPC",
        "_id": "13981"
      },
      "talkContentTextMapHash": 1821923706,
      "talkAssetPath": "",
      "talkAssetPathAlter": "",
      "talkAudioName": "",
      "actionBefore": "",
      "actionWhile": "",
      "actionAfter": "",
      "optionIcon": "",
      "iconPath": ""
    },
    {
      "id": 191851619,
      "nextDialogs": [
        191851620
      ],
      "talkRole": {
        "type": "TALK_ROLE_NPC",
        "_id": "5191"
      },
      "talkContentTextMapHash": 19477146,
      "talkAssetPath": "",
      "talkAssetPathAlter": "",
      "talkAudioName": "",
      "actionBefore": "",
      "actionWhile": "",
      "actionAfter": "",
      "optionIcon": "",
      "iconPath": ""
    },
    {
      "id": 191851620,
      "nextDialogs": [
        191851621
      ],
      "talkRole": {
        "type": "TALK_ROLE_NPC",
        "_id": "14016"
      },
      "talkContentTextMapHash": 1830548786,
      "talkAssetPath": "",
      "talkAssetPathAlter": "",
      "talkAudioName": "",
      "actionBefore": "",
      "actionWhile": "",
      "actionAfter": "",
      "optionIcon": "",
      "iconPath": ""
    },
    {
      "id": 191851621,
      "nextDialogs": [
        191851622
      ],
      "talkRole": {
        "type": "TALK_ROLE_NPC",
        "_id": "13981"
      },
      "talkContentTextMapHash": 690770650,
      "talkAssetPath": "",
      "talkAssetPathAlter": "",
      "talkAudioName": "",
      "actionBefore": "",
      "actionWhile": "",
      "actionAfter": "",
      "optionIcon": "",
      "iconPath": ""
    },
    {
      "id": 191851622,
      "nextDialogs": [
        191851623
      ],
      "talkRole": {
        "type": "TALK_ROLE_NPC",
        "_id": "13942"
      },
      "talkContentTextMapHash": 2696401594,
      "talkAssetPath": "",
      "talkAssetPathAlter": "",
      "talkAudioName": "",
      "actionBefore": "",
      "actionWhile": "",
      "actionAfter": "",
      "optionIcon": "",
      "iconPath": ""
    },
    {
      "id": 191851623,
      "nextDialogs": [
        191851624,
        191851625
      ],
      "talkRole": {
        "type": "TALK_ROLE_NPC",
        "_id": "14016"
      },
      "talkContentTextMapHash": 820081890,
      "talkAssetPath": "",
      "talkAssetPathAlter": "",
      "talkAudioName": "",
      "actionBefore": "",
      "actionWhile": "",
      "actionAfter": "",
      "optionIcon": "",
      "iconPath": ""
    },
    {
      "id": 191851624,
      "nextDialogs": [
        191851626
      ],
      "talkRole": {
        "type": "TALK_ROLE_PLAYER",
        "_id": ""
      },
      "talkContentTextMapHash": 640819602,
      "talkAssetPath": "",
      "talkAssetPathAlter": "",
      "talkAudioName": "",
      "actionBefore": "",
      "actionWhile": "",
      "actionAfter": "",
      "optionIcon": "",
      "iconPath": ""
    },
    {
      "id": 191851625,
      "nextDialogs": [
        191851626
      ],
      "talkRole": {
        "type": "TALK_ROLE_PLAYER",
        "_id": ""
      },
      "talkContentTextMapHash": 888142906,
      "talkAssetPath": "",
      "talkAssetPathAlter": "",
      "talkAudioName": "",
      "actionBefore": "",
      "actionWhile": "",
      "actionAfter": "",
      "optionIcon": "",
      "iconPath": ""
    },
    {
      "id": 191851626,
      "nextDialogs": [
        191851627
      ],
      "talkRole": {
        "type": "TALK_ROLE_NPC",
        "_id": "518"
      },
      "talkContentTextMapHash": 578225482,
      "talkAssetPath": "",
      "talkAssetPathAlter": "",
      "talkAudioName": "",
      "actionBefore": "",
      "actionWhile": "",
      "actionAfter": "",
      "optionIcon": "",
      "iconPath": ""
    },
    {
      "id": 191851627,
      "nextDialogs": [
        191851628
      ],
      "talkRole": {
        "type": "TALK_ROLE_NPC",
        "_id": "5191"
      },
      "talkContentTextMapHash": 3530234866,
      "talkAssetPath": "",
      "talkAssetPathAlter": "",
      "talkAudioName": "",
      "actionBefore": "",
      "actionWhile": "",
      "actionAfter": "",
      "optionIcon": "",
      "iconPath": ""
    },
    {
      "id": 191851628,
      "nextDialogs": [
        191851629
      ],
      "talkRole": {
        "type": "TALK_ROLE_BLACK_SCREEN",
        "_id": ""
      },
      "talkContentTextMapHash": 1456995978,
      "talkAssetPath": "",
      "talkAssetPathAlter": "",
      "talkAudioName": "",
      "actionBefore": "",
      "actionWhile": "",
      "actionAfter": "",
      "optionIcon": "",
      "iconPath": ""
    },
    {
      "id": 191851629,
      "nextDialogs": [
        191851630
      ],
      "talkRole": {
        "type": "TALK_ROLE_NPC",
        "_id": "518"
      },
      "talkContentTextMapHash": 4033833266,
      "talkAssetPath": "",
      "talkAssetPathAlter": "",
      "talkAudioName": "",
      "actionBefore": "",
      "actionWhile": "",
      "actionAfter": "",
      "optionIcon": "",
      "iconPath": ""
    },
    {
      "id": 191851630,
      "nextDialogs": [
        191851631
      ],
      "talkShowType": "TALK_SHOW_FORCE_SELECT",
      "talkRole": {
        "type": "TALK_ROLE_PLAYER",
        "_id": ""
      },
      "talkContentTextMapHash": 4232763882,
      "talkAssetPath": "",
      "talkAssetPathAlter": "",
      "talkAudioName": "",
      "actionBefore": "",
      "actionWhile": "",
      "actionAfter": "",
      "optionIcon": "",
      "iconPath": ""
    },
    {
      "id": 191851631,
      "nextDialogs": [
        191851632
      ],
      "talkRole": {
        "type": "TALK_ROLE_NPC",
        "_id": "518"
      },
      "talkContentTextMapHash": 1295239314,
      "talkAssetPath": "",
      "talkAssetPathAlter": "",
      "talkAudioName": "",
      "actionBefore": "",
      "actionWhile": "",
      "actionAfter": "",
      "optionIcon": "",
      "iconPath": ""
    },
    {
      "id": 191851632,
      "nextDialogs": [
        191851633
      ],
      "talkRole": {
        "type": "TALK_ROLE_NPC",
        "_id": "5191"
      },
      "talkContentTextMapHash": 1596698202,
      "talkAssetPath": "",
      "talkAssetPathAlter": "",
      "talkAudioName": "",
      "actionBefore": "",
      "actionWhile": "",
      "actionAfter": "",
      "optionIcon": "",
      "iconPath": ""
    },
    {
      "id": 191851633,
      "nextDialogs": [
        191851634
      ],
      "talkRole": {
        "type": "TALK_ROLE_NPC",
        "_id": "518"
      },
      "talkContentTextMapHash": 2228791922,
      "talkAssetPath": "",
      "talkAssetPathAlter": "",
      "talkAudioName": "",
      "actionBefore": "",
      "actionWhile": "",
      "actionAfter": "",
      "optionIcon": "",
      "iconPath": ""
    },
    {
      "id": 191851634,
      "nextDialogs": [
        191851635
      ],
      "talkRole": {
        "type": "TALK_ROLE_NPC",
        "_id": "13942"
      },
      "talkContentTextMapHash": 4164395458,
      "talkAssetPath": "",
      "talkAssetPathAlter": "",
      "talkAudioName": "",
      "actionBefore": "",
      "actionWhile": "",
      "actionAfter": "",
      "optionIcon": "",
      "iconPath": ""
    }
  ],
  "PLPFOOINAAJ": [
    "[3_341200002:3181.938,441.878,2844.469,0.000,208.100,0.000]",
    "[3_341200003:3183.297,441.823,2846.385,0.000,187.720,0.000]",
    "[3_341200004:3182.084,441.878,2846.729,0.000,175.880,0.000]",
    "[3_341200007:3181.238,441.878,2843.100,0.000,8.630,0.000]",
    "[3_341200008:3180.067,441.878,2843.702,0.000,55.960,0.000]",
    "[3_341200009:3184.049,441.878,2844.242,0.000,322.110,0.000]"
  ]
}