{
  "talkId": 218,
  "KPGKDHAFHFE": "COOP",
  "dialogList": [
    {
      "id": 191820401,
      "nextDialogs": [
        191820402
      ],
      "talkRole": {
        "type": "TALK_ROLE_NPC",
        "_id": "1073"
      },
      "talkContentTextMapHash": 2270830282,
      "talkAssetPath": "",
      "talkAssetPathAlter": "",
      "talkAudioName": "",
      "actionBefore": "",
      "actionWhile": "",
      "actionAfter": "",
      "optionIcon": "",
      "iconPath": ""
    },
    {
      "id": 191820402,
      "nextDialogs": [
        191820403
      ],
      "talkShowType": "TALK_SHOW_FORCE_SELECT",
      "talkRole": {
        "type": "TALK_ROLE_PLAYER",
        "_id": ""
      },
      "talkContentTextMapHash": 571986266,
      "talkAssetPath": "",
      "talkAssetPathAlter": "",
      "talkAudioName": "",
      "actionBefore": "",
      "actionWhile": "",
      "actionAfter": "",
      "optionIcon": "",
      "iconPath": ""
    },
    {
      "id": 191820403,
      "nextDialogs": [
        191820404
      ],
      "talkRole": {
        "type": "TALK_ROLE_NPC",
        "_id": "1073"
      },
      "talkContentTextMapHash": 1285873530,
      "talkAssetPath": "",
      "talkAssetPathAlter": "",
      "talkAudioName": "",
      "actionBefore": "",
      "actionWhile": "",
      "actionAfter": "",
      "optionIcon": "",
      "iconPath": ""
    },
    {
      "id": 191820404,
      "nextDialogs": [
        191820405
      ],
      "talkRole": {
        "type": "TALK_ROLE_NPC",
        "_id": "1073"
      },
      "talkContentTextMapHash": 4198508738,
      "talkAssetPath": "",
      "talkAssetPathAlter": "",
      "talkAudioName": "",
      "actionBefore": "",
      "actionWhile": "",
      "actionAfter": "",
      "optionIcon": "",
      "iconPath": ""
    },
    {
      "id": 191820405,
      "nextDialogs": [
        191820406
      ],
      "talkShowType": "TALK_SHOW_FORCE_SELECT",
      "talkRole": {
        "type": "TALK_ROLE_PLAYER",
        "_id": ""
      },
      "talkContentTextMapHash": 4069825050,
      "talkAssetPath": "",
      "talkAssetPathAlter": "",
      "talkAudioName": "",
      "actionBefore": "",
      "actionWhile": "",
      "actionAfter": "",
      "optionIcon": "",
      "iconPath": ""
    },
    {
      "id": 191820406,
      "nextDialogs": [
        191820407
      ],
      "talkRole": {
        "type": "TALK_ROLE_NPC",
        "_id": "1073"
      },
      "talkContentTextMapHash": 883253658,
      "talkAssetPath": "",
      "talkAssetPathAlter": "",
      "talkAudioName": "",
      "actionBefore": "",
      "actionWhile": "",
      "actionAfter": "",
      "optionIcon": "",
      "iconPath": ""
    },
    {
      "id": 191820407,
      "nextDialogs": [
        191820408
      ],
      "talkRole": {
        "type": "TALK_ROLE_NPC",
        "_id": "1073"
      },
      "talkContentTextMapHash": 4117644202,
      "talkAssetPath": "",
      "talkAssetPathAlter": "",
      "talkAudioName": "",
      "actionBefore": "",
      "actionWhile": "",
      "actionAfter": "",
      "optionIcon": "",
      "iconPath": ""
    },
    {
      "id": 191820408,
      "nextDialogs": [
        191820409
      ],
      "talkRole": {
        "type": "TALK_ROLE_PLAYER",
        "_id": ""
      },
      "talkContentTextMapHash": 774332794,
      "talkAssetPath": "",
      "talkAssetPathAlter": "",
      "talkAudioName": "",
      "actionBefore": "",
      "actionWhile": "",
      "actionAfter": "",
      "optionIcon": "",
      "iconPath": ""
    },
    {
      "id": 191820409,
      "nextDialogs": [
        191820410
      ],
      "talkRole": {
        "type": "TALK_ROLE_NPC",
        "_id": "518"
      },
      "talkContentTextMapHash": 3457071162,
      "talkAssetPath": "",
      "talkAssetPathAlter": "",
      "talkAudioName": "",
      "actionBefore": "",
      "actionWhile": "",
      "actionAfter": "",
      "optionIcon": "",
      "iconPath": ""
    },
    {
      "id": 191820410,
      "nextDialogs": [
        191820411
      ],
      "talkRole": {
        "type": "TALK_ROLE_NPC",
        "_id": "1073"
      },
      "talkContentTextMapHash": 2885196314,
      "talkAssetPath": "",
      "talkAssetPathAlter": "",
      "talkAudioName": "",
      "actionBefore": "",
      "actionWhile": "",
      "actionAfter": "",
      "optionIcon": "",
      "iconPath": ""
    },
    {
      "id": 191820411,
      "nextDialogs": [
        191820412
      ],
      "talkRole": {
        "type": "TALK_ROLE_NPC",
        "_id": "518"
      },
      "talkContentTextMapHash": 559972778,
      "talkAssetPath": "",
      "talkAssetPathAlter": "",
      "talkAudioName": "",
      "actionBefore": "",
      "actionWhile": "",
      "actionAfter": "",
      "optionIcon": "",
      "iconPath": ""
    },
    {
      "id": 191820412,
      "nextDialogs": [
        191820413
      ],
      "talkRole": {
        "type": "TALK_ROLE_NPC",
        "_id": "1073"
      },
      "talkContentTextMapHash": 584343930,
      "talkAssetPath": "",
      "talkAssetPathAlter": "",
      "talkAudioName": "",
      "actionBefore": "",
      "actionWhile": "",
      "actionAfter": "",
      "optionIcon": "",
      "iconPath": ""
    },
    {
      "id": 191820413,
      "nextDialogs": [
        191820414
      ],
      "talkRole": {
        "type": "TALK_ROLE_NPC",
        "_id": "1073"
      },
      "talkContentTextMapHash": 4071405114,
      "talkAssetPath": "",
      "talkAssetPathAlter": "",
      "talkAudioName": "",
      "actionBefore": "",
      "actionWhile": "",
      "actionAfter": "",
      "optionIcon": "",
      "iconPath": ""
    },
    {
      "id": 191820414,
      "nextDialogs": [
        191820415
      ],
      "talkRole": {
        "type": "TALK_ROLE_NPC",
        "_id": "518"
      },
      "talkContentTextMapHash": 4072191002,
      "talkAssetPath": "",
      "talkAssetPathAlter": "",
      "talkAudioName": "",
      "actionBefore": "",
      "actionWhile": "",
      "actionAfter": "",
      "optionIcon": "",
      "iconPath": ""
    },
    {
      "id": 191820415,
      "nextDialogs": [
        191820416
      ],
      "talkRole": {
        "type": "TALK_ROLE_NPC",
        "_id": "1073"
      },
      "talkContentTextMapHash": 3214939938,
      "talkAssetPath": "",
      "talkAssetPathAlter": "",
      "talkAudioName": "",
      "actionBefore": "",
      "actionWhile": "",
      "actionAfter": "",
      "optionIcon": "",
      "iconPath": ""
    },
    {
      "id": 191820416,
      "nextDialogs": [
        191820417
      ],
      "talkRole": {
        "type": "TALK_ROLE_NPC",
        "_id": "1073"
      },
      "talkContentTextMapHash": 1964682498,
      "talkAssetPath": "",
      "talkAssetPathAlter": "",
      "talkAudioName": "",
      "actionBefore": "",
      "actionWhile": "",
      "actionAfter": "",
      "optionIcon": "",
      "iconPath": ""
    },
    {
      "id": 191820417,
      "nextDialogs": [
        191820418
      ],
      "talkRole": {
        "type": "TALK_ROLE_NPC",
        "_id": "1073"
      },
      "talkContentTextMapHash": 711565210,
      "talkAssetPath": "",
      "talkAssetPathAlter": "",
      "talkAudioName": "",
      "actionBefore": "",
      "actionWhile": "",
      "actionAfter": "",
      "optionIcon": "",
      "iconPath": ""
    },
    {
      "id": 191820418,
      "nextDialogs": [
        191820419
      ],
      "talkRole": {
        "type": "TALK_ROLE_NPC",
        "_id": "518"
      },
      "talkContentTextMapHash": 2481087050,
      "talkAssetPath": "",
      "talkAssetPathAlter": "",
      "talkAudioName": "",
      "actionBefore": "",
      "actionWhile": "",
      "actionAfter": "",
      "optionIcon": "",
      "iconPath": ""
    },
    {
      "id": 191820419,
      "nextDialogs": [
        191820420
      ],
      "talkRole": {
        "type": "TALK_ROLE_NPC",
        "_id": "1073"
      },
      "talkContentTextMapHash": 1527312098,
      "talkAssetPath": "",
      "talkAssetPathAlter": "",
      "talkAudioName": "",
      "actionBefore": "",
      "actionWhile": "",
      "actionAfter": "",
      "optionIcon": "",
      "iconPath": ""
    },
    {
      "id": 191820420,
      "nextDialogs": [
        191820421
      ],
      "talkRole": {
        "type": "TALK_ROLE_NPC",
        "_id": "1073"
      },
      "talkContentTextMapHash": 1493939530,
      "talkAssetPath": "",
      "talkAssetPathAlter": "",
      "talkAudioName": "",
      "actionBefore": "",
      "actionWhile": "",
      "actionAfter": "",
      "optionIcon": "",
      "iconPath": ""
    },
    {
      "id": 191820421,
      "nextDialogs": [
        191820422
      ],
      "talkRole": {
        "type": "TALK_ROLE_NPC",
        "_id": "1073"
      },
      "talkContentTextMapHash": 366414826,
      "talkAssetPath": "",
      "talkAssetPathAlter": "",
      "talkAudioName": "",
      "actionBefore": "",
      "actionWhile": "",
      "actionAfter": "",
      "optionIcon": "",
      "iconPath": ""
    },
    {
      "id": 191820422,
      "nextDialogs": [
        191820423
      ],
      "talkRole": {
        "type": "TALK_ROLE_NPC",
        "_id": "518"
      },
      "talkContentTextMapHash": 2964373594,
      "talkAssetPath": "",
      "talkAssetPathAlter": "",
      "talkAudioName": "",
      "actionBefore": "",
      "actionWhile": "",
      "actionAfter": "",
      "optionIcon": "",
      "iconPath": ""
    },
    {
      "id": 191820423,
      "nextDialogs": [
        191820424
      ],
      "talkRole": {
        "type": "TALK_ROLE_NPC",
        "_id": "1073"
      },
      "talkContentTextMapHash": 3654941866,
      "talkAssetPath": "",
      "talkAssetPathAlter": "",
      "talkAudioName": "",
      "actionBefore": "",
      "actionWhile": "",
      "actionAfter": "",
      "optionIcon": "",
      "iconPath": ""
    },
    {
      "id": 191820424,
      "nextDialogs": [
        191820425
      ],
      "talkRole": {
        "type": "TALK_ROLE_NPC",
        "_id": "1073"
      },
      "talkContentTextMapHash": 1194595394,
      "talkAssetPath": "",
      "talkAssetPathAlter": "",
      "talkAudioName": "",
      "actionBefore": "",
      "actionWhile": "",
      "actionAfter": "",
      "optionIcon": "",
      "iconPath": ""
    },
    {
      "id": 191820427,
      "nextDialogs": [
        191820428
      ],
      "talkRole": {
        "type": "TALK_ROLE_NPC",
        "_id": "518"
      },
      "talkContentTextMapHash": 741421586,
      "talkAssetPath": "",
      "talkAssetPathAlter": "",
      "talkAudioName": "",
      "actionBefore": "",
      "actionWhile": "",
      "actionAfter": "",
      "optionIcon": "",
      "iconPath": ""
    },
    {
      "id": 191820428,
      "nextDialogs": [
        191820429
      ],
      "talkRole": {
        "type": "TALK_ROLE_NPC",
        "_id": "1073"
      },
      "talkContentTextMapHash": 1688720370,
      "talkAssetPath": "",
      "talkAssetPathAlter": "",
      "talkAudioName": "",
      "actionBefore": "",
      "actionWhile": "",
      "actionAfter": "",
      "optionIcon": "",
      "iconPath": ""
    },
    {
      "id": 191820429,
      "nextDialogs": [
        191820430
      ],
      "talkRole": {
        "type": "TALK_ROLE_NPC",
        "_id": "518"
      },
      "talkContentTextMapHash": 3993200858,
      "talkAssetPath": "",
      "talkAssetPathAlter": "",
      "talkAudioName": "",
      "actionBefore": "",
      "actionWhile": "",
      "actionAfter": "",
      "optionIcon": "",
      "iconPath": ""
    },
    {
      "id": 191820430,
      "nextDialogs": [
        191820431
      ],
      "talkRole": {
        "type": "TALK_ROLE_NPC",
        "_id": "1073"
      },
      "talkContentTextMapHash": 2821121858,
      "talkAssetPath": "",
      "talkAssetPathAlter": "",
      "talkAudioName": "",
      "actionBefore": "",
      "actionWhile": "",
      "actionAfter": "",
      "optionIcon": "",
      "iconPath": ""
    },
    {
      "id": 191820431,
      "nextDialogs": [
        191820432
      ],
      "talkRole": {
        "type": "TALK_ROLE_NPC",
        "_id": "518"
      },
      "talkContentTextMapHash": 4167215274,
      "talkAssetPath": "",
      "talkAssetPathAlter": "",
      "talkAudioName": "",
      "actionBefore": "",
      "actionWhile": "",
      "actionAfter": "",
      "optionIcon": "",
      "iconPath": ""
    },
    {
      "id": 191820432,
      "nextDialogs": [
        191820433
      ],
      "talkRole": {
        "type": "TALK_ROLE_NPC",
        "_id": "1073"
      },
      "talkContentTextMapHash": 1195783186,
      "talkAssetPath": "",
      "talkAssetPathAlter": "",
      "talkAudioName": "",
      "actionBefore": "",
      "actionWhile": "",
      "actionAfter": "",
      "optionIcon": "",
      "iconPath": ""
    },
    {
      "id": 191820433,
      "nextDialogs": [
        191820434
      ],
      "talkRole": {
        "type": "TALK_ROLE_BLACK_SCREEN",
        "_id": ""
      },
      "talkContentTextMapHash": 3010608794,
      "talkAssetPath": "",
      "talkAssetPathAlter": "",
      "talkAudioName": "",
      "actionBefore": "",
      "actionWhile": "",
      "actionAfter": "",
      "optionIcon": "",
      "iconPath": ""
    },
    {
      "id": 191820434,
      "nextDialogs": [
        191820435
      ],
      "talkRole": {
        "type": "TALK_ROLE_NPC",
        "_id": "518"
      },
      "talkContentTextMapHash": 2952178378,
      "talkAssetPath": "",
      "talkAssetPathAlter": "",
      "talkAudioName": "",
      "actionBefore": "",
      "actionWhile": "",
      "actionAfter": "",
      "optionIcon": "",
      "iconPath": ""
    },
    {
      "id": 191820435,
      "nextDialogs": [
        191820436
      ],
      "talkRole": {
        "type": "TALK_ROLE_PLAYER",
        "_id": ""
      },
      "talkContentTextMapHash": 3360800650,
      "talkAssetPath": "",
      "talkAssetPathAlter": "",
      "talkAudioName": "",
      "actionBefore": "",
      "actionWhile": "",
      "actionAfter": "",
      "optionIcon": "",
      "iconPath": ""
    },
    {
      "id": 191820436,
      "talkRole": {
        "type": "TALK_ROLE_NPC",
        "_id": "518"
      },
      "talkContentTextMapHash": 1873536538,
      "talkAssetPath": "",
      "talkAssetPathAlter": "",
      "talkAudioName": "",
      "actionBefore": "",
      "actionWhile": "",
      "actionAfter": "",
      "optionIcon": "",
      "iconPath": ""
    }
  ],
  "PLPFOOINAAJ": [
    "[1084_79:-0.773,7.520,-12.225,0.000,80.990,0.000]",
    "[1084_80:3.327,7.520,-11.234,0.000,306.260,0.000]",
    "[1084_99:-4.760,7.520,-13.301,0.000,215.190,0.000]"
  ]
}