{
  "configId": 1020,
  "groupId": 133307001,
  "talks": [
    {
      "id": 6833002,
      "beginWay": "TALK_BEGIN_MANUAL",
      "activeMode": "PLAY_MODE_HOST",
      "beginCond": [
        {
          "type": "QUEST_COND_GADGET_TALK_STATE_EQUAL",
          "_param": [
            "1020",
            "133307001",
            "0"
          ]
        }
      ],
      "priority": 5,
      "initDialog": 683300201,
      "performCfg": "QuestDialogue/WQ/Sumeru_68330/Q6833002",
      "loadType": "TALK_GADGET",
      "assetIndex": 6851329984716469876,
      "prePerformCfg": "",
      "finishExec": [
        {
          "KPGKDHAFHFE": "TALK_EXEC_SET_GADGET_STATE",
          "param": [
            "6833002"
          ]
        }
      ]
    }
  ]
}