{
  "configId": 124003,
  "groupId": 199002124,
  "talks": [
    {
      "id": 6800361,
      "beginWay": "TALK_BEGIN_MANUAL",
      "activeMode": "PLAY_MODE_ALL",
      "beginCond": [
        {
          "type": "QUEST_COND_GADGET_TALK_STATE_EQUAL",
          "_param": [
            "124003",
            "199002124",
            "0"
          ]
        }
      ],
      "initDialog": 680036101,
      "performCfg": "",
      "loadType": "TALK_GADGET",
      "assetIndex": 13270208426406565948,
      "prePerformCfg": "",
      "finishExec": [
        {
          "KPGKDHAFHFE": "TALK_EXEC_SET_GADGET_STATE",
          "param": [
            "6800361"
          ]
        }
      ]
    },
    {
      "id": 6800417,
      "beginWay": "TALK_BEGIN_MANUAL",
      "activeMode": "PLAY_MODE_ALL",
      "beginCond": [
        {
          "type": "QUEST_COND_GADGET_TALK_STATE_EQUAL",
          "_param": [
            "124003",
            "199002124",
            "6800361"
          ]
        }
      ],
      "initDialog": 680041701,
      "performCfg": "",
      "loadType": "TALK_GADGET",
      "assetIndex": 12921818182552135125,
      "prePerformCfg": ""
    }
  ]
}