{
  "configId": 154001,
  "groupId": 144001154,
  "talks": [
    {
      "id": 6800235,
      "beginWay": "TALK_BEGIN_MANUAL",
      "activeMode": "PLAY_MODE_ALL",
      "beginCond": [
        {
          "type": "QUEST_COND_GADGET_TALK_STATE_EQUAL",
          "_param": [
            "154001",
            "144001154",
            "6800235"
          ]
        }
      ],
      "priority": 5,
      "initDialog": 680023301,
      "performCfg": "",
      "loadType": "TALK_GADGET",
      "assetIndex": 16795809524038556626,
      "prePerformCfg": "",
      "finishExec": [
        {
          "KPGKDHAFHFE": "TALK_EXEC_SET_GADGET_STATE",
          "param": [
            "6800235"
          ]
        }
      ]
    }
  ]
}