{
  "configId": 165017,
  "groupId": 510010165,
  "talks": [
    {
      "id": 6800296,
      "beginWay": "TALK_BEGIN_MANUAL",
      "activeMode": "PLAY_MODE_HOST",
      "beginCond": [
        {
          "type": "QUEST_COND_GADGET_TALK_STATE_EQUAL",
          "_param": [
            "165017",
            "510010165",
            "0"
          ]
        }
      ],
      "initDialog": 680029001,
      "performCfg": "QuestDialogue/WQ/Penumbra_79041/Q6800296",
      "loadType": "TALK_GADGET",
      "assetIndex": 6881910011195523470,
      "prePerformCfg": "",
      "finishExec": [
        {
          "KPGKDHAFHFE": "TALK_EXEC_SET_GADGET_STATE",
          "param": [
            "6800296"
          ]
        }
      ]
    }
  ]
}