{
  "configId": 172001,
  "groupId": 199002172,
  "talks": [
    {
      "id": 6800354,
      "beginWay": "TALK_BEGIN_AUTO",
      "activeMode": "PLAY_MODE_ALL",
      "beginCond": [
        {
          "type": "QUEST_COND_GADGET_TALK_STATE_EQUAL",
          "_param": [
            "172001",
            "199002172",
            "0"
          ]
        }
      ],
      "initDialog": 680035401,
      "performCfg": "",
      "loadType": "TALK_GADGET",
      "assetIndex": 8071710602763873627,
      "prePerformCfg": "",
      "finishExec": [
        {
          "KPGKDHAFHFE": "TALK_EXEC_SET_GADGET_STATE",
          "param": [
            "6800355"
          ]
        }
      ]
    },
    {
      "id": 6800355,
      "beginWay": "TALK_BEGIN_MANUAL",
      "activeMode": "PLAY_MODE_ALL",
      "beginCond": [
        {
          "type": "QUEST_COND_GADGET_TALK_STATE_EQUAL",
          "_param": [
            "172001",
            "199002172",
            "6800355"
          ]
        }
      ],
      "initDialog": 680035501,
      "performCfg": "",
      "loadType": "TALK_GADGET",
      "assetIndex": 7354286170485137460,
      "prePerformCfg": "",
      "finishExec": [
        {
          "KPGKDHAFHFE": "TALK_EXEC_SET_GADGET_STATE",
          "param": [
            "6800355"
          ]
        }
      ]
    }
  ]
}