{
  "configId": 189002,
  "groupId": 199002189,
  "talks": [
    {
      "id": 6800411,
      "beginWay": "TALK_BEGIN_MANUAL",
      "activeMode": "PLAY_MODE_ALL",
      "beginCond": [
        {
          "type": "QUEST_COND_GADGET_TALK_STATE_EQUAL",
          "_param": [
            "189002",
            "199002189",
            "0"
          ]
        }
      ],
      "initDialog": 680041101,
      "performCfg": "",
      "loadType": "TALK_GADGET",
      "assetIndex": 2595280075016246122,
      "prePerformCfg": "",
      "finishExec": [
        {
          "KPGKDHAFHFE": "TALK_EXEC_SET_GADGET_STATE",
          "param": [
            "0"
          ]
        }
      ]
    }
  ]
}