{
  "configId": 2001,
  "groupId": 201083002,
  "talks": [
    {
      "id": 7403508,
      "beginWay": "TALK_BEGIN_MANUAL",
      "priority": 5,
      "initDialog": 740350801,
      "performCfg": "QuestDialogue/WQ/Fontaine_74035/Q7403508",
      "heroTalk": "TALK_HERO_MAIN",
      "loadType": "TALK_GADGET",
      "questId": 74035,
      "assetIndex": 5353564710537663328,
      "prePerformCfg": "",
      "PLPFOOINAAJ": [
        "[1083_15:5.380,0.000,6.033,0.000,60.307,0.000]",
        "[1083_22:3.944,0.000,5.002,0.000,53.749,0.000]"
      ]
    }
  ]
}