{
  "configId": 2004,
  "groupId": 133402002,
  "talks": [
    {
      "id": 6801801,
      "beginWay": "TALK_BEGIN_MANUAL",
      "activeMode": "PLAY_MODE_ALL",
      "beginCond": [
        {
          "type": "QUEST_COND_GADGET_TALK_STATE_EQUAL",
          "_param": [
            "2004",
            "133402002",
            "0"
          ]
        }
      ],
      "nextTalks": [
        6801804,
        6801805,
        6801808
      ],
      "initDialog": 680180101,
      "performCfg": "QuestDialogue/WQ/Nutcracker_68018/Q6801801",
      "heroTalk": "TALK_HERO_MAIN",
      "loadType": "TALK_GADGET",
      "assetIndex": 2135735019153458450,
      "prePerformCfg": "",
      "freeStyleList": [
        4420
      ]
    },
    {
      "id": 6801804,
      "activeMode": "PLAY_MODE_ALL",
      "initDialog": 680180401,
      "performCfg": "",
      "heroTalk": "TALK_HERO_MAIN",
      "loadType": "TALK_GADGET",
      "assetIndex": 14836996178848969923,
      "prePerformCfg": "",
      "finishExec": [
        {
          "KPGKDHAFHFE": "TALK_EXEC_SET_GADGET_STATE",
          "param": [
            "6801804"
          ]
        }
      ]
    },
    {
      "id": 6801805,
      "activeMode": "PLAY_MODE_ALL",
      "initDialog": 680180501,
      "performCfg": "",
      "heroTalk": "TALK_HERO_MAIN",
      "loadType": "TALK_GADGET",
      "assetIndex": 16893804188936973447,
      "prePerformCfg": "",
      "finishExec": [
        {
          "KPGKDHAFHFE": "TALK_EXEC_SET_GADGET_STATE",
          "param": [
            "6801805"
          ]
        }
      ]
    },
    {
      "id": 6801808,
      "activeMode": "PLAY_MODE_ALL",
      "initDialog": 680180801,
      "performCfg": "QuestDialogue/WQ/Nutcracker_68018/Q6801808",
      "heroTalk": "TALK_HERO_MAIN",
      "loadType": "TALK_GADGET",
      "assetIndex": 6304230744273173292,
      "prePerformCfg": "",
      "finishExec": [
        {
          "KPGKDHAFHFE": "TALK_EXEC_SET_GADGET_STATE",
          "param": [
            "0"
          ]
        }
      ],
      "freeStyleList": [
        4420
      ]
    }
  ]
}