{
  "configId": 4001,
  "groupId": 199005004,
  "talks": [
    {
      "id": 6800285,
      "beginWay": "TALK_BEGIN_MANUAL",
      "activeMode": "PLAY_MODE_HOST",
      "beginCondComb": "LOGIC_A_AND_ETCOR",
      "beginCond": [
        {
          "type": "QUEST_COND_GADGET_TALK_STATE_EQUAL",
          "_param": [
            "4001",
            "199005004",
            "0"
          ]
        },
        {
          "type": "QUEST_COND_STATE_EQUAL",
          "_param": [
            "7902908",
            "2"
          ]
        },
        {
          "type": "QUEST_COND_STATE_EQUAL",
          "_param": [
            "7902902",
            "2"
          ]
        }
      ],
      "initDialog": 680028501,
      "performCfg": "QuestDialogue/WQ/Island_79020/Q6800285",
      "heroTalk": "TALK_HERO_MAIN",
      "loadType": "TALK_GADGET",
      "questId": 79029,
      "assetIndex": 8599383811156296343,
      "prePerformCfg": "",
      "finishExec": [
        {
          "KPGKDHAFHFE": "TALK_EXEC_SET_GADGET_STATE",
          "param": [
            "0"
          ]
        }
      ]
    },
    {
      "id": 6800287,
      "beginWay": "TALK_BEGIN_MANUAL",
      "activeMode": "PLAY_MODE_HOST",
      "beginCondComb": "LOGIC_AND",
      "beginCond": [
        {
          "type": "QUEST_COND_GADGET_TALK_STATE_EQUAL",
          "_param": [
            "4001",
            "199005004",
            "0"
          ]
        },
        {
          "type": "QUEST_COND_STATE_EQUAL",
          "_param": [
            "7902906",
            "2"
          ]
        }
      ],
      "initDialog": 680028701,
      "performCfg": "",
      "heroTalk": "TALK_HERO_MAIN",
      "loadType": "TALK_GADGET",
      "questId": 79029,
      "assetIndex": 6348332097107761066,
      "prePerformCfg": "",
      "finishExec": [
        {
          "KPGKDHAFHFE": "TALK_EXEC_SET_GADGET_STATE",
          "param": [
            "0"
          ]
        }
      ]
    },
    {
      "id": 6800288,
      "beginWay": "TALK_BEGIN_MANUAL",
      "activeMode": "PLAY_MODE_HOST",
      "beginCondComb": "LOGIC_AND",
      "beginCond": [
        {
          "type": "QUEST_COND_GADGET_TALK_STATE_EQUAL",
          "_param": [
            "4001",
            "199005004",
            "0"
          ]
        },
        {
          "type": "QUEST_COND_STATE_EQUAL",
          "_param": [
            "7902907",
            "2"
          ]
        }
      ],
      "initDialog": 680028801,
      "performCfg": "",
      "heroTalk": "TALK_HERO_MAIN",
      "loadType": "TALK_GADGET",
      "questId": 79029,
      "assetIndex": 411807914654792828,
      "prePerformCfg": "",
      "finishExec": [
        {
          "KPGKDHAFHFE": "TALK_EXEC_SET_GADGET_STATE",
          "param": [
            "0"
          ]
        }
      ]
    }
  ]
}