{
  "configId": 78008,
  "groupId": 199002078,
  "talks": [
    {
      "id": 6801007,
      "beginWay": "TALK_BEGIN_MANUAL",
      "activeMode": "PLAY_MODE_ALL",
      "beginCond": [
        {
          "type": "QUEST_COND_GADGET_TALK_STATE_EQUAL",
          "_param": [
            "78008",
            "199002078",
            "0"
          ]
        }
      ],
      "initDialog": 680100701,
      "performCfg": "",
      "loadType": "TALK_GADGET",
      "assetIndex": 10318140190382669793,
      "prePerformCfg": "",
      "finishExec": [
        {
          "KPGKDHAFHFE": "TALK_EXEC_SET_GADGET_STATE",
          "param": [
            "0"
          ]
        }
      ]
    }
  ]
}