{
  "configId": 79001,
  "groupId": 199001079,
  "talks": [
    {
      "id": 6800266,
      "beginWay": "TALK_BEGIN_MANUAL",
      "activeMode": "PLAY_MODE_ALL",
      "beginCond": [
        {
          "type": "QUEST_COND_GADGET_TALK_STATE_EQUAL",
          "_param": [
            "79001",
            "199001079",
            "0"
          ]
        }
      ],
      "initDialog": 680026601,
      "performCfg": "",
      "loadType": "TALK_GADGET",
      "assetIndex": 9234385493448423380,
      "prePerformCfg": "",
      "finishExec": [
        {
          "KPGKDHAFHFE": "TALK_EXEC_SET_GADGET_STATE",
          "param": [
            "0"
          ]
        }
      ]
    }
  ]
}