{
  "configId": 81002,
  "groupId": 133405081,
  "talks": [
    {
      "id": 7421704,
      "beginWay": "TALK_BEGIN_MANUAL",
      "beginCondComb": "LOGIC_AND",
      "beginCond": [
        {
          "type": "QUEST_COND_STATE_EQUAL",
          "_param": [
            "7421704",
            "2"
          ]
        },
        {
          "type": "QUEST_COND_GADGET_TALK_STATE_EQUAL",
          "_param": [
            "81002",
            "133405081",
            "0"
          ]
        }
      ],
      "priority": 5,
      "initDialog": 742170401,
      "performCfg": "",
      "heroTalk": "TALK_HERO_MAIN",
      "loadType": "TALK_GADGET",
      "questId": 74217,
      "assetIndex": 6313977225324636703,
      "prePerformCfg": "",
      "finishExec": [
        {
          "KPGKDHAFHFE": "TALK_EXEC_SET_GADGET_STATE",
          "param": [
            "0"
          ]
        }
      ]
    }
  ]
}