{
  "configId": 86001,
  "groupId": 199001086,
  "talks": [
    {
      "id": 6800261,
      "beginWay": "TALK_BEGIN_MANUAL",
      "activeMode": "PLAY_MODE_ALL",
      "beginCond": [
        {
          "type": "QUEST_COND_GADGET_TALK_STATE_EQUAL",
          "_param": [
            "86001",
            "199001086",
            "0"
          ]
        }
      ],
      "initDialog": 680026101,
      "performCfg": "",
      "loadType": "TALK_GADGET",
      "assetIndex": 1232257414738158174,
      "prePerformCfg": "",
      "finishExec": [
        {
          "KPGKDHAFHFE": "TALK_EXEC_SET_GADGET_STATE",
          "param": [
            "0"
          ]
        }
      ]
    }
  ]
}