{
  "configId": 89001,
  "groupId": 144001089,
  "talks": [
    {
      "id": 6800223,
      "beginWay": "TALK_BEGIN_MANUAL",
      "activeMode": "PLAY_MODE_ALL",
      "beginCond": [
        {
          "type": "QUEST_COND_GADGET_TALK_STATE_EQUAL",
          "_param": [
            "89001",
            "144001089",
            "6800223"
          ]
        }
      ],
      "priority": 5,
      "initDialog": 680022301,
      "performCfg": "",
      "loadType": "TALK_GADGET",
      "assetIndex": 5666630274268564273,
      "prePerformCfg": "",
      "finishExec": [
        {
          "KPGKDHAFHFE": "TALK_EXEC_SET_GADGET_STATE",
          "param": [
            "6800223"
          ]
        }
      ]
    }
  ]
}