{
  "luaDataPath": "",
  "dontUseDefaultFinish": true,
  "startBlackKeepTime": 1.0,
  "entityBan": "",
  "disableNpcLod": true,
  "protectNpcMobileLod": true,
  "talkFlag": 5,
  "startFade": {
    "startFadeInDuration": 0.5,
    "startFadeOutDuration": 0.5
  },
  "endFade": {
    "startFadeOutDuration": 0.0
  },
  "actors": [
    {
      "alias": "Avatar",
      "visible": true,
      "bornPointName": "",
      "relativePosType": "AVATAR_NEW",
      "relativePosNpcAlias": "",
      "_bindMovingTargetKey": ""
    },
    {
      "configID": 9540,
      "alias": "9540",
      "visible": true,
      "bornPointName": "",
      "relativePosType": "AVATAR_NEW",
      "relativePosNpcAlias": "",
      "_bindMovingTargetKey": ""
    }
  ],
  "group": [
    [
      {
        "$type": "MoleMole.Config.ConfigTimeProtectAction",
        "type": "TIME_PROTECT",
        "duration": 0.800000011920929,
        "actionId": 104
      },
      {
        "$type": "MoleMole.Config.ConfigTeleportToAction",
        "type": "TELEPORT_TO",
        "aliasList": [
          "Avatar"
        ],
        "actionId": 111,
        "forward": {
          "z": 1.0
        },
        "openLongDisTeleport": true,
        "posSelectType": "GCG_PLAYER",
        "_posBindMovingTargetKey": "",
        "_forwardBindMovingTargetKey": ""
      },
      {
        "$type": "MoleMole.Config.ConfigVisibleInterAction",
        "type": "VISIBLE",
        "aliasList": [
          "Avatar"
        ],
        "actionId": 113,
        "_extraParam": ""
      },
      {
        "$type": "NPCNMEOCADD",
        "type": "LOOK_AT",
        "aliasList": [
          "9540"
        ],
        "actionId": 120,
        "headTurnTime": 0.5,
        "targetNpcAlias": "",
        "openBackProtect": true,
        "backProtectAngle": 60.0,
        "targetNpcLookAtPoint": "",
        "BHGPHGNFCBF": ""
      },
      {
        "$type": "IEKHMHNHENB",
        "type": "STEER_TO",
        "delayTime": 0.30000001192092896,
        "duration": 0.10000000149011612,
        "aliasList": [
          "Avatar"
        ],
        "actionId": 112,
        "_flag": 32,
        "steerType": "TO_TARGET",
        "interruptFreestyle": true,
        "forceSteer": true,
        "targetNpcAlias": "9540",
        "ignoreY": true,
        "fixInterNull": true,
        "BHGPHGNFCBF": ""
      },
      {
        "$type": "IEKHMHNHENB",
        "type": "STEER_TO",
        "delayTime": 0.30000001192092896,
        "duration": 0.10000000149011612,
        "aliasList": [
          "9540"
        ],
        "actionId": 115,
        "_flag": 32,
        "steerType": "TO_LOCAL_AVATAR",
        "interruptFreestyle": true,
        "forceSteer": true,
        "targetNpcAlias": "",
        "fixInterNull": true,
        "BHGPHGNFCBF": ""
      },
      {
        "$type": "EFHODGEJOHJ",
        "type": "CAMERA_MOVE",
        "delayTime": 0.6000000238418579,
        "duration": 0.10000000149011612,
        "actionId": 110,
        "cameraPosType": "RELATIVE_TO_INTEE_ONLY",
        "camPosOffset": {
          "y": 1.4110000133514404,
          "z": 1.6469999551773071
        },
        "camTargetType": "RELATIVE_TO_INTEE_FORWARD",
        "camForwardTargetOffset": {
          "y": 1.4559999704360962,
          "z": 0.6480000019073486
        },
        "camFov": 30.0,
        "lerpPattern": 6,
        "cameraBlendType": "EaseInOutCubic",
        "MDKBPBJCMHH": {},
        "openCameraDither": false,
        "targetNpcAlias": "",
        "closeTreeLeafDither": true,
        "PHGBNNGCJKJ": "",
        "NFILMKCFHEB": "",
        "BGPNGHDAECF": ""
      }
    ],
    [
      {
        "$type": "MJFAIFFAGOF",
        "type": "DIALOG",
        "aliasList": [
          "9540"
        ],
        "actionId": 109,
        "dialogID": 695401001,
        "protectTime": 0.5
      },
      {
        "$type": "ICHLNKHGCAG",
        "type": "EMO_SYNC",
        "aliasList": [
          "9540"
        ],
        "actionId": 116,
        "dataPath": "Cs_Emo_Avatar_Simple_Common_Set/Cs_Emo_Avatar_Talk/Cs_Emo_GCG/Cs_Emo_Avatar_Tartaglia/Cs_Emo_695401001",
        "phonemePath": "",
        "emotionPath": "",
        "mateDataPath": "",
        "matePhonemePath": "",
        "mateEmotionPath": "",
        "dataPathHashList": [
          15703647741276022942,
          15784221578671096836,
          12378841236946710040,
          6463164667014594114
        ],
        "PACNIGOOENN": "",
        "PIBDNPHIAGC": ""
      },
      {
        "$type": "EDCHPJLDKIN",
        "type": "BODY_LANG",
        "aliasList": [
          "9540"
        ],
        "actionId": 117,
        "bodyLangParam": 1130,
        "canDoRepeatFreeStyle": false,
        "cantBackToIdleWhenSitLoop": true,
        "eventPatternSuiteKey": ""
      },
      {
        "$type": "EDCHPJLDKIN",
        "type": "BODY_LANG",
        "delayTime": 1.3250000476837158,
        "aliasList": [
          "9540"
        ],
        "actionId": 118,
        "isContinue": true,
        "canDoRepeatFreeStyle": false,
        "cantBackToIdleWhenSitLoop": true,
        "eventPatternSuiteKey": ""
      },
      {
        "$type": "EDCHPJLDKIN",
        "type": "BODY_LANG",
        "delayTime": 1.625,
        "aliasList": [
          "9540"
        ],
        "actionId": 119,
        "bodyLangParam": 1230,
        "canDoRepeatFreeStyle": false,
        "cantBackToIdleWhenSitLoop": true,
        "eventPatternSuiteKey": ""
      }
    ],
    [
      {
        "$type": "MoleMole.Config.ConfigTimeProtectAction",
        "type": "TIME_PROTECT",
        "duration": 0.699999988079071,
        "actionId": 105
      },
      {
        "$type": "MoleMole.Config.ConfigSimpleBlackScreenAction",
        "type": "SIMPLE_BLACK_SCREEN",
        "duration": 0.5,
        "actionId": 106,
        "durationToBlack": 0.5,
        "durationKeepBlack": 1.0,
        "durationFromBlack": 0.5,
        "textMapID": ""
      },
      {
        "$type": "EDCHPJLDKIN",
        "type": "BODY_LANG",
        "aliasList": [
          "9540"
        ],
        "actionId": 121,
        "isContinue": true,
        "canDoRepeatFreeStyle": false,
        "cantBackToIdleWhenSitLoop": true,
        "eventPatternSuiteKey": ""
      },
      {
        "$type": "EFHODGEJOHJ",
        "type": "CAMERA_MOVE",
        "delayTime": 0.6000000238418579,
        "duration": 0.10000000149011612,
        "actionId": 107,
        "cameraPosType": "EXIT",
        "camPosOffset": {
          "x": 2244.261962890625,
          "y": 219.67599487304688,
          "z": -892.4349975585938
        },
        "camTargetType": "Other",
        "camForwardTargetOffset": {
          "x": 55.3849983215332,
          "y": 272.96099853515625
        },
        "lerpPattern": 6,
        "cameraBlendType": "EaseInOutCubic",
        "MDKBPBJCMHH": {},
        "needZAxisRotate": true,
        "openCameraDither": false,
        "targetNpcAlias": "",
        "closeTreeLeafDither": true,
        "PHGBNNGCJKJ": "",
        "NFILMKCFHEB": "",
        "BGPNGHDAECF": ""
      },
      {
        "$type": "MoleMole.Config.ConfigVisibleInterAction",
        "type": "VISIBLE",
        "delayTime": 0.6000000238418579,
        "aliasList": [
          "Avatar"
        ],
        "actionId": 114,
        "isVisible": true,
        "_extraParam": ""
      }
    ]
  ],
  "groupId": [
    {
      "grpId": 1727608777,
      "nextGrpId": 1727608778
    },
    {
      "index": 1,
      "grpId": 1727608778,
      "nextGrpId": 1727608779
    },
    {
      "index": 2,
      "grpId": 1727608779,
      "nextGrpId": 1727608780
    }
  ],
  "freeStyleDic": {
    "9540": [
      1130,
      1230
    ]
  },
  "GHHKLKIGEOD": {
    "9540": [
      "SitHoldArm01AS"
    ]
  }
}