{
  "luaDataPath": "",
  "isSimpleTalk": true,
  "entityBan": "",
  "disableNpcLod": true,
  "startFade": {
    "startFadeOutDuration": 0.0
  },
  "endFade": {
    "startFadeOutDuration": 0.0
  },
  "actors": [
    {
      "alias": "Avatar",
      "visible": true,
      "bornPointName": "",
      "relativePosNpcAlias": "",
      "_bindMovingTargetKey": ""
    },
    {
      "configID": 210301,
      "alias": "210301",
      "visible": true,
      "bornPointName": "",
      "relativePosNpcAlias": "",
      "_bindMovingTargetKey": ""
    }
  ],
  "group": [
    [
      {
        "$type": "EFHODGEJOHJ",
        "type": "CAMERA_FOCUS",
        "duration": 0.10000000149011612,
        "targetNpcAlias": "",
        "PHGBNNGCJKJ": "",
        "NFILMKCFHEB": "",
        "BGPNGHDAECF": ""
      },
      {
        "$type": "MoleMole.Config.ConfigTimeProtectAction",
        "type": "TIME_PROTECT",
        "duration": 0.10000000149011612
      },
      {
        "$type": "IEKHMHNHENB",
        "type": "STEER_TO",
        "duration": 1.0,
        "aliasList": [
          "210301"
        ],
        "steerType": "TO_LOCAL_AVATAR_ADVANCED",
        "useSteerAnim": true,
        "targetNpcAlias": "",
        "BHGPHGNFCBF": ""
      }
    ],
    [
      {
        "$type": "MJFAIFFAGOF",
        "type": "DIALOG",
        "aliasList": [
          "210301"
        ],
        "dialogID": 413400701
      }
    ],
    [
      {
        "$type": "MJFAIFFAGOF",
        "type": "DIALOG",
        "aliasList": [
          "210301"
        ],
        "dialogID": 413400702
      }
    ],
    [
      {
        "$type": "MoleMole.Config.ConfigLuaAction",
        "type": "LUA_ACTION",
        "duration": 0.10000000149011612,
        "invoke": true,
        "invokeAlias": "41340",
        "invokeParam": 1
      },
      {
        "$type": "MJFAIFFAGOF",
        "type": "DIALOG_CLEAR",
        "duration": 1.5
      },
      {
        "$type": "MoleMole.Config.ConfigTimeProtectAction",
        "type": "TIME_PROTECT",
        "duration": 1.5
      }
    ],
    [
      {
        "$type": "OBCDECFOOBC",
        "type": "DIALOG_SELECT",
        "delayTime": 0.4000000059604645,
        "aliasList": [
          "Avatar"
        ],
        "dialogIDList": [
          413400802
        ],
        "grpIDList": [
          160513244
        ],
        "useGrpId": true
      },
      {
        "$type": "MJFAIFFAGOF",
        "type": "DIALOG",
        "aliasList": [
          "210301"
        ],
        "dialogID": 413400801
      }
    ],
    [
      {
        "$type": "MJFAIFFAGOF",
        "type": "DIALOG",
        "aliasList": [
          "210301"
        ],
        "dialogID": 413400803
      }
    ],
    [
      {
        "$type": "MJFAIFFAGOF",
        "type": "DIALOG",
        "aliasList": [
          "210301"
        ],
        "dialogID": 413400804
      }
    ],
    [
      {
        "$type": "MJFAIFFAGOF",
        "type": "DIALOG",
        "aliasList": [
          "210301"
        ],
        "dialogID": 413400805
      }
    ],
    [
      {
        "$type": "MJFAIFFAGOF",
        "type": "DIALOG",
        "aliasList": [
          "210301"
        ],
        "dialogID": 413400806
      }
    ],
    [
      {
        "$type": "MJFAIFFAGOF",
        "type": "DIALOG",
        "aliasList": [
          "210301"
        ],
        "dialogID": 413400807
      }
    ],
    [
      {
        "$type": "MJFAIFFAGOF",
        "type": "DIALOG",
        "aliasList": [
          "210301"
        ],
        "dialogID": 413400808
      }
    ],
    [
      {
        "$type": "MoleMole.Config.ConfigTimeProtectAction",
        "type": "TIME_PROTECT",
        "duration": 0.10000000149011612
      },
      {
        "$type": "IEKHMHNHENB",
        "type": "STEER_TO",
        "duration": 1.0,
        "aliasList": [
          "210301"
        ],
        "steerType": "RETURN",
        "useSteerAnim": true,
        "targetNpcAlias": "",
        "BHGPHGNFCBF": ""
      }
    ]
  ],
  "groupId": [
    {
      "grpId": 160513239,
      "nextGrpId": 160513240
    },
    {
      "index": 1,
      "grpId": 160513240,
      "nextGrpId": 160513241
    },
    {
      "index": 2,
      "grpId": 160513241,
      "nextGrpId": 160513242
    },
    {
      "index": 3,
      "grpId": 160513242,
      "nextGrpId": 160513243
    },
    {
      "index": 4,
      "grpId": 160513243,
      "nextGrpId": 160513244
    },
    {
      "index": 5,
      "grpId": 160513244,
      "nextGrpId": 160513245
    },
    {
      "index": 6,
      "grpId": 160513245,
      "nextGrpId": 160513246
    },
    {
      "index": 7,
      "grpId": 160513246,
      "nextGrpId": 160513247
    },
    {
      "index": 8,
      "grpId": 160513247,
      "nextGrpId": 680943161
    },
    {
      "index": 9,
      "grpId": 680943161,
      "nextGrpId": 680943162
    },
    {
      "index": 10,
      "grpId": 680943162,
      "nextGrpId": 680943163
    },
    {
      "index": 11,
      "grpId": 680943163,
      "nextGrpId": 680943164
    }
  ],
  "freeStyleDic": {
    "210301": []
  }
}