{
  "luaDataPath": "",
  "startBlackKeepTime": 0.5,
  "entityBan": "",
  "startFade": {
    "startFadeInDuration": 1.0,
    "startFadeOutDuration": 0.800000011920929
  },
  "endFade": {
    "startFadeOutDuration": 0.0
  },
  "actors": [
    {
      "alias": "Avatar",
      "visible": true,
      "bornPointName": "Q1101201Avatar",
      "relativePosNpcAlias": "",
      "_bindMovingTargetKey": ""
    },
    {
      "configID": 10200,
      "alias": "10200",
      "visible": true,
      "bornPointName": "Q11012Gongzi1",
      "relativePosNpcAlias": "",
      "_bindMovingTargetKey": ""
    },
    {
      "configID": 10265,
      "alias": "10265",
      "visible": true,
      "bornPointName": "Q1101201Tok",
      "relativePosNpcAlias": "",
      "_bindMovingTargetKey": ""
    },
    {
      "configID": 1005,
      "alias": "1005",
      "visible": true,
      "bornPointName": "Q1101201Paimon",
      "relativePosNpcAlias": "",
      "_bindMovingTargetKey": ""
    }
  ],
  "group": [
    [
      {
        "$type": "EFHODGEJOHJ",
        "type": "CAMERA_MOVE",
        "delayTime": 0.05959748476743698,
        "duration": 11.131573677062988,
        "camPosOffset": {
          "x": -362.427001953125,
          "y": 234.16256713867188,
          "z": 1200.734130859375
        },
        "camForwardTargetOffset": {
          "x": -363.326904296875,
          "y": 233.78514099121094,
          "z": 1200.95263671875
        },
        "cameraBlendType": "Linear",
        "MDKBPBJCMHH": {},
        "targetNpcAlias": "",
        "PHGBNNGCJKJ": "",
        "NFILMKCFHEB": "",
        "BGPNGHDAECF": ""
      },
      {
        "$type": "EFHODGEJOHJ",
        "type": "CAMERA_MOVE",
        "duration": 0.4636226296424866,
        "camPosOffset": {
          "x": -361.92803955078125,
          "y": 234.88201904296875,
          "z": 1201.4715576171875
        },
        "camForwardTargetOffset": {
          "x": -362.8206787109375,
          "y": 234.44973754882812,
          "z": 1201.599365234375
        },
        "lerpPattern": 6,
        "cameraBlendType": "EaseInOutCubic",
        "MDKBPBJCMHH": {},
        "targetNpcAlias": "",
        "PHGBNNGCJKJ": "",
        "NFILMKCFHEB": "",
        "BGPNGHDAECF": ""
      },
      {
        "$type": "MoleMole.Config.ConfigTimeProtectAction",
        "type": "TIME_PROTECT",
        "duration": 1.9891034364700317
      },
      {
        "$type": "MoleMole.Config.ConfigMoveToAction",
        "type": "MOVE_TO",
        "aliasList": [
          "Avatar"
        ],
        "routeList": [
          {
            "x": -372.8049621582031,
            "y": 229.88720703125,
            "z": 1199.6846923828125
          }
        ],
        "_bindMovingTargetKey": ""
      },
      {
        "$type": "IEKHMHNHENB",
        "type": "STEER_TO",
        "aliasList": [
          "Avatar"
        ],
        "steerDir": {
          "x": 0.7438371777534485,
          "z": 0.6683608293533325
        },
        "targetNpcAlias": "",
        "BHGPHGNFCBF": ""
      },
      {
        "$type": "EDCHPJLDKIN",
        "type": "BODY_LANG",
        "delayTime": 0.45691409707069397,
        "aliasList": [
          "Avatar"
        ],
        "bodyLangParam": 1230,
        "forceDoFreeStyle": true,
        "eventPatternSuiteKey": ""
      },
      {
        "$type": "NPCNMEOCADD",
        "type": "LOOK_AT",
        "aliasList": [
          "Avatar"
        ],
        "enableHead": true,
        "useTargetPos": true,
        "enableAbsolute": true,
        "targetPosition": {
          "x": -372.18560791015625,
          "y": 231.9185028076172,
          "z": 1202.813232421875
        },
        "enableBody": true,
        "bodyAngle": -18.670000076293945,
        "headTurnTime": 0.20000000298023224,
        "bodyTurnTime": 0.30000001192092896,
        "targetNpcAlias": "",
        "targetNpcLookAtPoint": "",
        "BHGPHGNFCBF": ""
      },
      {
        "$type": "MJFAIFFAGOF",
        "type": "DIALOG",
        "delayTime": 0.8343648910522461,
        "aliasList": [
          "10200"
        ],
        "dialogID": 110120101,
        "protectTime": 2.549999952316284
      },
      {
        "$type": "MoleMole.Config.ConfigMoveToAction",
        "type": "MOVE_TO",
        "aliasList": [
          "10200"
        ],
        "routeList": [
          {
            "x": -372.91400146484375,
            "y": 229.88720703125,
            "z": 1201.418701171875
          }
        ],
        "_bindMovingTargetKey": ""
      },
      {
        "$type": "IEKHMHNHENB",
        "type": "STEER_TO",
        "aliasList": [
          "10200"
        ],
        "steerDir": {
          "x": 0.9699404239654541,
          "z": -0.2433425933122635
        },
        "targetNpcAlias": "",
        "BHGPHGNFCBF": ""
      },
      {
        "$type": "NPCNMEOCADD",
        "type": "LOOK_AT",
        "aliasList": [
          "10200"
        ],
        "enableHead": true,
        "useTargetPos": true,
        "enableAbsolute": true,
        "targetPosition": {
          "x": -372.3851013183594,
          "y": 231.26893615722656,
          "z": 1200.119140625
        },
        "enableBody": true,
        "bodyAngle": 27.799999237060547,
        "headTurnTime": 0.30000001192092896,
        "bodyTurnTime": 0.4000000059604645,
        "targetNpcAlias": "",
        "targetNpcLookAtPoint": "",
        "BHGPHGNFCBF": ""
      },
      {
        "$type": "EDCHPJLDKIN",
        "type": "BODY_LANG",
        "delayTime": 0.6158406734466553,
        "aliasList": [
          "10200"
        ],
        "bodyLangParam": 1142,
        "forceDoFreeStyle": true,
        "eventPatternSuiteKey": ""
      },
      {
        "$type": "EDCHPJLDKIN",
        "type": "BODY_LANG",
        "delayTime": 2.1256442070007324,
        "aliasList": [
          "10200"
        ],
        "isContinue": true,
        "forceDoFreeStyle": true,
        "eventPatternSuiteKey": ""
      },
      {
        "$type": "ICHLNKHGCAG",
        "type": "EMO_SYNC",
        "delayTime": 0.8343648910522461,
        "aliasList": [
          "10200"
        ],
        "dataPath": "Cs_Emo_Avatar_Simple_Common_Set/Cs_Emo_Avatar_Talk/Cs_Emo_Avatar_PersonalLine/Cs_Emo_Avatar_Tartaglia/Cs_Emo_110120101",
        "phonemePath": "",
        "emotionPath": "",
        "mateDataPath": "",
        "matePhonemePath": "",
        "mateEmotionPath": "",
        "dataPathHashList": [
          12658310790082574352,
          8373368675537031764,
          9445452431541531864,
          2720815768964444887
        ],
        "PACNIGOOENN": "",
        "PIBDNPHIAGC": ""
      },
      {
        "$type": "IEKHMHNHENB",
        "type": "STEER_TO",
        "aliasList": [
          "10265"
        ],
        "steerDir": {
          "x": 0.7438371777534485,
          "z": 0.6683608293533325
        },
        "targetNpcAlias": "",
        "BHGPHGNFCBF": ""
      },
      {
        "$type": "MoleMole.Config.ConfigMoveToAction",
        "type": "MOVE_TO",
        "aliasList": [
          "10265"
        ],
        "routeList": [
          {
            "x": -372.8349914550781,
            "y": 229.88720703125,
            "z": 1200.416259765625
          }
        ],
        "_bindMovingTargetKey": ""
      },
      {
        "$type": "MoleMole.Config.ConfigMoveToAction",
        "type": "MOVE_TO",
        "aliasList": [
          "1005"
        ],
        "routeList": [
          {
            "x": -372.1014709472656,
            "y": 229.88720703125,
            "z": 1199.4039306640625
          }
        ],
        "_bindMovingTargetKey": ""
      },
      {
        "$type": "IEKHMHNHENB",
        "type": "STEER_TO",
        "aliasList": [
          "1005"
        ],
        "steerDir": {
          "x": 0.7438371777534485,
          "z": 0.6683608293533325
        },
        "targetNpcAlias": "",
        "BHGPHGNFCBF": ""
      },
      {
        "$type": "EDCHPJLDKIN",
        "type": "BODY_LANG",
        "delayTime": 1.3906081914901733,
        "aliasList": [
          "1005"
        ],
        "bodyLangParam": 1260,
        "forceDoFreeStyle": true,
        "eventPatternSuiteKey": ""
      },
      {
        "$type": "NPCNMEOCADD",
        "type": "LOOK_AT",
        "aliasList": [
          "1005"
        ],
        "enableHead": true,
        "useTargetPos": true,
        "enableAbsolute": true,
        "targetPosition": {
          "x": -370.3485107421875,
          "y": 231.9185028076172,
          "z": 1201.8240966796875
        },
        "enableBody": true,
        "headTurnTime": 0.20000000298023224,
        "bodyTurnTime": 0.30000001192092896,
        "targetNpcAlias": "",
        "targetNpcLookAtPoint": "",
        "BHGPHGNFCBF": ""
      }
    ],
    [
      {
        "$type": "NPCNMEOCADD",
        "type": "LOOK_AT",
        "aliasList": [
          "Avatar"
        ],
        "enableHead": true,
        "useTargetPos": true,
        "enableAbsolute": true,
        "targetPosition": {
          "x": -370.3485107421875,
          "y": 231.9185028076172,
          "z": 1201.8240966796875
        },
        "enableBody": true,
        "headTurnTime": 0.20000000298023224,
        "bodyTurnTime": 0.30000001192092896,
        "targetNpcAlias": "",
        "targetNpcLookAtPoint": "",
        "BHGPHGNFCBF": ""
      },
      {
        "$type": "IEKHMHNHENB",
        "type": "STEER_TO",
        "delayTime": 0.2582557499408722,
        "duration": 2.0,
        "aliasList": [
          "10200"
        ],
        "steerDir": {
          "x": 0.7229297161102295,
          "z": 0.6909216046333313
        },
        "useSteerAnim": true,
        "targetNpcAlias": "",
        "BHGPHGNFCBF": ""
      },
      {
        "$type": "NPCNMEOCADD",
        "type": "LOOK_AT",
        "delayTime": 2.0660464763641357,
        "aliasList": [
          "10200"
        ],
        "enableHead": true,
        "useTargetPos": true,
        "enableAbsolute": true,
        "targetPosition": {
          "x": -370.680419921875,
          "y": 231.55270385742188,
          "z": 1203.36865234375
        },
        "enableBody": true,
        "headTurnTime": 0.20000000298023224,
        "bodyTurnTime": 0.30000001192092896,
        "targetNpcAlias": "",
        "targetNpcLookAtPoint": "",
        "BHGPHGNFCBF": ""
      },
      {
        "$type": "NPCNMEOCADD",
        "type": "LOOK_AT",
        "delayTime": 0.0993291363120079,
        "aliasList": [
          "10200"
        ],
        "enableHead": true,
        "useTargetPos": true,
        "enableAbsolute": true,
        "targetPosition": {
          "x": -370.6882019042969,
          "y": 231.55270385742188,
          "z": 1203.3765869140625
        },
        "enableBody": true,
        "headTurnTime": 0.20000000298023224,
        "bodyTurnTime": 0.30000001192092896,
        "targetNpcAlias": "",
        "targetNpcLookAtPoint": "",
        "BHGPHGNFCBF": ""
      },
      {
        "$type": "MJFAIFFAGOF",
        "type": "DIALOG",
        "aliasList": [
          "10265"
        ],
        "dialogID": 110120102,
        "protectTime": 2.6500000953674316
      },
      {
        "$type": "MoleMole.Config.ConfigMoveToAction",
        "type": "MOVE_TO",
        "aliasList": [
          "10265"
        ],
        "moveType": "WALK",
        "routeList": [
          {
            "x": -371.2165832519531,
            "y": 229.88720703125,
            "z": 1202.137939453125
          }
        ],
        "_bindMovingTargetKey": ""
      },
      {
        "$type": "EDCHPJLDKIN",
        "type": "BODY_LANG",
        "delayTime": 1.2381293773651123,
        "aliasList": [
          "10265"
        ],
        "bodyLangParam": 1060,
        "forceDoFreeStyle": true,
        "eventPatternSuiteKey": ""
      },
      {
        "$type": "ICHLNKHGCAG",
        "type": "EMO_SYNC",
        "aliasList": [
          "10265"
        ],
        "dataPath": "Cs_Emo_Avatar_Simple_Common_Set/Cs_Emo_Avatar_Talk/Cs_Emo_Avatar_PersonalLine/Cs_Emo_Avatar_Tartaglia/Cs_Emo_110120102",
        "phonemePath": "",
        "emotionPath": "",
        "mateDataPath": "",
        "matePhonemePath": "",
        "mateEmotionPath": "",
        "dataPathHashList": [
          5644213658918279102,
          4648123061743102884,
          5111411679104819308,
          4872661493921082659
        ],
        "PACNIGOOENN": "",
        "PIBDNPHIAGC": ""
      }
    ],
    [
      {
        "$type": "EFHODGEJOHJ",
        "type": "CAMERA_MOVE",
        "delayTime": 0.07971997559070587,
        "duration": 9.769193649291992,
        "camPosOffset": {
          "x": -370.27471923828125,
          "y": 229.99935913085938,
          "z": 1199.9168701171875
        },
        "camForwardTargetOffset": {
          "x": -371.2193908691406,
          "y": 230.32054138183594,
          "z": 1199.9832763671875
        },
        "camFov": 50.0,
        "cameraBlendType": "Linear",
        "MDKBPBJCMHH": {},
        "targetNpcAlias": "",
        "PHGBNNGCJKJ": "",
        "NFILMKCFHEB": "",
        "BGPNGHDAECF": ""
      },
      {
        "$type": "EFHODGEJOHJ",
        "type": "CAMERA_MOVE",
        "duration": 0.54825359582901,
        "camPosOffset": {
          "x": -370.3206481933594,
          "y": 229.9993896484375,
          "z": 1200.611572265625
        },
        "camForwardTargetOffset": {
          "x": -371.249755859375,
          "y": 230.31773376464844,
          "z": 1200.42333984375
        },
        "camFov": 50.0,
        "lerpPattern": 6,
        "cameraBlendType": "EaseInOutCubic",
        "MDKBPBJCMHH": {},
        "targetNpcAlias": "",
        "PHGBNNGCJKJ": "",
        "NFILMKCFHEB": "",
        "BGPNGHDAECF": ""
      },
      {
        "$type": "MoleMole.Config.ConfigMoveToAction",
        "type": "MOVE_TO",
        "aliasList": [
          "10200"
        ],
        "routeList": [
          {
            "x": -373.1095275878906,
            "y": 229.88720703125,
            "z": 1200.888671875
          }
        ],
        "_bindMovingTargetKey": ""
      },
      {
        "$type": "MJFAIFFAGOF",
        "type": "DIALOG",
        "aliasList": [
          "1005"
        ],
        "dialogID": 110120103,
        "protectTime": 1.9199999570846558
      },
      {
        "$type": "NPCNMEOCADD",
        "type": "LOOK_AT",
        "aliasList": [
          "1005"
        ],
        "enableHead": true,
        "useTargetPos": true,
        "enableAbsolute": true,
        "targetPosition": {
          "x": -369.8997802734375,
          "y": 232.08868408203125,
          "z": 1201.647216796875
        },
        "enableBody": true,
        "headTurnTime": 0.20000000298023224,
        "bodyTurnTime": 0.30000001192092896,
        "targetNpcAlias": "",
        "targetNpcLookAtPoint": "",
        "BHGPHGNFCBF": ""
      },
      {
        "$type": "ICHLNKHGCAG",
        "type": "EMO_SYNC",
        "aliasList": [
          "1005"
        ],
        "dataPath": "Cs_Emo_Avatar_Simple_Common_Set/Cs_Emo_Avatar_Talk/Cs_Emo_Avatar_PersonalLine/Cs_Emo_Avatar_Tartaglia/Cs_Emo_110120103",
        "phonemePath": "",
        "emotionPath": "",
        "mateDataPath": "",
        "matePhonemePath": "",
        "mateEmotionPath": "",
        "dataPathHashList": [
          14221467725443448945,
          2962035164756372876,
          11794455090856276971,
          11062052366056458273
        ],
        "PACNIGOOENN": "",
        "PIBDNPHIAGC": ""
      }
    ],
    [
      {
        "$type": "EFHODGEJOHJ",
        "type": "CAMERA_MOVE",
        "delayTime": 0.05959748476743698,
        "duration": 6.900151252746582,
        "camPosOffset": {
          "x": -363.6818542480469,
          "y": 236.97608947753906,
          "z": 1208.7554931640625
        },
        "camForwardTargetOffset": {
          "x": -364.2314147949219,
          "y": 236.39178466796875,
          "z": 1208.1583251953125
        },
        "camFov": 40.0,
        "cameraBlendType": "Linear",
        "MDKBPBJCMHH": {},
        "targetNpcAlias": "",
        "PHGBNNGCJKJ": "",
        "NFILMKCFHEB": "",
        "BGPNGHDAECF": ""
      },
      {
        "$type": "EFHODGEJOHJ",
        "type": "CAMERA_MOVE",
        "duration": 0.4636226296424866,
        "camPosOffset": {
          "x": -362.8678894042969,
          "y": 237.8414764404297,
          "z": 1209.6400146484375
        },
        "camForwardTargetOffset": {
          "x": -363.4174499511719,
          "y": 237.25717163085938,
          "z": 1209.0428466796875
        },
        "camFov": 40.0,
        "lerpPattern": 6,
        "cameraBlendType": "EaseInOutCubic",
        "MDKBPBJCMHH": {},
        "targetNpcAlias": "",
        "PHGBNNGCJKJ": "",
        "NFILMKCFHEB": "",
        "BGPNGHDAECF": ""
      },
      {
        "$type": "EDCHPJLDKIN",
        "type": "BODY_LANG",
        "aliasList": [
          "Avatar"
        ],
        "isContinue": true,
        "forceDoFreeStyle": true,
        "eventPatternSuiteKey": ""
      },
      {
        "$type": "MJFAIFFAGOF",
        "type": "DIALOG",
        "aliasList": [
          "10200"
        ],
        "dialogID": 110120104,
        "protectTime": 2.4700000286102295
      },
      {
        "$type": "NPCNMEOCADD",
        "type": "LOOK_AT",
        "aliasList": [
          "10200"
        ],
        "enableHead": true,
        "useTargetPos": true,
        "enableAbsolute": true,
        "targetPosition": {
          "x": -371.2702941894531,
          "y": 232.76327514648438,
          "z": 1202.8736572265625
        },
        "headTurnTime": 0.4000000059604645,
        "targetNpcAlias": "",
        "targetNpcLookAtPoint": "",
        "BHGPHGNFCBF": ""
      },
      {
        "$type": "EDCHPJLDKIN",
        "type": "BODY_LANG",
        "aliasList": [
          "10200"
        ],
        "bodyLangParam": 1220,
        "forceDoFreeStyle": true,
        "eventPatternSuiteKey": ""
      },
      {
        "$type": "ICHLNKHGCAG",
        "type": "EMO_SYNC",
        "aliasList": [
          "10200"
        ],
        "dataPath": "Cs_Emo_Avatar_Simple_Common_Set/Cs_Emo_Avatar_Talk/Cs_Emo_Avatar_PersonalLine/Cs_Emo_Avatar_Tartaglia/Cs_Emo_110120104",
        "phonemePath": "",
        "emotionPath": "",
        "mateDataPath": "",
        "matePhonemePath": "",
        "mateEmotionPath": "",
        "dataPathHashList": [
          15345660278572795799,
          646540327286775743,
          7962774154201935465,
          5085982580646162240
        ],
        "PACNIGOOENN": "",
        "PIBDNPHIAGC": ""
      },
      {
        "$type": "MoleMole.Config.ConfigMoveToAction",
        "type": "MOVE_TO",
        "aliasList": [
          "10200"
        ],
        "routeList": [
          {
            "x": -372.91400146484375,
            "y": 229.88720703125,
            "z": 1201.418701171875
          }
        ],
        "_bindMovingTargetKey": ""
      }
    ],
    [
      {
        "$type": "EFHODGEJOHJ",
        "type": "CAMERA_MOVE",
        "delayTime": 0.05509304255247116,
        "duration": 6.303480625152588,
        "camPosOffset": {
          "x": -372.07452392578125,
          "y": 231.37254333496094,
          "z": 1198.46240234375
        },
        "camForwardTargetOffset": {
          "x": -372.36187744140625,
          "y": 231.33653259277344,
          "z": 1199.4195556640625
        },
        "camFov": 30.0,
        "cameraBlendType": "Linear",
        "MDKBPBJCMHH": {},
        "targetNpcAlias": "",
        "PHGBNNGCJKJ": "",
        "NFILMKCFHEB": "",
        "BGPNGHDAECF": ""
      },
      {
        "$type": "EFHODGEJOHJ",
        "type": "CAMERA_MOVE",
        "duration": 0.4636226296424866,
        "camPosOffset": {
          "x": -372.06005859375,
          "y": 231.37435913085938,
          "z": 1198.4141845703125
        },
        "camForwardTargetOffset": {
          "x": -372.347412109375,
          "y": 231.33834838867188,
          "z": 1199.371337890625
        },
        "camFov": 30.0,
        "lerpPattern": 6,
        "cameraBlendType": "EaseInOutCubic",
        "MDKBPBJCMHH": {},
        "targetNpcAlias": "",
        "PHGBNNGCJKJ": "",
        "NFILMKCFHEB": "",
        "BGPNGHDAECF": ""
      },
      {
        "$type": "EFHODGEJOHJ",
        "type": "CAMERA_MOVE",
        "delayTime": 6.4710845947265625,
        "duration": 7.600128173828125,
        "camPosOffset": {
          "x": -321.4151916503906,
          "y": 219.63131713867188,
          "z": 1146.8304443359375
        },
        "camForwardTargetOffset": {
          "x": -322.33428955078125,
          "y": 220.0253143310547,
          "z": 1146.829833984375
        },
        "camFov": 55.0,
        "cameraBlendType": "Linear",
        "MDKBPBJCMHH": {},
        "targetNpcAlias": "",
        "PHGBNNGCJKJ": "",
        "NFILMKCFHEB": "",
        "BGPNGHDAECF": ""
      },
      {
        "$type": "EFHODGEJOHJ",
        "type": "CAMERA_MOVE",
        "delayTime": 6.255987167358398,
        "duration": 0.38239526748657227,
        "camPosOffset": {
          "x": -321.5863952636719,
          "y": 219.36849975585938,
          "z": 1145.0272216796875
        },
        "camForwardTargetOffset": {
          "x": -322.4974670410156,
          "y": 219.7652587890625,
          "z": 1145.1392822265625
        },
        "camFov": 55.0,
        "lerpPattern": 6,
        "cameraBlendType": "EaseInOutCubic",
        "MDKBPBJCMHH": {},
        "targetNpcAlias": "",
        "PHGBNNGCJKJ": "",
        "NFILMKCFHEB": "",
        "BGPNGHDAECF": ""
      },
      {
        "$type": "IEKHMHNHENB",
        "type": "STEER_TO",
        "duration": 2.0,
        "aliasList": [
          "Avatar"
        ],
        "steerDir": {
          "x": -0.09667325019836426,
          "z": 0.9953161478042603
        },
        "useSteerAnim": true,
        "targetNpcAlias": "",
        "BHGPHGNFCBF": ""
      },
      {
        "$type": "NPCNMEOCADD",
        "type": "LOOK_AT",
        "aliasList": [
          "Avatar"
        ],
        "enableHead": true,
        "useTargetPos": true,
        "enableAbsolute": true,
        "targetPosition": {
          "x": -373.1285400390625,
          "y": 231.9185028076172,
          "z": 1202.766845703125
        },
        "enableBody": true,
        "headTurnTime": 0.20000000298023224,
        "bodyTurnTime": 0.30000001192092896,
        "targetNpcAlias": "",
        "targetNpcLookAtPoint": "",
        "BHGPHGNFCBF": ""
      },
      {
        "$type": "MJFAIFFAGOF",
        "type": "DIALOG",
        "aliasList": [
          "10200"
        ],
        "dialogID": 110120105,
        "protectTime": 11.069999694824219
      },
      {
        "$type": "IEKHMHNHENB",
        "type": "STEER_TO",
        "duration": 1.0,
        "aliasList": [
          "10200"
        ],
        "steerDir": {
          "x": 0.11184880882501602,
          "z": -0.9937252402305603
        },
        "useSteerAnim": true,
        "targetNpcAlias": "",
        "BHGPHGNFCBF": ""
      },
      {
        "$type": "EDCHPJLDKIN",
        "type": "BODY_LANG",
        "delayTime": 2.3110039234161377,
        "aliasList": [
          "10200"
        ],
        "bodyLangParam": 1171,
        "forceDoFreeStyle": true,
        "eventPatternSuiteKey": ""
      },
      {
        "$type": "ICHLNKHGCAG",
        "type": "EMO_SYNC",
        "aliasList": [
          "10200"
        ],
        "dataPath": "Cs_Emo_Avatar_Simple_Common_Set/Cs_Emo_Avatar_Talk/Cs_Emo_Avatar_PersonalLine/Cs_Emo_Avatar_Tartaglia/Cs_Emo_110120105",
        "phonemePath": "",
        "emotionPath": "",
        "mateDataPath": "",
        "matePhonemePath": "",
        "mateEmotionPath": "",
        "dataPathHashList": [
          2336524923818575933,
          15054365172098890824,
          5547695309020440654,
          4668615456634266074
        ],
        "PACNIGOOENN": "",
        "PIBDNPHIAGC": ""
      },
      {
        "$type": "NPCNMEOCADD",
        "type": "LOOK_AT",
        "aliasList": [
          "10200"
        ],
        "enableHead": true,
        "useTargetPos": true,
        "enableAbsolute": true,
        "targetPosition": {
          "x": -371.8026123046875,
          "y": 231.12725830078125,
          "z": 1198.8966064453125
        },
        "headTurnTime": 0.3499999940395355,
        "targetNpcAlias": "",
        "targetNpcLookAtPoint": "",
        "BHGPHGNFCBF": ""
      },
      {
        "$type": "NPCNMEOCADD",
        "type": "LOOK_AT",
        "delayTime": 0.9968902468681335,
        "aliasList": [
          "10200"
        ],
        "enableHead": true,
        "useTargetPos": true,
        "enableAbsolute": true,
        "targetPosition": {
          "x": -372.6532897949219,
          "y": 231.2665557861328,
          "z": 1199.0609130859375
        },
        "headTurnTime": 0.3499999940395355,
        "targetNpcAlias": "",
        "targetNpcLookAtPoint": "",
        "BHGPHGNFCBF": ""
      },
      {
        "$type": "IEKHMHNHENB",
        "type": "STEER_TO",
        "duration": 2.0,
        "aliasList": [
          "1005"
        ],
        "steerDir": {
          "x": -0.33984512090682983,
          "z": 0.9404814839363098
        },
        "useSteerAnim": true,
        "targetNpcAlias": "",
        "BHGPHGNFCBF": ""
      },
      {
        "$type": "NPCNMEOCADD",
        "type": "LOOK_AT",
        "aliasList": [
          "1005"
        ],
        "enableHead": true,
        "useTargetPos": true,
        "enableAbsolute": true,
        "targetPosition": {
          "x": -373.2802429199219,
          "y": 232.08868408203125,
          "z": 1201.8375244140625
        },
        "enableBody": true,
        "headTurnTime": 0.20000000298023224,
        "bodyTurnTime": 0.30000001192092896,
        "targetNpcAlias": "",
        "targetNpcLookAtPoint": "",
        "BHGPHGNFCBF": ""
      }
    ],
    [
      {
        "$type": "EFHODGEJOHJ",
        "type": "CAMERA_MOVE",
        "delayTime": 0.07169932126998901,
        "duration": 8.866814613342285,
        "camPosOffset": {
          "x": -343.04681396484375,
          "y": 224.54905700683594,
          "z": 1163.60400390625
        },
        "camForwardTargetOffset": {
          "x": -342.4434509277344,
          "y": 224.90692138671875,
          "z": 1164.316650390625
        },
        "camFov": 55.0,
        "cameraBlendType": "Linear",
        "MDKBPBJCMHH": {},
        "targetNpcAlias": "",
        "PHGBNNGCJKJ": "",
        "NFILMKCFHEB": "",
        "BGPNGHDAECF": ""
      },
      {
        "$type": "EFHODGEJOHJ",
        "type": "CAMERA_MOVE",
        "duration": 0.38239526748657227,
        "camPosOffset": {
          "x": -343.65716552734375,
          "y": 224.18704223632812,
          "z": 1162.883056640625
        },
        "camForwardTargetOffset": {
          "x": -343.0538024902344,
          "y": 224.54490661621094,
          "z": 1163.595703125
        },
        "camFov": 55.0,
        "lerpPattern": 6,
        "cameraBlendType": "EaseInOutCubic",
        "MDKBPBJCMHH": {},
        "targetNpcAlias": "",
        "PHGBNNGCJKJ": "",
        "NFILMKCFHEB": "",
        "BGPNGHDAECF": ""
      },
      {
        "$type": "MoleMole.Config.ConfigTimeProtectAction",
        "type": "TIME_PROTECT",
        "duration": 3.373997211456299
      },
      {
        "$type": "MJFAIFFAGOF",
        "type": "DIALOG",
        "aliasList": [
          "1005"
        ],
        "dialogID": 110120106,
        "protectTime": 2.9000000953674316
      },
      {
        "$type": "ICHLNKHGCAG",
        "type": "EMO_SYNC",
        "aliasList": [
          "1005"
        ],
        "dataPath": "Cs_Emo_Avatar_Simple_Common_Set/Cs_Emo_Avatar_Talk/Cs_Emo_Avatar_PersonalLine/Cs_Emo_Avatar_Tartaglia/Cs_Emo_110120106",
        "phonemePath": "",
        "emotionPath": "",
        "mateDataPath": "",
        "matePhonemePath": "",
        "mateEmotionPath": "",
        "dataPathHashList": [
          910697775310908104,
          12224530323399677329,
          6407848892551871519,
          5704850084549436778
        ],
        "PACNIGOOENN": "",
        "PIBDNPHIAGC": ""
      }
    ],
    [
      {
        "$type": "EFHODGEJOHJ",
        "type": "CAMERA_MOVE",
        "delayTime": 0.07169932872056961,
        "duration": 13.131399154663086,
        "camPosOffset": {
          "x": -314.9551086425781,
          "y": 241.91464233398438,
          "z": 1184.78515625
        },
        "camForwardTargetOffset": {
          "x": -315.87359619140625,
          "y": 241.5233612060547,
          "z": 1184.842529296875
        },
        "camFov": 50.0,
        "cameraBlendType": "Linear",
        "MDKBPBJCMHH": {},
        "targetNpcAlias": "",
        "PHGBNNGCJKJ": "",
        "NFILMKCFHEB": "",
        "BGPNGHDAECF": ""
      },
      {
        "$type": "EFHODGEJOHJ",
        "type": "CAMERA_MOVE",
        "duration": 0.5840181112289429,
        "camPosOffset": {
          "x": -314.70452880859375,
          "y": 240.19479370117188,
          "z": 1182.3853759765625
        },
        "camForwardTargetOffset": {
          "x": -315.6434020996094,
          "y": 239.97166442871094,
          "z": 1182.6475830078125
        },
        "camFov": 50.0,
        "lerpPattern": 6,
        "cameraBlendType": "Linear",
        "MDKBPBJCMHH": {},
        "targetNpcAlias": "",
        "PHGBNNGCJKJ": "",
        "NFILMKCFHEB": "",
        "BGPNGHDAECF": ""
      },
      {
        "$type": "MJFAIFFAGOF",
        "type": "DIALOG",
        "aliasList": [
          "10200"
        ],
        "dialogID": 110120107,
        "protectTime": 3.609999895095825
      },
      {
        "$type": "ICHLNKHGCAG",
        "type": "EMO_SYNC",
        "aliasList": [
          "10200"
        ],
        "dataPath": "Cs_Emo_Avatar_Simple_Common_Set/Cs_Emo_Avatar_Talk/Cs_Emo_Avatar_PersonalLine/Cs_Emo_Avatar_Tartaglia/Cs_Emo_110120107",
        "phonemePath": "",
        "emotionPath": "",
        "mateDataPath": "",
        "matePhonemePath": "",
        "mateEmotionPath": "",
        "dataPathHashList": [
          176469760121690117,
          7889327199701467926,
          4622921728843260888,
          6425175830419320337
        ],
        "PACNIGOOENN": "",
        "PIBDNPHIAGC": ""
      }
    ],
    [
      {
        "$type": "EFHODGEJOHJ",
        "type": "CAMERA_MOVE",
        "delayTime": 0.06338325142860413,
        "duration": 12.149275779724121,
        "camPosOffset": {
          "x": -374.5299987792969,
          "y": 231.75347900390625,
          "z": 1203.1787109375
        },
        "camForwardTargetOffset": {
          "x": -373.9370422363281,
          "y": 231.5362091064453,
          "z": 1202.4033203125
        },
        "camFov": 30.0,
        "cameraBlendType": "Linear",
        "MDKBPBJCMHH": {},
        "targetNpcAlias": "",
        "PHGBNNGCJKJ": "",
        "NFILMKCFHEB": "",
        "BGPNGHDAECF": ""
      },
      {
        "$type": "EFHODGEJOHJ",
        "type": "CAMERA_MOVE",
        "duration": 0.41150781512260437,
        "camPosOffset": {
          "x": -374.5759582519531,
          "y": 231.76327514648438,
          "z": 1203.3076171875
        },
        "camForwardTargetOffset": {
          "x": -374.0229187011719,
          "y": 231.54893493652344,
          "z": 1202.50244140625
        },
        "camFov": 30.0,
        "lerpPattern": 6,
        "cameraBlendType": "EaseInOutCubic",
        "MDKBPBJCMHH": {},
        "targetNpcAlias": "",
        "PHGBNNGCJKJ": "",
        "NFILMKCFHEB": "",
        "BGPNGHDAECF": ""
      },
      {
        "$type": "NPCNMEOCADD",
        "type": "LOOK_AT",
        "aliasList": [
          "Avatar"
        ],
        "enableHead": true,
        "useTargetPos": true,
        "enableAbsolute": true,
        "targetPosition": {
          "x": -372.8338928222656,
          "y": 231.34739685058594,
          "z": 1200.516357421875
        },
        "headTurnTime": 0.30000001192092896,
        "targetNpcAlias": "",
        "targetNpcLookAtPoint": "",
        "BHGPHGNFCBF": ""
      },
      {
        "$type": "MJFAIFFAGOF",
        "type": "DIALOG",
        "aliasList": [
          "10200"
        ],
        "dialogID": 110120108,
        "protectTime": 2.9700000286102295
      },
      {
        "$type": "EDCHPJLDKIN",
        "type": "BODY_LANG",
        "aliasList": [
          "10200"
        ],
        "bodyLangParam": 1171,
        "forceDoFreeStyle": true,
        "eventPatternSuiteKey": ""
      },
      {
        "$type": "ICHLNKHGCAG",
        "type": "EMO_SYNC",
        "aliasList": [
          "10200"
        ],
        "dataPath": "Cs_Emo_Avatar_Simple_Common_Set/Cs_Emo_Avatar_Talk/Cs_Emo_Avatar_PersonalLine/Cs_Emo_Avatar_Tartaglia/Cs_Emo_110120108",
        "phonemePath": "",
        "emotionPath": "",
        "mateDataPath": "",
        "matePhonemePath": "",
        "mateEmotionPath": "",
        "dataPathHashList": [
          11314957483982061719,
          10126285049219598737,
          1143424011334132487,
          15833402254498341537
        ],
        "PACNIGOOENN": "",
        "PIBDNPHIAGC": ""
      },
      {
        "$type": "EDCHPJLDKIN",
        "type": "BODY_LANG",
        "delayTime": 3.244687080383301,
        "aliasList": [
          "10200"
        ],
        "bodyLangParam": 1220,
        "forceDoFreeStyle": true,
        "eventPatternSuiteKey": ""
      }
    ],
    [
      {
        "$type": "EFHODGEJOHJ",
        "type": "CAMERA_MOVE",
        "delayTime": 0.09559901058673859,
        "duration": 17.278560638427734,
        "camPosOffset": {
          "x": -373.33685302734375,
          "y": 231.47569274902344,
          "z": 1200.9322509765625
        },
        "camForwardTargetOffset": {
          "x": -372.7650146484375,
          "y": 231.29959106445312,
          "z": 1200.1309814453125
        },
        "camFov": 30.0,
        "cameraBlendType": "Linear",
        "MDKBPBJCMHH": {},
        "targetNpcAlias": "",
        "PHGBNNGCJKJ": "",
        "NFILMKCFHEB": "",
        "BGPNGHDAECF": ""
      },
      {
        "$type": "EFHODGEJOHJ",
        "type": "CAMERA_MOVE",
        "duration": 0.40531983971595764,
        "camPosOffset": {
          "x": -373.4776306152344,
          "y": 231.43545532226562,
          "z": 1200.826171875
        },
        "camForwardTargetOffset": {
          "x": -372.8223876953125,
          "y": 231.26231384277344,
          "z": 1200.0908203125
        },
        "camFov": 30.0,
        "lerpPattern": 6,
        "cameraBlendType": "EaseInOutCubic",
        "MDKBPBJCMHH": {},
        "targetNpcAlias": "",
        "PHGBNNGCJKJ": "",
        "NFILMKCFHEB": "",
        "BGPNGHDAECF": ""
      },
      {
        "$type": "EDCHPJLDKIN",
        "type": "BODY_LANG",
        "aliasList": [
          "Avatar"
        ],
        "bodyLangParam": 1230,
        "forceDoFreeStyle": true,
        "eventPatternSuiteKey": ""
      },
      {
        "$type": "MJFAIFFAGOF",
        "type": "DIALOG",
        "aliasList": [
          "1005"
        ],
        "dialogID": 110120109,
        "protectTime": 2.009999990463257
      },
      {
        "$type": "EDCHPJLDKIN",
        "type": "BODY_LANG",
        "aliasList": [
          "1005"
        ],
        "bodyLangParam": 1120,
        "forceDoFreeStyle": true,
        "eventPatternSuiteKey": ""
      },
      {
        "$type": "ICHLNKHGCAG",
        "type": "EMO_SYNC",
        "aliasList": [
          "1005"
        ],
        "dataPath": "Cs_Emo_Avatar_Simple_Common_Set/Cs_Emo_Avatar_Talk/Cs_Emo_Avatar_PersonalLine/Cs_Emo_Avatar_Tartaglia/Cs_Emo_110120109",
        "phonemePath": "",
        "emotionPath": "",
        "mateDataPath": "",
        "matePhonemePath": "",
        "mateEmotionPath": "",
        "dataPathHashList": [
          851358988175706854,
          7714072846705339651,
          2229346628350843622,
          18085853556329763774
        ],
        "PACNIGOOENN": "",
        "PIBDNPHIAGC": ""
      }
    ],
    [
      {
        "$type": "MJFAIFFAGOF",
        "type": "DIALOG",
        "aliasList": [
          "1005"
        ],
        "dialogID": 110120110,
        "protectTime": 2.2799999713897705
      },
      {
        "$type": "EDCHPJLDKIN",
        "type": "BODY_LANG",
        "aliasList": [
          "1005"
        ],
        "isContinue": true,
        "forceDoFreeStyle": true,
        "eventPatternSuiteKey": ""
      },
      {
        "$type": "EDCHPJLDKIN",
        "type": "BODY_LANG",
        "delayTime": 2.902104616165161,
        "aliasList": [
          "1005"
        ],
        "bodyLangParam": 1170,
        "forceDoFreeStyle": true,
        "eventPatternSuiteKey": ""
      },
      {
        "$type": "ICHLNKHGCAG",
        "type": "EMO_SYNC",
        "aliasList": [
          "1005"
        ],
        "dataPath": "Cs_Emo_Avatar_Simple_Common_Set/Cs_Emo_Avatar_Talk/Cs_Emo_Avatar_PersonalLine/Cs_Emo_Avatar_Tartaglia/Cs_Emo_110120110",
        "phonemePath": "",
        "emotionPath": "",
        "mateDataPath": "",
        "matePhonemePath": "",
        "mateEmotionPath": "",
        "dataPathHashList": [
          6548331846046288185,
          18192974423687175413,
          13294889056616472106,
          1783510645966850736
        ],
        "PACNIGOOENN": "",
        "PIBDNPHIAGC": ""
      }
    ],
    [
      {
        "$type": "EFHODGEJOHJ",
        "type": "CAMERA_MOVE",
        "duration": 0.40531983971595764,
        "camPosOffset": {
          "x": -373.4812927246094,
          "y": 231.1652374267578,
          "z": 1198.5181884765625
        },
        "camForwardTargetOffset": {
          "x": -373.1995544433594,
          "y": 231.25210571289062,
          "z": 1199.4737548828125
        },
        "camFov": 20.0,
        "lerpPattern": 6,
        "cameraBlendType": "EaseInOutCubic",
        "MDKBPBJCMHH": {},
        "targetNpcAlias": "",
        "PHGBNNGCJKJ": "",
        "NFILMKCFHEB": "",
        "BGPNGHDAECF": ""
      },
      {
        "$type": "MJFAIFFAGOF",
        "type": "DIALOG",
        "aliasList": [
          "10200"
        ],
        "dialogID": 110120111,
        "protectTime": 2.75
      },
      {
        "$type": "EDCHPJLDKIN",
        "type": "BODY_LANG",
        "delayTime": 4.632989883422852,
        "aliasList": [
          "10200"
        ],
        "bodyLangParam": 1173,
        "forceDoFreeStyle": true,
        "eventPatternSuiteKey": ""
      },
      {
        "$type": "EDCHPJLDKIN",
        "type": "BODY_LANG",
        "aliasList": [
          "10200"
        ],
        "isContinue": true,
        "forceDoFreeStyle": true,
        "eventPatternSuiteKey": ""
      },
      {
        "$type": "ICHLNKHGCAG",
        "type": "EMO_SYNC",
        "aliasList": [
          "10200"
        ],
        "dataPath": "Cs_Emo_Avatar_Simple_Common_Set/Cs_Emo_Avatar_Talk/Cs_Emo_Avatar_PersonalLine/Cs_Emo_Avatar_Tartaglia/Cs_Emo_110120111",
        "phonemePath": "",
        "emotionPath": "",
        "mateDataPath": "",
        "matePhonemePath": "",
        "mateEmotionPath": "",
        "dataPathHashList": [
          8949700189149626890,
          6157546258801846765,
          4082199458523802910,
          13684230366926195347
        ],
        "PACNIGOOENN": "",
        "PIBDNPHIAGC": ""
      },
      {
        "$type": "EDCHPJLDKIN",
        "type": "BODY_LANG",
        "delayTime": 1.0903122425079346,
        "aliasList": [
          "10200"
        ],
        "bodyLangParam": 1171,
        "forceDoFreeStyle": true,
        "eventPatternSuiteKey": ""
      },
      {
        "$type": "MoleMole.Config.ConfigMoveToAction",
        "type": "MOVE_TO",
        "aliasList": [
          "10265"
        ],
        "routeList": [
          {
            "x": -369.73565673828125,
            "y": 229.88720703125,
            "z": 1201.829345703125
          }
        ],
        "_bindMovingTargetKey": ""
      }
    ],
    [
      {
        "$type": "EFHODGEJOHJ",
        "type": "CAMERA_MOVE",
        "duration": 0.40531983971595764,
        "camPosOffset": {
          "x": -373.9198913574219,
          "y": 231.6723175048828,
          "z": 1202.5902099609375
        },
        "camForwardTargetOffset": {
          "x": -373.4078674316406,
          "y": 231.5169219970703,
          "z": 1201.745361328125
        },
        "camFov": 20.0,
        "lerpPattern": 6,
        "cameraBlendType": "EaseInOutCubic",
        "MDKBPBJCMHH": {},
        "targetNpcAlias": "",
        "PHGBNNGCJKJ": "",
        "NFILMKCFHEB": "",
        "BGPNGHDAECF": ""
      },
      {
        "$type": "MJFAIFFAGOF",
        "type": "DIALOG",
        "aliasList": [
          "1005"
        ],
        "dialogID": 110120112,
        "protectTime": 1.5299999713897705
      },
      {
        "$type": "EDCHPJLDKIN",
        "type": "BODY_LANG",
        "aliasList": [
          "1005"
        ],
        "bodyLangParam": 1060,
        "forceDoFreeStyle": true,
        "eventPatternSuiteKey": ""
      },
      {
        "$type": "ICHLNKHGCAG",
        "type": "EMO_SYNC",
        "aliasList": [
          "1005"
        ],
        "dataPath": "Cs_Emo_Avatar_Simple_Common_Set/Cs_Emo_Avatar_Talk/Cs_Emo_Avatar_PersonalLine/Cs_Emo_Avatar_Tartaglia/Cs_Emo_110120112",
        "phonemePath": "",
        "emotionPath": "",
        "mateDataPath": "",
        "matePhonemePath": "",
        "mateEmotionPath": "",
        "dataPathHashList": [
          15115032524755703705,
          8242196813137404024,
          10158906833513898066,
          17896161753577099397
        ],
        "PACNIGOOENN": "",
        "PIBDNPHIAGC": ""
      }
    ],
    [
      {
        "$type": "EFHODGEJOHJ",
        "type": "CAMERA_MOVE",
        "delayTime": 0.05741821601986885,
        "duration": 9.190306663513184,
        "camPosOffset": {
          "x": -373.70147705078125,
          "y": 230.9408721923828,
          "z": 1200.1563720703125
        },
        "camForwardTargetOffset": {
          "x": -373.1084289550781,
          "y": 231.26205444335938,
          "z": 1200.8946533203125
        },
        "camFov": 30.0,
        "cameraBlendType": "Linear",
        "MDKBPBJCMHH": {},
        "targetNpcAlias": "",
        "PHGBNNGCJKJ": "",
        "NFILMKCFHEB": "",
        "BGPNGHDAECF": ""
      },
      {
        "$type": "EFHODGEJOHJ",
        "type": "CAMERA_MOVE",
        "duration": 0.40531983971595764,
        "camPosOffset": {
          "x": -373.531005859375,
          "y": 231.0052490234375,
          "z": 1200.01904296875
        },
        "camForwardTargetOffset": {
          "x": -373.07171630859375,
          "y": 231.27195739746094,
          "z": 1200.8663330078125
        },
        "camFov": 30.0,
        "lerpPattern": 6,
        "cameraBlendType": "EaseInOutCubic",
        "MDKBPBJCMHH": {},
        "targetNpcAlias": "",
        "PHGBNNGCJKJ": "",
        "NFILMKCFHEB": "",
        "BGPNGHDAECF": ""
      },
      {
        "$type": "MJFAIFFAGOF",
        "type": "DIALOG",
        "aliasList": [
          "10200"
        ],
        "dialogID": 110120113,
        "protectTime": 2.049999952316284
      },
      {
        "$type": "EDCHPJLDKIN",
        "type": "BODY_LANG",
        "delayTime": 4.162822246551514,
        "aliasList": [
          "10200"
        ],
        "bodyLangParam": 1120,
        "forceDoFreeStyle": true,
        "eventPatternSuiteKey": ""
      },
      {
        "$type": "EDCHPJLDKIN",
        "type": "BODY_LANG",
        "aliasList": [
          "10200"
        ],
        "bodyLangParam": 1173,
        "forceDoFreeStyle": true,
        "eventPatternSuiteKey": ""
      },
      {
        "$type": "ICHLNKHGCAG",
        "type": "EMO_SYNC",
        "aliasList": [
          "10200"
        ],
        "dataPath": "Cs_Emo_Avatar_Simple_Common_Set/Cs_Emo_Avatar_Talk/Cs_Emo_Avatar_PersonalLine/Cs_Emo_Avatar_Tartaglia/Cs_Emo_110120113",
        "phonemePath": "",
        "emotionPath": "",
        "mateDataPath": "",
        "matePhonemePath": "",
        "mateEmotionPath": "",
        "dataPathHashList": [
          16375388869974370168,
          283497087225831717,
          3709798176887574196,
          8558630388301168922
        ],
        "PACNIGOOENN": "",
        "PIBDNPHIAGC": ""
      }
    ],
    [
      {
        "$type": "EFHODGEJOHJ",
        "type": "CAMERA_MOVE",
        "delayTime": 0.028709109872579575,
        "duration": 14.591068267822266,
        "camPosOffset": {
          "x": -375.29608154296875,
          "y": 233.95884704589844,
          "z": 1203.1170654296875
        },
        "camForwardTargetOffset": {
          "x": -374.6828308105469,
          "y": 233.3176727294922,
          "z": 1202.65576171875
        },
        "camFov": 30.0,
        "cameraBlendType": "Linear",
        "MDKBPBJCMHH": {},
        "targetNpcAlias": "",
        "PHGBNNGCJKJ": "",
        "NFILMKCFHEB": "",
        "BGPNGHDAECF": ""
      },
      {
        "$type": "EFHODGEJOHJ",
        "type": "CAMERA_MOVE",
        "duration": 0.6062832474708557,
        "camPosOffset": {
          "x": -375.62225341796875,
          "y": 234.29397583007812,
          "z": 1202.2144775390625
        },
        "camForwardTargetOffset": {
          "x": -374.9611511230469,
          "y": 233.59925842285156,
          "z": 1201.93115234375
        },
        "camFov": 30.0,
        "lerpPattern": 6,
        "cameraBlendType": "EaseInOutCubic",
        "MDKBPBJCMHH": {},
        "targetNpcAlias": "",
        "PHGBNNGCJKJ": "",
        "NFILMKCFHEB": "",
        "BGPNGHDAECF": ""
      },
      {
        "$type": "EDCHPJLDKIN",
        "type": "BODY_LANG",
        "aliasList": [
          "Avatar"
        ],
        "isContinue": true,
        "forceDoFreeStyle": true,
        "eventPatternSuiteKey": ""
      },
      {
        "$type": "MJFAIFFAGOF",
        "type": "DIALOG",
        "aliasList": [
          "10200"
        ],
        "dialogID": 110120114,
        "protectTime": 2.5199999809265137
      },
      {
        "$type": "ICHLNKHGCAG",
        "type": "EMO_SYNC",
        "aliasList": [
          "10200"
        ],
        "dataPath": "Cs_Emo_Avatar_Simple_Common_Set/Cs_Emo_Avatar_Talk/Cs_Emo_Avatar_PersonalLine/Cs_Emo_Avatar_Tartaglia/Cs_Emo_110120114",
        "phonemePath": "",
        "emotionPath": "",
        "mateDataPath": "",
        "matePhonemePath": "",
        "mateEmotionPath": "",
        "dataPathHashList": [
          4804748081879512406,
          3238469799544377593,
          14511523729881208165,
          14399851177825098835
        ],
        "PACNIGOOENN": "",
        "PIBDNPHIAGC": ""
      },
      {
        "$type": "MoleMole.Config.ConfigMoveToAction",
        "type": "MOVE_TO",
        "aliasList": [
          "10265"
        ],
        "routeList": [
          {
            "x": -366.697265625,
            "y": 229.88720703125,
            "z": 1201.9136962890625
          }
        ],
        "_bindMovingTargetKey": ""
      },
      {
        "$type": "IEKHMHNHENB",
        "type": "STEER_TO",
        "aliasList": [
          "10265"
        ],
        "steerDir": {
          "x": -0.9763880968093872,
          "z": -0.21602384746074677
        },
        "targetNpcAlias": "",
        "BHGPHGNFCBF": ""
      },
      {
        "$type": "EDCHPJLDKIN",
        "type": "BODY_LANG",
        "aliasList": [
          "10265"
        ],
        "isContinue": true,
        "forceDoFreeStyle": true,
        "eventPatternSuiteKey": ""
      },
      {
        "$type": "EDCHPJLDKIN",
        "type": "BODY_LANG",
        "aliasList": [
          "1005"
        ],
        "isContinue": true,
        "forceDoFreeStyle": true,
        "eventPatternSuiteKey": ""
      }
    ],
    [
      {
        "$type": "MoleMole.Config.ConfigTimeProtectAction",
        "type": "TIME_PROTECT",
        "duration": 3.3768019676208496
      },
      {
        "$type": "NPCNMEOCADD",
        "type": "LOOK_AT",
        "delayTime": 2.422606945037842,
        "aliasList": [
          "Avatar"
        ],
        "enableHead": true,
        "useTargetPos": true,
        "enableAbsolute": true,
        "targetPosition": {
          "x": -371.9414978027344,
          "y": 230.98635864257812,
          "z": 1201.4410400390625
        },
        "enableBody": true,
        "bodyAngle": 10.59000015258789,
        "headTurnTime": 0.4000000059604645,
        "bodyTurnTime": 0.5,
        "targetNpcAlias": "",
        "targetNpcLookAtPoint": "",
        "BHGPHGNFCBF": ""
      },
      {
        "$type": "NPCNMEOCADD",
        "type": "LOOK_AT",
        "delayTime": 2.2330880165100098,
        "aliasList": [
          "10200"
        ],
        "enableHead": true,
        "useTargetPos": true,
        "enableAbsolute": true,
        "targetPosition": {
          "x": -371.20947265625,
          "y": 230.88229370117188,
          "z": 1200.8643798828125
        },
        "enableBody": true,
        "bodyAngle": -9.619999885559082,
        "headTurnTime": 0.30000001192092896,
        "bodyTurnTime": 0.4000000059604645,
        "targetNpcAlias": "",
        "targetNpcLookAtPoint": "",
        "BHGPHGNFCBF": ""
      },
      {
        "$type": "MJFAIFFAGOF",
        "type": "DIALOG",
        "delayTime": 1.6828668117523193,
        "aliasList": [
          "10265"
        ],
        "dialogID": 110120115,
        "protectTime": 2.190000057220459
      },
      {
        "$type": "MoleMole.Config.ConfigMoveToAction",
        "type": "MOVE_TO",
        "aliasList": [
          "10265"
        ],
        "moveType": "WALK",
        "routeList": [
          {
            "x": -372.40826416015625,
            "y": 229.88720703125,
            "z": 1200.9248046875
          }
        ],
        "_bindMovingTargetKey": ""
      },
      {
        "$type": "EDCHPJLDKIN",
        "type": "BODY_LANG",
        "delayTime": 1.5168673992156982,
        "aliasList": [
          "10265"
        ],
        "bodyLangParam": 1060,
        "forceDoFreeStyle": true,
        "eventPatternSuiteKey": ""
      },
      {
        "$type": "NPCNMEOCADD",
        "type": "LOOK_AT",
        "delayTime": 1.698959469795227,
        "aliasList": [
          "10265"
        ],
        "enableHead": true,
        "useTargetPos": true,
        "enableAbsolute": true,
        "targetPosition": {
          "x": -372.56005859375,
          "y": 231.36758422851562,
          "z": 1201.31884765625
        },
        "headTurnTime": 0.20000000298023224,
        "targetNpcAlias": "",
        "targetNpcLookAtPoint": "",
        "BHGPHGNFCBF": ""
      },
      {
        "$type": "ICHLNKHGCAG",
        "type": "EMO_SYNC",
        "delayTime": 1.6828668117523193,
        "aliasList": [
          "10265"
        ],
        "dataPath": "Cs_Emo_Avatar_Simple_Common_Set/Cs_Emo_Avatar_Talk/Cs_Emo_Avatar_PersonalLine/Cs_Emo_Avatar_Tartaglia/Cs_Emo_110120115",
        "phonemePath": "",
        "emotionPath": "",
        "mateDataPath": "",
        "matePhonemePath": "",
        "mateEmotionPath": "",
        "dataPathHashList": [
          6146684587257619160,
          11029500614270868465,
          1064361474842621968,
          3464234923725141322
        ],
        "PACNIGOOENN": "",
        "PIBDNPHIAGC": ""
      },
      {
        "$type": "NPCNMEOCADD",
        "type": "LOOK_AT",
        "delayTime": 2.164163827896118,
        "aliasList": [
          "1005"
        ],
        "enableHead": true,
        "useTargetPos": true,
        "enableAbsolute": true,
        "targetPosition": {
          "x": -371.90704345703125,
          "y": 231.2681884765625,
          "z": 1201.1534423828125
        },
        "enableBody": true,
        "bodyAngle": 5.670000076293945,
        "headTurnTime": 0.20000000298023224,
        "bodyTurnTime": 0.30000001192092896,
        "targetNpcAlias": "",
        "targetNpcLookAtPoint": "",
        "BHGPHGNFCBF": ""
      }
    ],
    [
      {
        "$type": "EFHODGEJOHJ",
        "type": "CAMERA_MOVE",
        "delayTime": 0.051689308136701584,
        "duration": 3.9807417392730713,
        "camPosOffset": {
          "x": -370.5403137207031,
          "y": 230.71923828125,
          "z": 1200.001708984375
        },
        "camForwardTargetOffset": {
          "x": -371.30682373046875,
          "y": 230.95401000976562,
          "z": 1200.5994873046875
        },
        "camFov": 20.0,
        "cameraBlendType": "Linear",
        "MDKBPBJCMHH": {},
        "targetNpcAlias": "",
        "PHGBNNGCJKJ": "",
        "NFILMKCFHEB": "",
        "BGPNGHDAECF": ""
      },
      {
        "$type": "EFHODGEJOHJ",
        "type": "CAMERA_MOVE",
        "duration": 0.37973007559776306,
        "camPosOffset": {
          "x": -370.50726318359375,
          "y": 230.6904754638672,
          "z": 1200.057373046875
        },
        "camForwardTargetOffset": {
          "x": -371.2980041503906,
          "y": 230.9427032470703,
          "z": 1200.6151123046875
        },
        "camFov": 20.0,
        "lerpPattern": 6,
        "cameraBlendType": "EaseInOutCubic",
        "MDKBPBJCMHH": {},
        "targetNpcAlias": "",
        "PHGBNNGCJKJ": "",
        "NFILMKCFHEB": "",
        "BGPNGHDAECF": ""
      },
      {
        "$type": "MJFAIFFAGOF",
        "type": "DIALOG",
        "aliasList": [
          "10200"
        ],
        "dialogID": 110120116,
        "protectTime": 1.2799999713897705
      },
      {
        "$type": "IEKHMHNHENB",
        "type": "STEER_TO",
        "duration": 1.0,
        "aliasList": [
          "10200"
        ],
        "steerDir": {
          "x": 0.970572829246521,
          "z": -0.24080777168273926
        },
        "useSteerAnim": true,
        "targetNpcAlias": "",
        "BHGPHGNFCBF": ""
      },
      {
        "$type": "EDCHPJLDKIN",
        "type": "BODY_LANG",
        "delayTime": 1.689366340637207,
        "aliasList": [
          "10200"
        ],
        "bodyLangParam": 1130,
        "forceDoFreeStyle": true,
        "eventPatternSuiteKey": ""
      },
      {
        "$type": "ICHLNKHGCAG",
        "type": "EMO_SYNC",
        "aliasList": [
          "10200"
        ],
        "dataPath": "Cs_Emo_Avatar_Simple_Common_Set/Cs_Emo_Avatar_Talk/Cs_Emo_Avatar_PersonalLine/Cs_Emo_Avatar_Tartaglia/Cs_Emo_110120116",
        "phonemePath": "",
        "emotionPath": "",
        "mateDataPath": "",
        "matePhonemePath": "",
        "mateEmotionPath": "",
        "dataPathHashList": [
          1363500777260188516,
          14316722529392647031,
          1769039963729722596,
          9328254679813266766
        ],
        "PACNIGOOENN": "",
        "PIBDNPHIAGC": ""
      },
      {
        "$type": "EDCHPJLDKIN",
        "type": "BODY_LANG",
        "aliasList": [
          "10200"
        ],
        "isContinue": true,
        "forceDoFreeStyle": true,
        "eventPatternSuiteKey": ""
      }
    ],
    [
      {
        "$type": "EFHODGEJOHJ",
        "type": "CAMERA_MOVE",
        "delayTime": 0.5,
        "duration": 0.10000000149011612,
        "camPosOffset": {
          "x": -376.0786437988281,
          "y": 230.62899780273438,
          "z": 1196.214599609375
        },
        "camForwardTargetOffset": {
          "x": -375.4129638671875,
          "y": 230.70091247558594,
          "z": 1196.9573974609375
        },
        "camFov": 30.0,
        "lerpPattern": 6,
        "cameraBlendType": "EaseInOutCubic",
        "MDKBPBJCMHH": {},
        "targetNpcAlias": "",
        "PHGBNNGCJKJ": "",
        "NFILMKCFHEB": "",
        "BGPNGHDAECF": ""
      },
      {
        "$type": "MoleMole.Config.ConfigTimeProtectAction",
        "type": "TIME_PROTECT",
        "duration": 0.6000000238418579
      },
      {
        "$type": "MoleMole.Config.ConfigSimpleBlackScreenAction",
        "type": "SIMPLE_BLACK_SCREEN",
        "durationToBlack": 0.5,
        "durationKeepBlack": 1.0,
        "durationFromBlack": 0.5,
        "textMapID": ""
      },
      {
        "$type": "MoleMole.Config.ConfigVisibleInterAction",
        "type": "VISIBLE",
        "delayTime": 0.6000000238418579,
        "aliasList": [
          "10200"
        ],
        "_extraParam": ""
      },
      {
        "$type": "MoleMole.Config.ConfigVisibleInterAction",
        "type": "VISIBLE",
        "delayTime": 0.6000000238418579,
        "aliasList": [
          "10265"
        ],
        "_extraParam": ""
      }
    ]
  ],
  "groupId": [
    {
      "grpId": 1161483619,
      "nextGrpId": 1161483620
    },
    {
      "index": 1,
      "grpId": 1161483620,
      "nextGrpId": 1161483621
    },
    {
      "index": 2,
      "grpId": 1161483621,
      "nextGrpId": 1161483622
    },
    {
      "index": 3,
      "grpId": 1161483622,
      "nextGrpId": 1161483623
    },
    {
      "index": 4,
      "grpId": 1161483623,
      "nextGrpId": 1161483624
    },
    {
      "index": 5,
      "grpId": 1161483624,
      "nextGrpId": 1161483625
    },
    {
      "index": 6,
      "grpId": 1161483625,
      "nextGrpId": 1161483626
    },
    {
      "index": 7,
      "grpId": 1161483626,
      "nextGrpId": 1161483627
    },
    {
      "index": 8,
      "grpId": 1161483627,
      "nextGrpId": 1646253869
    },
    {
      "index": 9,
      "grpId": 1646253869,
      "nextGrpId": 1646253870
    },
    {
      "index": 10,
      "grpId": 1646253870,
      "nextGrpId": 1646253871
    },
    {
      "index": 11,
      "grpId": 1646253871,
      "nextGrpId": 1646253872
    },
    {
      "index": 12,
      "grpId": 1646253872,
      "nextGrpId": 1646253873
    },
    {
      "index": 13,
      "grpId": 1646253873,
      "nextGrpId": 1646253874
    },
    {
      "index": 14,
      "grpId": 1646253874,
      "nextGrpId": 1646253875
    },
    {
      "index": 15,
      "grpId": 1646253875,
      "nextGrpId": 1646253876
    },
    {
      "index": 16,
      "grpId": 1646253876,
      "nextGrpId": 1646253877
    }
  ],
  "freeStyleDic": {
    "10200": [
      1142,
      1220,
      1171,
      1173,
      1120,
      1130
    ],
    "10265": [
      1060
    ]
  }
}