[
  {
    "areaName": "Scene35961_Block35961_1",
    "shortID": 775821369,
    "KEPECHPMHPG": [
      {
        "$type": "FPLBCDBOAKP",
        "shortID": 359610101,
        "CAOFHPPODBD": {
          "x": 1612.978759765625,
          "y": 368.3189697265625,
          "z": 4614.7470703125
        },
        "DMMFBJDAKAC": {
          "x": 2023.059814453125,
          "y": 530.9268798828125,
          "z": 5024.828125
        },
        "OJENLGHJGPK": {
          "x": 1818.019287109375,
          "y": 449.6229248046875,
          "z": 4819.78759765625
        },
        "JGJHKPJDFOB": {
          "x": 410.0811462402344,
          "y": 162.60794067382812,
          "z": 410.0811462402344
        }
      }
    ],
    "GEDBCEGNPPO": [
      {
        "predicate": {
          "$type": "FONJFNHALLK"
        },
        "action": {
          "$type": "PNONJNHKNEN",
          "eventName": {
            "text": "Play_Amb_HaiLuGang_CopyWorld"
          }
        }
      },
      {
        "action": {
          "$type": "CFBFKGOANBM",
          "key": "1",
          "stateGroup": {
            "text": "StateGroup_gameZones"
          },
          "FIBMHBBOGCA": {
            "text": "State_FD47_DaPaoDaBaBW"
          },
          "BDEOAEBGADA": {
            "text": "None"
          }
        }
      }
    ],
    "FLEDPIEHCPH": [
      {
        "predicate": {
          "$type": "FONJFNHALLK"
        },
        "action": {
          "$type": "PNONJNHKNEN",
          "eventName": {
            "text": "Stop_Amb_HaiLuGang_CopyWorld"
          }
        }
      },
      {
        "action": {
          "$type": "DHDBBPJDMKF",
          "key": "1",
          "stateGroup": {
            "text": "StateGroup_gameZones"
          }
        }
      }
    ]
  }
]