[
  {
    "areaName": "Scene20209_Block20209_1",
    "shortID": 2838323311,
    "KEPECHPMHPG": [
      {
        "$type": "PMGMIDNNBPE",
        "shortID": 202090101,
        "CAOFHPPODBD": {
          "x": 296.00146484375,
          "y": 57.5350341796875,
          "z": 446.67578125
        },
        "DMMFBJDAKAC": {
          "x": 497.67730712890625,
          "y": 526.0646362304688,
          "z": 699.7265625
        },
        "points": [
          {
            "x": 453.193115234375,
            "y": 57.5350341796875,
            "z": 446.6757507324219
          },
          {
            "x": 472.7630920410156,
            "y": 57.5350341796875,
            "z": 489.46923828125
          },
          {
            "x": 438.8278503417969,
            "y": 57.5350341796875,
            "z": 542.1610717773438
          },
          {
            "x": 497.67730712890625,
            "y": 57.5350341796875,
            "z": 609.6871337890625
          },
          {
            "x": 464.86553955078125,
            "y": 57.5350341796875,
            "z": 676.0841064453125
          },
          {
            "x": 413.8355407714844,
            "y": 57.5350341796875,
            "z": 699.7266235351562
          },
          {
            "x": 378.7165832519531,
            "y": 57.5350341796875,
            "z": 696.6856079101562
          },
          {
            "x": 331.44000244140625,
            "y": 57.5350341796875,
            "z": 650.620849609375
          },
          {
            "x": 296.00146484375,
            "y": 57.5350341796875,
            "z": 552.8960571289062
          },
          {
            "x": 331.0615539550781,
            "y": 57.5350341796875,
            "z": 462.0887756347656
          }
        ],
        "yMin": 57.5350341796875,
        "yMax": 526.0646362304688
      }
    ],
    "GEDBCEGNPPO": [
      {
        "predicate": {
          "$type": "FONJFNHALLK"
        },
        "action": {
          "$type": "JEKMILMEKMK",
          "stateGroup": {
            "text": "StateGroup_FCdungeon_Liuyun"
          },
          "stateValue": {
            "text": "WSKZ"
          }
        }
      }
    ],
    "FLEDPIEHCPH": [
      {
        "predicate": {
          "$type": "FONJFNHALLK"
        },
        "action": {
          "$type": "JEKMILMEKMK",
          "stateGroup": {
            "text": "StateGroup_FCdungeon_Liuyun"
          },
          "stateValue": {
            "text": "LYG"
          }
        }
      }
    ]
  },
  {
    "areaName": "Scene20209_Block20209_2",
    "shortID": 2838323308,
    "JFFOAFFPIEA": true,
    "KEPECHPMHPG": [
      {
        "$type": "PMGMIDNNBPE",
        "shortID": 202090201,
        "CAOFHPPODBD": {
          "x": 380.4781494140625,
          "y": 126.94972229003906,
          "z": 619.3739013671875
        },
        "DMMFBJDAKAC": {
          "x": 443.898681640625,
          "y": 151.1998748779297,
          "z": 688.118896484375
        },
        "points": [
          {
            "x": 388.1702575683594,
            "y": 126.94972229003906,
            "z": 674.4374389648438
          },
          {
            "x": 380.4781494140625,
            "y": 126.94972229003906,
            "z": 661.7948608398438
          },
          {
            "x": 391.60888671875,
            "y": 126.94972229003906,
            "z": 645.99560546875
          },
          {
            "x": 409.5289611816406,
            "y": 126.94972229003906,
            "z": 636.7835693359375
          },
          {
            "x": 409.05865478515625,
            "y": 126.94972229003906,
            "z": 634.7865600585938
          },
          {
            "x": 407.53546142578125,
            "y": 126.94972229003906,
            "z": 624.8756103515625
          },
          {
            "x": 422.1455078125,
            "y": 126.94972229003906,
            "z": 619.3739013671875
          },
          {
            "x": 432.2872009277344,
            "y": 126.94972229003906,
            "z": 628.8695068359375
          },
          {
            "x": 438.2580261230469,
            "y": 126.94972229003906,
            "z": 642.832275390625
          },
          {
            "x": 443.8987121582031,
            "y": 126.94972229003906,
            "z": 665.9735107421875
          },
          {
            "x": 421.7837219238281,
            "y": 126.94972229003906,
            "z": 687.9660034179688
          },
          {
            "x": 404.9253845214844,
            "y": 126.94972229003906,
            "z": 688.118896484375
          }
        ],
        "yMin": 126.94972229003906,
        "yMax": 151.1998748779297
      },
      {
        "$type": "PMGMIDNNBPE",
        "shortID": 202090202,
        "CAOFHPPODBD": {
          "x": 413.6640625,
          "y": 115.41860961914062,
          "z": 472.62200927734375
        },
        "DMMFBJDAKAC": {
          "x": 454.825927734375,
          "y": 150.89724731445312,
          "z": 513.6046752929688
        },
        "points": [
          {
            "x": 419.4391784667969,
            "y": 115.41860961914062,
            "z": 509.80975341796875
          },
          {
            "x": 413.6640930175781,
            "y": 115.41860961914062,
            "z": 488.59356689453125
          },
          {
            "x": 423.2169189453125,
            "y": 115.41860961914062,
            "z": 472.72418212890625
          },
          {
            "x": 443.0128173828125,
            "y": 115.41860961914062,
            "z": 472.6219787597656
          },
          {
            "x": 454.8258972167969,
            "y": 115.41860961914062,
            "z": 491.3831481933594
          },
          {
            "x": 452.3857421875,
            "y": 115.41860961914062,
            "z": 502.0137023925781
          },
          {
            "x": 442.6795654296875,
            "y": 115.41860961914062,
            "z": 513.6046752929688
          },
          {
            "x": 429.9065246582031,
            "y": 115.41860961914062,
            "z": 512.3887329101562
          }
        ],
        "yMin": 115.41860961914062,
        "yMax": 150.89723205566406
      },
      {
        "$type": "PMGMIDNNBPE",
        "shortID": 202090203,
        "CAOFHPPODBD": {
          "x": 640.257568359375,
          "y": 131.1276397705078,
          "z": 589.84423828125
        },
        "DMMFBJDAKAC": {
          "x": 701.953369140625,
          "y": 166.68617248535156,
          "z": 696.71435546875
        },
        "points": [
          {
            "x": 672.6465454101562,
            "y": 131.1276397705078,
            "z": 696.7142944335938
          },
          {
            "x": 687.0011596679688,
            "y": 131.1276397705078,
            "z": 687.7017211914062
          },
          {
            "x": 697.537353515625,
            "y": 131.1276397705078,
            "z": 628.1232299804688
          },
          {
            "x": 701.9533081054688,
            "y": 131.1276397705078,
            "z": 618.079833984375
          },
          {
            "x": 691.36328125,
            "y": 131.1276397705078,
            "z": 605.6253662109375
          },
          {
            "x": 650.8369140625,
            "y": 131.1276397705078,
            "z": 589.8441772460938
          },
          {
            "x": 640.2575073242188,
            "y": 131.1276397705078,
            "z": 607.7869262695312
          },
          {
            "x": 657.8419799804688,
            "y": 131.1276397705078,
            "z": 665.9993896484375
          }
        ],
        "yMin": 131.1276397705078,
        "yMax": 166.68617248535156
      }
    ],
    "GEDBCEGNPPO": [
      {
        "predicate": {
          "$type": "FONJFNHALLK"
        },
        "action": {
          "$type": "PNONJNHKNEN",
          "eventName": {
            "text": "Play_Amb_Dungeon_LiuYunDungeon_cave"
          }
        }
      },
      {
        "predicate": {
          "$type": "FONJFNHALLK"
        },
        "action": {
          "$type": "OLPAMJINPHM",
          "auxBusName": {
            "text": "aux_scene_dungeon_close_small"
          }
        }
      }
    ],
    "FLEDPIEHCPH": [
      {
        "predicate": {
          "$type": "FONJFNHALLK"
        },
        "action": {
          "$type": "JAFNKPDICIN"
        }
      },
      {
        "predicate": {
          "$type": "FONJFNHALLK"
        },
        "action": {
          "$type": "PNONJNHKNEN",
          "eventName": {
            "text": "Stop_Amb_Dungeon_LiuYunDungeon_cave"
          }
        }
      }
    ]
  }
]