[
  {
    "areaName": "Scene35957_Block35957_1",
    "shortID": 2034453647,
    "KEPECHPMHPG": [
      {
        "$type": "FPLBCDBOAKP",
        "shortID": 359570101,
        "CAOFHPPODBD": {
          "x": 197.18301391601562,
          "y": 182.8849639892578,
          "z": 86.09416198730469
        },
        "DMMFBJDAKAC": {
          "x": 467.2593688964844,
          "y": 262.47222900390625,
          "z": 356.1705322265625
        },
        "OJENLGHJGPK": {
          "x": 332.22119140625,
          "y": 222.6785888671875,
          "z": 221.13233947753906
        },
        "JGJHKPJDFOB": {
          "x": 270.07635498046875,
          "y": 79.5872573852539,
          "z": 270.07635498046875
        }
      }
    ],
    "GEDBCEGNPPO": [
      {
        "predicate": {
          "$type": "FONJFNHALLK"
        },
        "action": {
          "$type": "PNONJNHKNEN",
          "eventName": {
            "text": "Play_Amb_LiYue_LiYueYiJi_CopyWorld"
          }
        }
      }
    ],
    "FLEDPIEHCPH": [
      {
        "predicate": {
          "$type": "FONJFNHALLK"
        },
        "action": {
          "$type": "PNONJNHKNEN",
          "eventName": {
            "text": "Stop_Amb_LiYue_LiYueYiJi_CopyWorld"
          }
        }
      }
    ]
  }
]