[
  {
    "areaName": "Scene20194_Block20194_1",
    "shortID": 1290581301,
    "KEPECHPMHPG": [
      {
        "$type": "FPLBCDBOAKP",
        "shortID": 201940101,
        "CAOFHPPODBD": {
          "x": 4248.2333984375,
          "y": 81.19880676269531,
          "z": 4681.388671875
        },
        "DMMFBJDAKAC": {
          "x": 4347.513671875,
          "y": 177.79881286621094,
          "z": 4780.6689453125
        },
        "OJENLGHJGPK": {
          "x": 4297.87353515625,
          "y": 129.49880981445312,
          "z": 4731.02880859375
        },
        "JGJHKPJDFOB": {
          "x": 99.27999877929688,
          "y": 96.5999984741211,
          "z": 99.27999877929688
        }
      }
    ],
    "GEDBCEGNPPO": [
      {
        "action": {
          "$type": "PNONJNHKNEN",
          "eventName": {
            "text": "Play_Amb_Dungeon_BoxMatch_Crowd"
          }
        }
      }
    ],
    "FLEDPIEHCPH": [
      {
        "action": {
          "$type": "PNONJNHKNEN",
          "eventName": {
            "text": "Stop_Amb_Dungeon_BoxMatch_Crowd"
          }
        }
      }
    ]
  }
]