[
  {
    "areaName": "Scene35956_Block35956_1",
    "shortID": 1849108629,
    "KEPECHPMHPG": [
      {
        "$type": "FPLBCDBOAKP",
        "shortID": 359560101,
        "CAOFHPPODBD": {
          "x": 1676.1739501953125,
          "y": 182.960205078125,
          "z": -514.3407592773438
        },
        "DMMFBJDAKAC": {
          "x": 1878.4400634765625,
          "y": 240.791015625,
          "z": -312.07464599609375
        },
        "OJENLGHJGPK": {
          "x": 1777.3070068359375,
          "y": 211.8756103515625,
          "z": -413.20770263671875
        },
        "JGJHKPJDFOB": {
          "x": 202.26608276367188,
          "y": 57.83082580566406,
          "z": 202.26608276367188
        }
      }
    ],
    "GEDBCEGNPPO": [
      {
        "predicate": {
          "$type": "FONJFNHALLK"
        },
        "action": {
          "$type": "PNONJNHKNEN",
          "eventName": {
            "text": "Play_Amb_MengDe_MengDeJiuZhuang_CopyWorld"
          }
        }
      }
    ],
    "FLEDPIEHCPH": [
      {
        "predicate": {
          "$type": "FONJFNHALLK"
        },
        "action": {
          "$type": "PNONJNHKNEN",
          "eventName": {
            "text": "Stop_Amb_MengDe_MengDeJiuZhuang_CopyWorld"
          }
        }
      }
    ]
  }
]