{
  "talkId": 4002405,
  "KPGKDHAFHFE": "ACTIVITY",
  "dialogList": [
    {
      "id": 400240501,
      "talkRole": {
        "type": "TALK_ROLE_NPC",
        "_id": "2093"
      },
      "talkContentTextMapHash": 665299778,
      "talkAssetPath": "",
      "talkAssetPathAlter": "",
      "talkAudioName": "",
      "actionBefore": "",
      "actionWhile": "",
      "actionAfter": "",
      "optionIcon": "",
      "iconPath": ""
    }
  ]
}