{
  "talkId": 4006411,
  "KPGKDHAFHFE": "ACTIVITY",
  "dialogList": [
    {
      "id": 400641101,
      "nextDialogs": [
        400641102
      ],
      "talkRole": {
        "type": "TALK_ROLE_NPC",
        "_id": "30203"
      },
      "talkContentTextMapHash": 4080719434,
      "talkAssetPath": "",
      "talkAssetPathAlter": "",
      "talkAudioName": "",
      "actionBefore": "",
      "actionWhile": "",
      "actionAfter": "",
      "optionIcon": "",
      "iconPath": ""
    },
    {
      "id": 400641102,
      "nextDialogs": [
        400641103
      ],
      "talkRole": {
        "type": "TALK_ROLE_NPC",
        "_id": "30204"
      },
      "talkContentTextMapHash": 3424884554,
      "talkAssetPath": "",
      "talkAssetPathAlter": "",
      "talkAudioName": "",
      "actionBefore": "",
      "actionWhile": "",
      "actionAfter": "",
      "optionIcon": "",
      "iconPath": ""
    },
    {
      "id": 400641103,
      "nextDialogs": [
        400641104
      ],
      "talkRole": {
        "type": "TALK_ROLE_NPC",
        "_id": "30204"
      },
      "talkContentTextMapHash": 1516510186,
      "talkAssetPath": "",
      "talkAssetPathAlter": "",
      "talkAudioName": "",
      "actionBefore": "",
      "actionWhile": "",
      "actionAfter": "",
      "optionIcon": "",
      "iconPath": ""
    },
    {
      "id": 400641104,
      "nextDialogs": [
        400641105
      ],
      "talkRole": {
        "type": "TALK_ROLE_NPC",
        "_id": "30203"
      },
      "talkContentTextMapHash": 172923962,
      "talkAssetPath": "",
      "talkAssetPathAlter": "",
      "talkAudioName": "",
      "actionBefore": "",
      "actionWhile": "",
      "actionAfter": "",
      "optionIcon": "",
      "iconPath": ""
    },
    {
      "id": 400641105,
      "nextDialogs": [
        400641106
      ],
      "talkRole": {
        "type": "TALK_ROLE_NPC",
        "_id": "30204"
      },
      "talkContentTextMapHash": 4270990682,
      "talkAssetPath": "",
      "talkAssetPathAlter": "",
      "talkAudioName": "",
      "actionBefore": "",
      "actionWhile": "",
      "actionAfter": "",
      "optionIcon": "",
      "iconPath": ""
    },
    {
      "id": 400641106,
      "nextDialogs": [
        400641107
      ],
      "talkRole": {
        "type": "TALK_ROLE_NPC",
        "_id": "30203"
      },
      "talkContentTextMapHash": 4118974170,
      "talkAssetPath": "",
      "talkAssetPathAlter": "",
      "talkAudioName": "",
      "actionBefore": "",
      "actionWhile": "",
      "actionAfter": "",
      "optionIcon": "",
      "iconPath": ""
    },
    {
      "id": 400641107,
      "nextDialogs": [
        400641108
      ],
      "talkRole": {
        "type": "TALK_ROLE_NPC",
        "_id": "30204"
      },
      "talkContentTextMapHash": 3814007922,
      "talkAssetPath": "",
      "talkAssetPathAlter": "",
      "talkAudioName": "",
      "actionBefore": "",
      "actionWhile": "",
      "actionAfter": "",
      "optionIcon": "",
      "iconPath": ""
    },
    {
      "id": 400641108,
      "talkRole": {
        "type": "TALK_ROLE_NPC",
        "_id": "30204"
      },
      "talkContentTextMapHash": 2243611922,
      "talkAssetPath": "",
      "talkAssetPathAlter": "",
      "talkAudioName": "",
      "actionBefore": "",
      "actionWhile": "",
      "actionAfter": "",
      "optionIcon": "",
      "iconPath": ""
    }
  ]
}