{
  "talkId": 4007301,
  "KPGKDHAFHFE": "ACTIVITY",
  "dialogList": [
    {
      "id": 400730101,
      "nextDialogs": [
        400730102
      ],
      "talkRole": {
        "type": "TALK_ROLE_NPC",
        "_id": "30231"
      },
      "talkContentTextMapHash": 2233031938,
      "talkAssetPath": "",
      "talkAssetPathAlter": "",
      "talkAudioName": "",
      "actionBefore": "",
      "actionWhile": "",
      "actionAfter": "",
      "optionIcon": "",
      "iconPath": ""
    },
    {
      "id": 400730102,
      "nextDialogs": [
        400730103
      ],
      "talkRole": {
        "type": "TALK_ROLE_NPC",
        "_id": "30206"
      },
      "talkContentTextMapHash": 843437802,
      "talkAssetPath": "",
      "talkAssetPathAlter": "",
      "talkAudioName": "",
      "actionBefore": "",
      "actionWhile": "",
      "actionAfter": "",
      "optionIcon": "",
      "iconPath": ""
    },
    {
      "id": 400730103,
      "nextDialogs": [
        400730104
      ],
      "talkRole": {
        "type": "TALK_ROLE_NPC",
        "_id": "30231"
      },
      "talkContentTextMapHash": 572535930,
      "talkAssetPath": "",
      "talkAssetPathAlter": "",
      "talkAudioName": "",
      "actionBefore": "",
      "actionWhile": "",
      "actionAfter": "",
      "optionIcon": "",
      "iconPath": ""
    },
    {
      "id": 400730104,
      "talkRole": {
        "type": "TALK_ROLE_NPC",
        "_id": "30206"
      },
      "talkContentTextMapHash": 1403719162,
      "talkAssetPath": "",
      "talkAssetPathAlter": "",
      "talkAudioName": "",
      "actionBefore": "",
      "actionWhile": "",
      "actionAfter": "",
      "optionIcon": "",
      "iconPath": ""
    }
  ]
}