{
  "talkId": 4008899,
  "KPGKDHAFHFE": "ACTIVITY",
  "dialogList": [
    {
      "id": 709090101,
      "nextDialogs": [
        709090102
      ],
      "talkShowType": "TALK_SHOW_FORCE_SELECT",
      "talkRole": {
        "type": "TALK_ROLE_PLAYER",
        "_id": ""
      },
      "talkContentTextMapHash": 212443090,
      "talkAssetPath": "",
      "talkAssetPathAlter": "",
      "talkAudioName": "",
      "actionBefore": "",
      "actionWhile": "",
      "actionAfter": "",
      "optionIcon": "UI_Icon_Intee_TreasureBox",
      "iconPath": ""
    },
    {
      "id": 709090102,
      "nextDialogs": [
        709090103
      ],
      "talkRole": {
        "type": "TALK_ROLE_NPC",
        "_id": "1639"
      },
      "talkContentTextMapHash": 2834467506,
      "talkAssetPath": "",
      "talkAssetPathAlter": "",
      "talkAudioName": "",
      "actionBefore": "",
      "actionWhile": "",
      "actionAfter": "",
      "optionIcon": "",
      "iconPath": ""
    },
    {
      "id": 709090103,
      "nextDialogs": [
        709090104
      ],
      "talkRole": {
        "type": "TALK_ROLE_NPC",
        "_id": "1639"
      },
      "talkContentTextMapHash": 1460465386,
      "talkAssetPath": "",
      "talkAssetPathAlter": "",
      "talkAudioName": "",
      "actionBefore": "",
      "actionWhile": "",
      "actionAfter": "",
      "optionIcon": "",
      "iconPath": ""
    },
    {
      "id": 709090104,
      "nextDialogs": [
        709090105
      ],
      "talkRole": {
        "type": "TALK_ROLE_NPC",
        "_id": "1639"
      },
      "talkContentTextMapHash": 2136576402,
      "talkAssetPath": "",
      "talkAssetPathAlter": "",
      "talkAudioName": "",
      "actionBefore": "",
      "actionWhile": "",
      "actionAfter": "",
      "optionIcon": "",
      "iconPath": ""
    },
    {
      "id": 709090105,
      "talkRole": {
        "type": "TALK_ROLE_NPC",
        "_id": "1639"
      },
      "talkContentTextMapHash": 3258266002,
      "talkAssetPath": "",
      "talkAssetPathAlter": "",
      "talkAudioName": "",
      "actionBefore": "",
      "actionWhile": "",
      "actionAfter": "",
      "optionIcon": "",
      "iconPath": ""
    }
  ]
}