{
  "talkId": 4008865,
  "KPGKDHAFHFE": "ACTIVITY",
  "dialogList": [
    {
      "id": 400881404,
      "nextDialogs": [
        400881405
      ],
      "talkShowType": "TALK_SHOW_FORCE_SELECT",
      "talkRole": {
        "type": "TALK_ROLE_PLAYER",
        "_id": ""
      },
      "talkContentTextMapHash": 3956339426,
      "talkAssetPath": "",
      "talkAssetPathAlter": "",
      "talkAudioName": "",
      "actionBefore": "",
      "actionWhile": "",
      "actionAfter": "",
      "optionIcon": "",
      "iconPath": ""
    },
    {
      "id": 400881405,
      "talkRole": {
        "type": "TALK_ROLE_NPC",
        "_id": "30234"
      },
      "talkContentTextMapHash": 4188350378,
      "talkAssetPath": "",
      "talkAssetPathAlter": "",
      "talkAudioName": "",
      "actionBefore": "",
      "actionWhile": "SimpleTalk/StrikeChest",
      "actionAfter": "SimpleTalk/Idle_End",
      "optionIcon": "",
      "iconPath": ""
    }
  ]
}