{
  "talkId": 4008878,
  "KPGKDHAFHFE": "ACTIVITY",
  "dialogList": [
    {
      "id": 400887801,
      "nextDialogs": [
        400887802
      ],
      "talkShowType": "TALK_SHOW_FORCE_SELECT",
      "talkRole": {
        "type": "TALK_ROLE_PLAYER",
        "_id": ""
      },
      "talkContentTextMapHash": 1682937290,
      "talkAssetPath": "",
      "talkAssetPathAlter": "",
      "talkAudioName": "",
      "actionBefore": "",
      "actionWhile": "",
      "actionAfter": "",
      "optionIcon": "",
      "iconPath": ""
    },
    {
      "id": 400887802,
      "nextDialogs": [
        400887803
      ],
      "talkRole": {
        "type": "TALK_ROLE_NPC",
        "_id": "1433"
      },
      "talkContentTextMapHash": 3603849682,
      "talkAssetPath": "",
      "talkAssetPathAlter": "",
      "talkAudioName": "",
      "actionBefore": "",
      "actionWhile": "SimpleTalk/Confuse",
      "actionAfter": "",
      "optionIcon": "",
      "iconPath": ""
    },
    {
      "id": 400887803,
      "nextDialogs": [
        400887804
      ],
      "talkRole": {
        "type": "TALK_ROLE_NPC",
        "_id": "1433"
      },
      "talkContentTextMapHash": 4126421722,
      "talkAssetPath": "",
      "talkAssetPathAlter": "",
      "talkAudioName": "",
      "actionBefore": "",
      "actionWhile": "SimpleTalk/RandomTalkHold",
      "actionAfter": "",
      "optionIcon": "",
      "iconPath": ""
    },
    {
      "id": 400887804,
      "nextDialogs": [
        400887805
      ],
      "talkRole": {
        "type": "TALK_ROLE_NPC",
        "_id": "1433"
      },
      "talkContentTextMapHash": 139555578,
      "talkAssetPath": "",
      "talkAssetPathAlter": "",
      "talkAudioName": "",
      "actionBefore": "",
      "actionWhile": "",
      "actionAfter": "",
      "optionIcon": "",
      "iconPath": ""
    },
    {
      "id": 400887805,
      "talkRole": {
        "type": "TALK_ROLE_NPC",
        "_id": "1433"
      },
      "talkContentTextMapHash": 1145210042,
      "talkAssetPath": "",
      "talkAssetPathAlter": "",
      "talkAudioName": "",
      "actionBefore": "SimpleTalk/Standby",
      "actionWhile": "SimpleTalk/StrikeChest",
      "actionAfter": "SimpleTalk/Idle_End",
      "optionIcon": "",
      "iconPath": ""
    }
  ]
}