{
  "talkId": 4008814,
  "KPGKDHAFHFE": "ACTIVITY",
  "dialogList": [
    {
      "id": 400881401,
      "talkRole": {
        "type": "TALK_ROLE_NPC",
        "_id": "30234"
      },
      "talkContentTextMapHash": 2591419202,
      "talkAssetPath": "",
      "talkAssetPathAlter": "",
      "talkAudioName": "",
      "actionBefore": "",
      "actionWhile": "DialogAction/D400881401_While",
      "actionAfter": "",
      "optionIcon": "",
      "iconPath": ""
    }
  ]
}