{
  "talkId": 4008832,
  "KPGKDHAFHFE": "ACTIVITY",
  "dialogList": [
    {
      "id": 400883201,
      "nextDialogs": [
        400883202
      ],
      "talkRole": {
        "type": "TALK_ROLE_NPC",
        "_id": "30234"
      },
      "talkContentTextMapHash": 4273100874,
      "talkAssetPath": "",
      "talkAssetPathAlter": "",
      "talkAudioName": "",
      "actionBefore": "",
      "actionWhile": "",
      "actionAfter": "",
      "optionIcon": "",
      "iconPath": ""
    },
    {
      "id": 400883202,
      "nextDialogs": [
        400883203
      ],
      "talkRole": {
        "type": "TALK_ROLE_NPC",
        "_id": "30234"
      },
      "talkContentTextMapHash": 827893202,
      "talkAssetPath": "",
      "talkAssetPathAlter": "",
      "talkAudioName": "",
      "actionBefore": "",
      "actionWhile": "",
      "actionAfter": "",
      "optionIcon": "",
      "iconPath": ""
    },
    {
      "id": 400883203,
      "nextDialogs": [
        400883204
      ],
      "talkRole": {
        "type": "TALK_ROLE_NPC",
        "_id": "30234"
      },
      "talkContentTextMapHash": 1508332386,
      "talkAssetPath": "",
      "talkAssetPathAlter": "",
      "talkAudioName": "",
      "actionBefore": "",
      "actionWhile": "",
      "actionAfter": "",
      "optionIcon": "",
      "iconPath": ""
    },
    {
      "id": 400883204,
      "nextDialogs": [
        400883205
      ],
      "talkRole": {
        "type": "TALK_ROLE_NPC",
        "_id": "30234"
      },
      "talkContentTextMapHash": 3174163050,
      "talkAssetPath": "",
      "talkAssetPathAlter": "",
      "talkAudioName": "",
      "actionBefore": "",
      "actionWhile": "",
      "actionAfter": "",
      "optionIcon": "",
      "iconPath": ""
    },
    {
      "id": 400883205,
      "nextDialogs": [
        400883206
      ],
      "talkRole": {
        "type": "TALK_ROLE_NPC",
        "_id": "1005"
      },
      "talkContentTextMapHash": 1733670218,
      "talkAssetPath": "",
      "talkAssetPathAlter": "",
      "talkAudioName": "",
      "actionBefore": "",
      "actionWhile": "",
      "actionAfter": "",
      "optionIcon": "",
      "iconPath": ""
    },
    {
      "id": 400883206,
      "nextDialogs": [
        400883207
      ],
      "talkShowType": "TALK_SHOW_FORCE_SELECT",
      "talkRole": {
        "type": "TALK_ROLE_PLAYER",
        "_id": ""
      },
      "talkContentTextMapHash": 2040745898,
      "talkAssetPath": "",
      "talkAssetPathAlter": "",
      "talkAudioName": "",
      "actionBefore": "",
      "actionWhile": "",
      "actionAfter": "",
      "optionIcon": "",
      "iconPath": ""
    },
    {
      "id": 400883207,
      "nextDialogs": [
        400883208
      ],
      "talkRole": {
        "type": "TALK_ROLE_NPC",
        "_id": "1005"
      },
      "talkContentTextMapHash": 1880537834,
      "talkAssetPath": "",
      "talkAssetPathAlter": "",
      "talkAudioName": "",
      "actionBefore": "",
      "actionWhile": "",
      "actionAfter": "",
      "optionIcon": "",
      "iconPath": ""
    },
    {
      "id": 400883208,
      "nextDialogs": [
        400883209
      ],
      "talkRole": {
        "type": "TALK_ROLE_NPC",
        "_id": "30234"
      },
      "talkContentTextMapHash": 1741511026,
      "talkAssetPath": "",
      "talkAssetPathAlter": "",
      "talkAudioName": "",
      "actionBefore": "",
      "actionWhile": "",
      "actionAfter": "",
      "optionIcon": "",
      "iconPath": ""
    },
    {
      "id": 400883209,
      "nextDialogs": [
        400883210
      ],
      "talkRole": {
        "type": "TALK_ROLE_NPC",
        "_id": "30234"
      },
      "talkContentTextMapHash": 2526283034,
      "talkAssetPath": "",
      "talkAssetPathAlter": "",
      "talkAudioName": "",
      "actionBefore": "",
      "actionWhile": "",
      "actionAfter": "",
      "optionIcon": "",
      "iconPath": ""
    },
    {
      "id": 400883210,
      "nextDialogs": [
        400883211
      ],
      "talkRole": {
        "type": "TALK_ROLE_NPC",
        "_id": "30234"
      },
      "talkContentTextMapHash": 3004352906,
      "talkAssetPath": "",
      "talkAssetPathAlter": "",
      "talkAudioName": "",
      "actionBefore": "",
      "actionWhile": "",
      "actionAfter": "",
      "optionIcon": "",
      "iconPath": ""
    },
    {
      "id": 400883211,
      "nextDialogs": [
        400883212
      ],
      "talkRole": {
        "type": "TALK_ROLE_NPC",
        "_id": "1005"
      },
      "talkContentTextMapHash": 2728730794,
      "talkAssetPath": "",
      "talkAssetPathAlter": "",
      "talkAudioName": "",
      "actionBefore": "",
      "actionWhile": "",
      "actionAfter": "",
      "optionIcon": "",
      "iconPath": ""
    },
    {
      "id": 400883212,
      "talkRole": {
        "type": "TALK_ROLE_NPC",
        "_id": "1005"
      },
      "talkContentTextMapHash": 960261658,
      "talkAssetPath": "",
      "talkAssetPathAlter": "",
      "talkAudioName": "",
      "actionBefore": "",
      "actionWhile": "",
      "actionAfter": "",
      "optionIcon": "",
      "iconPath": ""
    }
  ]
}