{
  "talkId": 4008884,
  "KPGKDHAFHFE": "ACTIVITY",
  "dialogList": [
    {
      "id": 400888401,
      "nextDialogs": [
        400888402
      ],
      "talkRole": {
        "type": "TALK_ROLE_NPC",
        "_id": "1431"
      },
      "talkContentTextMapHash": 3098380618,
      "talkAssetPath": "",
      "talkAssetPathAlter": "",
      "talkAudioName": "",
      "actionBefore": "",
      "actionWhile": "SimpleTalk/LerpInNpcDailyTalk_Start",
      "actionAfter": "",
      "optionIcon": "",
      "iconPath": ""
    },
    {
      "id": 400888402,
      "nextDialogs": [
        400888403
      ],
      "talkRole": {
        "type": "TALK_ROLE_NPC",
        "_id": "1431"
      },
      "talkContentTextMapHash": 2117093682,
      "talkAssetPath": "",
      "talkAssetPathAlter": "",
      "talkAudioName": "",
      "actionBefore": "",
      "actionWhile": "",
      "actionAfter": "",
      "optionIcon": "",
      "iconPath": ""
    },
    {
      "id": 400888403,
      "talkRole": {
        "type": "TALK_ROLE_NPC",
        "_id": "1431"
      },
      "talkContentTextMapHash": 3899416170,
      "talkAssetPath": "",
      "talkAssetPathAlter": "",
      "talkAudioName": "",
      "actionBefore": "",
      "actionWhile": "SimpleTalk/RandomTalk",
      "actionAfter": "",
      "optionIcon": "",
      "iconPath": ""
    }
  ]
}