{
  "talkId": 4008895,
  "KPGKDHAFHFE": "ACTIVITY",
  "dialogList": [
    {
      "id": 400889501,
      "nextDialogs": [
        400889502
      ],
      "talkRole": {
        "type": "TALK_ROLE_NPC",
        "_id": "30280"
      },
      "talkContentTextMapHash": 3862900770,
      "talkAssetPath": "",
      "talkAssetPathAlter": "",
      "talkAudioName": "",
      "actionBefore": "",
      "actionWhile": "SimpleTalk/LerpInNpcNoSteer_Start",
      "actionAfter": "",
      "optionIcon": "",
      "iconPath": ""
    },
    {
      "id": 400889502,
      "nextDialogs": [
        400889503
      ],
      "talkRole": {
        "type": "TALK_ROLE_NPC",
        "_id": "30277"
      },
      "talkContentTextMapHash": 4167641058,
      "talkAssetPath": "",
      "talkAssetPathAlter": "",
      "talkAudioName": "",
      "actionBefore": "",
      "actionWhile": "",
      "actionAfter": "",
      "optionIcon": "",
      "iconPath": ""
    },
    {
      "id": 400889503,
      "nextDialogs": [
        400889504
      ],
      "talkRole": {
        "type": "TALK_ROLE_NPC",
        "_id": "30280"
      },
      "talkContentTextMapHash": 3410497794,
      "talkAssetPath": "",
      "talkAssetPathAlter": "",
      "talkAudioName": "",
      "actionBefore": "",
      "actionWhile": "",
      "actionAfter": "",
      "optionIcon": "",
      "iconPath": ""
    },
    {
      "id": 400889504,
      "nextDialogs": [
        400889505
      ],
      "talkRole": {
        "type": "TALK_ROLE_NPC",
        "_id": "30277"
      },
      "talkContentTextMapHash": 2657292906,
      "talkAssetPath": "",
      "talkAssetPathAlter": "",
      "talkAudioName": "",
      "actionBefore": "",
      "actionWhile": "",
      "actionAfter": "",
      "optionIcon": "",
      "iconPath": ""
    },
    {
      "id": 400889505,
      "nextDialogs": [
        400889506
      ],
      "talkRole": {
        "type": "TALK_ROLE_NPC",
        "_id": "30280"
      },
      "talkContentTextMapHash": 2886754874,
      "talkAssetPath": "",
      "talkAssetPathAlter": "",
      "talkAudioName": "",
      "actionBefore": "",
      "actionWhile": "",
      "actionAfter": "",
      "optionIcon": "",
      "iconPath": ""
    },
    {
      "id": 400889506,
      "nextDialogs": [
        400889507
      ],
      "talkRole": {
        "type": "TALK_ROLE_NPC",
        "_id": "30277"
      },
      "talkContentTextMapHash": 3235293466,
      "talkAssetPath": "",
      "talkAssetPathAlter": "",
      "talkAudioName": "",
      "actionBefore": "",
      "actionWhile": "",
      "actionAfter": "",
      "optionIcon": "",
      "iconPath": ""
    },
    {
      "id": 400889507,
      "nextDialogs": [
        400889508
      ],
      "talkRole": {
        "type": "TALK_ROLE_NPC",
        "_id": "30280"
      },
      "talkContentTextMapHash": 757969474,
      "talkAssetPath": "",
      "talkAssetPathAlter": "",
      "talkAudioName": "",
      "actionBefore": "",
      "actionWhile": "",
      "actionAfter": "",
      "optionIcon": "",
      "iconPath": ""
    },
    {
      "id": 400889508,
      "nextDialogs": [
        400889509
      ],
      "talkRole": {
        "type": "TALK_ROLE_NPC",
        "_id": "30277"
      },
      "talkContentTextMapHash": 3604255154,
      "talkAssetPath": "",
      "talkAssetPathAlter": "",
      "talkAudioName": "",
      "actionBefore": "",
      "actionWhile": "",
      "actionAfter": "",
      "optionIcon": "",
      "iconPath": ""
    },
    {
      "id": 400889509,
      "nextDialogs": [
        400889510
      ],
      "talkRole": {
        "type": "TALK_ROLE_NPC",
        "_id": "30280"
      },
      "talkContentTextMapHash": 3499257778,
      "talkAssetPath": "",
      "talkAssetPathAlter": "",
      "talkAudioName": "",
      "actionBefore": "",
      "actionWhile": "",
      "actionAfter": "",
      "optionIcon": "",
      "iconPath": ""
    },
    {
      "id": 400889510,
      "talkRole": {
        "type": "TALK_ROLE_NPC",
        "_id": "30277"
      },
      "talkContentTextMapHash": 2617770114,
      "talkAssetPath": "",
      "talkAssetPathAlter": "",
      "talkAudioName": "",
      "actionBefore": "",
      "actionWhile": "",
      "actionAfter": "SimpleTalk/LerpOutNpcNoSteer_End",
      "optionIcon": "",
      "iconPath": ""
    }
  ]
}