{
  "talkId": 4008838,
  "KPGKDHAFHFE": "ACTIVITY",
  "dialogList": [
    {
      "id": 400883801,
      "nextDialogs": [
        400883802
      ],
      "talkRole": {
        "type": "TALK_ROLE_NPC",
        "_id": "30244"
      },
      "talkContentTextMapHash": 1036516338,
      "talkAssetPath": "",
      "talkAssetPathAlter": "",
      "talkAudioName": "",
      "actionBefore": "",
      "actionWhile": "",
      "actionAfter": "",
      "optionIcon": "",
      "iconPath": ""
    },
    {
      "id": 400883802,
      "nextDialogs": [
        400883803
      ],
      "talkRole": {
        "type": "TALK_ROLE_NPC",
        "_id": "1005"
      },
      "talkContentTextMapHash": 939478538,
      "talkAssetPath": "",
      "talkAssetPathAlter": "",
      "talkAudioName": "",
      "actionBefore": "",
      "actionWhile": "",
      "actionAfter": "",
      "optionIcon": "",
      "iconPath": ""
    },
    {
      "id": 400883803,
      "nextDialogs": [
        400883804
      ],
      "talkRole": {
        "type": "TALK_ROLE_NPC",
        "_id": "30244"
      },
      "talkContentTextMapHash": 625138890,
      "talkAssetPath": "",
      "talkAssetPathAlter": "",
      "talkAudioName": "",
      "actionBefore": "",
      "actionWhile": "",
      "actionAfter": "",
      "optionIcon": "",
      "iconPath": ""
    },
    {
      "id": 400883804,
      "nextDialogs": [
        400883805
      ],
      "talkRole": {
        "type": "TALK_ROLE_NPC",
        "_id": "30244"
      },
      "talkContentTextMapHash": 45642234,
      "talkAssetPath": "",
      "talkAssetPathAlter": "",
      "talkAudioName": "",
      "actionBefore": "",
      "actionWhile": "",
      "actionAfter": "",
      "optionIcon": "",
      "iconPath": ""
    },
    {
      "id": 400883805,
      "nextDialogs": [
        400883806
      ],
      "talkRole": {
        "type": "TALK_ROLE_NPC",
        "_id": "30244"
      },
      "talkContentTextMapHash": 3246781122,
      "talkAssetPath": "",
      "talkAssetPathAlter": "",
      "talkAudioName": "",
      "actionBefore": "",
      "actionWhile": "",
      "actionAfter": "",
      "optionIcon": "",
      "iconPath": ""
    },
    {
      "id": 400883806,
      "nextDialogs": [
        400883807
      ],
      "talkRole": {
        "type": "TALK_ROLE_NPC",
        "_id": "30244"
      },
      "talkContentTextMapHash": 3686230922,
      "talkAssetPath": "",
      "talkAssetPathAlter": "",
      "talkAudioName": "",
      "actionBefore": "",
      "actionWhile": "",
      "actionAfter": "",
      "optionIcon": "",
      "iconPath": ""
    },
    {
      "id": 400883807,
      "nextDialogs": [
        400883808
      ],
      "talkRole": {
        "type": "TALK_ROLE_NPC",
        "_id": "30244"
      },
      "talkContentTextMapHash": 3245296938,
      "talkAssetPath": "",
      "talkAssetPathAlter": "",
      "talkAudioName": "",
      "actionBefore": "",
      "actionWhile": "",
      "actionAfter": "",
      "optionIcon": "",
      "iconPath": ""
    },
    {
      "id": 400883808,
      "nextDialogs": [
        400883809
      ],
      "talkRole": {
        "type": "TALK_ROLE_NPC",
        "_id": "1005"
      },
      "talkContentTextMapHash": 3803600306,
      "talkAssetPath": "",
      "talkAssetPathAlter": "",
      "talkAudioName": "",
      "actionBefore": "",
      "actionWhile": "",
      "actionAfter": "",
      "optionIcon": "",
      "iconPath": ""
    },
    {
      "id": 400883809,
      "talkRole": {
        "type": "TALK_ROLE_NPC",
        "_id": "1005"
      },
      "talkContentTextMapHash": 2112780306,
      "talkAssetPath": "",
      "talkAssetPathAlter": "",
      "talkAudioName": "",
      "actionBefore": "",
      "actionWhile": "",
      "actionAfter": "",
      "optionIcon": "",
      "iconPath": ""
    }
  ]
}