{
  "talkId": 4009821,
  "KPGKDHAFHFE": "ACTIVITY",
  "dialogList": [
    {
      "id": 400982101,
      "nextDialogs": [
        400982102
      ],
      "talkRole": {
        "type": "TALK_ROLE_NPC",
        "_id": "30339"
      },
      "talkContentTextMapHash": 1447472498,
      "talkAssetPath": "",
      "talkAssetPathAlter": "",
      "talkAudioName": "",
      "actionBefore": "",
      "actionWhile": "",
      "actionAfter": "",
      "optionIcon": "",
      "iconPath": ""
    },
    {
      "id": 400982102,
      "nextDialogs": [
        400982103
      ],
      "talkRole": {
        "type": "TALK_ROLE_NPC",
        "_id": "30330"
      },
      "talkContentTextMapHash": 4112082922,
      "talkAssetPath": "",
      "talkAssetPathAlter": "",
      "talkAudioName": "",
      "actionBefore": "",
      "actionWhile": "",
      "actionAfter": "",
      "optionIcon": "",
      "iconPath": ""
    },
    {
      "id": 400982103,
      "nextDialogs": [
        400982104
      ],
      "talkRole": {
        "type": "TALK_ROLE_NPC",
        "_id": "30339"
      },
      "talkContentTextMapHash": 1464233962,
      "talkAssetPath": "",
      "talkAssetPathAlter": "",
      "talkAudioName": "",
      "actionBefore": "",
      "actionWhile": "",
      "actionAfter": "",
      "optionIcon": "",
      "iconPath": ""
    },
    {
      "id": 400982104,
      "nextDialogs": [
        400982105
      ],
      "talkRole": {
        "type": "TALK_ROLE_NPC",
        "_id": "30330"
      },
      "talkContentTextMapHash": 1878365666,
      "talkAssetPath": "",
      "talkAssetPathAlter": "",
      "talkAudioName": "",
      "actionBefore": "",
      "actionWhile": "",
      "actionAfter": "",
      "optionIcon": "",
      "iconPath": ""
    },
    {
      "id": 400982105,
      "nextDialogs": [
        400982106
      ],
      "talkRole": {
        "type": "TALK_ROLE_NPC",
        "_id": "30339"
      },
      "talkContentTextMapHash": 1640317154,
      "talkAssetPath": "",
      "talkAssetPathAlter": "",
      "talkAudioName": "",
      "actionBefore": "",
      "actionWhile": "",
      "actionAfter": "",
      "optionIcon": "",
      "iconPath": ""
    },
    {
      "id": 400982106,
      "nextDialogs": [
        400982107
      ],
      "talkRole": {
        "type": "TALK_ROLE_NPC",
        "_id": "30339"
      },
      "talkContentTextMapHash": 4075592618,
      "talkAssetPath": "",
      "talkAssetPathAlter": "",
      "talkAudioName": "",
      "actionBefore": "",
      "actionWhile": "",
      "actionAfter": "",
      "optionIcon": "",
      "iconPath": ""
    },
    {
      "id": 400982107,
      "nextDialogs": [
        400982108
      ],
      "talkRole": {
        "type": "TALK_ROLE_NPC",
        "_id": "30330"
      },
      "talkContentTextMapHash": 2884723194,
      "talkAssetPath": "",
      "talkAssetPathAlter": "",
      "talkAudioName": "",
      "actionBefore": "",
      "actionWhile": "",
      "actionAfter": "",
      "optionIcon": "",
      "iconPath": ""
    },
    {
      "id": 400982108,
      "nextDialogs": [
        400982109
      ],
      "talkRole": {
        "type": "TALK_ROLE_NPC",
        "_id": "30339"
      },
      "talkContentTextMapHash": 1191386578,
      "talkAssetPath": "",
      "talkAssetPathAlter": "",
      "talkAudioName": "",
      "actionBefore": "",
      "actionWhile": "",
      "actionAfter": "",
      "optionIcon": "",
      "iconPath": ""
    },
    {
      "id": 400982109,
      "nextDialogs": [
        400982110
      ],
      "talkRole": {
        "type": "TALK_ROLE_NPC",
        "_id": "30330"
      },
      "talkContentTextMapHash": 1862198938,
      "talkAssetPath": "",
      "talkAssetPathAlter": "",
      "talkAudioName": "",
      "actionBefore": "",
      "actionWhile": "",
      "actionAfter": "",
      "optionIcon": "",
      "iconPath": ""
    },
    {
      "id": 400982110,
      "nextDialogs": [
        400982111
      ],
      "talkRole": {
        "type": "TALK_ROLE_NPC",
        "_id": "30339"
      },
      "talkContentTextMapHash": 912114978,
      "talkAssetPath": "",
      "talkAssetPathAlter": "",
      "talkAudioName": "",
      "actionBefore": "",
      "actionWhile": "",
      "actionAfter": "",
      "optionIcon": "",
      "iconPath": ""
    },
    {
      "id": 400982111,
      "nextDialogs": [
        400982112
      ],
      "talkRole": {
        "type": "TALK_ROLE_NPC",
        "_id": "30330"
      },
      "talkContentTextMapHash": 348398738,
      "talkAssetPath": "",
      "talkAssetPathAlter": "",
      "talkAudioName": "",
      "actionBefore": "",
      "actionWhile": "",
      "actionAfter": "",
      "optionIcon": "",
      "iconPath": ""
    },
    {
      "id": 400982112,
      "nextDialogs": [
        400982113
      ],
      "talkRole": {
        "type": "TALK_ROLE_NPC",
        "_id": "30339"
      },
      "talkContentTextMapHash": 3686444178,
      "talkAssetPath": "",
      "talkAssetPathAlter": "",
      "talkAudioName": "",
      "actionBefore": "",
      "actionWhile": "",
      "actionAfter": "",
      "optionIcon": "",
      "iconPath": ""
    },
    {
      "id": 400982113,
      "nextDialogs": [
        400982114
      ],
      "talkRole": {
        "type": "TALK_ROLE_NPC",
        "_id": "30330"
      },
      "talkContentTextMapHash": 2673553026,
      "talkAssetPath": "",
      "talkAssetPathAlter": "",
      "talkAudioName": "",
      "actionBefore": "",
      "actionWhile": "",
      "actionAfter": "",
      "optionIcon": "",
      "iconPath": ""
    },
    {
      "id": 400982114,
      "nextDialogs": [
        400982115
      ],
      "talkRole": {
        "type": "TALK_ROLE_NPC",
        "_id": "30339"
      },
      "talkContentTextMapHash": 3525777642,
      "talkAssetPath": "",
      "talkAssetPathAlter": "",
      "talkAudioName": "",
      "actionBefore": "",
      "actionWhile": "",
      "actionAfter": "",
      "optionIcon": "",
      "iconPath": ""
    },
    {
      "id": 400982115,
      "nextDialogs": [
        400982116
      ],
      "talkRole": {
        "type": "TALK_ROLE_NPC",
        "_id": "30339"
      },
      "talkContentTextMapHash": 1093338962,
      "talkAssetPath": "",
      "talkAssetPathAlter": "",
      "talkAudioName": "",
      "actionBefore": "",
      "actionWhile": "",
      "actionAfter": "",
      "optionIcon": "",
      "iconPath": ""
    },
    {
      "id": 400982116,
      "nextDialogs": [
        400982117
      ],
      "talkRole": {
        "type": "TALK_ROLE_NPC",
        "_id": "30339"
      },
      "talkContentTextMapHash": 4206029626,
      "talkAssetPath": "",
      "talkAssetPathAlter": "",
      "talkAudioName": "",
      "actionBefore": "",
      "actionWhile": "",
      "actionAfter": "",
      "optionIcon": "",
      "iconPath": ""
    },
    {
      "id": 400982117,
      "nextDialogs": [
        400982118
      ],
      "talkRole": {
        "type": "TALK_ROLE_NPC",
        "_id": "30339"
      },
      "talkContentTextMapHash": 2283277722,
      "talkAssetPath": "",
      "talkAssetPathAlter": "",
      "talkAudioName": "",
      "actionBefore": "",
      "actionWhile": "",
      "actionAfter": "",
      "optionIcon": "",
      "iconPath": ""
    },
    {
      "id": 400982118,
      "nextDialogs": [
        400982119
      ],
      "talkRole": {
        "type": "TALK_ROLE_NPC",
        "_id": "30330"
      },
      "talkContentTextMapHash": 2274477778,
      "talkAssetPath": "",
      "talkAssetPathAlter": "",
      "talkAudioName": "",
      "actionBefore": "",
      "actionWhile": "",
      "actionAfter": "",
      "optionIcon": "",
      "iconPath": ""
    },
    {
      "id": 400982119,
      "nextDialogs": [
        400982120
      ],
      "talkRole": {
        "type": "TALK_ROLE_NPC",
        "_id": "30330"
      },
      "talkContentTextMapHash": 2067343490,
      "talkAssetPath": "",
      "talkAssetPathAlter": "",
      "talkAudioName": "",
      "actionBefore": "",
      "actionWhile": "",
      "actionAfter": "",
      "optionIcon": "",
      "iconPath": ""
    },
    {
      "id": 400982120,
      "nextDialogs": [
        400982121
      ],
      "talkRole": {
        "type": "TALK_ROLE_NPC",
        "_id": "30339"
      },
      "talkContentTextMapHash": 1695595002,
      "talkAssetPath": "",
      "talkAssetPathAlter": "",
      "talkAudioName": "",
      "actionBefore": "",
      "actionWhile": "",
      "actionAfter": "",
      "optionIcon": "",
      "iconPath": ""
    },
    {
      "id": 400982121,
      "nextDialogs": [
        400982122
      ],
      "talkRole": {
        "type": "TALK_ROLE_NPC",
        "_id": "30339"
      },
      "talkContentTextMapHash": 2254110418,
      "talkAssetPath": "",
      "talkAssetPathAlter": "",
      "talkAudioName": "",
      "actionBefore": "",
      "actionWhile": "",
      "actionAfter": "",
      "optionIcon": "",
      "iconPath": ""
    },
    {
      "id": 400982122,
      "nextDialogs": [
        400982123
      ],
      "talkRole": {
        "type": "TALK_ROLE_NPC",
        "_id": "30330"
      },
      "talkContentTextMapHash": 2504148986,
      "talkAssetPath": "",
      "talkAssetPathAlter": "",
      "talkAudioName": "",
      "actionBefore": "",
      "actionWhile": "",
      "actionAfter": "",
      "optionIcon": "",
      "iconPath": ""
    },
    {
      "id": 400982123,
      "nextDialogs": [
        400982124
      ],
      "talkRole": {
        "type": "TALK_ROLE_NPC",
        "_id": "30339"
      },
      "talkContentTextMapHash": 2805175666,
      "talkAssetPath": "",
      "talkAssetPathAlter": "",
      "talkAudioName": "",
      "actionBefore": "",
      "actionWhile": "",
      "actionAfter": "",
      "optionIcon": "",
      "iconPath": ""
    },
    {
      "id": 400982124,
      "nextDialogs": [
        400982125
      ],
      "talkRole": {
        "type": "TALK_ROLE_NPC",
        "_id": "30330"
      },
      "talkContentTextMapHash": 396543538,
      "talkAssetPath": "",
      "talkAssetPathAlter": "",
      "talkAudioName": "",
      "actionBefore": "",
      "actionWhile": "",
      "actionAfter": "",
      "optionIcon": "",
      "iconPath": ""
    },
    {
      "id": 400982125,
      "talkRole": {
        "type": "TALK_ROLE_NPC",
        "_id": "30339"
      },
      "talkContentTextMapHash": 3824489794,
      "talkAssetPath": "",
      "talkAssetPathAlter": "",
      "talkAudioName": "",
      "actionBefore": "",
      "actionWhile": "",
      "actionAfter": "",
      "optionIcon": "",
      "iconPath": ""
    }
  ]
}