{
  "talkId": 4009930,
  "KPGKDHAFHFE": "ACTIVITY",
  "dialogList": [
    {
      "id": 400992806,
      "talkRole": {
        "type": "TALK_ROLE_NPC",
        "_id": "30330"
      },
      "talkContentTextMapHash": 3881582650,
      "talkAssetPath": "",
      "talkAssetPathAlter": "",
      "talkAudioName": "",
      "actionBefore": "GCG/ClearWorldChallengeTalk",
      "actionWhile": "",
      "actionAfter": "",
      "optionIcon": "",
      "iconPath": ""
    }
  ]
}