{
  "talkId": 4009932,
  "KPGKDHAFHFE": "ACTIVITY",
  "dialogList": [
    {
      "id": 400992804,
      "nextDialogs": [
        400992805
      ],
      "talkShowType": "TALK_SHOW_FORCE_SELECT",
      "talkRole": {
        "type": "TALK_ROLE_PLAYER",
        "_id": ""
      },
      "talkContentTextMapHash": 207622450,
      "talkAssetPath": "",
      "talkAssetPathAlter": "",
      "talkAudioName": "",
      "actionBefore": "",
      "actionWhile": "",
      "actionAfter": "",
      "optionIcon": "",
      "iconPath": ""
    },
    {
      "id": 400992805,
      "talkRole": {
        "type": "TALK_ROLE_NPC",
        "_id": "30330"
      },
      "talkContentTextMapHash": 3784678594,
      "talkAssetPath": "",
      "talkAssetPathAlter": "",
      "talkAudioName": "",
      "actionBefore": "",
      "actionWhile": "",
      "actionAfter": "",
      "optionIcon": "",
      "iconPath": ""
    }
  ]
}