{
  "talkId": 4009149,
  "KPGKDHAFHFE": "ACTIVITY",
  "dialogList": [
    {
      "id": 400914901,
      "talkRole": {
        "type": "TALK_ROLE_NPC",
        "_id": "12941"
      },
      "talkContentTextMapHash": 3259804434,
      "talkAssetPath": "",
      "talkAssetPathAlter": "",
      "talkAudioName": "",
      "actionBefore": "",
      "actionWhile": "",
      "actionAfter": "",
      "optionIcon": "",
      "iconPath": ""
    }
  ]
}