{
  "talkId": 4010601,
  "KPGKDHAFHFE": "ACTIVITY",
  "dialogList": [
    {
      "id": 401060101,
      "nextDialogs": [
        401060102
      ],
      "talkRole": {
        "type": "TALK_ROLE_NPC",
        "_id": "1064"
      },
      "talkContentTextMapHash": 1985365026,
      "talkAssetPath": "",
      "talkAssetPathAlter": "",
      "talkAudioName": "",
      "actionBefore": "",
      "actionWhile": "",
      "actionAfter": "",
      "optionIcon": "",
      "iconPath": ""
    },
    {
      "id": 401060102,
      "nextDialogs": [
        401060103
      ],
      "talkRole": {
        "type": "TALK_ROLE_NPC",
        "_id": "1064"
      },
      "talkContentTextMapHash": 711751706,
      "talkAssetPath": "",
      "talkAssetPathAlter": "",
      "talkAudioName": "",
      "actionBefore": "",
      "actionWhile": "",
      "actionAfter": "",
      "optionIcon": "",
      "iconPath": ""
    },
    {
      "id": 401060103,
      "nextDialogs": [
        401060104
      ],
      "talkRole": {
        "type": "TALK_ROLE_NPC",
        "_id": "1064"
      },
      "talkContentTextMapHash": 3777307834,
      "talkAssetPath": "",
      "talkAssetPathAlter": "",
      "talkAudioName": "",
      "actionBefore": "",
      "actionWhile": "",
      "actionAfter": "",
      "optionIcon": "",
      "iconPath": ""
    },
    {
      "id": 401060104,
      "nextDialogs": [
        401060105
      ],
      "talkRole": {
        "type": "TALK_ROLE_NPC",
        "_id": "1064"
      },
      "talkContentTextMapHash": 651381098,
      "talkAssetPath": "",
      "talkAssetPathAlter": "",
      "talkAudioName": "",
      "actionBefore": "",
      "actionWhile": "",
      "actionAfter": "",
      "optionIcon": "",
      "iconPath": ""
    },
    {
      "id": 401060105,
      "nextDialogs": [
        401060106
      ],
      "talkRole": {
        "type": "TALK_ROLE_NPC",
        "_id": "1064"
      },
      "talkContentTextMapHash": 3141817938,
      "talkAssetPath": "",
      "talkAssetPathAlter": "",
      "talkAudioName": "",
      "actionBefore": "",
      "actionWhile": "",
      "actionAfter": "",
      "optionIcon": "",
      "iconPath": ""
    },
    {
      "id": 401060106,
      "talkRole": {
        "type": "TALK_ROLE_NPC",
        "_id": "1064"
      },
      "talkContentTextMapHash": 2044309634,
      "talkAssetPath": "",
      "talkAssetPathAlter": "",
      "talkAudioName": "",
      "actionBefore": "",
      "actionWhile": "",
      "actionAfter": "",
      "optionIcon": "",
      "iconPath": ""
    },
    {
      "id": 401060107,
      "nextDialogs": [
        401060108
      ],
      "talkRole": {
        "type": "TALK_ROLE_PLAYER",
        "_id": ""
      },
      "talkContentTextMapHash": 3168201258,
      "talkAssetPath": "",
      "talkAssetPathAlter": "",
      "talkAudioName": "",
      "actionBefore": "",
      "actionWhile": "",
      "actionAfter": "",
      "optionIcon": "",
      "iconPath": ""
    },
    {
      "id": 401060116,
      "nextDialogs": [
        401060117
      ],
      "talkRole": {
        "type": "TALK_ROLE_PLAYER",
        "_id": ""
      },
      "talkContentTextMapHash": 2405746674,
      "talkAssetPath": "",
      "talkAssetPathAlter": "",
      "talkAudioName": "",
      "actionBefore": "",
      "actionWhile": "",
      "actionAfter": "",
      "optionIcon": "",
      "iconPath": ""
    },
    {
      "id": 401060108,
      "nextDialogs": [
        401060109
      ],
      "talkRole": {
        "type": "TALK_ROLE_NPC",
        "_id": "1005"
      },
      "talkContentTextMapHash": 3440307306,
      "talkAssetPath": "",
      "talkAssetPathAlter": "",
      "talkAudioName": "",
      "actionBefore": "",
      "actionWhile": "",
      "actionAfter": "",
      "optionIcon": "",
      "iconPath": ""
    },
    {
      "id": 401060109,
      "nextDialogs": [
        401060110
      ],
      "talkRole": {
        "type": "TALK_ROLE_NPC",
        "_id": "1064"
      },
      "talkContentTextMapHash": 1877773402,
      "talkAssetPath": "",
      "talkAssetPathAlter": "",
      "talkAudioName": "",
      "actionBefore": "",
      "actionWhile": "",
      "actionAfter": "",
      "optionIcon": "",
      "iconPath": ""
    },
    {
      "id": 401060110,
      "nextDialogs": [
        401060111
      ],
      "talkRole": {
        "type": "TALK_ROLE_NPC",
        "_id": "1064"
      },
      "talkContentTextMapHash": 3502628186,
      "talkAssetPath": "",
      "talkAssetPathAlter": "",
      "talkAudioName": "",
      "actionBefore": "",
      "actionWhile": "",
      "actionAfter": "",
      "optionIcon": "",
      "iconPath": ""
    },
    {
      "id": 401060111,
      "nextDialogs": [
        401060112
      ],
      "talkRole": {
        "type": "TALK_ROLE_NPC",
        "_id": "1064"
      },
      "talkContentTextMapHash": 1935816290,
      "talkAssetPath": "",
      "talkAssetPathAlter": "",
      "talkAudioName": "",
      "actionBefore": "",
      "actionWhile": "",
      "actionAfter": "",
      "optionIcon": "",
      "iconPath": ""
    },
    {
      "id": 401060112,
      "nextDialogs": [
        401060113
      ],
      "talkRole": {
        "type": "TALK_ROLE_NPC",
        "_id": "1064"
      },
      "talkContentTextMapHash": 620309506,
      "talkAssetPath": "",
      "talkAssetPathAlter": "",
      "talkAudioName": "",
      "actionBefore": "",
      "actionWhile": "",
      "actionAfter": "",
      "optionIcon": "",
      "iconPath": ""
    },
    {
      "id": 401060113,
      "nextDialogs": [
        401060114
      ],
      "talkRole": {
        "type": "TALK_ROLE_NPC",
        "_id": "1064"
      },
      "talkContentTextMapHash": 3365314482,
      "talkAssetPath": "",
      "talkAssetPathAlter": "",
      "talkAudioName": "",
      "actionBefore": "",
      "actionWhile": "",
      "actionAfter": "",
      "optionIcon": "",
      "iconPath": ""
    },
    {
      "id": 401060114,
      "nextDialogs": [
        401060115
      ],
      "talkRole": {
        "type": "TALK_ROLE_NPC",
        "_id": "1005"
      },
      "talkContentTextMapHash": 1872000298,
      "talkAssetPath": "",
      "talkAssetPathAlter": "",
      "talkAudioName": "",
      "actionBefore": "",
      "actionWhile": "",
      "actionAfter": "",
      "optionIcon": "",
      "iconPath": ""
    },
    {
      "id": 401060115,
      "talkRole": {
        "type": "TALK_ROLE_NPC",
        "_id": "1064"
      },
      "talkContentTextMapHash": 377432586,
      "talkAssetPath": "",
      "talkAssetPathAlter": "",
      "talkAudioName": "",
      "actionBefore": "",
      "actionWhile": "",
      "actionAfter": "",
      "optionIcon": "",
      "iconPath": ""
    },
    {
      "id": 401060117,
      "nextDialogs": [
        401060118
      ],
      "talkRole": {
        "type": "TALK_ROLE_NPC",
        "_id": "1064"
      },
      "talkContentTextMapHash": 1769140786,
      "talkAssetPath": "",
      "talkAssetPathAlter": "",
      "talkAudioName": "",
      "actionBefore": "",
      "actionWhile": "",
      "actionAfter": "",
      "optionIcon": "",
      "iconPath": ""
    },
    {
      "id": 401060118,
      "nextDialogs": [
        401060119
      ],
      "talkRole": {
        "type": "TALK_ROLE_NPC",
        "_id": "1005"
      },
      "talkContentTextMapHash": 2775756026,
      "talkAssetPath": "",
      "talkAssetPathAlter": "",
      "talkAudioName": "",
      "actionBefore": "",
      "actionWhile": "",
      "actionAfter": "",
      "optionIcon": "",
      "iconPath": ""
    },
    {
      "id": 401060119,
      "talkRole": {
        "type": "TALK_ROLE_NPC",
        "_id": "1064"
      },
      "talkContentTextMapHash": 152423370,
      "talkAssetPath": "",
      "talkAssetPathAlter": "",
      "talkAudioName": "",
      "actionBefore": "",
      "actionWhile": "",
      "actionAfter": "",
      "optionIcon": "",
      "iconPath": ""
    }
  ]
}