{
  "talkId": 4012316,
  "KPGKDHAFHFE": "ACTIVITY",
  "dialogList": [
    {
      "id": 401231601,
      "nextDialogs": [
        401231602
      ],
      "talkRole": {
        "type": "TALK_ROLE_NPC",
        "_id": "2111"
      },
      "talkContentTextMapHash": 1477401882,
      "talkAssetPath": "",
      "talkAssetPathAlter": "",
      "talkAudioName": "",
      "actionBefore": "",
      "actionWhile": "",
      "actionAfter": "",
      "optionIcon": "",
      "iconPath": ""
    },
    {
      "id": 401231602,
      "talkRole": {
        "type": "TALK_ROLE_NPC",
        "_id": "2111"
      },
      "talkContentTextMapHash": 305714906,
      "talkAssetPath": "",
      "talkAssetPathAlter": "",
      "talkAudioName": "",
      "actionBefore": "",
      "actionWhile": "",
      "actionAfter": "",
      "optionIcon": "",
      "iconPath": ""
    }
  ]
}