{
  "talkId": 4014157,
  "KPGKDHAFHFE": "ACTIVITY",
  "dialogList": [
    {
      "id": 401415701,
      "nextDialogs": [
        401415702
      ],
      "talkRole": {
        "type": "TALK_ROLE_NPC",
        "_id": "30500"
      },
      "talkContentTextMapHash": 1146490530,
      "talkAssetPath": "",
      "talkAssetPathAlter": "",
      "talkAudioName": "",
      "actionBefore": "",
      "actionWhile": "",
      "actionAfter": "",
      "optionIcon": "",
      "iconPath": ""
    },
    {
      "id": 401415702,
      "nextDialogs": [
        401415703
      ],
      "talkShowType": "TALK_SHOW_FORCE_SELECT",
      "talkRole": {
        "type": "TALK_ROLE_PLAYER",
        "_id": ""
      },
      "talkContentTextMapHash": 1124045786,
      "talkAssetPath": "",
      "talkAssetPathAlter": "",
      "talkAudioName": "",
      "actionBefore": "",
      "actionWhile": "",
      "actionAfter": "",
      "optionIcon": "",
      "iconPath": ""
    },
    {
      "id": 401415703,
      "nextDialogs": [
        401415704
      ],
      "talkRole": {
        "type": "TALK_ROLE_NPC",
        "_id": "30500"
      },
      "talkContentTextMapHash": 3533171618,
      "talkAssetPath": "",
      "talkAssetPathAlter": "",
      "talkAudioName": "",
      "actionBefore": "",
      "actionWhile": "",
      "actionAfter": "",
      "optionIcon": "",
      "iconPath": ""
    },
    {
      "id": 401415704,
      "nextDialogs": [
        401415705
      ],
      "talkRole": {
        "type": "TALK_ROLE_NPC",
        "_id": "30500"
      },
      "talkContentTextMapHash": 2468936450,
      "talkAssetPath": "",
      "talkAssetPathAlter": "",
      "talkAudioName": "",
      "actionBefore": "",
      "actionWhile": "",
      "actionAfter": "",
      "optionIcon": "",
      "iconPath": ""
    },
    {
      "id": 401415705,
      "nextDialogs": [
        401415706
      ],
      "talkRole": {
        "type": "TALK_ROLE_NPC",
        "_id": "30500"
      },
      "talkContentTextMapHash": 1568172138,
      "talkAssetPath": "",
      "talkAssetPathAlter": "",
      "talkAudioName": "",
      "actionBefore": "",
      "actionWhile": "",
      "actionAfter": "",
      "optionIcon": "",
      "iconPath": ""
    },
    {
      "id": 401415706,
      "nextDialogs": [
        401415707
      ],
      "talkShowType": "TALK_SHOW_FORCE_SELECT",
      "talkRole": {
        "type": "TALK_ROLE_PLAYER",
        "_id": ""
      },
      "talkContentTextMapHash": 2464879162,
      "talkAssetPath": "",
      "talkAssetPathAlter": "",
      "talkAudioName": "",
      "actionBefore": "",
      "actionWhile": "",
      "actionAfter": "",
      "optionIcon": "",
      "iconPath": ""
    },
    {
      "id": 401415707,
      "nextDialogs": [
        401415708
      ],
      "talkRole": {
        "type": "TALK_ROLE_NPC",
        "_id": "30500"
      },
      "talkContentTextMapHash": 2756773154,
      "talkAssetPath": "",
      "talkAssetPathAlter": "",
      "talkAudioName": "",
      "actionBefore": "",
      "actionWhile": "",
      "actionAfter": "",
      "optionIcon": "",
      "iconPath": ""
    },
    {
      "id": 401415708,
      "nextDialogs": [
        401415709
      ],
      "talkRole": {
        "type": "TALK_ROLE_NPC",
        "_id": "30500"
      },
      "talkContentTextMapHash": 1310468106,
      "talkAssetPath": "",
      "talkAssetPathAlter": "",
      "talkAudioName": "",
      "actionBefore": "",
      "actionWhile": "",
      "actionAfter": "",
      "optionIcon": "",
      "iconPath": ""
    },
    {
      "id": 401415709,
      "nextDialogs": [
        401415710
      ],
      "talkShowType": "TALK_SHOW_FORCE_SELECT",
      "talkRole": {
        "type": "TALK_ROLE_PLAYER",
        "_id": ""
      },
      "talkContentTextMapHash": 1754428362,
      "talkAssetPath": "",
      "talkAssetPathAlter": "",
      "talkAudioName": "",
      "actionBefore": "",
      "actionWhile": "",
      "actionAfter": "",
      "optionIcon": "",
      "iconPath": ""
    },
    {
      "id": 401415710,
      "nextDialogs": [
        401415711
      ],
      "talkRole": {
        "type": "TALK_ROLE_NPC",
        "_id": "30500"
      },
      "talkContentTextMapHash": 1934791490,
      "talkAssetPath": "",
      "talkAssetPathAlter": "",
      "talkAudioName": "",
      "actionBefore": "",
      "actionWhile": "",
      "actionAfter": "",
      "optionIcon": "",
      "iconPath": ""
    },
    {
      "id": 401415711,
      "nextDialogs": [
        401415712
      ],
      "talkRole": {
        "type": "TALK_ROLE_NPC",
        "_id": "30500"
      },
      "talkContentTextMapHash": 112397826,
      "talkAssetPath": "",
      "talkAssetPathAlter": "",
      "talkAudioName": "",
      "actionBefore": "",
      "actionWhile": "",
      "actionAfter": "",
      "optionIcon": "",
      "iconPath": ""
    },
    {
      "id": 401415712,
      "nextDialogs": [
        401415713
      ],
      "talkShowType": "TALK_SHOW_FORCE_SELECT",
      "talkRole": {
        "type": "TALK_ROLE_PLAYER",
        "_id": ""
      },
      "talkContentTextMapHash": 3560563442,
      "talkAssetPath": "",
      "talkAssetPathAlter": "",
      "talkAudioName": "",
      "actionBefore": "",
      "actionWhile": "",
      "actionAfter": "",
      "optionIcon": "",
      "iconPath": ""
    },
    {
      "id": 401415713,
      "nextDialogs": [
        401415714
      ],
      "talkRole": {
        "type": "TALK_ROLE_NPC",
        "_id": "30500"
      },
      "talkContentTextMapHash": 3700140898,
      "talkAssetPath": "",
      "talkAssetPathAlter": "",
      "talkAudioName": "",
      "actionBefore": "",
      "actionWhile": "",
      "actionAfter": "",
      "optionIcon": "",
      "iconPath": ""
    },
    {
      "id": 401415714,
      "talkRole": {
        "type": "TALK_ROLE_NPC",
        "_id": "30500"
      },
      "talkContentTextMapHash": 3586222010,
      "talkAssetPath": "",
      "talkAssetPathAlter": "",
      "talkAudioName": "",
      "actionBefore": "",
      "actionWhile": "",
      "actionAfter": "",
      "optionIcon": "",
      "iconPath": ""
    }
  ]
}