{
  "talkId": 4014165,
  "KPGKDHAFHFE": "ACTIVITY",
  "dialogList": [
    {
      "id": 401416501,
      "nextDialogs": [
        401416502
      ],
      "talkRole": {
        "type": "TALK_ROLE_NPC",
        "_id": "2014"
      },
      "talkContentTextMapHash": 1435421490,
      "talkAssetPath": "",
      "talkAssetPathAlter": "",
      "talkAudioName": "",
      "actionBefore": "",
      "actionWhile": "",
      "actionAfter": "",
      "optionIcon": "",
      "iconPath": ""
    },
    {
      "id": 401416502,
      "nextDialogs": [
        401416503
      ],
      "talkRole": {
        "type": "TALK_ROLE_NPC",
        "_id": "2014"
      },
      "talkContentTextMapHash": 1228238442,
      "talkAssetPath": "",
      "talkAssetPathAlter": "",
      "talkAudioName": "",
      "actionBefore": "",
      "actionWhile": "",
      "actionAfter": "",
      "optionIcon": "",
      "iconPath": ""
    },
    {
      "id": 401416503,
      "nextDialogs": [
        401416504
      ],
      "talkRole": {
        "type": "TALK_ROLE_NPC",
        "_id": "2014"
      },
      "talkContentTextMapHash": 497843434,
      "talkAssetPath": "",
      "talkAssetPathAlter": "",
      "talkAudioName": "",
      "actionBefore": "",
      "actionWhile": "",
      "actionAfter": "",
      "optionIcon": "",
      "iconPath": ""
    },
    {
      "id": 401416504,
      "nextDialogs": [
        401416505
      ],
      "talkRole": {
        "type": "TALK_ROLE_NPC",
        "_id": "2014"
      },
      "talkContentTextMapHash": 3992885570,
      "talkAssetPath": "",
      "talkAssetPathAlter": "",
      "talkAudioName": "",
      "actionBefore": "",
      "actionWhile": "",
      "actionAfter": "",
      "optionIcon": "",
      "iconPath": ""
    },
    {
      "id": 401416505,
      "nextDialogs": [
        401416506
      ],
      "talkRole": {
        "type": "TALK_ROLE_NPC",
        "_id": "2014"
      },
      "talkContentTextMapHash": 2631436882,
      "talkAssetPath": "",
      "talkAssetPathAlter": "",
      "talkAudioName": "",
      "actionBefore": "",
      "actionWhile": "",
      "actionAfter": "",
      "optionIcon": "",
      "iconPath": ""
    },
    {
      "id": 401416506,
      "talkRole": {
        "type": "TALK_ROLE_NPC",
        "_id": "2014"
      },
      "talkContentTextMapHash": 1049951274,
      "talkAssetPath": "",
      "talkAssetPathAlter": "",
      "talkAudioName": "",
      "actionBefore": "",
      "actionWhile": "",
      "actionAfter": "",
      "optionIcon": "",
      "iconPath": ""
    }
  ]
}