{
  "talkId": 4014185,
  "KPGKDHAFHFE": "ACTIVITY",
  "dialogList": [
    {
      "id": 401418501,
      "nextDialogs": [
        401418502
      ],
      "talkShowType": "TALK_SHOW_FORCE_SELECT",
      "talkRole": {
        "_id": ""
      },
      "talkContentTextMapHash": 2020162266,
      "talkAssetPath": "",
      "talkAssetPathAlter": "",
      "talkAudioName": "",
      "actionBefore": "",
      "actionWhile": "",
      "actionAfter": "",
      "optionIcon": "",
      "iconPath": ""
    },
    {
      "id": 401418502,
      "talkRole": {
        "type": "TALK_ROLE_NPC",
        "_id": "30474"
      },
      "talkContentTextMapHash": 2387034770,
      "talkAssetPath": "",
      "talkAssetPathAlter": "",
      "talkAudioName": "",
      "actionBefore": "",
      "actionWhile": "",
      "actionAfter": "",
      "optionIcon": "",
      "iconPath": ""
    }
  ]
}