{
  "talkId": 4015742,
  "KPGKDHAFHFE": "ACTIVITY",
  "dialogList": [
    {
      "id": 401574201,
      "nextDialogs": [
        401574202
      ],
      "talkShowType": "TALK_SHOW_FORCE_SELECT",
      "talkRole": {
        "type": "TALK_ROLE_PLAYER",
        "_id": ""
      },
      "talkContentTextMapHash": 2941127490,
      "talkAssetPath": "",
      "talkAssetPathAlter": "",
      "talkAudioName": "",
      "actionBefore": "",
      "actionWhile": "",
      "actionAfter": "",
      "optionIcon": "UI_Icon_Intee_Music",
      "iconPath": ""
    },
    {
      "id": 401574202,
      "talkRole": {
        "type": "TALK_ROLE_NPC",
        "_id": "30532"
      },
      "talkContentTextMapHash": 3365940530,
      "talkAssetPath": "",
      "talkAssetPathAlter": "",
      "talkAudioName": "",
      "actionBefore": "",
      "actionWhile": "",
      "actionAfter": "",
      "optionIcon": "",
      "iconPath": ""
    }
  ]
}