{
  "talkId": 4015791,
  "KPGKDHAFHFE": "ACTIVITY",
  "dialogList": [
    {
      "id": 401576502,
      "nextDialogs": [
        401576503
      ],
      "talkRole": {
        "type": "TALK_ROLE_NPC",
        "_id": "2023"
      },
      "talkContentTextMapHash": 3815430274,
      "talkAssetPath": "",
      "talkAssetPathAlter": "",
      "talkAudioName": "",
      "actionBefore": "",
      "actionWhile": "",
      "actionAfter": "",
      "optionIcon": "",
      "iconPath": ""
    },
    {
      "id": 401576503,
      "nextDialogs": [
        401576504
      ],
      "talkRole": {
        "type": "TALK_ROLE_NPC",
        "_id": "2023"
      },
      "talkContentTextMapHash": 1373341258,
      "talkAssetPath": "",
      "talkAssetPathAlter": "",
      "talkAudioName": "",
      "actionBefore": "",
      "actionWhile": "",
      "actionAfter": "",
      "optionIcon": "",
      "iconPath": ""
    },
    {
      "id": 401576504,
      "nextDialogs": [
        401576505
      ],
      "talkRole": {
        "type": "TALK_ROLE_NPC",
        "_id": "2023"
      },
      "talkContentTextMapHash": 699955834,
      "talkAssetPath": "",
      "talkAssetPathAlter": "",
      "talkAudioName": "",
      "actionBefore": "",
      "actionWhile": "",
      "actionAfter": "",
      "optionIcon": "",
      "iconPath": ""
    },
    {
      "id": 401576505,
      "nextDialogs": [
        401576506
      ],
      "talkRole": {
        "type": "TALK_ROLE_NPC",
        "_id": "2023"
      },
      "talkContentTextMapHash": 3932214914,
      "talkAssetPath": "",
      "talkAssetPathAlter": "",
      "talkAudioName": "",
      "actionBefore": "",
      "actionWhile": "",
      "actionAfter": "",
      "optionIcon": "",
      "iconPath": ""
    },
    {
      "id": 401576506,
      "nextDialogs": [
        401576507
      ],
      "talkRole": {
        "type": "TALK_ROLE_NPC",
        "_id": "2023"
      },
      "talkContentTextMapHash": 1050724370,
      "talkAssetPath": "",
      "talkAssetPathAlter": "",
      "talkAudioName": "",
      "actionBefore": "",
      "actionWhile": "",
      "actionAfter": "",
      "optionIcon": "",
      "iconPath": ""
    },
    {
      "id": 401576507,
      "talkRole": {
        "type": "TALK_ROLE_NPC",
        "_id": "2023"
      },
      "talkContentTextMapHash": 1515559594,
      "talkAssetPath": "",
      "talkAssetPathAlter": "",
      "talkAudioName": "",
      "actionBefore": "",
      "actionWhile": "",
      "actionAfter": "",
      "optionIcon": "",
      "iconPath": ""
    }
  ]
}