{
  "talkId": 4015416,
  "KPGKDHAFHFE": "ACTIVITY",
  "dialogList": [
    {
      "id": 401541601,
      "nextDialogs": [
        401541602
      ],
      "talkRole": {
        "type": "TALK_ROLE_NPC",
        "_id": "30510"
      },
      "talkContentTextMapHash": 528397954,
      "talkAssetPath": "",
      "talkAssetPathAlter": "",
      "talkAudioName": "",
      "actionBefore": "",
      "actionWhile": "",
      "actionAfter": "",
      "optionIcon": "",
      "iconPath": ""
    },
    {
      "id": 401541602,
      "nextDialogs": [
        401541603
      ],
      "talkRole": {
        "type": "TALK_ROLE_NPC",
        "_id": "30510"
      },
      "talkContentTextMapHash": 2838212810,
      "talkAssetPath": "",
      "talkAssetPathAlter": "",
      "talkAudioName": "",
      "actionBefore": "",
      "actionWhile": "",
      "actionAfter": "",
      "optionIcon": "",
      "iconPath": ""
    },
    {
      "id": 401541603,
      "nextDialogs": [
        401541604,
        401541605
      ],
      "talkRole": {
        "type": "TALK_ROLE_NPC",
        "_id": "1005"
      },
      "talkContentTextMapHash": 3231928858,
      "talkAssetPath": "",
      "talkAssetPathAlter": "",
      "talkAudioName": "",
      "actionBefore": "",
      "actionWhile": "",
      "actionAfter": "",
      "optionIcon": "",
      "iconPath": ""
    },
    {
      "id": 401541604,
      "nextDialogs": [
        401541606
      ],
      "talkRole": {
        "type": "TALK_ROLE_PLAYER",
        "_id": ""
      },
      "talkContentTextMapHash": 188491450,
      "talkAssetPath": "",
      "talkAssetPathAlter": "",
      "talkAudioName": "",
      "actionBefore": "",
      "actionWhile": "",
      "actionAfter": "",
      "optionIcon": "",
      "iconPath": ""
    },
    {
      "id": 401541606,
      "nextDialogs": [
        401541607
      ],
      "talkRole": {
        "type": "TALK_ROLE_NPC",
        "_id": "30510"
      },
      "talkContentTextMapHash": 962880346,
      "talkAssetPath": "",
      "talkAssetPathAlter": "",
      "talkAudioName": "",
      "actionBefore": "",
      "actionWhile": "",
      "actionAfter": "",
      "optionIcon": "",
      "iconPath": ""
    },
    {
      "id": 401541607,
      "nextDialogs": [
        401541608
      ],
      "talkRole": {
        "type": "TALK_ROLE_NPC",
        "_id": "1005"
      },
      "talkContentTextMapHash": 2400142714,
      "talkAssetPath": "",
      "talkAssetPathAlter": "",
      "talkAudioName": "",
      "actionBefore": "",
      "actionWhile": "",
      "actionAfter": "",
      "optionIcon": "",
      "iconPath": ""
    },
    {
      "id": 401541608,
      "nextDialogs": [
        401541609
      ],
      "talkRole": {
        "type": "TALK_ROLE_NPC",
        "_id": "30510"
      },
      "talkContentTextMapHash": 602460578,
      "talkAssetPath": "",
      "talkAssetPathAlter": "",
      "talkAudioName": "",
      "actionBefore": "",
      "actionWhile": "",
      "actionAfter": "",
      "optionIcon": "",
      "iconPath": ""
    },
    {
      "id": 401541609,
      "nextDialogs": [
        401541610
      ],
      "talkRole": {
        "type": "TALK_ROLE_NPC",
        "_id": "30510"
      },
      "talkContentTextMapHash": 2400781826,
      "talkAssetPath": "",
      "talkAssetPathAlter": "",
      "talkAudioName": "",
      "actionBefore": "",
      "actionWhile": "",
      "actionAfter": "",
      "optionIcon": "",
      "iconPath": ""
    },
    {
      "id": 401541610,
      "nextDialogs": [
        401541611
      ],
      "talkRole": {
        "type": "TALK_ROLE_NPC",
        "_id": "30510"
      },
      "talkContentTextMapHash": 651998978,
      "talkAssetPath": "",
      "talkAssetPathAlter": "",
      "talkAudioName": "",
      "actionBefore": "",
      "actionWhile": "",
      "actionAfter": "",
      "optionIcon": "",
      "iconPath": ""
    },
    {
      "id": 401541611,
      "nextDialogs": [
        401541612
      ],
      "talkRole": {
        "type": "TALK_ROLE_NPC",
        "_id": "30510"
      },
      "talkContentTextMapHash": 1226560186,
      "talkAssetPath": "",
      "talkAssetPathAlter": "",
      "talkAudioName": "",
      "actionBefore": "",
      "actionWhile": "",
      "actionAfter": "",
      "optionIcon": "",
      "iconPath": ""
    },
    {
      "id": 401541612,
      "nextDialogs": [
        401541613
      ],
      "talkRole": {
        "type": "TALK_ROLE_NPC",
        "_id": "1005"
      },
      "talkContentTextMapHash": 1003363066,
      "talkAssetPath": "",
      "talkAssetPathAlter": "",
      "talkAudioName": "",
      "actionBefore": "",
      "actionWhile": "",
      "actionAfter": "",
      "optionIcon": "",
      "iconPath": ""
    },
    {
      "id": 401541613,
      "nextDialogs": [
        401541614
      ],
      "talkRole": {
        "type": "TALK_ROLE_NPC",
        "_id": "30510"
      },
      "talkContentTextMapHash": 3874008194,
      "talkAssetPath": "",
      "talkAssetPathAlter": "",
      "talkAudioName": "",
      "actionBefore": "",
      "actionWhile": "",
      "actionAfter": "",
      "optionIcon": "",
      "iconPath": ""
    },
    {
      "id": 401541614,
      "nextDialogs": [
        401541615
      ],
      "talkRole": {
        "type": "TALK_ROLE_NPC",
        "_id": "30510"
      },
      "talkContentTextMapHash": 884592042,
      "talkAssetPath": "",
      "talkAssetPathAlter": "",
      "talkAudioName": "",
      "actionBefore": "",
      "actionWhile": "",
      "actionAfter": "",
      "optionIcon": "",
      "iconPath": ""
    },
    {
      "id": 401541615,
      "nextDialogs": [
        401541616
      ],
      "talkRole": {
        "type": "TALK_ROLE_NPC",
        "_id": "1005"
      },
      "talkContentTextMapHash": 2916827362,
      "talkAssetPath": "",
      "talkAssetPathAlter": "",
      "talkAudioName": "",
      "actionBefore": "",
      "actionWhile": "",
      "actionAfter": "",
      "optionIcon": "",
      "iconPath": ""
    },
    {
      "id": 401541616,
      "nextDialogs": [
        401541617
      ],
      "talkRole": {
        "type": "TALK_ROLE_NPC",
        "_id": "30510"
      },
      "talkContentTextMapHash": 3172642698,
      "talkAssetPath": "",
      "talkAssetPathAlter": "",
      "talkAudioName": "",
      "actionBefore": "",
      "actionWhile": "",
      "actionAfter": "",
      "optionIcon": "",
      "iconPath": ""
    },
    {
      "id": 401541617,
      "nextDialogs": [
        401541618
      ],
      "talkRole": {
        "type": "TALK_ROLE_NPC",
        "_id": "1005"
      },
      "talkContentTextMapHash": 3215689618,
      "talkAssetPath": "",
      "talkAssetPathAlter": "",
      "talkAudioName": "",
      "actionBefore": "",
      "actionWhile": "",
      "actionAfter": "",
      "optionIcon": "",
      "iconPath": ""
    },
    {
      "id": 401541618,
      "talkRole": {
        "type": "TALK_ROLE_NPC",
        "_id": "30510"
      },
      "talkContentTextMapHash": 2992668730,
      "talkAssetPath": "",
      "talkAssetPathAlter": "",
      "talkAudioName": "",
      "actionBefore": "",
      "actionWhile": "",
      "actionAfter": "",
      "optionIcon": "",
      "iconPath": ""
    },
    {
      "id": 401541605,
      "nextDialogs": [
        401541618
      ],
      "talkRole": {
        "type": "TALK_ROLE_PLAYER",
        "_id": ""
      },
      "talkContentTextMapHash": 762094058,
      "talkAssetPath": "",
      "talkAssetPathAlter": "",
      "talkAudioName": "",
      "actionBefore": "",
      "actionWhile": "",
      "actionAfter": "",
      "optionIcon": "",
      "iconPath": ""
    }
  ]
}