{
  "talkId": 4015754,
  "KPGKDHAFHFE": "ACTIVITY",
  "dialogList": [
    {
      "id": 401575401,
      "nextDialogs": [
        401575402
      ],
      "talkRole": {
        "type": "TALK_ROLE_PLAYER",
        "_id": ""
      },
      "talkContentTextMapHash": 482047978,
      "talkAssetPath": "",
      "talkAssetPathAlter": "",
      "talkAudioName": "",
      "actionBefore": "",
      "actionWhile": "",
      "actionAfter": "",
      "optionIcon": "",
      "iconPath": ""
    },
    {
      "id": 401575402,
      "nextDialogs": [
        401575403
      ],
      "talkRole": {
        "type": "TALK_ROLE_NPC",
        "_id": "30544"
      },
      "talkContentTextMapHash": 2990804618,
      "talkAssetPath": "",
      "talkAssetPathAlter": "",
      "talkAudioName": "",
      "actionBefore": "",
      "actionWhile": "",
      "actionAfter": "",
      "optionIcon": "",
      "iconPath": ""
    },
    {
      "id": 401575403,
      "talkRole": {
        "type": "TALK_ROLE_NPC",
        "_id": "30544"
      },
      "talkContentTextMapHash": 3152733914,
      "talkAssetPath": "",
      "talkAssetPathAlter": "",
      "talkAudioName": "",
      "actionBefore": "",
      "actionWhile": "",
      "actionAfter": "",
      "optionIcon": "",
      "iconPath": ""
    }
  ]
}