{
  "talkId": 4015420,
  "KPGKDHAFHFE": "ACTIVITY",
  "dialogList": [
    {
      "id": 401542001,
      "nextDialogs": [
        401542002,
        401542003
      ],
      "talkRole": {
        "type": "TALK_ROLE_NPC",
        "_id": "30510"
      },
      "talkContentTextMapHash": 2189946634,
      "talkAssetPath": "",
      "talkAssetPathAlter": "",
      "talkAudioName": "",
      "actionBefore": "",
      "actionWhile": "",
      "actionAfter": "",
      "optionIcon": "",
      "iconPath": ""
    },
    {
      "id": 401542002,
      "talkShowType": "TALK_SHOW_FORCE_SELECT",
      "talkRole": {
        "type": "TALK_ROLE_PLAYER",
        "_id": ""
      },
      "talkContentTextMapHash": 1042383290,
      "talkAssetPath": "",
      "talkAssetPathAlter": "",
      "talkAudioName": "",
      "actionBefore": "",
      "actionWhile": "",
      "actionAfter": "",
      "optionIcon": "UI_Icon_Intee_AlchemySim_Exam",
      "iconPath": ""
    },
    {
      "id": 401542003,
      "nextDialogs": [
        401542004
      ],
      "talkShowType": "TALK_SHOW_FORCE_SELECT",
      "talkRole": {
        "type": "TALK_ROLE_PLAYER",
        "_id": ""
      },
      "talkContentTextMapHash": 1886695570,
      "talkAssetPath": "",
      "talkAssetPathAlter": "",
      "talkAudioName": "",
      "actionBefore": "",
      "actionWhile": "",
      "actionAfter": "",
      "optionIcon": "",
      "iconPath": ""
    },
    {
      "id": 401542004,
      "talkRole": {
        "type": "TALK_ROLE_NPC",
        "_id": "30510"
      },
      "talkContentTextMapHash": 1392745242,
      "talkAssetPath": "",
      "talkAssetPathAlter": "",
      "talkAudioName": "",
      "actionBefore": "",
      "actionWhile": "",
      "actionAfter": "",
      "optionIcon": "",
      "iconPath": ""
    }
  ]
}