{
  "talkId": 4015434,
  "KPGKDHAFHFE": "ACTIVITY",
  "dialogList": [
    {
      "id": 401543401,
      "nextDialogs": [
        401543402
      ],
      "talkRole": {
        "type": "TALK_ROLE_NPC",
        "_id": "30512"
      },
      "talkContentTextMapHash": 2681742306,
      "talkAssetPath": "",
      "talkAssetPathAlter": "",
      "talkAudioName": "",
      "actionBefore": "",
      "actionWhile": "",
      "actionAfter": "",
      "optionIcon": "",
      "iconPath": ""
    },
    {
      "id": 401543402,
      "nextDialogs": [
        401543403
      ],
      "talkRole": {
        "type": "TALK_ROLE_NPC",
        "_id": "1005"
      },
      "talkContentTextMapHash": 3597840450,
      "talkAssetPath": "",
      "talkAssetPathAlter": "",
      "talkAudioName": "",
      "actionBefore": "",
      "actionWhile": "",
      "actionAfter": "",
      "optionIcon": "",
      "iconPath": ""
    },
    {
      "id": 401543403,
      "nextDialogs": [
        401543404
      ],
      "talkRole": {
        "type": "TALK_ROLE_NPC",
        "_id": "30511"
      },
      "talkContentTextMapHash": 2277388626,
      "talkAssetPath": "",
      "talkAssetPathAlter": "",
      "talkAudioName": "",
      "actionBefore": "",
      "actionWhile": "",
      "actionAfter": "",
      "optionIcon": "",
      "iconPath": ""
    },
    {
      "id": 401543404,
      "nextDialogs": [
        401543405
      ],
      "talkRole": {
        "type": "TALK_ROLE_NPC",
        "_id": "30512"
      },
      "talkContentTextMapHash": 1220789778,
      "talkAssetPath": "",
      "talkAssetPathAlter": "",
      "talkAudioName": "",
      "actionBefore": "",
      "actionWhile": "",
      "actionAfter": "",
      "optionIcon": "",
      "iconPath": ""
    },
    {
      "id": 401543405,
      "nextDialogs": [
        401543406
      ],
      "talkRole": {
        "type": "TALK_ROLE_NPC",
        "_id": "30512"
      },
      "talkContentTextMapHash": 2222611002,
      "talkAssetPath": "",
      "talkAssetPathAlter": "",
      "talkAudioName": "",
      "actionBefore": "",
      "actionWhile": "",
      "actionAfter": "",
      "optionIcon": "",
      "iconPath": ""
    },
    {
      "id": 401543406,
      "nextDialogs": [
        401543407
      ],
      "talkRole": {
        "type": "TALK_ROLE_NPC",
        "_id": "30512"
      },
      "talkContentTextMapHash": 2194405858,
      "talkAssetPath": "",
      "talkAssetPathAlter": "",
      "talkAudioName": "",
      "actionBefore": "",
      "actionWhile": "",
      "actionAfter": "",
      "optionIcon": "",
      "iconPath": ""
    },
    {
      "id": 401543407,
      "nextDialogs": [
        401543408
      ],
      "talkRole": {
        "type": "TALK_ROLE_NPC",
        "_id": "30511"
      },
      "talkContentTextMapHash": 836836682,
      "talkAssetPath": "",
      "talkAssetPathAlter": "",
      "talkAudioName": "",
      "actionBefore": "",
      "actionWhile": "",
      "actionAfter": "",
      "optionIcon": "",
      "iconPath": ""
    },
    {
      "id": 401543408,
      "nextDialogs": [
        401543409
      ],
      "talkRole": {
        "type": "TALK_ROLE_NPC",
        "_id": "1005"
      },
      "talkContentTextMapHash": 1727898826,
      "talkAssetPath": "",
      "talkAssetPathAlter": "",
      "talkAudioName": "",
      "actionBefore": "",
      "actionWhile": "",
      "actionAfter": "",
      "optionIcon": "",
      "iconPath": ""
    },
    {
      "id": 401543409,
      "nextDialogs": [
        401543410
      ],
      "talkRole": {
        "type": "TALK_ROLE_NPC",
        "_id": "30512"
      },
      "talkContentTextMapHash": 3140454802,
      "talkAssetPath": "",
      "talkAssetPathAlter": "",
      "talkAudioName": "",
      "actionBefore": "",
      "actionWhile": "",
      "actionAfter": "",
      "optionIcon": "",
      "iconPath": ""
    },
    {
      "id": 401543410,
      "nextDialogs": [
        401543411
      ],
      "talkRole": {
        "type": "TALK_ROLE_NPC",
        "_id": "30512"
      },
      "talkContentTextMapHash": 3298057458,
      "talkAssetPath": "",
      "talkAssetPathAlter": "",
      "talkAudioName": "",
      "actionBefore": "",
      "actionWhile": "",
      "actionAfter": "",
      "optionIcon": "",
      "iconPath": ""
    },
    {
      "id": 401543411,
      "nextDialogs": [
        401543412
      ],
      "talkRole": {
        "type": "TALK_ROLE_NPC",
        "_id": "30512"
      },
      "talkContentTextMapHash": 215744474,
      "talkAssetPath": "",
      "talkAssetPathAlter": "",
      "talkAudioName": "",
      "actionBefore": "",
      "actionWhile": "",
      "actionAfter": "",
      "optionIcon": "",
      "iconPath": ""
    },
    {
      "id": 401543412,
      "nextDialogs": [
        401543413
      ],
      "talkRole": {
        "type": "TALK_ROLE_NPC",
        "_id": "1005"
      },
      "talkContentTextMapHash": 1598471698,
      "talkAssetPath": "",
      "talkAssetPathAlter": "",
      "talkAudioName": "",
      "actionBefore": "",
      "actionWhile": "",
      "actionAfter": "",
      "optionIcon": "",
      "iconPath": ""
    },
    {
      "id": 401543413,
      "nextDialogs": [
        401543414
      ],
      "talkRole": {
        "type": "TALK_ROLE_NPC",
        "_id": "30511"
      },
      "talkContentTextMapHash": 2133560818,
      "talkAssetPath": "",
      "talkAssetPathAlter": "",
      "talkAudioName": "",
      "actionBefore": "",
      "actionWhile": "",
      "actionAfter": "",
      "optionIcon": "",
      "iconPath": ""
    },
    {
      "id": 401543414,
      "nextDialogs": [
        401543415
      ],
      "talkRole": {
        "type": "TALK_ROLE_NPC",
        "_id": "30511"
      },
      "talkContentTextMapHash": 3694208146,
      "talkAssetPath": "",
      "talkAssetPathAlter": "",
      "talkAudioName": "",
      "actionBefore": "",
      "actionWhile": "",
      "actionAfter": "",
      "optionIcon": "",
      "iconPath": ""
    },
    {
      "id": 401543415,
      "nextDialogs": [
        401543416
      ],
      "talkRole": {
        "type": "TALK_ROLE_NPC",
        "_id": "30511"
      },
      "talkContentTextMapHash": 975461658,
      "talkAssetPath": "",
      "talkAssetPathAlter": "",
      "talkAudioName": "",
      "actionBefore": "",
      "actionWhile": "",
      "actionAfter": "",
      "optionIcon": "",
      "iconPath": ""
    },
    {
      "id": 401543416,
      "nextDialogs": [
        401543417
      ],
      "talkRole": {
        "type": "TALK_ROLE_NPC",
        "_id": "1005"
      },
      "talkContentTextMapHash": 2741731602,
      "talkAssetPath": "",
      "talkAssetPathAlter": "",
      "talkAudioName": "",
      "actionBefore": "",
      "actionWhile": "",
      "actionAfter": "",
      "optionIcon": "",
      "iconPath": ""
    },
    {
      "id": 401543417,
      "nextDialogs": [
        401543418
      ],
      "talkRole": {
        "type": "TALK_ROLE_NPC",
        "_id": "30512"
      },
      "talkContentTextMapHash": 920228410,
      "talkAssetPath": "",
      "talkAssetPathAlter": "",
      "talkAudioName": "",
      "actionBefore": "",
      "actionWhile": "",
      "actionAfter": "",
      "optionIcon": "",
      "iconPath": ""
    },
    {
      "id": 401543418,
      "nextDialogs": [
        401543419
      ],
      "talkRole": {
        "type": "TALK_ROLE_NPC",
        "_id": "30511"
      },
      "talkContentTextMapHash": 660041482,
      "talkAssetPath": "",
      "talkAssetPathAlter": "",
      "talkAudioName": "",
      "actionBefore": "",
      "actionWhile": "",
      "actionAfter": "",
      "optionIcon": "",
      "iconPath": ""
    },
    {
      "id": 401543419,
      "nextDialogs": [
        401543420
      ],
      "talkRole": {
        "type": "TALK_ROLE_NPC",
        "_id": "30512"
      },
      "talkContentTextMapHash": 2287656490,
      "talkAssetPath": "",
      "talkAssetPathAlter": "",
      "talkAudioName": "",
      "actionBefore": "",
      "actionWhile": "",
      "actionAfter": "",
      "optionIcon": "",
      "iconPath": ""
    },
    {
      "id": 401543420,
      "nextDialogs": [
        401543421
      ],
      "talkRole": {
        "type": "TALK_ROLE_NPC",
        "_id": "30511"
      },
      "talkContentTextMapHash": 3499069034,
      "talkAssetPath": "",
      "talkAssetPathAlter": "",
      "talkAudioName": "",
      "actionBefore": "",
      "actionWhile": "",
      "actionAfter": "",
      "optionIcon": "",
      "iconPath": ""
    },
    {
      "id": 401543421,
      "nextDialogs": [
        401543422
      ],
      "talkRole": {
        "type": "TALK_ROLE_NPC",
        "_id": "30512"
      },
      "talkContentTextMapHash": 1980633794,
      "talkAssetPath": "",
      "talkAssetPathAlter": "",
      "talkAudioName": "",
      "actionBefore": "",
      "actionWhile": "",
      "actionAfter": "",
      "optionIcon": "",
      "iconPath": ""
    },
    {
      "id": 401543422,
      "nextDialogs": [
        401543423,
        401543424
      ],
      "talkRole": {
        "type": "TALK_ROLE_NPC",
        "_id": "30512"
      },
      "talkContentTextMapHash": 3466633562,
      "talkAssetPath": "",
      "talkAssetPathAlter": "",
      "talkAudioName": "",
      "actionBefore": "",
      "actionWhile": "",
      "actionAfter": "",
      "optionIcon": "",
      "iconPath": ""
    },
    {
      "id": 401543423,
      "nextDialogs": [
        401543425
      ],
      "talkRole": {
        "type": "TALK_ROLE_PLAYER",
        "_id": ""
      },
      "talkContentTextMapHash": 2979045050,
      "talkAssetPath": "",
      "talkAssetPathAlter": "",
      "talkAudioName": "",
      "actionBefore": "",
      "actionWhile": "",
      "actionAfter": "",
      "optionIcon": "",
      "iconPath": ""
    },
    {
      "id": 401543425,
      "nextDialogs": [
        401543426
      ],
      "talkRole": {
        "type": "TALK_ROLE_NPC",
        "_id": "30512"
      },
      "talkContentTextMapHash": 3718610322,
      "talkAssetPath": "",
      "talkAssetPathAlter": "",
      "talkAudioName": "",
      "actionBefore": "",
      "actionWhile": "",
      "actionAfter": "",
      "optionIcon": "",
      "iconPath": ""
    },
    {
      "id": 401543426,
      "nextDialogs": [
        401543427
      ],
      "talkRole": {
        "type": "TALK_ROLE_NPC",
        "_id": "1005"
      },
      "talkContentTextMapHash": 4205874250,
      "talkAssetPath": "",
      "talkAssetPathAlter": "",
      "talkAudioName": "",
      "actionBefore": "",
      "actionWhile": "",
      "actionAfter": "",
      "optionIcon": "",
      "iconPath": ""
    },
    {
      "id": 401543427,
      "nextDialogs": [
        401543428
      ],
      "talkRole": {
        "type": "TALK_ROLE_NPC",
        "_id": "1005"
      },
      "talkContentTextMapHash": 2855859762,
      "talkAssetPath": "",
      "talkAssetPathAlter": "",
      "talkAudioName": "",
      "actionBefore": "",
      "actionWhile": "",
      "actionAfter": "",
      "optionIcon": "",
      "iconPath": ""
    },
    {
      "id": 401543428,
      "nextDialogs": [
        401543429
      ],
      "talkRole": {
        "type": "TALK_ROLE_NPC",
        "_id": "30512"
      },
      "talkContentTextMapHash": 1810569410,
      "talkAssetPath": "",
      "talkAssetPathAlter": "",
      "talkAudioName": "",
      "actionBefore": "",
      "actionWhile": "",
      "actionAfter": "",
      "optionIcon": "",
      "iconPath": ""
    },
    {
      "id": 401543429,
      "nextDialogs": [
        401543430
      ],
      "talkRole": {
        "type": "TALK_ROLE_NPC",
        "_id": "1005"
      },
      "talkContentTextMapHash": 97267170,
      "talkAssetPath": "",
      "talkAssetPathAlter": "",
      "talkAudioName": "",
      "actionBefore": "",
      "actionWhile": "",
      "actionAfter": "",
      "optionIcon": "",
      "iconPath": ""
    },
    {
      "id": 401543430,
      "nextDialogs": [
        401543431,
        401543432
      ],
      "talkRole": {
        "type": "TALK_ROLE_NPC",
        "_id": "30512"
      },
      "talkContentTextMapHash": 3435992186,
      "talkAssetPath": "",
      "talkAssetPathAlter": "",
      "talkAudioName": "",
      "actionBefore": "",
      "actionWhile": "",
      "actionAfter": "",
      "optionIcon": "",
      "iconPath": ""
    },
    {
      "id": 401543431,
      "nextDialogs": [
        401543433
      ],
      "talkRole": {
        "type": "TALK_ROLE_PLAYER",
        "_id": ""
      },
      "talkContentTextMapHash": 2805348298,
      "talkAssetPath": "",
      "talkAssetPathAlter": "",
      "talkAudioName": "",
      "actionBefore": "",
      "actionWhile": "",
      "actionAfter": "",
      "optionIcon": "",
      "iconPath": ""
    },
    {
      "id": 401543433,
      "nextDialogs": [
        401543434,
        401543437
      ],
      "talkRole": {
        "type": "TALK_ROLE_NPC",
        "_id": "30512"
      },
      "talkContentTextMapHash": 2875504922,
      "talkAssetPath": "",
      "talkAssetPathAlter": "",
      "talkAudioName": "",
      "actionBefore": "",
      "actionWhile": "",
      "actionAfter": "",
      "optionIcon": "",
      "iconPath": ""
    },
    {
      "id": 401543434,
      "nextDialogs": [
        401543435
      ],
      "talkRole": {
        "type": "TALK_ROLE_PLAYER",
        "_id": ""
      },
      "talkContentTextMapHash": 2299051234,
      "talkAssetPath": "",
      "talkAssetPathAlter": "",
      "talkAudioName": "",
      "actionBefore": "",
      "actionWhile": "",
      "actionAfter": "",
      "optionIcon": "",
      "iconPath": ""
    },
    {
      "id": 401543435,
      "nextDialogs": [
        401543436
      ],
      "talkRole": {
        "type": "TALK_ROLE_NPC",
        "_id": "1005"
      },
      "talkContentTextMapHash": 1636720746,
      "talkAssetPath": "",
      "talkAssetPathAlter": "",
      "talkAudioName": "",
      "actionBefore": "",
      "actionWhile": "",
      "actionAfter": "",
      "optionIcon": "",
      "iconPath": ""
    },
    {
      "id": 401543436,
      "nextDialogs": [
        401543439
      ],
      "talkRole": {
        "type": "TALK_ROLE_NPC",
        "_id": "1005"
      },
      "talkContentTextMapHash": 346515890,
      "talkAssetPath": "",
      "talkAssetPathAlter": "",
      "talkAudioName": "",
      "actionBefore": "",
      "actionWhile": "",
      "actionAfter": "",
      "optionIcon": "",
      "iconPath": ""
    },
    {
      "id": 401543439,
      "nextDialogs": [
        401543440
      ],
      "talkRole": {
        "type": "TALK_ROLE_NPC",
        "_id": "30512"
      },
      "talkContentTextMapHash": 2588220610,
      "talkAssetPath": "",
      "talkAssetPathAlter": "",
      "talkAudioName": "",
      "actionBefore": "",
      "actionWhile": "",
      "actionAfter": "",
      "optionIcon": "",
      "iconPath": ""
    },
    {
      "id": 401543440,
      "nextDialogs": [
        401543441
      ],
      "talkRole": {
        "type": "TALK_ROLE_NPC",
        "_id": "1005"
      },
      "talkContentTextMapHash": 794369018,
      "talkAssetPath": "",
      "talkAssetPathAlter": "",
      "talkAudioName": "",
      "actionBefore": "",
      "actionWhile": "",
      "actionAfter": "",
      "optionIcon": "",
      "iconPath": ""
    },
    {
      "id": 401543441,
      "nextDialogs": [
        401543442
      ],
      "talkRole": {
        "type": "TALK_ROLE_NPC",
        "_id": "30511"
      },
      "talkContentTextMapHash": 1881019858,
      "talkAssetPath": "",
      "talkAssetPathAlter": "",
      "talkAudioName": "",
      "actionBefore": "",
      "actionWhile": "",
      "actionAfter": "",
      "optionIcon": "",
      "iconPath": ""
    },
    {
      "id": 401543442,
      "nextDialogs": [
        401543443
      ],
      "talkRole": {
        "type": "TALK_ROLE_NPC",
        "_id": "30512"
      },
      "talkContentTextMapHash": 1130590178,
      "talkAssetPath": "",
      "talkAssetPathAlter": "",
      "talkAudioName": "",
      "actionBefore": "",
      "actionWhile": "",
      "actionAfter": "",
      "optionIcon": "",
      "iconPath": ""
    },
    {
      "id": 401543443,
      "nextDialogs": [
        401543444
      ],
      "talkRole": {
        "type": "TALK_ROLE_NPC",
        "_id": "30511"
      },
      "talkContentTextMapHash": 678468386,
      "talkAssetPath": "",
      "talkAssetPathAlter": "",
      "talkAudioName": "",
      "actionBefore": "",
      "actionWhile": "",
      "actionAfter": "",
      "optionIcon": "",
      "iconPath": ""
    },
    {
      "id": 401543444,
      "nextDialogs": [
        401543445
      ],
      "talkRole": {
        "type": "TALK_ROLE_NPC",
        "_id": "30511"
      },
      "talkContentTextMapHash": 649246682,
      "talkAssetPath": "",
      "talkAssetPathAlter": "",
      "talkAudioName": "",
      "actionBefore": "",
      "actionWhile": "",
      "actionAfter": "",
      "optionIcon": "",
      "iconPath": ""
    },
    {
      "id": 401543445,
      "nextDialogs": [
        401543446,
        401543447
      ],
      "talkRole": {
        "type": "TALK_ROLE_NPC",
        "_id": "1005"
      },
      "talkContentTextMapHash": 607690234,
      "talkAssetPath": "",
      "talkAssetPathAlter": "",
      "talkAudioName": "",
      "actionBefore": "",
      "actionWhile": "",
      "actionAfter": "",
      "optionIcon": "",
      "iconPath": ""
    },
    {
      "id": 401543446,
      "nextDialogs": [
        401543448
      ],
      "talkRole": {
        "type": "TALK_ROLE_PLAYER",
        "_id": ""
      },
      "talkContentTextMapHash": 3305118002,
      "talkAssetPath": "",
      "talkAssetPathAlter": "",
      "talkAudioName": "",
      "actionBefore": "",
      "actionWhile": "",
      "actionAfter": "",
      "optionIcon": "",
      "iconPath": ""
    },
    {
      "id": 401543448,
      "nextDialogs": [
        401543449
      ],
      "talkRole": {
        "type": "TALK_ROLE_NPC",
        "_id": "30512"
      },
      "talkContentTextMapHash": 1081656506,
      "talkAssetPath": "",
      "talkAssetPathAlter": "",
      "talkAudioName": "",
      "actionBefore": "",
      "actionWhile": "",
      "actionAfter": "",
      "optionIcon": "",
      "iconPath": ""
    },
    {
      "id": 401543449,
      "nextDialogs": [
        401543450
      ],
      "talkRole": {
        "type": "TALK_ROLE_NPC",
        "_id": "30512"
      },
      "talkContentTextMapHash": 84135146,
      "talkAssetPath": "",
      "talkAssetPathAlter": "",
      "talkAudioName": "",
      "actionBefore": "",
      "actionWhile": "",
      "actionAfter": "",
      "optionIcon": "",
      "iconPath": ""
    },
    {
      "id": 401543450,
      "nextDialogs": [
        401543451
      ],
      "talkRole": {
        "type": "TALK_ROLE_NPC",
        "_id": "30512"
      },
      "talkContentTextMapHash": 1324125346,
      "talkAssetPath": "",
      "talkAssetPathAlter": "",
      "talkAudioName": "",
      "actionBefore": "",
      "actionWhile": "",
      "actionAfter": "",
      "optionIcon": "",
      "iconPath": ""
    },
    {
      "id": 401543451,
      "talkRole": {
        "type": "TALK_ROLE_NPC",
        "_id": "30511"
      },
      "talkContentTextMapHash": 1513013994,
      "talkAssetPath": "",
      "talkAssetPathAlter": "",
      "talkAudioName": "",
      "actionBefore": "",
      "actionWhile": "",
      "actionAfter": "",
      "optionIcon": "",
      "iconPath": ""
    },
    {
      "id": 401543447,
      "nextDialogs": [
        401543448
      ],
      "talkRole": {
        "type": "TALK_ROLE_PLAYER",
        "_id": ""
      },
      "talkContentTextMapHash": 2368131570,
      "talkAssetPath": "",
      "talkAssetPathAlter": "",
      "talkAudioName": "",
      "actionBefore": "",
      "actionWhile": "",
      "actionAfter": "",
      "optionIcon": "",
      "iconPath": ""
    },
    {
      "id": 401543437,
      "nextDialogs": [
        401543438
      ],
      "talkRole": {
        "type": "TALK_ROLE_PLAYER",
        "_id": ""
      },
      "talkContentTextMapHash": 1238207098,
      "talkAssetPath": "",
      "talkAssetPathAlter": "",
      "talkAudioName": "",
      "actionBefore": "",
      "actionWhile": "",
      "actionAfter": "",
      "optionIcon": "",
      "iconPath": ""
    },
    {
      "id": 401543438,
      "nextDialogs": [
        401543439
      ],
      "talkRole": {
        "type": "TALK_ROLE_NPC",
        "_id": "1005"
      },
      "talkContentTextMapHash": 3761142594,
      "talkAssetPath": "",
      "talkAssetPathAlter": "",
      "talkAudioName": "",
      "actionBefore": "",
      "actionWhile": "",
      "actionAfter": "",
      "optionIcon": "",
      "iconPath": ""
    },
    {
      "id": 401543432,
      "nextDialogs": [
        401543433
      ],
      "talkRole": {
        "type": "TALK_ROLE_PLAYER",
        "_id": ""
      },
      "talkContentTextMapHash": 3716301498,
      "talkAssetPath": "",
      "talkAssetPathAlter": "",
      "talkAudioName": "",
      "actionBefore": "",
      "actionWhile": "",
      "actionAfter": "",
      "optionIcon": "",
      "iconPath": ""
    },
    {
      "id": 401543424,
      "nextDialogs": [
        401543425
      ],
      "talkRole": {
        "type": "TALK_ROLE_PLAYER",
        "_id": ""
      },
      "talkContentTextMapHash": 2226927234,
      "talkAssetPath": "",
      "talkAssetPathAlter": "",
      "talkAudioName": "",
      "actionBefore": "",
      "actionWhile": "",
      "actionAfter": "",
      "optionIcon": "",
      "iconPath": ""
    }
  ]
}