{
  "talkId": 4015417,
  "KPGKDHAFHFE": "ACTIVITY",
  "dialogList": [
    {
      "id": 401541701,
      "nextDialogs": [
        401541702,
        401541703
      ],
      "talkRole": {
        "type": "TALK_ROLE_NPC",
        "_id": "30510"
      },
      "talkContentTextMapHash": 2423913866,
      "talkAssetPath": "",
      "talkAssetPathAlter": "",
      "talkAudioName": "",
      "actionBefore": "",
      "actionWhile": "",
      "actionAfter": "",
      "optionIcon": "",
      "iconPath": ""
    },
    {
      "id": 401541702,
      "nextDialogs": [
        401541704
      ],
      "talkShowType": "TALK_SHOW_FORCE_SELECT",
      "talkRole": {
        "type": "TALK_ROLE_PLAYER",
        "_id": ""
      },
      "talkContentTextMapHash": 1364376466,
      "talkAssetPath": "",
      "talkAssetPathAlter": "",
      "talkAudioName": "",
      "actionBefore": "",
      "actionWhile": "",
      "actionAfter": "",
      "optionIcon": "",
      "iconPath": ""
    },
    {
      "id": 401541704,
      "nextDialogs": [
        401541705
      ],
      "talkRole": {
        "type": "TALK_ROLE_NPC",
        "_id": "30510"
      },
      "talkContentTextMapHash": 382520178,
      "talkAssetPath": "",
      "talkAssetPathAlter": "",
      "talkAudioName": "",
      "actionBefore": "",
      "actionWhile": "",
      "actionAfter": "",
      "optionIcon": "",
      "iconPath": ""
    },
    {
      "id": 401541705,
      "talkRole": {
        "type": "TALK_ROLE_NPC",
        "_id": "30510"
      },
      "talkContentTextMapHash": 1587368290,
      "talkAssetPath": "",
      "talkAssetPathAlter": "",
      "talkAudioName": "",
      "actionBefore": "",
      "actionWhile": "",
      "actionAfter": "",
      "optionIcon": "",
      "iconPath": ""
    },
    {
      "id": 401541703,
      "nextDialogs": [
        401541704
      ],
      "talkShowType": "TALK_SHOW_FORCE_SELECT",
      "talkRole": {
        "type": "TALK_ROLE_PLAYER",
        "_id": ""
      },
      "talkContentTextMapHash": 1940267858,
      "talkAssetPath": "",
      "talkAssetPathAlter": "",
      "talkAudioName": "",
      "actionBefore": "",
      "actionWhile": "",
      "actionAfter": "",
      "optionIcon": "",
      "iconPath": ""
    }
  ]
}