{
  "talkId": 4015427,
  "KPGKDHAFHFE": "ACTIVITY",
  "dialogList": [
    {
      "id": 401542701,
      "nextDialogs": [
        401542702
      ],
      "talkRole": {
        "type": "TALK_ROLE_NPC",
        "_id": "30515"
      },
      "talkContentTextMapHash": 4084237010,
      "talkAssetPath": "",
      "talkAssetPathAlter": "",
      "talkAudioName": "",
      "actionBefore": "",
      "actionWhile": "",
      "actionAfter": "",
      "optionIcon": "",
      "iconPath": ""
    },
    {
      "id": 401542702,
      "nextDialogs": [
        401542703
      ],
      "talkRole": {
        "type": "TALK_ROLE_NPC",
        "_id": "30514"
      },
      "talkContentTextMapHash": 247576482,
      "talkAssetPath": "",
      "talkAssetPathAlter": "",
      "talkAudioName": "",
      "actionBefore": "",
      "actionWhile": "",
      "actionAfter": "",
      "optionIcon": "",
      "iconPath": ""
    },
    {
      "id": 401542703,
      "nextDialogs": [
        401542704
      ],
      "talkRole": {
        "type": "TALK_ROLE_NPC",
        "_id": "30515"
      },
      "talkContentTextMapHash": 1881508314,
      "talkAssetPath": "",
      "talkAssetPathAlter": "",
      "talkAudioName": "",
      "actionBefore": "",
      "actionWhile": "",
      "actionAfter": "",
      "optionIcon": "",
      "iconPath": ""
    },
    {
      "id": 401542704,
      "nextDialogs": [
        401542705
      ],
      "talkRole": {
        "type": "TALK_ROLE_NPC",
        "_id": "30515"
      },
      "talkContentTextMapHash": 1193854306,
      "talkAssetPath": "",
      "talkAssetPathAlter": "",
      "talkAudioName": "",
      "actionBefore": "",
      "actionWhile": "",
      "actionAfter": "",
      "optionIcon": "",
      "iconPath": ""
    },
    {
      "id": 401542705,
      "talkRole": {
        "type": "TALK_ROLE_NPC",
        "_id": "30514"
      },
      "talkContentTextMapHash": 743055778,
      "talkAssetPath": "",
      "talkAssetPathAlter": "",
      "talkAudioName": "",
      "actionBefore": "",
      "actionWhile": "",
      "actionAfter": "",
      "optionIcon": "",
      "iconPath": ""
    }
  ]
}