{
  "talkId": 4015731,
  "KPGKDHAFHFE": "ACTIVITY",
  "dialogList": [
    {
      "id": 401573101,
      "nextDialogs": [
        401573106,
        401573103,
        401573102
      ],
      "talkRole": {
        "type": "TALK_ROLE_NPC",
        "_id": "14082"
      },
      "talkContentTextMapHash": 3723446514,
      "talkAssetPath": "",
      "talkAssetPathAlter": "",
      "talkAudioName": "",
      "actionBefore": "",
      "actionWhile": "",
      "actionAfter": "",
      "optionIcon": "",
      "iconPath": ""
    },
    {
      "id": 401573106,
      "nextDialogs": [
        401573107
      ],
      "talkRole": {
        "type": "TALK_ROLE_PLAYER",
        "_id": ""
      },
      "talkContentTextMapHash": 3703666626,
      "talkAssetPath": "",
      "talkAssetPathAlter": "",
      "talkAudioName": "",
      "actionBefore": "",
      "actionWhile": "",
      "actionAfter": "",
      "optionIcon": "",
      "iconPath": ""
    },
    {
      "id": 401573107,
      "nextDialogs": [
        401573108
      ],
      "talkRole": {
        "type": "TALK_ROLE_NPC",
        "_id": "14082"
      },
      "talkContentTextMapHash": 3538839706,
      "talkAssetPath": "",
      "talkAssetPathAlter": "",
      "talkAudioName": "",
      "actionBefore": "",
      "actionWhile": "",
      "actionAfter": "",
      "optionIcon": "",
      "iconPath": ""
    },
    {
      "id": 401573108,
      "nextDialogs": [
        401573109
      ],
      "talkRole": {
        "type": "TALK_ROLE_NPC",
        "_id": "14082"
      },
      "talkContentTextMapHash": 2636316202,
      "talkAssetPath": "",
      "talkAssetPathAlter": "",
      "talkAudioName": "",
      "actionBefore": "",
      "actionWhile": "",
      "actionAfter": "",
      "optionIcon": "",
      "iconPath": ""
    },
    {
      "id": 401573109,
      "nextDialogs": [
        401573110
      ],
      "talkRole": {
        "type": "TALK_ROLE_NPC",
        "_id": "14082"
      },
      "talkContentTextMapHash": 3047284490,
      "talkAssetPath": "",
      "talkAssetPathAlter": "",
      "talkAudioName": "",
      "actionBefore": "",
      "actionWhile": "",
      "actionAfter": "",
      "optionIcon": "",
      "iconPath": ""
    },
    {
      "id": 401573110,
      "talkRole": {
        "type": "TALK_ROLE_NPC",
        "_id": "14082"
      },
      "talkContentTextMapHash": 444778714,
      "talkAssetPath": "",
      "talkAssetPathAlter": "",
      "talkAudioName": "",
      "actionBefore": "",
      "actionWhile": "",
      "actionAfter": "",
      "optionIcon": "",
      "iconPath": ""
    },
    {
      "id": 401573103,
      "nextDialogs": [
        401573104
      ],
      "talkRole": {
        "type": "TALK_ROLE_PLAYER",
        "_id": ""
      },
      "talkContentTextMapHash": 1194143282,
      "talkAssetPath": "",
      "talkAssetPathAlter": "",
      "talkAudioName": "",
      "actionBefore": "",
      "actionWhile": "",
      "actionAfter": "",
      "optionIcon": "",
      "iconPath": ""
    },
    {
      "id": 401573104,
      "nextDialogs": [
        401573105
      ],
      "talkRole": {
        "type": "TALK_ROLE_NPC",
        "_id": "14082"
      },
      "talkContentTextMapHash": 3328359826,
      "talkAssetPath": "",
      "talkAssetPathAlter": "",
      "talkAudioName": "",
      "actionBefore": "",
      "actionWhile": "",
      "actionAfter": "",
      "optionIcon": "",
      "iconPath": ""
    },
    {
      "id": 401573105,
      "talkRole": {
        "type": "TALK_ROLE_NPC",
        "_id": "14082"
      },
      "talkContentTextMapHash": 1791254210,
      "talkAssetPath": "",
      "talkAssetPathAlter": "",
      "talkAudioName": "",
      "actionBefore": "",
      "actionWhile": "",
      "actionAfter": "",
      "optionIcon": "",
      "iconPath": ""
    },
    {
      "id": 401573102,
      "talkRole": {
        "type": "TALK_ROLE_PLAYER",
        "_id": ""
      },
      "talkContentTextMapHash": 472797458,
      "talkAssetPath": "",
      "talkAssetPathAlter": "",
      "talkAudioName": "",
      "actionBefore": "",
      "actionWhile": "",
      "actionAfter": "",
      "optionIcon": "",
      "iconPath": ""
    }
  ]
}