{
  "talkId": 4015414,
  "KPGKDHAFHFE": "ACTIVITY",
  "dialogList": [
    {
      "id": 401541401,
      "nextDialogs": [
        401541402,
        401541403
      ],
      "talkRole": {
        "type": "TALK_ROLE_NPC",
        "_id": "30510"
      },
      "talkContentTextMapHash": 4245132906,
      "talkAssetPath": "",
      "talkAssetPathAlter": "",
      "talkAudioName": "",
      "actionBefore": "",
      "actionWhile": "",
      "actionAfter": "",
      "optionIcon": "",
      "iconPath": ""
    },
    {
      "id": 401541402,
      "talkShowType": "TALK_SHOW_FORCE_SELECT",
      "talkRole": {
        "type": "TALK_ROLE_PLAYER",
        "_id": ""
      },
      "talkContentTextMapHash": 998586626,
      "talkAssetPath": "",
      "talkAssetPathAlter": "",
      "talkAudioName": "",
      "actionBefore": "",
      "actionWhile": "",
      "actionAfter": "",
      "optionIcon": "UI_Icon_Intee_AlchemySim_Exam",
      "iconPath": ""
    },
    {
      "id": 401541403,
      "nextDialogs": [
        401541404
      ],
      "talkShowType": "TALK_SHOW_FORCE_SELECT",
      "talkRole": {
        "type": "TALK_ROLE_PLAYER",
        "_id": ""
      },
      "talkContentTextMapHash": 2912786482,
      "talkAssetPath": "",
      "talkAssetPathAlter": "",
      "talkAudioName": "",
      "actionBefore": "",
      "actionWhile": "",
      "actionAfter": "",
      "optionIcon": "",
      "iconPath": ""
    },
    {
      "id": 401541404,
      "talkRole": {
        "type": "TALK_ROLE_NPC",
        "_id": "30510"
      },
      "talkContentTextMapHash": 2869117506,
      "talkAssetPath": "",
      "talkAssetPathAlter": "",
      "talkAudioName": "",
      "actionBefore": "",
      "actionWhile": "",
      "actionAfter": "",
      "optionIcon": "",
      "iconPath": ""
    }
  ]
}