{
  "talkId": 4015783,
  "KPGKDHAFHFE": "ACTIVITY",
  "dialogList": [
    {
      "id": 401578301,
      "nextDialogs": [
        401578302
      ],
      "talkShowType": "TALK_SHOW_FORCE_SELECT",
      "talkRole": {
        "type": "TALK_ROLE_PLAYER",
        "_id": ""
      },
      "talkContentTextMapHash": 912343954,
      "talkAssetPath": "",
      "talkAssetPathAlter": "",
      "talkAudioName": "",
      "actionBefore": "",
      "actionWhile": "",
      "actionAfter": "",
      "optionIcon": "UI_Icon_Intee_GreatFestivalV2_Music",
      "iconPath": ""
    },
    {
      "id": 401578302,
      "nextDialogs": [
        401578303
      ],
      "talkRole": {
        "type": "TALK_ROLE_NPC",
        "_id": "3173"
      },
      "talkContentTextMapHash": 1280874778,
      "talkAssetPath": "",
      "talkAssetPathAlter": "",
      "talkAudioName": "",
      "actionBefore": "",
      "actionWhile": "",
      "actionAfter": "",
      "optionIcon": "",
      "iconPath": ""
    },
    {
      "id": 401578303,
      "nextDialogs": [
        401578304
      ],
      "talkRole": {
        "type": "TALK_ROLE_NPC",
        "_id": "3173"
      },
      "talkContentTextMapHash": 2941224370,
      "talkAssetPath": "",
      "talkAssetPathAlter": "",
      "talkAudioName": "",
      "actionBefore": "",
      "actionWhile": "",
      "actionAfter": "",
      "optionIcon": "",
      "iconPath": ""
    },
    {
      "id": 401578304,
      "nextDialogs": [
        401578305
      ],
      "talkRole": {
        "type": "TALK_ROLE_NPC",
        "_id": "3173"
      },
      "talkContentTextMapHash": 1678929914,
      "talkAssetPath": "",
      "talkAssetPathAlter": "",
      "talkAudioName": "",
      "actionBefore": "",
      "actionWhile": "",
      "actionAfter": "",
      "optionIcon": "",
      "iconPath": ""
    },
    {
      "id": 401578305,
      "talkRole": {
        "type": "TALK_ROLE_NPC",
        "_id": "3173"
      },
      "talkContentTextMapHash": 578554,
      "talkAssetPath": "",
      "talkAssetPathAlter": "",
      "talkAudioName": "",
      "actionBefore": "",
      "actionWhile": "",
      "actionAfter": "",
      "optionIcon": "",
      "iconPath": ""
    }
  ]
}