{
  "talkId": 4016108,
  "KPGKDHAFHFE": "ACTIVITY",
  "dialogList": [
    {
      "id": 401610301,
      "nextDialogs": [
        401610302
      ],
      "talkRole": {
        "type": "TALK_ROLE_NPC",
        "_id": "30540"
      },
      "talkContentTextMapHash": 2013758186,
      "talkAssetPath": "",
      "talkAssetPathAlter": "",
      "talkAudioName": "",
      "actionBefore": "",
      "actionWhile": "",
      "actionAfter": "",
      "optionIcon": "",
      "iconPath": ""
    },
    {
      "id": 401610302,
      "talkShowType": "TALK_SHOW_FORCE_SELECT",
      "talkRole": {
        "type": "TALK_ROLE_PLAYER",
        "_id": ""
      },
      "talkContentTextMapHash": 3544849698,
      "talkAssetPath": "",
      "talkAssetPathAlter": "",
      "talkAudioName": "",
      "actionBefore": "",
      "actionWhile": "",
      "actionAfter": "",
      "optionIcon": "UI_Icon_Intee_AlchemySim_Exam",
      "iconPath": ""
    }
  ]
}