{
  "talkId": 4016105,
  "KPGKDHAFHFE": "ACTIVITY",
  "dialogList": [
    {
      "id": 401610501,
      "talkRole": {
        "type": "TALK_ROLE_NPC",
        "_id": "30540"
      },
      "talkContentTextMapHash": 3556171130,
      "talkAssetPath": "",
      "talkAssetPathAlter": "",
      "talkAudioName": "",
      "actionBefore": "",
      "actionWhile": "",
      "actionAfter": "",
      "optionIcon": "",
      "iconPath": ""
    }
  ]
}