{
  "talkId": 4100113,
  "KPGKDHAFHFE": "ACTIVITY",
  "dialogList": [
    {
      "id": 410011301,
      "nextDialogs": [
        410011302
      ],
      "talkShowType": "TALK_SHOW_FORCE_SELECT",
      "talkRole": {
        "type": "TALK_ROLE_PLAYER",
        "_id": ""
      },
      "talkContentTextMapHash": 3254040498,
      "talkAssetPath": "",
      "talkAssetPathAlter": "",
      "talkAudioName": "",
      "actionBefore": "",
      "actionWhile": "",
      "actionAfter": "",
      "optionIcon": "",
      "iconPath": ""
    },
    {
      "id": 410011302,
      "talkRole": {
        "type": "TALK_ROLE_NPC",
        "_id": "30001"
      },
      "talkContentTextMapHash": 2968714642,
      "talkAssetPath": "",
      "talkAssetPathAlter": "",
      "talkAudioName": "",
      "actionBefore": "",
      "actionWhile": "",
      "actionAfter": "",
      "optionIcon": "",
      "iconPath": ""
    }
  ]
}