{
  "talkId": 4131530,
  "KPGKDHAFHFE": "ACTIVITY",
  "dialogList": [
    {
      "id": 413153001,
      "nextDialogs": [
        413153002
      ],
      "talkRole": {
        "type": "TALK_ROLE_PLAYER",
        "_id": ""
      },
      "talkContentTextMapHash": 2803314194,
      "talkAssetPath": "",
      "talkAssetPathAlter": "",
      "talkAudioName": "",
      "actionBefore": "",
      "actionWhile": "",
      "actionAfter": "",
      "optionIcon": "",
      "iconPath": ""
    },
    {
      "id": 413153002,
      "talkRole": {
        "type": "TALK_ROLE_NPC",
        "_id": "2049"
      },
      "talkContentTextMapHash": 600613466,
      "talkAssetPath": "",
      "talkAssetPathAlter": "",
      "talkAudioName": "",
      "actionBefore": "",
      "actionWhile": "",
      "actionAfter": "",
      "optionIcon": "",
      "iconPath": ""
    }
  ]
}