{
  "talkId": 4131512,
  "KPGKDHAFHFE": "ACTIVITY",
  "dialogList": [
    {
      "id": 413151201,
      "nextDialogs": [
        413151202
      ],
      "talkRole": {
        "type": "TALK_ROLE_NPC",
        "_id": "2012"
      },
      "talkContentTextMapHash": 1472807042,
      "talkAssetPath": "",
      "talkAssetPathAlter": "",
      "talkAudioName": "",
      "actionBefore": "",
      "actionWhile": "",
      "actionAfter": "",
      "optionIcon": "",
      "iconPath": ""
    },
    {
      "id": 413151202,
      "nextDialogs": [
        413151203
      ],
      "talkRole": {
        "type": "TALK_ROLE_NPC",
        "_id": "2012"
      },
      "talkContentTextMapHash": 130195394,
      "talkAssetPath": "",
      "talkAssetPathAlter": "",
      "talkAudioName": "",
      "actionBefore": "",
      "actionWhile": "",
      "actionAfter": "",
      "optionIcon": "",
      "iconPath": ""
    },
    {
      "id": 413151203,
      "nextDialogs": [
        413151204
      ],
      "talkRole": {
        "type": "TALK_ROLE_NPC",
        "_id": "2012"
      },
      "talkContentTextMapHash": 2717101722,
      "talkAssetPath": "",
      "talkAssetPathAlter": "",
      "talkAudioName": "",
      "actionBefore": "",
      "actionWhile": "",
      "actionAfter": "",
      "optionIcon": "",
      "iconPath": ""
    },
    {
      "id": 413151204,
      "nextDialogs": [
        413151205
      ],
      "talkRole": {
        "type": "TALK_ROLE_NPC",
        "_id": "2012"
      },
      "talkContentTextMapHash": 2810155274,
      "talkAssetPath": "",
      "talkAssetPathAlter": "",
      "talkAudioName": "",
      "actionBefore": "",
      "actionWhile": "",
      "actionAfter": "",
      "optionIcon": "",
      "iconPath": ""
    },
    {
      "id": 413151205,
      "talkRole": {
        "type": "TALK_ROLE_NPC",
        "_id": "2012"
      },
      "talkContentTextMapHash": 1981774706,
      "talkAssetPath": "",
      "talkAssetPathAlter": "",
      "talkAudioName": "",
      "actionBefore": "",
      "actionWhile": "",
      "actionAfter": "",
      "optionIcon": "",
      "iconPath": ""
    }
  ]
}