{
  "talkId": 4131519,
  "KPGKDHAFHFE": "ACTIVITY",
  "dialogList": [
    {
      "id": 413151901,
      "nextDialogs": [
        413151902
      ],
      "talkRole": {
        "type": "TALK_ROLE_NPC",
        "_id": "2059"
      },
      "talkContentTextMapHash": 3537238386,
      "talkAssetPath": "",
      "talkAssetPathAlter": "",
      "talkAudioName": "",
      "actionBefore": "",
      "actionWhile": "TEST/LerpInNpcNoSteer",
      "actionAfter": "",
      "optionIcon": "",
      "iconPath": ""
    },
    {
      "id": 413151902,
      "nextDialogs": [
        413151903
      ],
      "talkRole": {
        "type": "TALK_ROLE_NPC",
        "_id": "2086"
      },
      "talkContentTextMapHash": 3016977482,
      "talkAssetPath": "",
      "talkAssetPathAlter": "",
      "talkAudioName": "",
      "actionBefore": "",
      "actionWhile": "",
      "actionAfter": "",
      "optionIcon": "",
      "iconPath": ""
    },
    {
      "id": 413151903,
      "nextDialogs": [
        413151904
      ],
      "talkRole": {
        "type": "TALK_ROLE_NPC",
        "_id": "2059"
      },
      "talkContentTextMapHash": 4225567946,
      "talkAssetPath": "",
      "talkAssetPathAlter": "",
      "talkAudioName": "",
      "actionBefore": "",
      "actionWhile": "",
      "actionAfter": "",
      "optionIcon": "",
      "iconPath": ""
    },
    {
      "id": 413151904,
      "nextDialogs": [
        413151905
      ],
      "talkRole": {
        "type": "TALK_ROLE_NPC",
        "_id": "2086"
      },
      "talkContentTextMapHash": 2397331650,
      "talkAssetPath": "",
      "talkAssetPathAlter": "",
      "talkAudioName": "",
      "actionBefore": "",
      "actionWhile": "",
      "actionAfter": "",
      "optionIcon": "",
      "iconPath": ""
    },
    {
      "id": 413151905,
      "nextDialogs": [
        413151906
      ],
      "talkRole": {
        "type": "TALK_ROLE_NPC",
        "_id": "2059"
      },
      "talkContentTextMapHash": 351960378,
      "talkAssetPath": "",
      "talkAssetPathAlter": "",
      "talkAudioName": "",
      "actionBefore": "",
      "actionWhile": "",
      "actionAfter": "",
      "optionIcon": "",
      "iconPath": ""
    },
    {
      "id": 413151906,
      "nextDialogs": [
        413151907
      ],
      "talkRole": {
        "type": "TALK_ROLE_NPC",
        "_id": "2086"
      },
      "talkContentTextMapHash": 2842189514,
      "talkAssetPath": "",
      "talkAssetPathAlter": "",
      "talkAudioName": "",
      "actionBefore": "",
      "actionWhile": "",
      "actionAfter": "",
      "optionIcon": "",
      "iconPath": ""
    },
    {
      "id": 413151907,
      "nextDialogs": [
        413151908
      ],
      "talkRole": {
        "type": "TALK_ROLE_NPC",
        "_id": "2059"
      },
      "talkContentTextMapHash": 492480506,
      "talkAssetPath": "",
      "talkAssetPathAlter": "",
      "talkAudioName": "",
      "actionBefore": "",
      "actionWhile": "",
      "actionAfter": "",
      "optionIcon": "",
      "iconPath": ""
    },
    {
      "id": 413151908,
      "nextDialogs": [
        413151909
      ],
      "talkRole": {
        "type": "TALK_ROLE_NPC",
        "_id": "2086"
      },
      "talkContentTextMapHash": 3631651626,
      "talkAssetPath": "",
      "talkAssetPathAlter": "",
      "talkAudioName": "",
      "actionBefore": "",
      "actionWhile": "",
      "actionAfter": "",
      "optionIcon": "",
      "iconPath": ""
    },
    {
      "id": 413151909,
      "nextDialogs": [
        413151910
      ],
      "talkRole": {
        "type": "TALK_ROLE_NPC",
        "_id": "2059"
      },
      "talkContentTextMapHash": 1259762418,
      "talkAssetPath": "",
      "talkAssetPathAlter": "",
      "talkAudioName": "",
      "actionBefore": "",
      "actionWhile": "",
      "actionAfter": "",
      "optionIcon": "",
      "iconPath": ""
    },
    {
      "id": 413151910,
      "nextDialogs": [
        413151911
      ],
      "talkRole": {
        "type": "TALK_ROLE_NPC",
        "_id": "2086"
      },
      "talkContentTextMapHash": 2442169786,
      "talkAssetPath": "",
      "talkAssetPathAlter": "",
      "talkAudioName": "",
      "actionBefore": "",
      "actionWhile": "",
      "actionAfter": "",
      "optionIcon": "",
      "iconPath": ""
    },
    {
      "id": 413151911,
      "nextDialogs": [
        413151912
      ],
      "talkRole": {
        "type": "TALK_ROLE_NPC",
        "_id": "2059"
      },
      "talkContentTextMapHash": 1649438122,
      "talkAssetPath": "",
      "talkAssetPathAlter": "",
      "talkAudioName": "",
      "actionBefore": "",
      "actionWhile": "",
      "actionAfter": "",
      "optionIcon": "",
      "iconPath": ""
    },
    {
      "id": 413151912,
      "talkRole": {
        "type": "TALK_ROLE_NPC",
        "_id": "2086"
      },
      "talkContentTextMapHash": 1398285154,
      "talkAssetPath": "",
      "talkAssetPathAlter": "",
      "talkAudioName": "",
      "actionBefore": "",
      "actionWhile": "",
      "actionAfter": "TEST/LerpOutNpcNoSteer",
      "optionIcon": "",
      "iconPath": ""
    }
  ]
}