{
  "talkId": 4131503,
  "KPGKDHAFHFE": "ACTIVITY",
  "dialogList": [
    {
      "id": 413150301,
      "nextDialogs": [
        413150302
      ],
      "talkRole": {
        "type": "TALK_ROLE_PLAYER",
        "_id": ""
      },
      "talkContentTextMapHash": 1203784722,
      "talkAssetPath": "",
      "talkAssetPathAlter": "",
      "talkAudioName": "",
      "actionBefore": "",
      "actionWhile": "",
      "actionAfter": "",
      "optionIcon": "",
      "iconPath": ""
    },
    {
      "id": 413150302,
      "nextDialogs": [
        413150303
      ],
      "talkRole": {
        "type": "TALK_ROLE_NPC",
        "_id": "2044"
      },
      "talkContentTextMapHash": 1732592338,
      "talkAssetPath": "",
      "talkAssetPathAlter": "",
      "talkAudioName": "",
      "actionBefore": "",
      "actionWhile": "",
      "actionAfter": "",
      "optionIcon": "",
      "iconPath": ""
    },
    {
      "id": 413150303,
      "talkRole": {
        "type": "TALK_ROLE_NPC",
        "_id": "2044"
      },
      "talkContentTextMapHash": 1058299938,
      "talkAssetPath": "",
      "talkAssetPathAlter": "",
      "talkAudioName": "",
      "actionBefore": "",
      "actionWhile": "",
      "actionAfter": "",
      "optionIcon": "",
      "iconPath": ""
    }
  ]
}