{
  "talkId": 4141440,
  "KPGKDHAFHFE": "ACTIVITY",
  "dialogList": [
    {
      "id": 414144001,
      "nextDialogs": [
        414144002
      ],
      "talkShowType": "TALK_SHOW_FORCE_SELECT",
      "talkRole": {
        "type": "TALK_ROLE_PLAYER",
        "_id": ""
      },
      "talkContentTextMapHash": 1006471314,
      "talkAssetPath": "",
      "talkAssetPathAlter": "",
      "talkAudioName": "",
      "actionBefore": "",
      "actionWhile": "",
      "actionAfter": "",
      "optionIcon": "",
      "iconPath": ""
    },
    {
      "id": 414144002,
      "nextDialogs": [
        414144003
      ],
      "talkRole": {
        "type": "TALK_ROLE_NPC",
        "_id": "30046"
      },
      "talkContentTextMapHash": 2747927810,
      "talkAssetPath": "",
      "talkAssetPathAlter": "",
      "talkAudioName": "",
      "actionBefore": "",
      "actionWhile": "",
      "actionAfter": "",
      "optionIcon": "",
      "iconPath": ""
    },
    {
      "id": 414144003,
      "nextDialogs": [
        414144004
      ],
      "talkRole": {
        "type": "TALK_ROLE_NPC",
        "_id": "30046"
      },
      "talkContentTextMapHash": 2324517130,
      "talkAssetPath": "",
      "talkAssetPathAlter": "",
      "talkAudioName": "",
      "actionBefore": "",
      "actionWhile": "",
      "actionAfter": "",
      "optionIcon": "",
      "iconPath": ""
    },
    {
      "id": 414144004,
      "nextDialogs": [
        414144005,
        414144010
      ],
      "talkRole": {
        "type": "TALK_ROLE_NPC",
        "_id": "30046"
      },
      "talkContentTextMapHash": 1925912322,
      "talkAssetPath": "",
      "talkAssetPathAlter": "",
      "talkAudioName": "",
      "actionBefore": "",
      "actionWhile": "",
      "actionAfter": "",
      "optionIcon": "",
      "iconPath": ""
    },
    {
      "id": 414144005,
      "nextDialogs": [
        414144006
      ],
      "talkShowType": "TALK_SHOW_FORCE_SELECT",
      "talkRole": {
        "type": "TALK_ROLE_PLAYER",
        "_id": ""
      },
      "talkContentTextMapHash": 2556237610,
      "talkAssetPath": "",
      "talkAssetPathAlter": "",
      "talkAudioName": "",
      "actionBefore": "",
      "actionWhile": "",
      "actionAfter": "",
      "optionIcon": "",
      "iconPath": ""
    },
    {
      "id": 414144006,
      "nextDialogs": [
        414144007
      ],
      "talkRole": {
        "type": "TALK_ROLE_NPC",
        "_id": "30046"
      },
      "talkContentTextMapHash": 2548629866,
      "talkAssetPath": "",
      "talkAssetPathAlter": "",
      "talkAudioName": "",
      "actionBefore": "",
      "actionWhile": "",
      "actionAfter": "",
      "optionIcon": "",
      "iconPath": ""
    },
    {
      "id": 414144007,
      "nextDialogs": [
        414144008
      ],
      "talkRole": {
        "type": "TALK_ROLE_NPC",
        "_id": "30046"
      },
      "talkContentTextMapHash": 668902346,
      "talkAssetPath": "",
      "talkAssetPathAlter": "",
      "talkAudioName": "",
      "actionBefore": "",
      "actionWhile": "",
      "actionAfter": "",
      "optionIcon": "",
      "iconPath": ""
    },
    {
      "id": 414144008,
      "nextDialogs": [
        414144009
      ],
      "talkRole": {
        "type": "TALK_ROLE_NPC",
        "_id": "30046"
      },
      "talkContentTextMapHash": 2707163474,
      "talkAssetPath": "",
      "talkAssetPathAlter": "",
      "talkAudioName": "",
      "actionBefore": "",
      "actionWhile": "",
      "actionAfter": "",
      "optionIcon": "",
      "iconPath": ""
    },
    {
      "id": 414144009,
      "talkRole": {
        "type": "TALK_ROLE_NPC",
        "_id": "30046"
      },
      "talkContentTextMapHash": 1340806434,
      "talkAssetPath": "",
      "talkAssetPathAlter": "",
      "talkAudioName": "",
      "actionBefore": "",
      "actionWhile": "",
      "actionAfter": "",
      "optionIcon": "",
      "iconPath": ""
    },
    {
      "id": 414144010,
      "nextDialogs": [
        414144011
      ],
      "talkShowType": "TALK_SHOW_FORCE_SELECT",
      "talkRole": {
        "type": "TALK_ROLE_PLAYER",
        "_id": ""
      },
      "talkContentTextMapHash": 1059615258,
      "talkAssetPath": "",
      "talkAssetPathAlter": "",
      "talkAudioName": "",
      "actionBefore": "",
      "actionWhile": "",
      "actionAfter": "",
      "optionIcon": "",
      "iconPath": ""
    },
    {
      "id": 414144011,
      "nextDialogs": [
        414144012
      ],
      "talkRole": {
        "type": "TALK_ROLE_NPC",
        "_id": "30046"
      },
      "talkContentTextMapHash": 4152141186,
      "talkAssetPath": "",
      "talkAssetPathAlter": "",
      "talkAudioName": "",
      "actionBefore": "",
      "actionWhile": "",
      "actionAfter": "",
      "optionIcon": "",
      "iconPath": ""
    },
    {
      "id": 414144012,
      "talkRole": {
        "type": "TALK_ROLE_NPC",
        "_id": "30046"
      },
      "talkContentTextMapHash": 213465370,
      "talkAssetPath": "",
      "talkAssetPathAlter": "",
      "talkAudioName": "",
      "actionBefore": "",
      "actionWhile": "",
      "actionAfter": "",
      "optionIcon": "",
      "iconPath": ""
    }
  ]
}