{
  "talkId": 4141499,
  "KPGKDHAFHFE": "ACTIVITY",
  "dialogList": [
    {
      "id": 414149901,
      "nextDialogs": [
        414149902
      ],
      "talkRole": {
        "type": "TALK_ROLE_NPC",
        "_id": "1401"
      },
      "talkContentTextMapHash": 2729298450,
      "talkAssetPath": "",
      "talkAssetPathAlter": "",
      "talkAudioName": "",
      "actionBefore": "TEST/LerpInNpcNoSteer",
      "actionWhile": "",
      "actionAfter": "",
      "optionIcon": "",
      "iconPath": ""
    },
    {
      "id": 414149902,
      "nextDialogs": [
        414149903
      ],
      "talkRole": {
        "type": "TALK_ROLE_NPC",
        "_id": "1403"
      },
      "talkContentTextMapHash": 2802883938,
      "talkAssetPath": "",
      "talkAssetPathAlter": "",
      "talkAudioName": "",
      "actionBefore": "",
      "actionWhile": "",
      "actionAfter": "",
      "optionIcon": "",
      "iconPath": ""
    },
    {
      "id": 414149903,
      "nextDialogs": [
        414149904
      ],
      "talkRole": {
        "type": "TALK_ROLE_NPC",
        "_id": "1403"
      },
      "talkContentTextMapHash": 2994767794,
      "talkAssetPath": "",
      "talkAssetPathAlter": "",
      "talkAudioName": "",
      "actionBefore": "",
      "actionWhile": "",
      "actionAfter": "",
      "optionIcon": "",
      "iconPath": ""
    },
    {
      "id": 414149904,
      "nextDialogs": [
        414149905
      ],
      "talkRole": {
        "type": "TALK_ROLE_NPC",
        "_id": "1401"
      },
      "talkContentTextMapHash": 1208564074,
      "talkAssetPath": "",
      "talkAssetPathAlter": "",
      "talkAudioName": "",
      "actionBefore": "",
      "actionWhile": "",
      "actionAfter": "",
      "optionIcon": "",
      "iconPath": ""
    },
    {
      "id": 414149905,
      "nextDialogs": [
        414149906
      ],
      "talkRole": {
        "type": "TALK_ROLE_NPC",
        "_id": "1403"
      },
      "talkContentTextMapHash": 3477004250,
      "talkAssetPath": "",
      "talkAssetPathAlter": "",
      "talkAudioName": "",
      "actionBefore": "",
      "actionWhile": "",
      "actionAfter": "",
      "optionIcon": "",
      "iconPath": ""
    },
    {
      "id": 414149906,
      "nextDialogs": [
        414149907
      ],
      "talkRole": {
        "type": "TALK_ROLE_NPC",
        "_id": "1401"
      },
      "talkContentTextMapHash": 2942784986,
      "talkAssetPath": "",
      "talkAssetPathAlter": "",
      "talkAudioName": "",
      "actionBefore": "",
      "actionWhile": "",
      "actionAfter": "",
      "optionIcon": "",
      "iconPath": ""
    },
    {
      "id": 414149907,
      "nextDialogs": [
        414149908
      ],
      "talkRole": {
        "type": "TALK_ROLE_NPC",
        "_id": "1403"
      },
      "talkContentTextMapHash": 110682298,
      "talkAssetPath": "",
      "talkAssetPathAlter": "",
      "talkAudioName": "",
      "actionBefore": "",
      "actionWhile": "",
      "actionAfter": "",
      "optionIcon": "",
      "iconPath": ""
    },
    {
      "id": 414149908,
      "talkRole": {
        "type": "TALK_ROLE_NPC",
        "_id": "1401"
      },
      "talkContentTextMapHash": 119161554,
      "talkAssetPath": "",
      "talkAssetPathAlter": "",
      "talkAudioName": "",
      "actionBefore": "",
      "actionWhile": "",
      "actionAfter": "",
      "optionIcon": "",
      "iconPath": ""
    }
  ]
}