{
  "talkId": 4141488,
  "KPGKDHAFHFE": "ACTIVITY",
  "dialogList": [
    {
      "id": 414148801,
      "nextDialogs": [
        414148802
      ],
      "talkShowType": "TALK_SHOW_FORCE_SELECT",
      "talkRole": {
        "type": "TALK_ROLE_PLAYER",
        "_id": ""
      },
      "talkContentTextMapHash": 1404235066,
      "talkAssetPath": "",
      "talkAssetPathAlter": "",
      "talkAudioName": "",
      "actionBefore": "",
      "actionWhile": "",
      "actionAfter": "",
      "optionIcon": "",
      "iconPath": ""
    },
    {
      "id": 414148802,
      "nextDialogs": [
        414148803
      ],
      "talkRole": {
        "type": "TALK_ROLE_NPC",
        "_id": "1425"
      },
      "talkContentTextMapHash": 1569311986,
      "talkAssetPath": "",
      "talkAssetPathAlter": "",
      "talkAudioName": "",
      "actionBefore": "",
      "actionWhile": "",
      "actionAfter": "",
      "optionIcon": "",
      "iconPath": ""
    },
    {
      "id": 414148803,
      "nextDialogs": [
        414148804
      ],
      "talkRole": {
        "type": "TALK_ROLE_NPC",
        "_id": "1425"
      },
      "talkContentTextMapHash": 1911824354,
      "talkAssetPath": "",
      "talkAssetPathAlter": "",
      "talkAudioName": "",
      "actionBefore": "",
      "actionWhile": "",
      "actionAfter": "",
      "optionIcon": "",
      "iconPath": ""
    },
    {
      "id": 414148804,
      "nextDialogs": [
        414148805
      ],
      "talkRole": {
        "type": "TALK_ROLE_NPC",
        "_id": "1425"
      },
      "talkContentTextMapHash": 3191998554,
      "talkAssetPath": "",
      "talkAssetPathAlter": "",
      "talkAudioName": "",
      "actionBefore": "",
      "actionWhile": "",
      "actionAfter": "",
      "optionIcon": "",
      "iconPath": ""
    },
    {
      "id": 414148805,
      "talkRole": {
        "type": "TALK_ROLE_NPC",
        "_id": "1425"
      },
      "talkContentTextMapHash": 3108559786,
      "talkAssetPath": "",
      "talkAssetPathAlter": "",
      "talkAudioName": "",
      "actionBefore": "",
      "actionWhile": "",
      "actionAfter": "",
      "optionIcon": "",
      "iconPath": ""
    }
  ]
}