{
  "talkId": 4141453,
  "KPGKDHAFHFE": "ACTIVITY",
  "dialogList": [
    {
      "id": 414145301,
      "talkRole": {
        "type": "TALK_ROLE_NPC",
        "_id": "1539"
      },
      "talkContentTextMapHash": 2870060730,
      "talkAssetPath": "",
      "talkAssetPathAlter": "",
      "talkAudioName": "",
      "actionBefore": "",
      "actionWhile": "",
      "actionAfter": "",
      "optionIcon": "",
      "iconPath": ""
    }
  ]
}