{
  "talkId": 4141477,
  "KPGKDHAFHFE": "ACTIVITY",
  "dialogList": [
    {
      "id": 414147701,
      "nextDialogs": [
        414147702
      ],
      "talkShowType": "TALK_SHOW_FORCE_SELECT",
      "talkRole": {
        "type": "TALK_ROLE_PLAYER",
        "_id": ""
      },
      "talkContentTextMapHash": 725417098,
      "talkAssetPath": "",
      "talkAssetPathAlter": "",
      "talkAudioName": "",
      "actionBefore": "",
      "actionWhile": "",
      "actionAfter": "",
      "optionIcon": "",
      "iconPath": ""
    },
    {
      "id": 414147702,
      "talkRole": {
        "type": "TALK_ROLE_NPC",
        "_id": "1439"
      },
      "talkContentTextMapHash": 2538816066,
      "talkAssetPath": "",
      "talkAssetPathAlter": "",
      "talkAudioName": "",
      "actionBefore": "",
      "actionWhile": "",
      "actionAfter": "",
      "optionIcon": "",
      "iconPath": ""
    }
  ]
}