{
  "talkId": 4141437,
  "KPGKDHAFHFE": "ACTIVITY",
  "dialogList": [
    {
      "id": 414143701,
      "nextDialogs": [
        414143702
      ],
      "talkShowType": "TALK_SHOW_FORCE_SELECT",
      "talkRole": {
        "type": "TALK_ROLE_PLAYER",
        "_id": ""
      },
      "talkContentTextMapHash": 445017090,
      "talkAssetPath": "",
      "talkAssetPathAlter": "",
      "talkAudioName": "",
      "actionBefore": "",
      "actionWhile": "",
      "actionAfter": "",
      "optionIcon": "",
      "iconPath": ""
    },
    {
      "id": 414143702,
      "nextDialogs": [
        414143703
      ],
      "talkRole": {
        "type": "TALK_ROLE_NPC",
        "_id": "30047"
      },
      "talkContentTextMapHash": 3450334194,
      "talkAssetPath": "",
      "talkAssetPathAlter": "",
      "talkAudioName": "",
      "actionBefore": "",
      "actionWhile": "",
      "actionAfter": "",
      "optionIcon": "",
      "iconPath": ""
    },
    {
      "id": 414143703,
      "nextDialogs": [
        414143704
      ],
      "talkRole": {
        "type": "TALK_ROLE_NPC",
        "_id": "30047"
      },
      "talkContentTextMapHash": 1125298866,
      "talkAssetPath": "",
      "talkAssetPathAlter": "",
      "talkAudioName": "",
      "actionBefore": "",
      "actionWhile": "",
      "actionAfter": "",
      "optionIcon": "",
      "iconPath": ""
    },
    {
      "id": 414143704,
      "nextDialogs": [
        414143705
      ],
      "talkRole": {
        "type": "TALK_ROLE_NPC",
        "_id": "30047"
      },
      "talkContentTextMapHash": 1898771282,
      "talkAssetPath": "",
      "talkAssetPathAlter": "",
      "talkAudioName": "",
      "actionBefore": "",
      "actionWhile": "",
      "actionAfter": "",
      "optionIcon": "",
      "iconPath": ""
    },
    {
      "id": 414143705,
      "nextDialogs": [
        414143706
      ],
      "talkShowType": "TALK_SHOW_FORCE_SELECT",
      "talkRole": {
        "type": "TALK_ROLE_PLAYER",
        "_id": ""
      },
      "talkContentTextMapHash": 2804838290,
      "talkAssetPath": "",
      "talkAssetPathAlter": "",
      "talkAudioName": "",
      "actionBefore": "",
      "actionWhile": "",
      "actionAfter": "",
      "optionIcon": "",
      "iconPath": ""
    },
    {
      "id": 414143706,
      "nextDialogs": [
        414143707
      ],
      "talkRole": {
        "type": "TALK_ROLE_NPC",
        "_id": "30047"
      },
      "talkContentTextMapHash": 195500162,
      "talkAssetPath": "",
      "talkAssetPathAlter": "",
      "talkAudioName": "",
      "actionBefore": "",
      "actionWhile": "",
      "actionAfter": "",
      "optionIcon": "",
      "iconPath": ""
    },
    {
      "id": 414143707,
      "talkRole": {
        "type": "TALK_ROLE_NPC",
        "_id": "30047"
      },
      "talkContentTextMapHash": 986965562,
      "talkAssetPath": "",
      "talkAssetPathAlter": "",
      "talkAudioName": "",
      "actionBefore": "",
      "actionWhile": "",
      "actionAfter": "",
      "optionIcon": "",
      "iconPath": ""
    }
  ]
}