{
  "talkId": 4141482,
  "KPGKDHAFHFE": "ACTIVITY",
  "dialogList": [
    {
      "id": 414148201,
      "talkRole": {
        "type": "TALK_ROLE_NPC",
        "_id": "1606"
      },
      "talkContentTextMapHash": 3308374994,
      "talkAssetPath": "",
      "talkAssetPathAlter": "",
      "talkAudioName": "",
      "actionBefore": "",
      "actionWhile": "",
      "actionAfter": "",
      "optionIcon": "",
      "iconPath": ""
    }
  ]
}