{
  "talkId": 4141447,
  "KPGKDHAFHFE": "ACTIVITY",
  "dialogList": [
    {
      "id": 414144701,
      "nextDialogs": [
        414144702
      ],
      "talkShowType": "TALK_SHOW_FORCE_SELECT",
      "talkRole": {
        "type": "TALK_ROLE_PLAYER",
        "_id": ""
      },
      "talkContentTextMapHash": 2644718826,
      "talkAssetPath": "",
      "talkAssetPathAlter": "",
      "talkAudioName": "",
      "actionBefore": "",
      "actionWhile": "",
      "actionAfter": "",
      "optionIcon": "",
      "iconPath": ""
    },
    {
      "id": 414144702,
      "nextDialogs": [
        414144703
      ],
      "talkRole": {
        "type": "TALK_ROLE_NPC",
        "_id": "1555"
      },
      "talkContentTextMapHash": 1337953354,
      "talkAssetPath": "",
      "talkAssetPathAlter": "",
      "talkAudioName": "",
      "actionBefore": "",
      "actionWhile": "",
      "actionAfter": "",
      "optionIcon": "",
      "iconPath": ""
    },
    {
      "id": 414144703,
      "nextDialogs": [
        414144704
      ],
      "talkRole": {
        "type": "TALK_ROLE_NPC",
        "_id": "1555"
      },
      "talkContentTextMapHash": 1273559114,
      "talkAssetPath": "",
      "talkAssetPathAlter": "",
      "talkAudioName": "",
      "actionBefore": "",
      "actionWhile": "",
      "actionAfter": "",
      "optionIcon": "",
      "iconPath": ""
    },
    {
      "id": 414144704,
      "nextDialogs": [
        414144705
      ],
      "talkRole": {
        "type": "TALK_ROLE_NPC",
        "_id": "1555"
      },
      "talkContentTextMapHash": 2717166730,
      "talkAssetPath": "",
      "talkAssetPathAlter": "",
      "talkAudioName": "",
      "actionBefore": "",
      "actionWhile": "",
      "actionAfter": "",
      "optionIcon": "",
      "iconPath": ""
    },
    {
      "id": 414144705,
      "nextDialogs": [
        414144706
      ],
      "talkRole": {
        "type": "TALK_ROLE_NPC",
        "_id": "1555"
      },
      "talkContentTextMapHash": 756462018,
      "talkAssetPath": "",
      "talkAssetPathAlter": "",
      "talkAudioName": "",
      "actionBefore": "",
      "actionWhile": "",
      "actionAfter": "",
      "optionIcon": "",
      "iconPath": ""
    },
    {
      "id": 414144706,
      "talkRole": {
        "type": "TALK_ROLE_NPC",
        "_id": "1555"
      },
      "talkContentTextMapHash": 3829356586,
      "talkAssetPath": "",
      "talkAssetPathAlter": "",
      "talkAudioName": "",
      "actionBefore": "",
      "actionWhile": "",
      "actionAfter": "",
      "optionIcon": "",
      "iconPath": ""
    }
  ]
}