{
  "talkId": 4141483,
  "KPGKDHAFHFE": "ACTIVITY",
  "dialogList": [
    {
      "id": 414148301,
      "nextDialogs": [
        414148302
      ],
      "talkShowType": "TALK_SHOW_FORCE_SELECT",
      "talkRole": {
        "type": "TALK_ROLE_PLAYER",
        "_id": ""
      },
      "talkContentTextMapHash": 3100896698,
      "talkAssetPath": "",
      "talkAssetPathAlter": "",
      "talkAudioName": "",
      "actionBefore": "",
      "actionWhile": "",
      "actionAfter": "",
      "optionIcon": "",
      "iconPath": ""
    },
    {
      "id": 414148302,
      "talkRole": {
        "type": "TALK_ROLE_NPC",
        "_id": "1603"
      },
      "talkContentTextMapHash": 2365094658,
      "talkAssetPath": "",
      "talkAssetPathAlter": "",
      "talkAudioName": "",
      "actionBefore": "",
      "actionWhile": "",
      "actionAfter": "",
      "optionIcon": "",
      "iconPath": ""
    }
  ]
}