{
  "talkId": 4141439,
  "KPGKDHAFHFE": "ACTIVITY",
  "dialogList": [
    {
      "id": 414143901,
      "nextDialogs": [
        414143902
      ],
      "talkShowType": "TALK_SHOW_FORCE_SELECT",
      "talkRole": {
        "type": "TALK_ROLE_PLAYER",
        "_id": ""
      },
      "talkContentTextMapHash": 1361824490,
      "talkAssetPath": "",
      "talkAssetPathAlter": "",
      "talkAudioName": "",
      "actionBefore": "",
      "actionWhile": "",
      "actionAfter": "",
      "optionIcon": "",
      "iconPath": ""
    },
    {
      "id": 414143902,
      "talkRole": {
        "type": "TALK_ROLE_NPC",
        "_id": "30046"
      },
      "talkContentTextMapHash": 3249835682,
      "talkAssetPath": "",
      "talkAssetPathAlter": "",
      "talkAudioName": "",
      "actionBefore": "",
      "actionWhile": "",
      "actionAfter": "",
      "optionIcon": "",
      "iconPath": ""
    }
  ]
}