{
  "talkId": 4141459,
  "KPGKDHAFHFE": "ACTIVITY",
  "dialogList": [
    {
      "id": 414145901,
      "nextDialogs": [
        414145902
      ],
      "talkRole": {
        "type": "TALK_ROLE_NPC",
        "_id": "1602"
      },
      "talkContentTextMapHash": 2550077058,
      "talkAssetPath": "",
      "talkAssetPathAlter": "",
      "talkAudioName": "",
      "actionBefore": "",
      "actionWhile": "",
      "actionAfter": "",
      "optionIcon": "",
      "iconPath": ""
    },
    {
      "id": 414145902,
      "talkRole": {
        "type": "TALK_ROLE_NPC",
        "_id": "1602"
      },
      "talkContentTextMapHash": 4162287226,
      "talkAssetPath": "",
      "talkAssetPathAlter": "",
      "talkAudioName": "",
      "actionBefore": "",
      "actionWhile": "",
      "actionAfter": "",
      "optionIcon": "",
      "iconPath": ""
    }
  ]
}