{
  "talkId": 6900320,
  "KPGKDHAFHFE": "ACTIVITY",
  "dialogList": [
    {
      "id": 690032001,
      "talkRole": {
        "type": "TALK_ROLE_NPC",
        "_id": "9003"
      },
      "talkContentTextMapHash": 1768040602,
      "talkAssetPath": "",
      "talkAssetPathAlter": "",
      "talkAudioName": "",
      "actionBefore": "",
      "actionWhile": "",
      "actionAfter": "",
      "optionIcon": "",
      "iconPath": ""
    }
  ]
}