{
  "talkId": 6900616,
  "KPGKDHAFHFE": "ACTIVITY",
  "dialogList": [
    {
      "id": 690061601,
      "talkRole": {
        "type": "TALK_ROLE_NPC",
        "_id": "9006"
      },
      "talkContentTextMapHash": 2805975778,
      "talkAssetPath": "",
      "talkAssetPathAlter": "",
      "talkAudioName": "",
      "actionBefore": "",
      "actionWhile": "",
      "actionAfter": "",
      "optionIcon": "",
      "iconPath": ""
    }
  ]
}