{
  "talkId": 6901517,
  "KPGKDHAFHFE": "ACTIVITY",
  "dialogList": [
    {
      "id": 690151701,
      "talkRole": {
        "type": "TALK_ROLE_NPC",
        "_id": "9015"
      },
      "talkContentTextMapHash": 4215858610,
      "talkAssetPath": "",
      "talkAssetPathAlter": "",
      "talkAudioName": "",
      "actionBefore": "",
      "actionWhile": "",
      "actionAfter": "",
      "optionIcon": "",
      "iconPath": ""
    }
  ]
}