{
  "talkId": 6902718,
  "KPGKDHAFHFE": "ACTIVITY",
  "dialogList": [
    {
      "id": 690271001,
      "talkShowType": "TALK_SHOW_FORCE_SELECT",
      "talkRole": {
        "type": "TALK_ROLE_PLAYER",
        "_id": ""
      },
      "talkContentTextMapHash": 663772402,
      "talkAssetPath": "",
      "talkAssetPathAlter": "",
      "talkAudioName": "",
      "actionBefore": "",
      "actionWhile": "",
      "actionAfter": "UI/open_giving_page",
      "optionIcon": "UI_Icon_Intee_TreasureGift",
      "iconPath": ""
    }
  ]
}