{
  "talkId": 6902113,
  "KPGKDHAFHFE": "ACTIVITY",
  "dialogList": [
    {
      "id": 690211301,
      "talkRole": {
        "type": "TALK_ROLE_NPC",
        "_id": "9021"
      },
      "talkContentTextMapHash": 2026125170,
      "talkAssetPath": "",
      "talkAssetPathAlter": "",
      "talkAudioName": "",
      "actionBefore": "",
      "actionWhile": "",
      "actionAfter": "",
      "optionIcon": "",
      "iconPath": ""
    }
  ]
}