{
  "talkId": 6902613,
  "KPGKDHAFHFE": "ACTIVITY",
  "dialogList": [
    {
      "id": 690261301,
      "talkRole": {
        "type": "TALK_ROLE_NPC",
        "_id": "9026"
      },
      "talkContentTextMapHash": 648627762,
      "talkAssetPath": "",
      "talkAssetPathAlter": "",
      "talkAudioName": "",
      "actionBefore": "",
      "actionWhile": "",
      "actionAfter": "",
      "optionIcon": "",
      "iconPath": ""
    }
  ]
}