{
  "talkId": 6903111,
  "KPGKDHAFHFE": "ACTIVITY",
  "dialogList": [
    {
      "id": 690311101,
      "nextDialogs": [
        690311102
      ],
      "talkRole": {
        "type": "TALK_ROLE_NPC",
        "_id": "9031"
      },
      "talkContentTextMapHash": 1453805658,
      "talkAssetPath": "",
      "talkAssetPathAlter": "",
      "talkAudioName": "",
      "actionBefore": "",
      "actionWhile": "",
      "actionAfter": "",
      "optionIcon": "",
      "iconPath": ""
    },
    {
      "id": 690311102,
      "talkRole": {
        "type": "TALK_ROLE_NPC",
        "_id": "9000"
      },
      "talkContentTextMapHash": 1710695802,
      "talkAssetPath": "",
      "talkAssetPathAlter": "",
      "talkAudioName": "",
      "actionBefore": "",
      "actionWhile": "",
      "actionAfter": "",
      "optionIcon": "",
      "iconPath": ""
    }
  ]
}