{
  "talkId": 6903215,
  "KPGKDHAFHFE": "ACTIVITY",
  "dialogList": [
    {
      "id": 690321101,
      "talkRole": {
        "type": "TALK_ROLE_NPC",
        "_id": "9032"
      },
      "talkContentTextMapHash": 2089993250,
      "talkAssetPath": "",
      "talkAssetPathAlter": "",
      "talkAudioName": "",
      "actionBefore": "",
      "actionWhile": "",
      "actionAfter": "",
      "optionIcon": "",
      "iconPath": ""
    }
  ]
}