{
  "talkId": 6903713,
  "KPGKDHAFHFE": "ACTIVITY",
  "dialogList": [
    {
      "id": 690371301,
      "talkRole": {
        "type": "TALK_ROLE_NPC",
        "_id": "9037"
      },
      "talkContentTextMapHash": 2374141242,
      "talkAssetPath": "",
      "talkAssetPathAlter": "",
      "talkAudioName": "",
      "actionBefore": "",
      "actionWhile": "",
      "actionAfter": "",
      "optionIcon": "",
      "iconPath": ""
    }
  ]
}