{
  "talkId": 6903011,
  "KPGKDHAFHFE": "ACTIVITY",
  "dialogList": [
    {
      "id": 690301101,
      "talkRole": {
        "type": "TALK_ROLE_NPC",
        "_id": "9030"
      },
      "talkContentTextMapHash": 3769301450,
      "talkAssetPath": "",
      "talkAssetPathAlter": "",
      "talkAudioName": "",
      "actionBefore": "",
      "actionWhile": "",
      "actionAfter": "",
      "optionIcon": "",
      "iconPath": ""
    }
  ]
}