{
  "talkId": 6903613,
  "KPGKDHAFHFE": "ACTIVITY",
  "dialogList": [
    {
      "id": 690361301,
      "talkRole": {
        "type": "TALK_ROLE_NPC",
        "_id": "9036"
      },
      "talkContentTextMapHash": 2562038618,
      "talkAssetPath": "",
      "talkAssetPathAlter": "",
      "talkAudioName": "",
      "actionBefore": "",
      "actionWhile": "",
      "actionAfter": "",
      "optionIcon": "",
      "iconPath": ""
    }
  ]
}