{
  "talkId": 6904115,
  "KPGKDHAFHFE": "ACTIVITY",
  "dialogList": [
    {
      "id": 690411101,
      "talkRole": {
        "type": "TALK_ROLE_NPC",
        "_id": "9041"
      },
      "talkContentTextMapHash": 2037633202,
      "talkAssetPath": "",
      "talkAssetPathAlter": "",
      "talkAudioName": "",
      "actionBefore": "",
      "actionWhile": "",
      "actionAfter": "",
      "optionIcon": "",
      "iconPath": ""
    }
  ]
}