{
  "talkId": 6904412,
  "KPGKDHAFHFE": "ACTIVITY",
  "dialogList": [
    {
      "id": 690441201,
      "talkRole": {
        "type": "TALK_ROLE_NPC",
        "_id": "9044"
      },
      "talkContentTextMapHash": 1139205354,
      "talkAssetPath": "",
      "talkAssetPathAlter": "",
      "talkAudioName": "",
      "actionBefore": "",
      "actionWhile": "",
      "actionAfter": "",
      "optionIcon": "",
      "iconPath": ""
    }
  ]
}