{
  "talkId": 6904315,
  "KPGKDHAFHFE": "ACTIVITY",
  "dialogList": [
    {
      "id": 690431101,
      "talkRole": {
        "type": "TALK_ROLE_NPC",
        "_id": "9043"
      },
      "talkContentTextMapHash": 3329925258,
      "talkAssetPath": "",
      "talkAssetPathAlter": "",
      "talkAudioName": "",
      "actionBefore": "",
      "actionWhile": "",
      "actionAfter": "",
      "optionIcon": "",
      "iconPath": ""
    }
  ]
}