{
  "talkId": 6904715,
  "KPGKDHAFHFE": "ACTIVITY",
  "dialogList": [
    {
      "id": 690471501,
      "talkRole": {
        "type": "TALK_ROLE_NPC",
        "_id": "9047"
      },
      "talkContentTextMapHash": 533066658,
      "talkAssetPath": "",
      "talkAssetPathAlter": "",
      "talkAudioName": "",
      "actionBefore": "",
      "actionWhile": "",
      "actionAfter": "",
      "optionIcon": "",
      "iconPath": ""
    }
  ]
}