{
  "talkId": 6904919,
  "KPGKDHAFHFE": "ACTIVITY",
  "dialogList": [
    {
      "id": 690491501,
      "talkRole": {
        "type": "TALK_ROLE_NPC",
        "_id": "9049"
      },
      "talkContentTextMapHash": 4045075122,
      "talkAssetPath": "",
      "talkAssetPathAlter": "",
      "talkAudioName": "",
      "actionBefore": "",
      "actionWhile": "",
      "actionAfter": "",
      "optionIcon": "",
      "iconPath": ""
    }
  ]
}