{
  "talkId": 6904517,
  "KPGKDHAFHFE": "ACTIVITY",
  "dialogList": [
    {
      "id": 690451301,
      "talkRole": {
        "type": "TALK_ROLE_NPC",
        "_id": "9045"
      },
      "talkContentTextMapHash": 3896090770,
      "talkAssetPath": "",
      "talkAssetPathAlter": "",
      "talkAudioName": "",
      "actionBefore": "",
      "actionWhile": "",
      "actionAfter": "",
      "optionIcon": "",
      "iconPath": ""
    }
  ]
}