{
  "talkId": 6905514,
  "KPGKDHAFHFE": "ACTIVITY",
  "dialogList": [
    {
      "id": 690551201,
      "talkRole": {
        "type": "TALK_ROLE_NPC",
        "_id": "9055"
      },
      "talkContentTextMapHash": 3945131650,
      "talkAssetPath": "",
      "talkAssetPathAlter": "",
      "talkAudioName": "",
      "actionBefore": "",
      "actionWhile": "",
      "actionAfter": "",
      "optionIcon": "",
      "iconPath": ""
    }
  ]
}