{
  "talkId": 6905214,
  "KPGKDHAFHFE": "ACTIVITY",
  "dialogList": [
    {
      "id": 690521401,
      "talkRole": {
        "type": "TALK_ROLE_NPC",
        "_id": "9052"
      },
      "talkContentTextMapHash": 161300458,
      "talkAssetPath": "",
      "talkAssetPathAlter": "",
      "talkAudioName": "",
      "actionBefore": "",
      "actionWhile": "",
      "actionAfter": "",
      "optionIcon": "",
      "iconPath": ""
    }
  ]
}