{
  "talkId": 6905017,
  "KPGKDHAFHFE": "ACTIVITY",
  "dialogList": [
    {
      "id": 690501101,
      "talkRole": {
        "type": "TALK_ROLE_NPC",
        "_id": "9050"
      },
      "talkContentTextMapHash": 1247766458,
      "talkAssetPath": "",
      "talkAssetPathAlter": "",
      "talkAudioName": "",
      "actionBefore": "",
      "actionWhile": "",
      "actionAfter": "",
      "optionIcon": "",
      "iconPath": ""
    }
  ]
}