{
  "talkId": 6907214,
  "KPGKDHAFHFE": "ACTIVITY",
  "dialogList": [
    {
      "id": 690721401,
      "talkRole": {
        "type": "TALK_ROLE_NPC",
        "_id": "9072"
      },
      "talkContentTextMapHash": 2949584754,
      "talkAssetPath": "",
      "talkAssetPathAlter": "",
      "talkAudioName": "",
      "actionBefore": "",
      "actionWhile": "",
      "actionAfter": "",
      "optionIcon": "",
      "iconPath": ""
    }
  ]
}