{
  "talkId": 6907315,
  "KPGKDHAFHFE": "ACTIVITY",
  "dialogList": [
    {
      "id": 690731501,
      "talkRole": {
        "type": "TALK_ROLE_NPC",
        "_id": "9073"
      },
      "talkContentTextMapHash": 3833849602,
      "talkAssetPath": "",
      "talkAssetPathAlter": "",
      "talkAudioName": "",
      "actionBefore": "",
      "actionWhile": "",
      "actionAfter": "",
      "optionIcon": "",
      "iconPath": ""
    }
  ]
}