{
  "talkId": 6907713,
  "KPGKDHAFHFE": "ACTIVITY",
  "dialogList": [
    {
      "id": 690771301,
      "talkRole": {
        "type": "TALK_ROLE_NPC",
        "_id": "9077"
      },
      "talkContentTextMapHash": 987550866,
      "talkAssetPath": "",
      "talkAssetPathAlter": "",
      "talkAudioName": "",
      "actionBefore": "",
      "actionWhile": "",
      "actionAfter": "",
      "optionIcon": "",
      "iconPath": ""
    }
  ]
}