{
  "talkId": 6907815,
  "KPGKDHAFHFE": "ACTIVITY",
  "dialogList": [
    {
      "id": 690781501,
      "talkRole": {
        "type": "TALK_ROLE_NPC",
        "_id": "9078"
      },
      "talkContentTextMapHash": 2521863578,
      "talkAssetPath": "",
      "talkAssetPathAlter": "",
      "talkAudioName": "",
      "actionBefore": "",
      "actionWhile": "",
      "actionAfter": "",
      "optionIcon": "",
      "iconPath": ""
    }
  ]
}