{
  "talkId": 6907613,
  "KPGKDHAFHFE": "ACTIVITY",
  "dialogList": [
    {
      "id": 690761301,
      "talkRole": {
        "type": "TALK_ROLE_NPC",
        "_id": "9076"
      },
      "talkContentTextMapHash": 1833304906,
      "talkAssetPath": "",
      "talkAssetPathAlter": "",
      "talkAudioName": "",
      "actionBefore": "",
      "actionWhile": "",
      "actionAfter": "",
      "optionIcon": "",
      "iconPath": ""
    }
  ]
}