{
  "talkId": 6990038,
  "KPGKDHAFHFE": "ACTIVITY",
  "dialogList": [
    {
      "id": 699003801,
      "talkRole": {
        "type": "TALK_ROLE_NPC",
        "_id": "9900"
      },
      "talkContentTextMapHash": 246484482,
      "talkAssetPath": "",
      "talkAssetPathAlter": "",
      "talkAudioName": "",
      "actionBefore": "",
      "actionWhile": "",
      "actionAfter": "",
      "optionIcon": "",
      "iconPath": ""
    }
  ]
}