{
  "talkId": 7053758,
  "KPGKDHAFHFE": "ACTIVITY",
  "dialogList": [
    {
      "id": 705375801,
      "nextDialogs": [
        705375802
      ],
      "talkShowType": "TALK_SHOW_FORCE_SELECT",
      "talkRole": {
        "type": "TALK_ROLE_PLAYER",
        "_id": ""
      },
      "talkContentTextMapHash": 1091277578,
      "talkAssetPath": "",
      "talkAssetPathAlter": "",
      "talkAudioName": "",
      "actionBefore": "",
      "actionWhile": "",
      "actionAfter": "",
      "optionIcon": "",
      "iconPath": ""
    },
    {
      "id": 705375802,
      "nextDialogs": [
        705375803
      ],
      "talkRole": {
        "type": "TALK_ROLE_NPC",
        "_id": "30414"
      },
      "talkContentTextMapHash": 1854919450,
      "talkAssetPath": "",
      "talkAssetPathAlter": "",
      "talkAudioName": "",
      "actionBefore": "",
      "actionWhile": "SimpleTalk/SteerAndLookAt",
      "actionAfter": "",
      "optionIcon": "",
      "iconPath": ""
    },
    {
      "id": 705375803,
      "nextDialogs": [
        705375804
      ],
      "talkRole": {
        "type": "TALK_ROLE_NPC",
        "_id": "30414"
      },
      "talkContentTextMapHash": 1134145674,
      "talkAssetPath": "",
      "talkAssetPathAlter": "",
      "talkAudioName": "",
      "actionBefore": "",
      "actionWhile": "SimpleTalk/Request01",
      "actionAfter": "",
      "optionIcon": "",
      "iconPath": ""
    },
    {
      "id": 705375804,
      "nextDialogs": [
        705375805
      ],
      "talkRole": {
        "type": "TALK_ROLE_NPC",
        "_id": "30414"
      },
      "talkContentTextMapHash": 436702754,
      "talkAssetPath": "",
      "talkAssetPathAlter": "",
      "talkAudioName": "",
      "actionBefore": "",
      "actionWhile": "SimpleTalk/ShakeHead",
      "actionAfter": "",
      "optionIcon": "",
      "iconPath": ""
    },
    {
      "id": 705375805,
      "nextDialogs": [
        705375806
      ],
      "talkRole": {
        "type": "TALK_ROLE_NPC",
        "_id": "1005"
      },
      "talkContentTextMapHash": 3222702106,
      "talkAssetPath": "",
      "talkAssetPathAlter": "",
      "talkAudioName": "",
      "actionBefore": "",
      "actionWhile": "",
      "actionAfter": "",
      "optionIcon": "",
      "iconPath": ""
    },
    {
      "id": 705375806,
      "nextDialogs": [
        705375807
      ],
      "talkRole": {
        "type": "TALK_ROLE_NPC",
        "_id": "30414"
      },
      "talkContentTextMapHash": 2416271002,
      "talkAssetPath": "",
      "talkAssetPathAlter": "",
      "talkAudioName": "",
      "actionBefore": "",
      "actionWhile": "SimpleTalk/Standby",
      "actionAfter": "",
      "optionIcon": "",
      "iconPath": ""
    },
    {
      "id": 705375807,
      "nextDialogs": [
        705375808
      ],
      "talkRole": {
        "type": "TALK_ROLE_NPC",
        "_id": "30414"
      },
      "talkContentTextMapHash": 107525722,
      "talkAssetPath": "",
      "talkAssetPathAlter": "",
      "talkAudioName": "",
      "actionBefore": "",
      "actionWhile": "SimpleTalk/StrikeChest",
      "actionAfter": "",
      "optionIcon": "",
      "iconPath": ""
    },
    {
      "id": 705375808,
      "nextDialogs": [
        705375809,
        705375810
      ],
      "talkRole": {
        "type": "TALK_ROLE_NPC",
        "_id": "30414"
      },
      "talkContentTextMapHash": 1016340178,
      "talkAssetPath": "",
      "talkAssetPathAlter": "",
      "talkAudioName": "",
      "actionBefore": "",
      "actionWhile": "",
      "actionAfter": "SimpleTalk/Standby",
      "optionIcon": "",
      "iconPath": ""
    },
    {
      "id": 705375809,
      "nextDialogs": [
        705375811
      ],
      "talkShowType": "TALK_SHOW_FORCE_SELECT",
      "talkRole": {
        "type": "TALK_ROLE_PLAYER",
        "_id": ""
      },
      "talkContentTextMapHash": 4123114362,
      "talkAssetPath": "",
      "talkAssetPathAlter": "",
      "talkAudioName": "",
      "actionBefore": "",
      "actionWhile": "",
      "actionAfter": "",
      "optionIcon": "",
      "iconPath": ""
    },
    {
      "id": 705375811,
      "nextDialogs": [
        705375812
      ],
      "talkRole": {
        "type": "TALK_ROLE_NPC",
        "_id": "1005"
      },
      "talkContentTextMapHash": 1112619674,
      "talkAssetPath": "",
      "talkAssetPathAlter": "",
      "talkAudioName": "",
      "actionBefore": "",
      "actionWhile": "",
      "actionAfter": "",
      "optionIcon": "",
      "iconPath": ""
    },
    {
      "id": 705375812,
      "nextDialogs": [
        705375813
      ],
      "talkRole": {
        "type": "TALK_ROLE_NPC",
        "_id": "30414"
      },
      "talkContentTextMapHash": 2774712842,
      "talkAssetPath": "",
      "talkAssetPathAlter": "",
      "talkAudioName": "",
      "actionBefore": "",
      "actionWhile": "SimpleTalk/NodHead",
      "actionAfter": "",
      "optionIcon": "",
      "iconPath": ""
    },
    {
      "id": 705375813,
      "nextDialogs": [
        705375814
      ],
      "talkRole": {
        "type": "TALK_ROLE_NPC",
        "_id": "30414"
      },
      "talkContentTextMapHash": 1899390442,
      "talkAssetPath": "",
      "talkAssetPathAlter": "",
      "talkAudioName": "",
      "actionBefore": "",
      "actionWhile": "SimpleTalk/RandomTalkHold",
      "actionAfter": "",
      "optionIcon": "",
      "iconPath": ""
    },
    {
      "id": 705375814,
      "nextDialogs": [
        705375815
      ],
      "talkRole": {
        "type": "TALK_ROLE_NPC",
        "_id": "30414"
      },
      "talkContentTextMapHash": 640834378,
      "talkAssetPath": "",
      "talkAssetPathAlter": "",
      "talkAudioName": "",
      "actionBefore": "",
      "actionWhile": "",
      "actionAfter": "",
      "optionIcon": "",
      "iconPath": ""
    },
    {
      "id": 705375815,
      "nextDialogs": [
        705375816
      ],
      "talkRole": {
        "type": "TALK_ROLE_NPC",
        "_id": "30414"
      },
      "talkContentTextMapHash": 2584230930,
      "talkAssetPath": "",
      "talkAssetPathAlter": "",
      "talkAudioName": "",
      "actionBefore": "",
      "actionWhile": "SimpleTalk/Standby",
      "actionAfter": "",
      "optionIcon": "",
      "iconPath": ""
    },
    {
      "id": 705375816,
      "nextDialogs": [
        705375817
      ],
      "talkRole": {
        "type": "TALK_ROLE_NPC",
        "_id": "30414"
      },
      "talkContentTextMapHash": 142519570,
      "talkAssetPath": "",
      "talkAssetPathAlter": "",
      "talkAudioName": "",
      "actionBefore": "",
      "actionWhile": "SimpleTalk/Downcast",
      "actionAfter": "",
      "optionIcon": "",
      "iconPath": ""
    },
    {
      "id": 705375817,
      "nextDialogs": [
        705375818
      ],
      "talkRole": {
        "type": "TALK_ROLE_NPC",
        "_id": "30414"
      },
      "talkContentTextMapHash": 3031858122,
      "talkAssetPath": "",
      "talkAssetPathAlter": "",
      "talkAudioName": "",
      "actionBefore": "",
      "actionWhile": "",
      "actionAfter": "SimpleTalk/Standby",
      "optionIcon": "",
      "iconPath": ""
    },
    {
      "id": 705375818,
      "nextDialogs": [
        705375819
      ],
      "talkRole": {
        "type": "TALK_ROLE_NPC",
        "_id": "30414"
      },
      "talkContentTextMapHash": 243593522,
      "talkAssetPath": "",
      "talkAssetPathAlter": "",
      "talkAudioName": "",
      "actionBefore": "",
      "actionWhile": "SimpleTalk/Forerke",
      "actionAfter": "",
      "optionIcon": "",
      "iconPath": ""
    },
    {
      "id": 705375819,
      "nextDialogs": [
        705375820,
        705375821
      ],
      "talkRole": {
        "type": "TALK_ROLE_NPC",
        "_id": "1005"
      },
      "talkContentTextMapHash": 2154690282,
      "talkAssetPath": "",
      "talkAssetPathAlter": "",
      "talkAudioName": "",
      "actionBefore": "",
      "actionWhile": "",
      "actionAfter": "",
      "optionIcon": "",
      "iconPath": ""
    },
    {
      "id": 705375820,
      "nextDialogs": [
        705375822
      ],
      "talkShowType": "TALK_SHOW_FORCE_SELECT",
      "talkRole": {
        "type": "TALK_ROLE_PLAYER",
        "_id": ""
      },
      "talkContentTextMapHash": 579906882,
      "talkAssetPath": "",
      "talkAssetPathAlter": "",
      "talkAudioName": "",
      "actionBefore": "",
      "actionWhile": "",
      "actionAfter": "",
      "optionIcon": "",
      "iconPath": ""
    },
    {
      "id": 705375822,
      "nextDialogs": [
        705375823
      ],
      "talkRole": {
        "type": "TALK_ROLE_NPC",
        "_id": "30414"
      },
      "talkContentTextMapHash": 3936527618,
      "talkAssetPath": "",
      "talkAssetPathAlter": "",
      "talkAudioName": "",
      "actionBefore": "",
      "actionWhile": "SimpleTalk/NodHead",
      "actionAfter": "SimpleTalk/Standby",
      "optionIcon": "",
      "iconPath": ""
    },
    {
      "id": 705375823,
      "talkRole": {
        "type": "TALK_ROLE_NPC",
        "_id": "30414"
      },
      "talkContentTextMapHash": 1767849698,
      "talkAssetPath": "",
      "talkAssetPathAlter": "",
      "talkAudioName": "",
      "actionBefore": "",
      "actionWhile": "",
      "actionAfter": "SimpleTalk/Idle_End",
      "optionIcon": "",
      "iconPath": ""
    },
    {
      "id": 705375821,
      "nextDialogs": [
        705375822
      ],
      "talkShowType": "TALK_SHOW_FORCE_SELECT",
      "talkRole": {
        "type": "TALK_ROLE_PLAYER",
        "_id": ""
      },
      "talkContentTextMapHash": 949062098,
      "talkAssetPath": "",
      "talkAssetPathAlter": "",
      "talkAudioName": "",
      "actionBefore": "",
      "actionWhile": "",
      "actionAfter": "",
      "optionIcon": "",
      "iconPath": ""
    },
    {
      "id": 705375810,
      "nextDialogs": [
        705375811
      ],
      "talkShowType": "TALK_SHOW_FORCE_SELECT",
      "talkRole": {
        "type": "TALK_ROLE_PLAYER",
        "_id": ""
      },
      "talkContentTextMapHash": 121529970,
      "talkAssetPath": "",
      "talkAssetPathAlter": "",
      "talkAudioName": "",
      "actionBefore": "",
      "actionWhile": "",
      "actionAfter": "",
      "optionIcon": "",
      "iconPath": ""
    }
  ]
}