{
  "talkId": 7053753,
  "KPGKDHAFHFE": "ACTIVITY",
  "dialogList": [
    {
      "id": 705375301,
      "nextDialogs": [
        705375302,
        705375331,
        705375354
      ],
      "talkRole": {
        "type": "TALK_ROLE_NPC",
        "_id": "30401"
      },
      "talkContentTextMapHash": 1397127722,
      "talkAssetPath": "",
      "talkAssetPathAlter": "",
      "talkAudioName": "",
      "actionBefore": "SimpleTalk/PaimonTalkPlus_Start",
      "actionWhile": "",
      "actionAfter": "",
      "optionIcon": "",
      "iconPath": ""
    },
    {
      "id": 705375302,
      "nextDialogs": [
        705375303
      ],
      "talkShowType": "TALK_SHOW_FORCE_SELECT",
      "talkRole": {
        "type": "TALK_ROLE_PLAYER",
        "_id": ""
      },
      "talkContentTextMapHash": 302531666,
      "talkAssetPath": "",
      "talkAssetPathAlter": "",
      "talkAudioName": "",
      "actionBefore": "",
      "actionWhile": "",
      "actionAfter": "",
      "optionIcon": "",
      "iconPath": ""
    },
    {
      "id": 705375303,
      "nextDialogs": [
        705375304
      ],
      "talkRole": {
        "type": "TALK_ROLE_NPC",
        "_id": "1005"
      },
      "talkContentTextMapHash": 3988525002,
      "talkAssetPath": "",
      "talkAssetPathAlter": "",
      "talkAudioName": "",
      "actionBefore": "",
      "actionWhile": "",
      "actionAfter": "",
      "optionIcon": "",
      "iconPath": ""
    },
    {
      "id": 705375304,
      "nextDialogs": [
        705375305
      ],
      "talkRole": {
        "type": "TALK_ROLE_NPC",
        "_id": "30401"
      },
      "talkContentTextMapHash": 2286573146,
      "talkAssetPath": "",
      "talkAssetPathAlter": "",
      "talkAudioName": "",
      "actionBefore": "",
      "actionWhile": "SimpleTalk/RandomTalkHold",
      "actionAfter": "",
      "optionIcon": "",
      "iconPath": ""
    },
    {
      "id": 705375305,
      "nextDialogs": [
        705375306
      ],
      "talkRole": {
        "type": "TALK_ROLE_NPC",
        "_id": "30401"
      },
      "talkContentTextMapHash": 3418485866,
      "talkAssetPath": "",
      "talkAssetPathAlter": "",
      "talkAudioName": "",
      "actionBefore": "",
      "actionWhile": "",
      "actionAfter": "",
      "optionIcon": "",
      "iconPath": ""
    },
    {
      "id": 705375306,
      "nextDialogs": [
        705375307
      ],
      "talkRole": {
        "type": "TALK_ROLE_NPC",
        "_id": "30401"
      },
      "talkContentTextMapHash": 2946976290,
      "talkAssetPath": "",
      "talkAssetPathAlter": "",
      "talkAudioName": "",
      "actionBefore": "",
      "actionWhile": "",
      "actionAfter": "",
      "optionIcon": "",
      "iconPath": ""
    },
    {
      "id": 705375307,
      "nextDialogs": [
        705375308,
        705375309
      ],
      "talkRole": {
        "type": "TALK_ROLE_NPC",
        "_id": "30401"
      },
      "talkContentTextMapHash": 4073978050,
      "talkAssetPath": "",
      "talkAssetPathAlter": "",
      "talkAudioName": "",
      "actionBefore": "",
      "actionWhile": "SimpleTalk/Standby",
      "actionAfter": "",
      "optionIcon": "",
      "iconPath": ""
    },
    {
      "id": 705375308,
      "nextDialogs": [
        705375310
      ],
      "talkShowType": "TALK_SHOW_FORCE_SELECT",
      "talkRole": {
        "type": "TALK_ROLE_PLAYER",
        "_id": ""
      },
      "talkContentTextMapHash": 2723814922,
      "talkAssetPath": "",
      "talkAssetPathAlter": "",
      "talkAudioName": "",
      "actionBefore": "",
      "actionWhile": "",
      "actionAfter": "",
      "optionIcon": "",
      "iconPath": ""
    },
    {
      "id": 705375310,
      "nextDialogs": [
        705375311
      ],
      "talkRole": {
        "type": "TALK_ROLE_NPC",
        "_id": "1005"
      },
      "talkContentTextMapHash": 3582038298,
      "talkAssetPath": "",
      "talkAssetPathAlter": "",
      "talkAudioName": "",
      "actionBefore": "",
      "actionWhile": "",
      "actionAfter": "",
      "optionIcon": "",
      "iconPath": ""
    },
    {
      "id": 705375311,
      "nextDialogs": [
        705375312
      ],
      "talkRole": {
        "type": "TALK_ROLE_NPC",
        "_id": "30401"
      },
      "talkContentTextMapHash": 2342836954,
      "talkAssetPath": "",
      "talkAssetPathAlter": "",
      "talkAudioName": "",
      "actionBefore": "",
      "actionWhile": "SimpleTalk/StrikeChest",
      "actionAfter": "",
      "optionIcon": "",
      "iconPath": ""
    },
    {
      "id": 705375312,
      "nextDialogs": [
        705375313
      ],
      "talkRole": {
        "type": "TALK_ROLE_NPC",
        "_id": "30401"
      },
      "talkContentTextMapHash": 1929082394,
      "talkAssetPath": "",
      "talkAssetPathAlter": "",
      "talkAudioName": "",
      "actionBefore": "",
      "actionWhile": "",
      "actionAfter": "",
      "optionIcon": "",
      "iconPath": ""
    },
    {
      "id": 705375313,
      "nextDialogs": [
        705375314
      ],
      "talkRole": {
        "type": "TALK_ROLE_NPC",
        "_id": "30401"
      },
      "talkContentTextMapHash": 3420114146,
      "talkAssetPath": "",
      "talkAssetPathAlter": "",
      "talkAudioName": "",
      "actionBefore": "",
      "actionWhile": "",
      "actionAfter": "",
      "optionIcon": "",
      "iconPath": ""
    },
    {
      "id": 705375314,
      "nextDialogs": [
        705375315
      ],
      "talkRole": {
        "type": "TALK_ROLE_NPC",
        "_id": "30401"
      },
      "talkContentTextMapHash": 165777522,
      "talkAssetPath": "",
      "talkAssetPathAlter": "",
      "talkAudioName": "",
      "actionBefore": "",
      "actionWhile": "SimpleTalk/NodHead",
      "actionAfter": "",
      "optionIcon": "",
      "iconPath": ""
    },
    {
      "id": 705375315,
      "nextDialogs": [
        705375316,
        705375317
      ],
      "talkRole": {
        "type": "TALK_ROLE_NPC",
        "_id": "30401"
      },
      "talkContentTextMapHash": 280892226,
      "talkAssetPath": "",
      "talkAssetPathAlter": "",
      "talkAudioName": "",
      "actionBefore": "",
      "actionWhile": "",
      "actionAfter": "SimpleTalk/Standby",
      "optionIcon": "",
      "iconPath": ""
    },
    {
      "id": 705375316,
      "nextDialogs": [
        705375318
      ],
      "talkShowType": "TALK_SHOW_FORCE_SELECT",
      "talkRole": {
        "type": "TALK_ROLE_PLAYER",
        "_id": ""
      },
      "talkContentTextMapHash": 2073954090,
      "talkAssetPath": "",
      "talkAssetPathAlter": "",
      "talkAudioName": "",
      "actionBefore": "",
      "actionWhile": "",
      "actionAfter": "",
      "optionIcon": "",
      "iconPath": ""
    },
    {
      "id": 705375318,
      "nextDialogs": [
        705375319
      ],
      "talkRole": {
        "type": "TALK_ROLE_NPC",
        "_id": "1005"
      },
      "talkContentTextMapHash": 2054881570,
      "talkAssetPath": "",
      "talkAssetPathAlter": "",
      "talkAudioName": "",
      "actionBefore": "",
      "actionWhile": "",
      "actionAfter": "",
      "optionIcon": "",
      "iconPath": ""
    },
    {
      "id": 705375319,
      "nextDialogs": [
        705375320
      ],
      "talkRole": {
        "type": "TALK_ROLE_NPC",
        "_id": "1005"
      },
      "talkContentTextMapHash": 1547616634,
      "talkAssetPath": "",
      "talkAssetPathAlter": "",
      "talkAudioName": "",
      "actionBefore": "",
      "actionWhile": "",
      "actionAfter": "",
      "optionIcon": "",
      "iconPath": ""
    },
    {
      "id": 705375320,
      "nextDialogs": [
        705375321
      ],
      "talkRole": {
        "type": "TALK_ROLE_NPC",
        "_id": "30401"
      },
      "talkContentTextMapHash": 3463952338,
      "talkAssetPath": "",
      "talkAssetPathAlter": "",
      "talkAudioName": "",
      "actionBefore": "",
      "actionWhile": "SimpleTalk/ShakeHead",
      "actionAfter": "",
      "optionIcon": "",
      "iconPath": ""
    },
    {
      "id": 705375321,
      "nextDialogs": [
        705375322
      ],
      "talkRole": {
        "type": "TALK_ROLE_NPC",
        "_id": "30401"
      },
      "talkContentTextMapHash": 2487954370,
      "talkAssetPath": "",
      "talkAssetPathAlter": "",
      "talkAudioName": "",
      "actionBefore": "",
      "actionWhile": "SimpleTalk/RandomTalk",
      "actionAfter": "",
      "optionIcon": "",
      "iconPath": ""
    },
    {
      "id": 705375322,
      "nextDialogs": [
        705375323
      ],
      "talkRole": {
        "type": "TALK_ROLE_NPC",
        "_id": "30401"
      },
      "talkContentTextMapHash": 1626044530,
      "talkAssetPath": "",
      "talkAssetPathAlter": "",
      "talkAudioName": "",
      "actionBefore": "",
      "actionWhile": "",
      "actionAfter": "",
      "optionIcon": "",
      "iconPath": ""
    },
    {
      "id": 705375323,
      "nextDialogs": [
        705375324
      ],
      "talkRole": {
        "type": "TALK_ROLE_NPC",
        "_id": "30401"
      },
      "talkContentTextMapHash": 3063620082,
      "talkAssetPath": "",
      "talkAssetPathAlter": "",
      "talkAudioName": "",
      "actionBefore": "",
      "actionWhile": "SimpleTalk/NodHead",
      "actionAfter": "",
      "optionIcon": "",
      "iconPath": ""
    },
    {
      "id": 705375324,
      "nextDialogs": [
        705375325,
        705375326
      ],
      "talkRole": {
        "type": "TALK_ROLE_NPC",
        "_id": "1005"
      },
      "talkContentTextMapHash": 1821615954,
      "talkAssetPath": "",
      "talkAssetPathAlter": "",
      "talkAudioName": "",
      "actionBefore": "",
      "actionWhile": "",
      "actionAfter": "",
      "optionIcon": "",
      "iconPath": ""
    },
    {
      "id": 705375325,
      "nextDialogs": [
        705375327
      ],
      "talkShowType": "TALK_SHOW_FORCE_SELECT",
      "talkRole": {
        "type": "TALK_ROLE_PLAYER",
        "_id": ""
      },
      "talkContentTextMapHash": 568753522,
      "talkAssetPath": "",
      "talkAssetPathAlter": "",
      "talkAudioName": "",
      "actionBefore": "",
      "actionWhile": "",
      "actionAfter": "",
      "optionIcon": "",
      "iconPath": ""
    },
    {
      "id": 705375327,
      "nextDialogs": [
        705375328
      ],
      "talkRole": {
        "type": "TALK_ROLE_NPC",
        "_id": "30401"
      },
      "talkContentTextMapHash": 1998858210,
      "talkAssetPath": "",
      "talkAssetPathAlter": "",
      "talkAudioName": "",
      "actionBefore": "",
      "actionWhile": "SimpleTalk/ShakeHead",
      "actionAfter": "",
      "optionIcon": "",
      "iconPath": ""
    },
    {
      "id": 705375328,
      "nextDialogs": [
        705375329
      ],
      "talkRole": {
        "type": "TALK_ROLE_NPC",
        "_id": "30401"
      },
      "talkContentTextMapHash": 2891099962,
      "talkAssetPath": "",
      "talkAssetPathAlter": "",
      "talkAudioName": "",
      "actionBefore": "",
      "actionWhile": "SimpleTalk/StrikeChest",
      "actionAfter": "",
      "optionIcon": "",
      "iconPath": ""
    },
    {
      "id": 705375329,
      "nextDialogs": [
        705375330
      ],
      "talkRole": {
        "type": "TALK_ROLE_NPC",
        "_id": "30401"
      },
      "talkContentTextMapHash": 123945586,
      "talkAssetPath": "",
      "talkAssetPathAlter": "",
      "talkAudioName": "",
      "actionBefore": "",
      "actionWhile": "",
      "actionAfter": "",
      "optionIcon": "",
      "iconPath": ""
    },
    {
      "id": 705375330,
      "talkRole": {
        "type": "TALK_ROLE_NPC",
        "_id": "30401"
      },
      "talkContentTextMapHash": 433066954,
      "talkAssetPath": "",
      "talkAssetPathAlter": "",
      "talkAudioName": "",
      "actionBefore": "SimpleTalk/NodHead",
      "actionWhile": "",
      "actionAfter": "SimpleTalk/Idle_End",
      "optionIcon": "",
      "iconPath": ""
    },
    {
      "id": 705375326,
      "nextDialogs": [
        705375327
      ],
      "talkShowType": "TALK_SHOW_FORCE_SELECT",
      "talkRole": {
        "type": "TALK_ROLE_PLAYER",
        "_id": ""
      },
      "talkContentTextMapHash": 952631386,
      "talkAssetPath": "",
      "talkAssetPathAlter": "",
      "talkAudioName": "",
      "actionBefore": "",
      "actionWhile": "",
      "actionAfter": "",
      "optionIcon": "",
      "iconPath": ""
    },
    {
      "id": 705375317,
      "nextDialogs": [
        705375318
      ],
      "talkShowType": "TALK_SHOW_FORCE_SELECT",
      "talkRole": {
        "type": "TALK_ROLE_PLAYER",
        "_id": ""
      },
      "talkContentTextMapHash": 1048296274,
      "talkAssetPath": "",
      "talkAssetPathAlter": "",
      "talkAudioName": "",
      "actionBefore": "",
      "actionWhile": "",
      "actionAfter": "",
      "optionIcon": "",
      "iconPath": ""
    },
    {
      "id": 705375309,
      "nextDialogs": [
        705375310
      ],
      "talkShowType": "TALK_SHOW_FORCE_SELECT",
      "talkRole": {
        "type": "TALK_ROLE_PLAYER",
        "_id": ""
      },
      "talkContentTextMapHash": 946188306,
      "talkAssetPath": "",
      "talkAssetPathAlter": "",
      "talkAudioName": "",
      "actionBefore": "",
      "actionWhile": "",
      "actionAfter": "",
      "optionIcon": "",
      "iconPath": ""
    },
    {
      "id": 705375331,
      "nextDialogs": [
        705375332
      ],
      "talkShowType": "TALK_SHOW_FORCE_SELECT",
      "talkRole": {
        "type": "TALK_ROLE_PLAYER",
        "_id": ""
      },
      "talkContentTextMapHash": 3636089010,
      "talkAssetPath": "",
      "talkAssetPathAlter": "",
      "talkAudioName": "",
      "actionBefore": "",
      "actionWhile": "",
      "actionAfter": "",
      "optionIcon": "",
      "iconPath": ""
    },
    {
      "id": 705375332,
      "nextDialogs": [
        705375333
      ],
      "talkRole": {
        "type": "TALK_ROLE_NPC",
        "_id": "30401"
      },
      "talkContentTextMapHash": 1670484194,
      "talkAssetPath": "",
      "talkAssetPathAlter": "",
      "talkAudioName": "",
      "actionBefore": "",
      "actionWhile": "DialogAction/D705375332_While",
      "actionAfter": "",
      "optionIcon": "",
      "iconPath": ""
    },
    {
      "id": 705375333,
      "nextDialogs": [
        705375334
      ],
      "talkRole": {
        "type": "TALK_ROLE_NPC",
        "_id": "30401"
      },
      "talkContentTextMapHash": 2472779570,
      "talkAssetPath": "",
      "talkAssetPathAlter": "",
      "talkAudioName": "",
      "actionBefore": "",
      "actionWhile": "SimpleTalk/Standby",
      "actionAfter": "",
      "optionIcon": "",
      "iconPath": ""
    },
    {
      "id": 705375334,
      "nextDialogs": [
        705375335
      ],
      "talkRole": {
        "type": "TALK_ROLE_NPC",
        "_id": "30401"
      },
      "talkContentTextMapHash": 1695823786,
      "talkAssetPath": "",
      "talkAssetPathAlter": "",
      "talkAudioName": "",
      "actionBefore": "",
      "actionWhile": "SimpleTalk/RandomTalkHold",
      "actionAfter": "",
      "optionIcon": "",
      "iconPath": ""
    },
    {
      "id": 705375335,
      "nextDialogs": [
        705375336
      ],
      "talkRole": {
        "type": "TALK_ROLE_NPC",
        "_id": "30401"
      },
      "talkContentTextMapHash": 1076000258,
      "talkAssetPath": "",
      "talkAssetPathAlter": "",
      "talkAudioName": "",
      "actionBefore": "",
      "actionWhile": "",
      "actionAfter": "",
      "optionIcon": "",
      "iconPath": ""
    },
    {
      "id": 705375336,
      "nextDialogs": [
        705375337
      ],
      "talkRole": {
        "type": "TALK_ROLE_NPC",
        "_id": "30401"
      },
      "talkContentTextMapHash": 3059908650,
      "talkAssetPath": "",
      "talkAssetPathAlter": "",
      "talkAudioName": "",
      "actionBefore": "",
      "actionWhile": "",
      "actionAfter": "",
      "optionIcon": "",
      "iconPath": ""
    },
    {
      "id": 705375337,
      "nextDialogs": [
        705375338
      ],
      "talkRole": {
        "type": "TALK_ROLE_NPC",
        "_id": "30401"
      },
      "talkContentTextMapHash": 1406549994,
      "talkAssetPath": "",
      "talkAssetPathAlter": "",
      "talkAudioName": "",
      "actionBefore": "",
      "actionWhile": "",
      "actionAfter": "",
      "optionIcon": "",
      "iconPath": ""
    },
    {
      "id": 705375338,
      "nextDialogs": [
        705375339
      ],
      "talkRole": {
        "type": "TALK_ROLE_NPC",
        "_id": "30401"
      },
      "talkContentTextMapHash": 3891132634,
      "talkAssetPath": "",
      "talkAssetPathAlter": "",
      "talkAudioName": "",
      "actionBefore": "",
      "actionWhile": "",
      "actionAfter": "",
      "optionIcon": "",
      "iconPath": ""
    },
    {
      "id": 705375339,
      "nextDialogs": [
        705375340,
        705375341
      ],
      "talkRole": {
        "type": "TALK_ROLE_NPC",
        "_id": "30401"
      },
      "talkContentTextMapHash": 1907096690,
      "talkAssetPath": "",
      "talkAssetPathAlter": "",
      "talkAudioName": "",
      "actionBefore": "SimpleTalk/Standby",
      "actionWhile": "SimpleTalk/NodHead",
      "actionAfter": "",
      "optionIcon": "",
      "iconPath": ""
    },
    {
      "id": 705375340,
      "nextDialogs": [
        705375342
      ],
      "talkShowType": "TALK_SHOW_FORCE_SELECT",
      "talkRole": {
        "type": "TALK_ROLE_PLAYER",
        "_id": ""
      },
      "talkContentTextMapHash": 2135663810,
      "talkAssetPath": "",
      "talkAssetPathAlter": "",
      "talkAudioName": "",
      "actionBefore": "",
      "actionWhile": "",
      "actionAfter": "",
      "optionIcon": "",
      "iconPath": ""
    },
    {
      "id": 705375342,
      "nextDialogs": [
        705375343
      ],
      "talkRole": {
        "type": "TALK_ROLE_NPC",
        "_id": "30401"
      },
      "talkContentTextMapHash": 2519087090,
      "talkAssetPath": "",
      "talkAssetPathAlter": "",
      "talkAudioName": "",
      "actionBefore": "",
      "actionWhile": "SimpleTalk/ShakeHead",
      "actionAfter": "",
      "optionIcon": "",
      "iconPath": ""
    },
    {
      "id": 705375343,
      "nextDialogs": [
        705375344
      ],
      "talkRole": {
        "type": "TALK_ROLE_NPC",
        "_id": "1005"
      },
      "talkContentTextMapHash": 2524024474,
      "talkAssetPath": "",
      "talkAssetPathAlter": "",
      "talkAudioName": "",
      "actionBefore": "",
      "actionWhile": "",
      "actionAfter": "",
      "optionIcon": "",
      "iconPath": ""
    },
    {
      "id": 705375344,
      "nextDialogs": [
        705375345
      ],
      "talkShowType": "TALK_SHOW_FORCE_SELECT",
      "talkRole": {
        "type": "TALK_ROLE_PLAYER",
        "_id": ""
      },
      "talkContentTextMapHash": 1577965418,
      "talkAssetPath": "",
      "talkAssetPathAlter": "",
      "talkAudioName": "",
      "actionBefore": "",
      "actionWhile": "",
      "actionAfter": "",
      "optionIcon": "",
      "iconPath": ""
    },
    {
      "id": 705375345,
      "nextDialogs": [
        705375346
      ],
      "talkRole": {
        "type": "TALK_ROLE_NPC",
        "_id": "30401"
      },
      "talkContentTextMapHash": 1131080258,
      "talkAssetPath": "",
      "talkAssetPathAlter": "",
      "talkAudioName": "",
      "actionBefore": "",
      "actionWhile": "SimpleTalk/StrikeChest",
      "actionAfter": "",
      "optionIcon": "",
      "iconPath": ""
    },
    {
      "id": 705375346,
      "nextDialogs": [
        705375347
      ],
      "talkRole": {
        "type": "TALK_ROLE_NPC",
        "_id": "30401"
      },
      "talkContentTextMapHash": 79073922,
      "talkAssetPath": "",
      "talkAssetPathAlter": "",
      "talkAudioName": "",
      "actionBefore": "",
      "actionWhile": "SimpleTalk/Standby",
      "actionAfter": "",
      "optionIcon": "",
      "iconPath": ""
    },
    {
      "id": 705375347,
      "nextDialogs": [
        705375348
      ],
      "talkRole": {
        "type": "TALK_ROLE_NPC",
        "_id": "30401"
      },
      "talkContentTextMapHash": 300340730,
      "talkAssetPath": "",
      "talkAssetPathAlter": "",
      "talkAudioName": "",
      "actionBefore": "",
      "actionWhile": "SimpleTalk/RandomTalkHold",
      "actionAfter": "",
      "optionIcon": "",
      "iconPath": ""
    },
    {
      "id": 705375348,
      "nextDialogs": [
        705375349
      ],
      "talkRole": {
        "type": "TALK_ROLE_NPC",
        "_id": "30401"
      },
      "talkContentTextMapHash": 2322264866,
      "talkAssetPath": "",
      "talkAssetPathAlter": "",
      "talkAudioName": "",
      "actionBefore": "",
      "actionWhile": "",
      "actionAfter": "",
      "optionIcon": "",
      "iconPath": ""
    },
    {
      "id": 705375349,
      "nextDialogs": [
        705375350,
        705375351
      ],
      "talkRole": {
        "type": "TALK_ROLE_NPC",
        "_id": "30401"
      },
      "talkContentTextMapHash": 1852723458,
      "talkAssetPath": "",
      "talkAssetPathAlter": "",
      "talkAudioName": "",
      "actionBefore": "",
      "actionWhile": "",
      "actionAfter": "SimpleTalk/Standby",
      "optionIcon": "",
      "iconPath": ""
    },
    {
      "id": 705375350,
      "nextDialogs": [
        705375352
      ],
      "talkShowType": "TALK_SHOW_FORCE_SELECT",
      "talkRole": {
        "type": "TALK_ROLE_PLAYER",
        "_id": ""
      },
      "talkContentTextMapHash": 1280973170,
      "talkAssetPath": "",
      "talkAssetPathAlter": "",
      "talkAudioName": "",
      "actionBefore": "",
      "actionWhile": "",
      "actionAfter": "",
      "optionIcon": "",
      "iconPath": ""
    },
    {
      "id": 705375352,
      "nextDialogs": [
        705375353
      ],
      "talkRole": {
        "type": "TALK_ROLE_NPC",
        "_id": "1005"
      },
      "talkContentTextMapHash": 3207356114,
      "talkAssetPath": "",
      "talkAssetPathAlter": "",
      "talkAudioName": "",
      "actionBefore": "",
      "actionWhile": "",
      "actionAfter": "",
      "optionIcon": "",
      "iconPath": ""
    },
    {
      "id": 705375353,
      "talkRole": {
        "type": "TALK_ROLE_NPC",
        "_id": "1005"
      },
      "talkContentTextMapHash": 251891994,
      "talkAssetPath": "",
      "talkAssetPathAlter": "",
      "talkAudioName": "",
      "actionBefore": "",
      "actionWhile": "",
      "actionAfter": "",
      "optionIcon": "",
      "iconPath": ""
    },
    {
      "id": 705375351,
      "nextDialogs": [
        705375352
      ],
      "talkShowType": "TALK_SHOW_FORCE_SELECT",
      "talkRole": {
        "type": "TALK_ROLE_PLAYER",
        "_id": ""
      },
      "talkContentTextMapHash": 3696408178,
      "talkAssetPath": "",
      "talkAssetPathAlter": "",
      "talkAudioName": "",
      "actionBefore": "",
      "actionWhile": "",
      "actionAfter": "",
      "optionIcon": "",
      "iconPath": ""
    },
    {
      "id": 705375341,
      "nextDialogs": [
        705375342
      ],
      "talkShowType": "TALK_SHOW_FORCE_SELECT",
      "talkRole": {
        "type": "TALK_ROLE_PLAYER",
        "_id": ""
      },
      "talkContentTextMapHash": 2551075082,
      "talkAssetPath": "",
      "talkAssetPathAlter": "",
      "talkAudioName": "",
      "actionBefore": "",
      "actionWhile": "",
      "actionAfter": "",
      "optionIcon": "",
      "iconPath": ""
    },
    {
      "id": 705375354,
      "nextDialogs": [
        705375355
      ],
      "talkShowType": "TALK_SHOW_FORCE_SELECT",
      "talkRole": {
        "type": "TALK_ROLE_PLAYER",
        "_id": ""
      },
      "talkContentTextMapHash": 2633231242,
      "talkAssetPath": "",
      "talkAssetPathAlter": "",
      "talkAudioName": "",
      "actionBefore": "",
      "actionWhile": "",
      "actionAfter": "",
      "optionIcon": "",
      "iconPath": ""
    },
    {
      "id": 705375355,
      "talkRole": {
        "type": "TALK_ROLE_NPC",
        "_id": "1005"
      },
      "talkContentTextMapHash": 1963893386,
      "talkAssetPath": "",
      "talkAssetPathAlter": "",
      "talkAudioName": "",
      "actionBefore": "",
      "actionWhile": "",
      "actionAfter": "SimpleTalk/Idle_End",
      "optionIcon": "",
      "iconPath": ""
    }
  ]
}