{
  "talkId": 7053241,
  "KPGKDHAFHFE": "ACTIVITY",
  "dialogList": [
    {
      "id": 705324101,
      "nextDialogs": [
        705324102,
        705324103
      ],
      "talkRole": {
        "type": "TALK_ROLE_NPC",
        "_id": "30393"
      },
      "talkContentTextMapHash": 2144939578,
      "talkAssetPath": "",
      "talkAssetPathAlter": "",
      "talkAudioName": "",
      "actionBefore": "",
      "actionWhile": "",
      "actionAfter": "",
      "optionIcon": "",
      "iconPath": ""
    },
    {
      "id": 705324102,
      "talkRole": {
        "type": "TALK_ROLE_PLAYER",
        "_id": ""
      },
      "talkContentTextMapHash": 3428072906,
      "talkAssetPath": "",
      "talkAssetPathAlter": "",
      "talkAudioName": "",
      "actionBefore": "",
      "actionWhile": "",
      "actionAfter": "",
      "optionIcon": "UI_Icon_Intee_GcgZhanDou",
      "iconPath": ""
    },
    {
      "id": 705324103,
      "nextDialogs": [
        705324104
      ],
      "talkRole": {
        "type": "TALK_ROLE_PLAYER",
        "_id": ""
      },
      "talkContentTextMapHash": 3920266834,
      "talkAssetPath": "",
      "talkAssetPathAlter": "",
      "talkAudioName": "",
      "actionBefore": "",
      "actionWhile": "",
      "actionAfter": "",
      "optionIcon": "",
      "iconPath": ""
    },
    {
      "id": 705324104,
      "talkRole": {
        "type": "TALK_ROLE_NPC",
        "_id": "30393"
      },
      "talkContentTextMapHash": 3889823874,
      "talkAssetPath": "",
      "talkAssetPathAlter": "",
      "talkAudioName": "",
      "actionBefore": "",
      "actionWhile": "",
      "actionAfter": "",
      "optionIcon": "",
      "iconPath": ""
    }
  ]
}