{
  "talkId": 7112502,
  "KPGKDHAFHFE": "ACTIVITY",
  "dialogList": [
    {
      "id": 711250201,
      "nextDialogs": [
        711250202
      ],
      "talkRole": {
        "type": "TALK_ROLE_NPC",
        "_id": "30152"
      },
      "talkContentTextMapHash": 3935279490,
      "talkAssetPath": "",
      "talkAssetPathAlter": "",
      "talkAudioName": "",
      "actionBefore": "",
      "actionWhile": "SimpleTalk/LerpInNpcNoSteer_Start",
      "actionAfter": "",
      "optionIcon": "",
      "iconPath": ""
    },
    {
      "id": 711250202,
      "nextDialogs": [
        711250203
      ],
      "talkRole": {
        "type": "TALK_ROLE_NPC",
        "_id": "30152"
      },
      "talkContentTextMapHash": 2063034474,
      "talkAssetPath": "",
      "talkAssetPathAlter": "",
      "talkAudioName": "",
      "actionBefore": "",
      "actionWhile": "",
      "actionAfter": "",
      "optionIcon": "",
      "iconPath": ""
    },
    {
      "id": 711250203,
      "nextDialogs": [
        711250204
      ],
      "talkRole": {
        "type": "TALK_ROLE_NPC",
        "_id": "30322"
      },
      "talkContentTextMapHash": 4224294130,
      "talkAssetPath": "",
      "talkAssetPathAlter": "",
      "talkAudioName": "",
      "actionBefore": "",
      "actionWhile": "",
      "actionAfter": "",
      "optionIcon": "",
      "iconPath": ""
    },
    {
      "id": 711250204,
      "nextDialogs": [
        711250205
      ],
      "talkRole": {
        "type": "TALK_ROLE_NPC",
        "_id": "30152"
      },
      "talkContentTextMapHash": 608356970,
      "talkAssetPath": "",
      "talkAssetPathAlter": "",
      "talkAudioName": "",
      "actionBefore": "",
      "actionWhile": "",
      "actionAfter": "",
      "optionIcon": "",
      "iconPath": ""
    },
    {
      "id": 711250205,
      "nextDialogs": [
        711250206
      ],
      "talkRole": {
        "type": "TALK_ROLE_NPC",
        "_id": "30322"
      },
      "talkContentTextMapHash": 1733492738,
      "talkAssetPath": "",
      "talkAssetPathAlter": "",
      "talkAudioName": "",
      "actionBefore": "",
      "actionWhile": "",
      "actionAfter": "",
      "optionIcon": "",
      "iconPath": ""
    },
    {
      "id": 711250206,
      "nextDialogs": [
        711250207
      ],
      "talkRole": {
        "type": "TALK_ROLE_NPC",
        "_id": "30152"
      },
      "talkContentTextMapHash": 248955674,
      "talkAssetPath": "",
      "talkAssetPathAlter": "",
      "talkAudioName": "",
      "actionBefore": "",
      "actionWhile": "",
      "actionAfter": "",
      "optionIcon": "",
      "iconPath": ""
    },
    {
      "id": 711250207,
      "nextDialogs": [
        711250208
      ],
      "talkRole": {
        "type": "TALK_ROLE_NPC",
        "_id": "30322"
      },
      "talkContentTextMapHash": 2162837874,
      "talkAssetPath": "",
      "talkAssetPathAlter": "",
      "talkAudioName": "",
      "actionBefore": "",
      "actionWhile": "",
      "actionAfter": "",
      "optionIcon": "",
      "iconPath": ""
    },
    {
      "id": 711250208,
      "nextDialogs": [
        711250209
      ],
      "talkRole": {
        "type": "TALK_ROLE_NPC",
        "_id": "30152"
      },
      "talkContentTextMapHash": 3217784378,
      "talkAssetPath": "",
      "talkAssetPathAlter": "",
      "talkAudioName": "",
      "actionBefore": "",
      "actionWhile": "",
      "actionAfter": "",
      "optionIcon": "",
      "iconPath": ""
    },
    {
      "id": 711250209,
      "nextDialogs": [
        711250210
      ],
      "talkRole": {
        "type": "TALK_ROLE_NPC",
        "_id": "30322"
      },
      "talkContentTextMapHash": 987730706,
      "talkAssetPath": "",
      "talkAssetPathAlter": "",
      "talkAudioName": "",
      "actionBefore": "",
      "actionWhile": "",
      "actionAfter": "",
      "optionIcon": "",
      "iconPath": ""
    },
    {
      "id": 711250210,
      "talkRole": {
        "type": "TALK_ROLE_NPC",
        "_id": "30152"
      },
      "talkContentTextMapHash": 1996893586,
      "talkAssetPath": "",
      "talkAssetPathAlter": "",
      "talkAudioName": "",
      "actionBefore": "",
      "actionWhile": "",
      "actionAfter": "SimpleTalk/LerpOutNpcNoSteer_End",
      "optionIcon": "",
      "iconPath": ""
    }
  ]
}