{
  "talkId": 7150807,
  "KPGKDHAFHFE": "ACTIVITY",
  "dialogList": [
    {
      "id": 715080701,
      "nextDialogs": [
        715080702
      ],
      "talkRole": {
        "type": "TALK_ROLE_NPC",
        "_id": "30183"
      },
      "talkContentTextMapHash": 2476498370,
      "talkAssetPath": "",
      "talkAssetPathAlter": "",
      "talkAudioName": "",
      "actionBefore": "",
      "actionWhile": "",
      "actionAfter": "",
      "optionIcon": "",
      "iconPath": ""
    },
    {
      "id": 715080702,
      "talkRole": {
        "type": "TALK_ROLE_NPC",
        "_id": "30183"
      },
      "talkContentTextMapHash": 2791150834,
      "talkAssetPath": "",
      "talkAssetPathAlter": "",
      "talkAudioName": "",
      "actionBefore": "",
      "actionWhile": "",
      "actionAfter": "",
      "optionIcon": "",
      "iconPath": ""
    }
  ]
}