{
  "talkId": 7151817,
  "KPGKDHAFHFE": "ACTIVITY",
  "dialogList": [
    {
      "id": 715181701,
      "nextDialogs": [
        715181702
      ],
      "talkRole": {
        "type": "TALK_ROLE_NPC",
        "_id": "2002"
      },
      "talkContentTextMapHash": 2244992618,
      "talkAssetPath": "",
      "talkAssetPathAlter": "",
      "talkAudioName": "",
      "actionBefore": "",
      "actionWhile": "",
      "actionAfter": "",
      "optionIcon": "",
      "iconPath": ""
    },
    {
      "id": 715181702,
      "nextDialogs": [
        715181703
      ],
      "talkRole": {
        "type": "TALK_ROLE_NPC",
        "_id": "2002"
      },
      "talkContentTextMapHash": 2881209498,
      "talkAssetPath": "",
      "talkAssetPathAlter": "",
      "talkAudioName": "",
      "actionBefore": "",
      "actionWhile": "",
      "actionAfter": "",
      "optionIcon": "",
      "iconPath": ""
    },
    {
      "id": 715181703,
      "nextDialogs": [
        715181704
      ],
      "talkRole": {
        "type": "TALK_ROLE_NPC",
        "_id": "2002"
      },
      "talkContentTextMapHash": 731367450,
      "talkAssetPath": "",
      "talkAssetPathAlter": "",
      "talkAudioName": "",
      "actionBefore": "",
      "actionWhile": "",
      "actionAfter": "",
      "optionIcon": "",
      "iconPath": ""
    },
    {
      "id": 715181704,
      "talkRole": {
        "type": "TALK_ROLE_NPC",
        "_id": "2002"
      },
      "talkContentTextMapHash": 2894817290,
      "talkAssetPath": "",
      "talkAssetPathAlter": "",
      "talkAudioName": "",
      "actionBefore": "",
      "actionWhile": "",
      "actionAfter": "",
      "optionIcon": "",
      "iconPath": ""
    }
  ]
}