{
  "talkId": 7151704,
  "KPGKDHAFHFE": "ACTIVITY",
  "dialogList": [
    {
      "id": 715170401,
      "nextDialogs": [
        715170402
      ],
      "talkRole": {
        "type": "TALK_ROLE_NPC",
        "_id": "30301"
      },
      "talkContentTextMapHash": 2977889306,
      "talkAssetPath": "",
      "talkAssetPathAlter": "",
      "talkAudioName": "",
      "actionBefore": "",
      "actionWhile": "",
      "actionAfter": "",
      "optionIcon": "",
      "iconPath": ""
    },
    {
      "id": 715170402,
      "nextDialogs": [
        715170403
      ],
      "talkRole": {
        "type": "TALK_ROLE_NPC",
        "_id": "30303"
      },
      "talkContentTextMapHash": 189016786,
      "talkAssetPath": "",
      "talkAssetPathAlter": "",
      "talkAudioName": "",
      "actionBefore": "",
      "actionWhile": "",
      "actionAfter": "",
      "optionIcon": "",
      "iconPath": ""
    },
    {
      "id": 715170403,
      "nextDialogs": [
        715170404
      ],
      "talkRole": {
        "type": "TALK_ROLE_NPC",
        "_id": "30301"
      },
      "talkContentTextMapHash": 1584226826,
      "talkAssetPath": "",
      "talkAssetPathAlter": "",
      "talkAudioName": "",
      "actionBefore": "",
      "actionWhile": "",
      "actionAfter": "",
      "optionIcon": "",
      "iconPath": ""
    },
    {
      "id": 715170404,
      "nextDialogs": [
        715170405
      ],
      "talkRole": {
        "type": "TALK_ROLE_NPC",
        "_id": "30303"
      },
      "talkContentTextMapHash": 475850,
      "talkAssetPath": "",
      "talkAssetPathAlter": "",
      "talkAudioName": "",
      "actionBefore": "",
      "actionWhile": "",
      "actionAfter": "",
      "optionIcon": "",
      "iconPath": ""
    },
    {
      "id": 715170405,
      "nextDialogs": [
        715170406
      ],
      "talkRole": {
        "type": "TALK_ROLE_NPC",
        "_id": "30302"
      },
      "talkContentTextMapHash": 1343683930,
      "talkAssetPath": "",
      "talkAssetPathAlter": "",
      "talkAudioName": "",
      "actionBefore": "",
      "actionWhile": "",
      "actionAfter": "",
      "optionIcon": "",
      "iconPath": ""
    },
    {
      "id": 715170406,
      "nextDialogs": [
        715170407
      ],
      "talkRole": {
        "type": "TALK_ROLE_NPC",
        "_id": "30303"
      },
      "talkContentTextMapHash": 3332323730,
      "talkAssetPath": "",
      "talkAssetPathAlter": "",
      "talkAudioName": "",
      "actionBefore": "",
      "actionWhile": "",
      "actionAfter": "",
      "optionIcon": "",
      "iconPath": ""
    },
    {
      "id": 715170407,
      "nextDialogs": [
        715170408
      ],
      "talkRole": {
        "type": "TALK_ROLE_NPC",
        "_id": "30301"
      },
      "talkContentTextMapHash": 3280518834,
      "talkAssetPath": "",
      "talkAssetPathAlter": "",
      "talkAudioName": "",
      "actionBefore": "",
      "actionWhile": "",
      "actionAfter": "",
      "optionIcon": "",
      "iconPath": ""
    },
    {
      "id": 715170408,
      "nextDialogs": [
        715170409
      ],
      "talkRole": {
        "type": "TALK_ROLE_NPC",
        "_id": "30301"
      },
      "talkContentTextMapHash": 2342321050,
      "talkAssetPath": "",
      "talkAssetPathAlter": "",
      "talkAudioName": "",
      "actionBefore": "",
      "actionWhile": "",
      "actionAfter": "",
      "optionIcon": "",
      "iconPath": ""
    },
    {
      "id": 715170409,
      "nextDialogs": [
        715170410
      ],
      "talkRole": {
        "type": "TALK_ROLE_NPC",
        "_id": "30301"
      },
      "talkContentTextMapHash": 2702161386,
      "talkAssetPath": "",
      "talkAssetPathAlter": "",
      "talkAudioName": "",
      "actionBefore": "",
      "actionWhile": "",
      "actionAfter": "",
      "optionIcon": "",
      "iconPath": ""
    },
    {
      "id": 715170410,
      "nextDialogs": [
        715170411
      ],
      "talkRole": {
        "type": "TALK_ROLE_NPC",
        "_id": "30303"
      },
      "talkContentTextMapHash": 682627890,
      "talkAssetPath": "",
      "talkAssetPathAlter": "",
      "talkAudioName": "",
      "actionBefore": "",
      "actionWhile": "",
      "actionAfter": "",
      "optionIcon": "",
      "iconPath": ""
    },
    {
      "id": 715170411,
      "nextDialogs": [
        715170412
      ],
      "talkRole": {
        "type": "TALK_ROLE_NPC",
        "_id": "30301"
      },
      "talkContentTextMapHash": 704514458,
      "talkAssetPath": "",
      "talkAssetPathAlter": "",
      "talkAudioName": "",
      "actionBefore": "",
      "actionWhile": "",
      "actionAfter": "",
      "optionIcon": "",
      "iconPath": ""
    },
    {
      "id": 715170412,
      "nextDialogs": [
        715170413
      ],
      "talkRole": {
        "type": "TALK_ROLE_NPC",
        "_id": "30302"
      },
      "talkContentTextMapHash": 3675361154,
      "talkAssetPath": "",
      "talkAssetPathAlter": "",
      "talkAudioName": "",
      "actionBefore": "",
      "actionWhile": "",
      "actionAfter": "",
      "optionIcon": "",
      "iconPath": ""
    },
    {
      "id": 715170413,
      "nextDialogs": [
        715170414
      ],
      "talkRole": {
        "type": "TALK_ROLE_NPC",
        "_id": "30303"
      },
      "talkContentTextMapHash": 3062305490,
      "talkAssetPath": "",
      "talkAssetPathAlter": "",
      "talkAudioName": "",
      "actionBefore": "",
      "actionWhile": "",
      "actionAfter": "",
      "optionIcon": "",
      "iconPath": ""
    },
    {
      "id": 715170414,
      "nextDialogs": [
        715170415
      ],
      "talkRole": {
        "type": "TALK_ROLE_NPC",
        "_id": "30302"
      },
      "talkContentTextMapHash": 2738830218,
      "talkAssetPath": "",
      "talkAssetPathAlter": "",
      "talkAudioName": "",
      "actionBefore": "",
      "actionWhile": "",
      "actionAfter": "",
      "optionIcon": "",
      "iconPath": ""
    },
    {
      "id": 715170415,
      "nextDialogs": [
        715170416
      ],
      "talkRole": {
        "type": "TALK_ROLE_NPC",
        "_id": "30304"
      },
      "talkContentTextMapHash": 709363946,
      "talkAssetPath": "",
      "talkAssetPathAlter": "",
      "talkAudioName": "",
      "actionBefore": "",
      "actionWhile": "",
      "actionAfter": "",
      "optionIcon": "",
      "iconPath": ""
    },
    {
      "id": 715170416,
      "nextDialogs": [
        715170417
      ],
      "talkRole": {
        "type": "TALK_ROLE_NPC",
        "_id": "30303"
      },
      "talkContentTextMapHash": 3823510754,
      "talkAssetPath": "",
      "talkAssetPathAlter": "",
      "talkAudioName": "",
      "actionBefore": "",
      "actionWhile": "",
      "actionAfter": "",
      "optionIcon": "",
      "iconPath": ""
    },
    {
      "id": 715170417,
      "nextDialogs": [
        715170418
      ],
      "talkRole": {
        "type": "TALK_ROLE_NPC",
        "_id": "30303"
      },
      "talkContentTextMapHash": 4246015466,
      "talkAssetPath": "",
      "talkAssetPathAlter": "",
      "talkAudioName": "",
      "actionBefore": "",
      "actionWhile": "",
      "actionAfter": "",
      "optionIcon": "",
      "iconPath": ""
    },
    {
      "id": 715170418,
      "nextDialogs": [
        715170419
      ],
      "talkRole": {
        "type": "TALK_ROLE_NPC",
        "_id": "30303"
      },
      "talkContentTextMapHash": 3783941066,
      "talkAssetPath": "",
      "talkAssetPathAlter": "",
      "talkAudioName": "",
      "actionBefore": "",
      "actionWhile": "",
      "actionAfter": "",
      "optionIcon": "",
      "iconPath": ""
    },
    {
      "id": 715170419,
      "nextDialogs": [
        715170420
      ],
      "talkRole": {
        "type": "TALK_ROLE_NPC",
        "_id": "30303"
      },
      "talkContentTextMapHash": 860444026,
      "talkAssetPath": "",
      "talkAssetPathAlter": "",
      "talkAudioName": "",
      "actionBefore": "",
      "actionWhile": "",
      "actionAfter": "",
      "optionIcon": "",
      "iconPath": ""
    },
    {
      "id": 715170420,
      "nextDialogs": [
        715170421
      ],
      "talkRole": {
        "type": "TALK_ROLE_NPC",
        "_id": "30304"
      },
      "talkContentTextMapHash": 3112401570,
      "talkAssetPath": "",
      "talkAssetPathAlter": "",
      "talkAudioName": "",
      "actionBefore": "",
      "actionWhile": "",
      "actionAfter": "",
      "optionIcon": "",
      "iconPath": ""
    },
    {
      "id": 715170421,
      "nextDialogs": [
        715170422
      ],
      "talkRole": {
        "type": "TALK_ROLE_NPC",
        "_id": "30304"
      },
      "talkContentTextMapHash": 2505714634,
      "talkAssetPath": "",
      "talkAssetPathAlter": "",
      "talkAudioName": "",
      "actionBefore": "",
      "actionWhile": "",
      "actionAfter": "",
      "optionIcon": "",
      "iconPath": ""
    },
    {
      "id": 715170422,
      "nextDialogs": [
        715170423
      ],
      "talkRole": {
        "type": "TALK_ROLE_NPC",
        "_id": "30302"
      },
      "talkContentTextMapHash": 2775242538,
      "talkAssetPath": "",
      "talkAssetPathAlter": "",
      "talkAudioName": "",
      "actionBefore": "",
      "actionWhile": "",
      "actionAfter": "",
      "optionIcon": "",
      "iconPath": ""
    },
    {
      "id": 715170423,
      "nextDialogs": [
        715170424
      ],
      "talkRole": {
        "type": "TALK_ROLE_NPC",
        "_id": "30302"
      },
      "talkContentTextMapHash": 1332346042,
      "talkAssetPath": "",
      "talkAssetPathAlter": "",
      "talkAudioName": "",
      "actionBefore": "",
      "actionWhile": "",
      "actionAfter": "",
      "optionIcon": "",
      "iconPath": ""
    },
    {
      "id": 715170424,
      "nextDialogs": [
        715170425
      ],
      "talkRole": {
        "type": "TALK_ROLE_NPC",
        "_id": "30303"
      },
      "talkContentTextMapHash": 1442070794,
      "talkAssetPath": "",
      "talkAssetPathAlter": "",
      "talkAudioName": "",
      "actionBefore": "",
      "actionWhile": "",
      "actionAfter": "",
      "optionIcon": "",
      "iconPath": ""
    },
    {
      "id": 715170425,
      "nextDialogs": [
        715170426
      ],
      "talkRole": {
        "type": "TALK_ROLE_NPC",
        "_id": "30301"
      },
      "talkContentTextMapHash": 3341619858,
      "talkAssetPath": "",
      "talkAssetPathAlter": "",
      "talkAudioName": "",
      "actionBefore": "",
      "actionWhile": "",
      "actionAfter": "",
      "optionIcon": "",
      "iconPath": ""
    },
    {
      "id": 715170426,
      "nextDialogs": [
        715170427
      ],
      "talkRole": {
        "type": "TALK_ROLE_NPC",
        "_id": "30301"
      },
      "talkContentTextMapHash": 3002054570,
      "talkAssetPath": "",
      "talkAssetPathAlter": "",
      "talkAudioName": "",
      "actionBefore": "",
      "actionWhile": "",
      "actionAfter": "",
      "optionIcon": "",
      "iconPath": ""
    },
    {
      "id": 715170427,
      "nextDialogs": [
        715170428
      ],
      "talkRole": {
        "type": "TALK_ROLE_NPC",
        "_id": "30301"
      },
      "talkContentTextMapHash": 1072604586,
      "talkAssetPath": "",
      "talkAssetPathAlter": "",
      "talkAudioName": "",
      "actionBefore": "",
      "actionWhile": "",
      "actionAfter": "",
      "optionIcon": "",
      "iconPath": ""
    },
    {
      "id": 715170428,
      "talkRole": {
        "type": "TALK_ROLE_NPC",
        "_id": "30304"
      },
      "talkContentTextMapHash": 2395878066,
      "talkAssetPath": "",
      "talkAssetPathAlter": "",
      "talkAudioName": "",
      "actionBefore": "",
      "actionWhile": "",
      "actionAfter": "",
      "optionIcon": "",
      "iconPath": ""
    }
  ]
}