{
  "talkId": 7151807,
  "KPGKDHAFHFE": "ACTIVITY",
  "dialogList": [
    {
      "id": 715180701,
      "talkRole": {
        "type": "TALK_ROLE_NPC",
        "_id": "2023"
      },
      "talkContentTextMapHash": 3562738194,
      "talkAssetPath": "",
      "talkAssetPathAlter": "",
      "talkAudioName": "",
      "actionBefore": "",
      "actionWhile": "",
      "actionAfter": "",
      "optionIcon": "",
      "iconPath": ""
    }
  ]
}