{
  "talkId": 7151703,
  "KPGKDHAFHFE": "ACTIVITY",
  "dialogList": [
    {
      "id": 715170301,
      "nextDialogs": [
        715170302
      ],
      "talkRole": {
        "type": "TALK_ROLE_NPC",
        "_id": "30299"
      },
      "talkContentTextMapHash": 3379207882,
      "talkAssetPath": "",
      "talkAssetPathAlter": "",
      "talkAudioName": "",
      "actionBefore": "",
      "actionWhile": "",
      "actionAfter": "",
      "optionIcon": "",
      "iconPath": ""
    },
    {
      "id": 715170302,
      "nextDialogs": [
        715170303
      ],
      "talkRole": {
        "type": "TALK_ROLE_NPC",
        "_id": "30300"
      },
      "talkContentTextMapHash": 3819912962,
      "talkAssetPath": "",
      "talkAssetPathAlter": "",
      "talkAudioName": "",
      "actionBefore": "",
      "actionWhile": "",
      "actionAfter": "",
      "optionIcon": "",
      "iconPath": ""
    },
    {
      "id": 715170303,
      "nextDialogs": [
        715170304
      ],
      "talkRole": {
        "type": "TALK_ROLE_NPC",
        "_id": "30300"
      },
      "talkContentTextMapHash": 1544056130,
      "talkAssetPath": "",
      "talkAssetPathAlter": "",
      "talkAudioName": "",
      "actionBefore": "",
      "actionWhile": "",
      "actionAfter": "",
      "optionIcon": "",
      "iconPath": ""
    },
    {
      "id": 715170304,
      "nextDialogs": [
        715170305
      ],
      "talkRole": {
        "type": "TALK_ROLE_NPC",
        "_id": "30300"
      },
      "talkContentTextMapHash": 3722917658,
      "talkAssetPath": "",
      "talkAssetPathAlter": "",
      "talkAudioName": "",
      "actionBefore": "",
      "actionWhile": "",
      "actionAfter": "",
      "optionIcon": "",
      "iconPath": ""
    },
    {
      "id": 715170305,
      "nextDialogs": [
        715170306
      ],
      "talkRole": {
        "type": "TALK_ROLE_NPC",
        "_id": "30299"
      },
      "talkContentTextMapHash": 2602058434,
      "talkAssetPath": "",
      "talkAssetPathAlter": "",
      "talkAudioName": "",
      "actionBefore": "",
      "actionWhile": "",
      "actionAfter": "",
      "optionIcon": "",
      "iconPath": ""
    },
    {
      "id": 715170306,
      "nextDialogs": [
        715170307
      ],
      "talkRole": {
        "type": "TALK_ROLE_NPC",
        "_id": "30299"
      },
      "talkContentTextMapHash": 1282759050,
      "talkAssetPath": "",
      "talkAssetPathAlter": "",
      "talkAudioName": "",
      "actionBefore": "",
      "actionWhile": "",
      "actionAfter": "",
      "optionIcon": "",
      "iconPath": ""
    },
    {
      "id": 715170307,
      "nextDialogs": [
        715170308
      ],
      "talkRole": {
        "type": "TALK_ROLE_NPC",
        "_id": "30299"
      },
      "talkContentTextMapHash": 3381308042,
      "talkAssetPath": "",
      "talkAssetPathAlter": "",
      "talkAudioName": "",
      "actionBefore": "",
      "actionWhile": "",
      "actionAfter": "",
      "optionIcon": "",
      "iconPath": ""
    },
    {
      "id": 715170308,
      "nextDialogs": [
        715170309
      ],
      "talkRole": {
        "type": "TALK_ROLE_NPC",
        "_id": "30300"
      },
      "talkContentTextMapHash": 481261850,
      "talkAssetPath": "",
      "talkAssetPathAlter": "",
      "talkAudioName": "",
      "actionBefore": "",
      "actionWhile": "",
      "actionAfter": "",
      "optionIcon": "",
      "iconPath": ""
    },
    {
      "id": 715170309,
      "nextDialogs": [
        715170310
      ],
      "talkRole": {
        "type": "TALK_ROLE_NPC",
        "_id": "30299"
      },
      "talkContentTextMapHash": 2087242226,
      "talkAssetPath": "",
      "talkAssetPathAlter": "",
      "talkAudioName": "",
      "actionBefore": "",
      "actionWhile": "",
      "actionAfter": "",
      "optionIcon": "",
      "iconPath": ""
    },
    {
      "id": 715170310,
      "nextDialogs": [
        715170311
      ],
      "talkRole": {
        "type": "TALK_ROLE_NPC",
        "_id": "30299"
      },
      "talkContentTextMapHash": 2835429002,
      "talkAssetPath": "",
      "talkAssetPathAlter": "",
      "talkAudioName": "",
      "actionBefore": "",
      "actionWhile": "",
      "actionAfter": "",
      "optionIcon": "",
      "iconPath": ""
    },
    {
      "id": 715170311,
      "nextDialogs": [
        715170312
      ],
      "talkRole": {
        "type": "TALK_ROLE_NPC",
        "_id": "30300"
      },
      "talkContentTextMapHash": 521749714,
      "talkAssetPath": "",
      "talkAssetPathAlter": "",
      "talkAudioName": "",
      "actionBefore": "",
      "actionWhile": "",
      "actionAfter": "",
      "optionIcon": "",
      "iconPath": ""
    },
    {
      "id": 715170312,
      "nextDialogs": [
        715170313
      ],
      "talkRole": {
        "type": "TALK_ROLE_NPC",
        "_id": "30300"
      },
      "talkContentTextMapHash": 544995786,
      "talkAssetPath": "",
      "talkAssetPathAlter": "",
      "talkAudioName": "",
      "actionBefore": "",
      "actionWhile": "",
      "actionAfter": "",
      "optionIcon": "",
      "iconPath": ""
    },
    {
      "id": 715170313,
      "nextDialogs": [
        715170314
      ],
      "talkRole": {
        "type": "TALK_ROLE_NPC",
        "_id": "30300"
      },
      "talkContentTextMapHash": 2209375474,
      "talkAssetPath": "",
      "talkAssetPathAlter": "",
      "talkAudioName": "",
      "actionBefore": "",
      "actionWhile": "",
      "actionAfter": "",
      "optionIcon": "",
      "iconPath": ""
    },
    {
      "id": 715170314,
      "talkRole": {
        "type": "TALK_ROLE_NPC",
        "_id": "30299"
      },
      "talkContentTextMapHash": 998214506,
      "talkAssetPath": "",
      "talkAssetPathAlter": "",
      "talkAudioName": "",
      "actionBefore": "",
      "actionWhile": "",
      "actionAfter": "",
      "optionIcon": "",
      "iconPath": ""
    }
  ]
}