{
  "talkId": 7152302,
  "KPGKDHAFHFE": "ACTIVITY",
  "dialogList": [
    {
      "id": 715230201,
      "nextDialogs": [
        715230202,
        715230204
      ],
      "talkRole": {
        "type": "TALK_ROLE_NPC",
        "_id": "30426"
      },
      "talkContentTextMapHash": 2092370554,
      "talkAssetPath": "",
      "talkAssetPathAlter": "",
      "talkAudioName": "",
      "actionBefore": "SimpleTalk/Greet_Start",
      "actionWhile": "",
      "actionAfter": "",
      "optionIcon": "",
      "iconPath": ""
    },
    {
      "id": 715230202,
      "nextDialogs": [
        715230203
      ],
      "talkRole": {
        "type": "TALK_ROLE_PLAYER",
        "_id": ""
      },
      "talkContentTextMapHash": 1533566146,
      "talkAssetPath": "",
      "talkAssetPathAlter": "",
      "talkAudioName": "",
      "actionBefore": "",
      "actionWhile": "",
      "actionAfter": "",
      "optionIcon": "UI_NPCTopIcon_PitchPot",
      "iconPath": ""
    },
    {
      "id": 715230203,
      "talkRole": {
        "type": "TALK_ROLE_NPC",
        "_id": "30426"
      },
      "talkContentTextMapHash": 2484302010,
      "talkAssetPath": "",
      "talkAssetPathAlter": "",
      "talkAudioName": "",
      "actionBefore": "",
      "actionWhile": "",
      "actionAfter": "UI/open_activity_PitchPotStagePage",
      "optionIcon": "",
      "iconPath": ""
    },
    {
      "id": 715230204,
      "nextDialogs": [
        715230205
      ],
      "talkRole": {
        "type": "TALK_ROLE_PLAYER",
        "_id": ""
      },
      "talkContentTextMapHash": 4020013730,
      "talkAssetPath": "",
      "talkAssetPathAlter": "",
      "talkAudioName": "",
      "actionBefore": "",
      "actionWhile": "",
      "actionAfter": "",
      "optionIcon": "",
      "iconPath": ""
    },
    {
      "id": 715230205,
      "talkRole": {
        "type": "TALK_ROLE_NPC",
        "_id": "30426"
      },
      "talkContentTextMapHash": 3765410066,
      "talkAssetPath": "",
      "talkAssetPathAlter": "",
      "talkAudioName": "",
      "actionBefore": "",
      "actionWhile": "",
      "actionAfter": "",
      "optionIcon": "",
      "iconPath": ""
    }
  ]
}