{
  "talkId": 7153103,
  "KPGKDHAFHFE": "ACTIVITY",
  "dialogList": [
    {
      "id": 715310301,
      "nextDialogs": [
        715310302
      ],
      "talkRole": {
        "type": "TALK_ROLE_NPC",
        "_id": "30458"
      },
      "talkContentTextMapHash": 1999975570,
      "talkAssetPath": "",
      "talkAssetPathAlter": "",
      "talkAudioName": "",
      "actionBefore": "",
      "actionWhile": "SimpleTalk/LerpInNpcNoSteer_Start",
      "actionAfter": "",
      "optionIcon": "",
      "iconPath": ""
    },
    {
      "id": 715310302,
      "talkRole": {
        "type": "TALK_ROLE_PLAYER",
        "_id": ""
      },
      "talkContentTextMapHash": 2328276282,
      "talkAssetPath": "",
      "talkAssetPathAlter": "",
      "talkAudioName": "",
      "actionBefore": "",
      "actionWhile": "",
      "actionAfter": "SimpleTalk/LerpOutNpcNoSteer_End",
      "optionIcon": "",
      "iconPath": ""
    }
  ]
}