{
  "talkId": 7153003,
  "KPGKDHAFHFE": "ACTIVITY",
  "dialogList": [
    {
      "id": 715300301,
      "nextDialogs": [
        715300302
      ],
      "talkRole": {
        "type": "TALK_ROLE_NPC",
        "_id": "30457"
      },
      "talkContentTextMapHash": 2107725770,
      "talkAssetPath": "",
      "talkAssetPathAlter": "",
      "talkAudioName": "",
      "actionBefore": "SimpleTalk/LerpInNpcNoSteer_Start",
      "actionWhile": "",
      "actionAfter": "",
      "optionIcon": "",
      "iconPath": ""
    },
    {
      "id": 715300302,
      "talkRole": {
        "type": "TALK_ROLE_PLAYER",
        "_id": ""
      },
      "talkContentTextMapHash": 2868679058,
      "talkAssetPath": "",
      "talkAssetPathAlter": "",
      "talkAudioName": "",
      "actionBefore": "",
      "actionWhile": "",
      "actionAfter": "SimpleTalk/LerpOutNpcNoSteer_End",
      "optionIcon": "",
      "iconPath": ""
    }
  ]
}