{
  "talkId": 7166608,
  "KPGKDHAFHFE": "ACTIVITY",
  "dialogList": [
    {
      "id": 716660801,
      "nextDialogs": [
        716660802
      ],
      "talkRole": {
        "type": "TALK_ROLE_PLAYER",
        "_id": ""
      },
      "talkContentTextMapHash": 4108879098,
      "talkAssetPath": "",
      "talkAssetPathAlter": "",
      "talkAudioName": "",
      "actionBefore": "",
      "actionWhile": "",
      "actionAfter": "",
      "optionIcon": "",
      "iconPath": ""
    },
    {
      "id": 716660802,
      "nextDialogs": [
        716660803
      ],
      "talkRole": {
        "type": "TALK_ROLE_NPC",
        "_id": "2006"
      },
      "talkContentTextMapHash": 1196308890,
      "talkAssetPath": "",
      "talkAssetPathAlter": "",
      "talkAudioName": "",
      "actionBefore": "",
      "actionWhile": "",
      "actionAfter": "",
      "optionIcon": "",
      "iconPath": ""
    },
    {
      "id": 716660803,
      "nextDialogs": [
        716660804
      ],
      "talkRole": {
        "type": "TALK_ROLE_NPC",
        "_id": "2006"
      },
      "talkContentTextMapHash": 3222049410,
      "talkAssetPath": "",
      "talkAssetPathAlter": "",
      "talkAudioName": "",
      "actionBefore": "",
      "actionWhile": "",
      "actionAfter": "",
      "optionIcon": "",
      "iconPath": ""
    },
    {
      "id": 716660804,
      "nextDialogs": [
        716660805
      ],
      "talkRole": {
        "type": "TALK_ROLE_NPC",
        "_id": "2006"
      },
      "talkContentTextMapHash": 2407442050,
      "talkAssetPath": "",
      "talkAssetPathAlter": "",
      "talkAudioName": "",
      "actionBefore": "",
      "actionWhile": "",
      "actionAfter": "",
      "optionIcon": "",
      "iconPath": ""
    },
    {
      "id": 716660805,
      "nextDialogs": [
        716660806
      ],
      "talkRole": {
        "type": "TALK_ROLE_NPC",
        "_id": "2006"
      },
      "talkContentTextMapHash": 1146451370,
      "talkAssetPath": "",
      "talkAssetPathAlter": "",
      "talkAudioName": "",
      "actionBefore": "",
      "actionWhile": "",
      "actionAfter": "",
      "optionIcon": "",
      "iconPath": ""
    },
    {
      "id": 716660806,
      "nextDialogs": [
        716660807
      ],
      "talkRole": {
        "type": "TALK_ROLE_NPC",
        "_id": "2006"
      },
      "talkContentTextMapHash": 1809655098,
      "talkAssetPath": "",
      "talkAssetPathAlter": "",
      "talkAudioName": "",
      "actionBefore": "",
      "actionWhile": "",
      "actionAfter": "",
      "optionIcon": "",
      "iconPath": ""
    },
    {
      "id": 716660807,
      "nextDialogs": [
        716660808
      ],
      "talkRole": {
        "type": "TALK_ROLE_NPC",
        "_id": "2006"
      },
      "talkContentTextMapHash": 3166260082,
      "talkAssetPath": "",
      "talkAssetPathAlter": "",
      "talkAudioName": "",
      "actionBefore": "",
      "actionWhile": "",
      "actionAfter": "",
      "optionIcon": "",
      "iconPath": ""
    },
    {
      "id": 716660808,
      "nextDialogs": [
        716660809
      ],
      "talkRole": {
        "type": "TALK_ROLE_NPC",
        "_id": "2006"
      },
      "talkContentTextMapHash": 2906410978,
      "talkAssetPath": "",
      "talkAssetPathAlter": "",
      "talkAudioName": "",
      "actionBefore": "",
      "actionWhile": "",
      "actionAfter": "",
      "optionIcon": "",
      "iconPath": ""
    },
    {
      "id": 716660809,
      "talkRole": {
        "type": "TALK_ROLE_NPC",
        "_id": "2006"
      },
      "talkContentTextMapHash": 1796819890,
      "talkAssetPath": "",
      "talkAssetPathAlter": "",
      "talkAudioName": "",
      "actionBefore": "",
      "actionWhile": "",
      "actionAfter": "",
      "optionIcon": "",
      "iconPath": ""
    }
  ]
}