{
  "talkId": 7166622,
  "KPGKDHAFHFE": "ACTIVITY",
  "dialogList": [
    {
      "id": 716662201,
      "nextDialogs": [
        716662202,
        716662204,
        716662209
      ],
      "talkRole": {
        "type": "TALK_ROLE_NPC",
        "_id": "30471"
      },
      "talkContentTextMapHash": 1221244770,
      "talkAssetPath": "",
      "talkAssetPathAlter": "",
      "talkAudioName": "",
      "actionBefore": "SimpleTalk/RandomTalk_Start",
      "actionWhile": "",
      "actionAfter": "",
      "optionIcon": "",
      "iconPath": ""
    },
    {
      "id": 716662202,
      "nextDialogs": [
        716662203
      ],
      "talkRole": {
        "type": "TALK_ROLE_PLAYER",
        "_id": ""
      },
      "talkContentTextMapHash": 2085415530,
      "talkAssetPath": "",
      "talkAssetPathAlter": "",
      "talkAudioName": "",
      "actionBefore": "",
      "actionWhile": "",
      "actionAfter": "",
      "optionIcon": "UI_Icon_Intee_ElectroherculesBattle",
      "iconPath": ""
    },
    {
      "id": 716662203,
      "talkRole": {
        "type": "TALK_ROLE_NPC",
        "_id": "30471"
      },
      "talkContentTextMapHash": 2556382370,
      "talkAssetPath": "",
      "talkAssetPathAlter": "",
      "talkAudioName": "",
      "actionBefore": "SimpleTalk/Standby",
      "actionWhile": "",
      "actionAfter": "UI/open_actvity_ElectroherculesBattleV2_level1_page",
      "optionIcon": "",
      "iconPath": ""
    },
    {
      "id": 716662204,
      "nextDialogs": [
        716662205
      ],
      "talkRole": {
        "type": "TALK_ROLE_PLAYER",
        "_id": ""
      },
      "talkContentTextMapHash": 3362324674,
      "talkAssetPath": "",
      "talkAssetPathAlter": "",
      "talkAudioName": "",
      "actionBefore": "",
      "actionWhile": "",
      "actionAfter": "",
      "optionIcon": "",
      "iconPath": ""
    },
    {
      "id": 716662205,
      "nextDialogs": [
        716662206
      ],
      "talkRole": {
        "type": "TALK_ROLE_NPC",
        "_id": "30471"
      },
      "talkContentTextMapHash": 1994420610,
      "talkAssetPath": "",
      "talkAssetPathAlter": "",
      "talkAudioName": "",
      "actionBefore": "SimpleTalk/Akimbo",
      "actionWhile": "",
      "actionAfter": "",
      "optionIcon": "",
      "iconPath": ""
    },
    {
      "id": 716662206,
      "nextDialogs": [
        716662207
      ],
      "talkRole": {
        "type": "TALK_ROLE_NPC",
        "_id": "30471"
      },
      "talkContentTextMapHash": 2510234114,
      "talkAssetPath": "",
      "talkAssetPathAlter": "",
      "talkAudioName": "",
      "actionBefore": "",
      "actionWhile": "SimpleTalk/NodHead",
      "actionAfter": "",
      "optionIcon": "",
      "iconPath": ""
    },
    {
      "id": 716662207,
      "nextDialogs": [
        716662208
      ],
      "talkRole": {
        "type": "TALK_ROLE_NPC",
        "_id": "30471"
      },
      "talkContentTextMapHash": 3405570170,
      "talkAssetPath": "",
      "talkAssetPathAlter": "",
      "talkAudioName": "",
      "actionBefore": "",
      "actionWhile": "SimpleTalk/Standby",
      "actionAfter": "",
      "optionIcon": "",
      "iconPath": ""
    },
    {
      "id": 716662208,
      "talkRole": {
        "type": "TALK_ROLE_NPC",
        "_id": "30471"
      },
      "talkContentTextMapHash": 2891660722,
      "talkAssetPath": "",
      "talkAssetPathAlter": "",
      "talkAudioName": "",
      "actionBefore": "SimpleTalk/RandomTalk",
      "actionWhile": "",
      "actionAfter": "SimpleTalk/Idle_End",
      "optionIcon": "",
      "iconPath": ""
    },
    {
      "id": 716662209,
      "nextDialogs": [
        716662210
      ],
      "talkRole": {
        "type": "TALK_ROLE_PLAYER",
        "_id": ""
      },
      "talkContentTextMapHash": 229161866,
      "talkAssetPath": "",
      "talkAssetPathAlter": "",
      "talkAudioName": "",
      "actionBefore": "",
      "actionWhile": "",
      "actionAfter": "",
      "optionIcon": "",
      "iconPath": ""
    },
    {
      "id": 716662210,
      "talkRole": {
        "type": "TALK_ROLE_NPC",
        "_id": "30471"
      },
      "talkContentTextMapHash": 1870406986,
      "talkAssetPath": "",
      "talkAssetPathAlter": "",
      "talkAudioName": "",
      "actionBefore": "",
      "actionWhile": "",
      "actionAfter": "SimpleTalk/Idle_End",
      "optionIcon": "",
      "iconPath": ""
    }
  ]
}