{
  "talkId": 7250112,
  "KPGKDHAFHFE": "ACTIVITY",
  "dialogList": [
    {
      "id": 725011201,
      "nextDialogs": [
        725011202
      ],
      "talkRole": {
        "type": "TALK_ROLE_NPC",
        "_id": "30269"
      },
      "talkContentTextMapHash": 568583786,
      "talkAssetPath": "",
      "talkAssetPathAlter": "",
      "talkAudioName": "",
      "actionBefore": "",
      "actionWhile": "",
      "actionAfter": "",
      "optionIcon": "",
      "iconPath": ""
    },
    {
      "id": 725011202,
      "nextDialogs": [
        725011203
      ],
      "talkRole": {
        "type": "TALK_ROLE_NPC",
        "_id": "30270"
      },
      "talkContentTextMapHash": 2720081794,
      "talkAssetPath": "",
      "talkAssetPathAlter": "",
      "talkAudioName": "",
      "actionBefore": "",
      "actionWhile": "",
      "actionAfter": "",
      "optionIcon": "",
      "iconPath": ""
    },
    {
      "id": 725011203,
      "nextDialogs": [
        725011204
      ],
      "talkRole": {
        "type": "TALK_ROLE_NPC",
        "_id": "30270"
      },
      "talkContentTextMapHash": 877331546,
      "talkAssetPath": "",
      "talkAssetPathAlter": "",
      "talkAudioName": "",
      "actionBefore": "",
      "actionWhile": "",
      "actionAfter": "",
      "optionIcon": "",
      "iconPath": ""
    },
    {
      "id": 725011204,
      "nextDialogs": [
        725011205
      ],
      "talkRole": {
        "type": "TALK_ROLE_NPC",
        "_id": "30270"
      },
      "talkContentTextMapHash": 2035368194,
      "talkAssetPath": "",
      "talkAssetPathAlter": "",
      "talkAudioName": "",
      "actionBefore": "",
      "actionWhile": "",
      "actionAfter": "",
      "optionIcon": "",
      "iconPath": ""
    },
    {
      "id": 725011205,
      "nextDialogs": [
        725011206
      ],
      "talkRole": {
        "type": "TALK_ROLE_NPC",
        "_id": "30269"
      },
      "talkContentTextMapHash": 1290396594,
      "talkAssetPath": "",
      "talkAssetPathAlter": "",
      "talkAudioName": "",
      "actionBefore": "",
      "actionWhile": "",
      "actionAfter": "",
      "optionIcon": "",
      "iconPath": ""
    },
    {
      "id": 725011206,
      "nextDialogs": [
        725011207
      ],
      "talkRole": {
        "type": "TALK_ROLE_NPC",
        "_id": "30269"
      },
      "talkContentTextMapHash": 683801458,
      "talkAssetPath": "",
      "talkAssetPathAlter": "",
      "talkAudioName": "",
      "actionBefore": "",
      "actionWhile": "",
      "actionAfter": "",
      "optionIcon": "",
      "iconPath": ""
    },
    {
      "id": 725011207,
      "nextDialogs": [
        725011208
      ],
      "talkRole": {
        "type": "TALK_ROLE_NPC",
        "_id": "30270"
      },
      "talkContentTextMapHash": 304949570,
      "talkAssetPath": "",
      "talkAssetPathAlter": "",
      "talkAudioName": "",
      "actionBefore": "",
      "actionWhile": "",
      "actionAfter": "",
      "optionIcon": "",
      "iconPath": ""
    },
    {
      "id": 725011208,
      "nextDialogs": [
        725011209
      ],
      "talkRole": {
        "type": "TALK_ROLE_NPC",
        "_id": "30270"
      },
      "talkContentTextMapHash": 2049771250,
      "talkAssetPath": "",
      "talkAssetPathAlter": "",
      "talkAudioName": "",
      "actionBefore": "",
      "actionWhile": "",
      "actionAfter": "",
      "optionIcon": "",
      "iconPath": ""
    },
    {
      "id": 725011209,
      "nextDialogs": [
        725011210
      ],
      "talkRole": {
        "type": "TALK_ROLE_NPC",
        "_id": "30270"
      },
      "talkContentTextMapHash": 22055610,
      "talkAssetPath": "",
      "talkAssetPathAlter": "",
      "talkAudioName": "",
      "actionBefore": "",
      "actionWhile": "",
      "actionAfter": "",
      "optionIcon": "",
      "iconPath": ""
    },
    {
      "id": 725011210,
      "nextDialogs": [
        725011211
      ],
      "talkShowType": "TALK_SHOW_FORCE_SELECT",
      "talkRole": {
        "type": "TALK_ROLE_PLAYER",
        "_id": ""
      },
      "talkContentTextMapHash": 237589450,
      "talkAssetPath": "",
      "talkAssetPathAlter": "",
      "talkAudioName": "",
      "actionBefore": "",
      "actionWhile": "",
      "actionAfter": "",
      "optionIcon": "",
      "iconPath": ""
    },
    {
      "id": 725011211,
      "nextDialogs": [
        725011212
      ],
      "talkRole": {
        "type": "TALK_ROLE_NPC",
        "_id": "30269"
      },
      "talkContentTextMapHash": 3726368562,
      "talkAssetPath": "",
      "talkAssetPathAlter": "",
      "talkAudioName": "",
      "actionBefore": "",
      "actionWhile": "",
      "actionAfter": "",
      "optionIcon": "",
      "iconPath": ""
    },
    {
      "id": 725011212,
      "nextDialogs": [
        725011213
      ],
      "talkRole": {
        "type": "TALK_ROLE_NPC",
        "_id": "30269"
      },
      "talkContentTextMapHash": 472985050,
      "talkAssetPath": "",
      "talkAssetPathAlter": "",
      "talkAudioName": "",
      "actionBefore": "",
      "actionWhile": "",
      "actionAfter": "",
      "optionIcon": "",
      "iconPath": ""
    },
    {
      "id": 725011213,
      "nextDialogs": [
        725011214
      ],
      "talkShowType": "TALK_SHOW_FORCE_SELECT",
      "talkRole": {
        "type": "TALK_ROLE_PLAYER",
        "_id": ""
      },
      "talkContentTextMapHash": 2360277362,
      "talkAssetPath": "",
      "talkAssetPathAlter": "",
      "talkAudioName": "",
      "actionBefore": "",
      "actionWhile": "",
      "actionAfter": "",
      "optionIcon": "",
      "iconPath": ""
    },
    {
      "id": 725011214,
      "nextDialogs": [
        725011215
      ],
      "talkRole": {
        "type": "TALK_ROLE_NPC",
        "_id": "30269"
      },
      "talkContentTextMapHash": 364170266,
      "talkAssetPath": "",
      "talkAssetPathAlter": "",
      "talkAudioName": "",
      "actionBefore": "",
      "actionWhile": "",
      "actionAfter": "",
      "optionIcon": "",
      "iconPath": ""
    },
    {
      "id": 725011215,
      "nextDialogs": [
        725011216
      ],
      "talkRole": {
        "type": "TALK_ROLE_NPC",
        "_id": "30269"
      },
      "talkContentTextMapHash": 4272270242,
      "talkAssetPath": "",
      "talkAssetPathAlter": "",
      "talkAudioName": "",
      "actionBefore": "",
      "actionWhile": "",
      "actionAfter": "",
      "optionIcon": "",
      "iconPath": ""
    },
    {
      "id": 725011216,
      "nextDialogs": [
        725011217
      ],
      "talkRole": {
        "type": "TALK_ROLE_NPC",
        "_id": "30269"
      },
      "talkContentTextMapHash": 899425586,
      "talkAssetPath": "",
      "talkAssetPathAlter": "",
      "talkAudioName": "",
      "actionBefore": "",
      "actionWhile": "",
      "actionAfter": "",
      "optionIcon": "",
      "iconPath": ""
    },
    {
      "id": 725011217,
      "nextDialogs": [
        725011218
      ],
      "talkRole": {
        "type": "TALK_ROLE_NPC",
        "_id": "30269"
      },
      "talkContentTextMapHash": 161518554,
      "talkAssetPath": "",
      "talkAssetPathAlter": "",
      "talkAudioName": "",
      "actionBefore": "",
      "actionWhile": "",
      "actionAfter": "",
      "optionIcon": "",
      "iconPath": ""
    },
    {
      "id": 725011218,
      "nextDialogs": [
        725011219
      ],
      "talkRole": {
        "type": "TALK_ROLE_NPC",
        "_id": "30269"
      },
      "talkContentTextMapHash": 1931029746,
      "talkAssetPath": "",
      "talkAssetPathAlter": "",
      "talkAudioName": "",
      "actionBefore": "",
      "actionWhile": "",
      "actionAfter": "",
      "optionIcon": "",
      "iconPath": ""
    },
    {
      "id": 725011219,
      "nextDialogs": [
        725011220
      ],
      "talkRole": {
        "type": "TALK_ROLE_NPC",
        "_id": "30269"
      },
      "talkContentTextMapHash": 3984109506,
      "talkAssetPath": "",
      "talkAssetPathAlter": "",
      "talkAudioName": "",
      "actionBefore": "",
      "actionWhile": "",
      "actionAfter": "",
      "optionIcon": "",
      "iconPath": ""
    },
    {
      "id": 725011220,
      "nextDialogs": [
        725011221
      ],
      "talkRole": {
        "type": "TALK_ROLE_NPC",
        "_id": "30269"
      },
      "talkContentTextMapHash": 3781437802,
      "talkAssetPath": "",
      "talkAssetPathAlter": "",
      "talkAudioName": "",
      "actionBefore": "",
      "actionWhile": "",
      "actionAfter": "",
      "optionIcon": "",
      "iconPath": ""
    },
    {
      "id": 725011221,
      "nextDialogs": [
        725011222
      ],
      "talkRole": {
        "type": "TALK_ROLE_NPC",
        "_id": "30269"
      },
      "talkContentTextMapHash": 3810664298,
      "talkAssetPath": "",
      "talkAssetPathAlter": "",
      "talkAudioName": "",
      "actionBefore": "",
      "actionWhile": "",
      "actionAfter": "",
      "optionIcon": "",
      "iconPath": ""
    },
    {
      "id": 725011222,
      "nextDialogs": [
        725011223
      ],
      "talkRole": {
        "type": "TALK_ROLE_NPC",
        "_id": "30270"
      },
      "talkContentTextMapHash": 3864874522,
      "talkAssetPath": "",
      "talkAssetPathAlter": "",
      "talkAudioName": "",
      "actionBefore": "",
      "actionWhile": "",
      "actionAfter": "",
      "optionIcon": "",
      "iconPath": ""
    },
    {
      "id": 725011223,
      "nextDialogs": [
        725011224
      ],
      "talkRole": {
        "type": "TALK_ROLE_NPC",
        "_id": "30270"
      },
      "talkContentTextMapHash": 2216902954,
      "talkAssetPath": "",
      "talkAssetPathAlter": "",
      "talkAudioName": "",
      "actionBefore": "",
      "actionWhile": "",
      "actionAfter": "",
      "optionIcon": "",
      "iconPath": ""
    },
    {
      "id": 725011224,
      "nextDialogs": [
        725011225
      ],
      "talkRole": {
        "type": "TALK_ROLE_NPC",
        "_id": "30269"
      },
      "talkContentTextMapHash": 2144738674,
      "talkAssetPath": "",
      "talkAssetPathAlter": "",
      "talkAudioName": "",
      "actionBefore": "",
      "actionWhile": "",
      "actionAfter": "",
      "optionIcon": "",
      "iconPath": ""
    },
    {
      "id": 725011225,
      "nextDialogs": [
        725011226
      ],
      "talkRole": {
        "type": "TALK_ROLE_NPC",
        "_id": "30269"
      },
      "talkContentTextMapHash": 1237720770,
      "talkAssetPath": "",
      "talkAssetPathAlter": "",
      "talkAudioName": "",
      "actionBefore": "",
      "actionWhile": "",
      "actionAfter": "",
      "optionIcon": "",
      "iconPath": ""
    },
    {
      "id": 725011226,
      "nextDialogs": [
        725011227
      ],
      "talkRole": {
        "type": "TALK_ROLE_NPC",
        "_id": "30269"
      },
      "talkContentTextMapHash": 2302752866,
      "talkAssetPath": "",
      "talkAssetPathAlter": "",
      "talkAudioName": "",
      "actionBefore": "",
      "actionWhile": "",
      "actionAfter": "",
      "optionIcon": "",
      "iconPath": ""
    },
    {
      "id": 725011227,
      "nextDialogs": [
        725011228,
        725011229
      ],
      "talkRole": {
        "type": "TALK_ROLE_NPC",
        "_id": "30270"
      },
      "talkContentTextMapHash": 2519408538,
      "talkAssetPath": "",
      "talkAssetPathAlter": "",
      "talkAudioName": "",
      "actionBefore": "",
      "actionWhile": "",
      "actionAfter": "",
      "optionIcon": "",
      "iconPath": ""
    },
    {
      "id": 725011228,
      "nextDialogs": [
        725011230
      ],
      "talkRole": {
        "type": "TALK_ROLE_PLAYER",
        "_id": ""
      },
      "talkContentTextMapHash": 1579494482,
      "talkAssetPath": "",
      "talkAssetPathAlter": "",
      "talkAudioName": "",
      "actionBefore": "",
      "actionWhile": "",
      "actionAfter": "",
      "optionIcon": "",
      "iconPath": ""
    },
    {
      "id": 725011230,
      "nextDialogs": [
        725011231
      ],
      "talkRole": {
        "type": "TALK_ROLE_NPC",
        "_id": "30270"
      },
      "talkContentTextMapHash": 3786401674,
      "talkAssetPath": "",
      "talkAssetPathAlter": "",
      "talkAudioName": "",
      "actionBefore": "",
      "actionWhile": "",
      "actionAfter": "",
      "optionIcon": "",
      "iconPath": ""
    },
    {
      "id": 725011231,
      "nextDialogs": [
        725011232,
        725011233
      ],
      "talkRole": {
        "type": "TALK_ROLE_NPC",
        "_id": "30270"
      },
      "talkContentTextMapHash": 1765977354,
      "talkAssetPath": "",
      "talkAssetPathAlter": "",
      "talkAudioName": "",
      "actionBefore": "",
      "actionWhile": "",
      "actionAfter": "",
      "optionIcon": "",
      "iconPath": ""
    },
    {
      "id": 725011232,
      "nextDialogs": [
        725011234
      ],
      "talkRole": {
        "type": "TALK_ROLE_PLAYER",
        "_id": ""
      },
      "talkContentTextMapHash": 1933009762,
      "talkAssetPath": "",
      "talkAssetPathAlter": "",
      "talkAudioName": "",
      "actionBefore": "",
      "actionWhile": "",
      "actionAfter": "",
      "optionIcon": "",
      "iconPath": ""
    },
    {
      "id": 725011234,
      "nextDialogs": [
        725011235
      ],
      "talkRole": {
        "type": "TALK_ROLE_NPC",
        "_id": "30270"
      },
      "talkContentTextMapHash": 285531818,
      "talkAssetPath": "",
      "talkAssetPathAlter": "",
      "talkAudioName": "",
      "actionBefore": "",
      "actionWhile": "",
      "actionAfter": "",
      "optionIcon": "",
      "iconPath": ""
    },
    {
      "id": 725011235,
      "nextDialogs": [
        725011236
      ],
      "talkRole": {
        "type": "TALK_ROLE_NPC",
        "_id": "30270"
      },
      "talkContentTextMapHash": 2856409346,
      "talkAssetPath": "",
      "talkAssetPathAlter": "",
      "talkAudioName": "",
      "actionBefore": "",
      "actionWhile": "",
      "actionAfter": "",
      "optionIcon": "",
      "iconPath": ""
    },
    {
      "id": 725011236,
      "talkRole": {
        "type": "TALK_ROLE_NPC",
        "_id": "30270"
      },
      "talkContentTextMapHash": 2834091522,
      "talkAssetPath": "",
      "talkAssetPathAlter": "",
      "talkAudioName": "",
      "actionBefore": "",
      "actionWhile": "",
      "actionAfter": "",
      "optionIcon": "",
      "iconPath": ""
    },
    {
      "id": 725011233,
      "nextDialogs": [
        725011234
      ],
      "talkRole": {
        "type": "TALK_ROLE_PLAYER",
        "_id": ""
      },
      "talkContentTextMapHash": 3153899050,
      "talkAssetPath": "",
      "talkAssetPathAlter": "",
      "talkAudioName": "",
      "actionBefore": "",
      "actionWhile": "",
      "actionAfter": "",
      "optionIcon": "",
      "iconPath": ""
    },
    {
      "id": 725011229,
      "nextDialogs": [
        725011230
      ],
      "talkRole": {
        "type": "TALK_ROLE_PLAYER",
        "_id": ""
      },
      "talkContentTextMapHash": 3354513426,
      "talkAssetPath": "",
      "talkAssetPathAlter": "",
      "talkAudioName": "",
      "actionBefore": "",
      "actionWhile": "",
      "actionAfter": "",
      "optionIcon": "",
      "iconPath": ""
    }
  ]
}