{
  "talkId": 7250106,
  "KPGKDHAFHFE": "ACTIVITY",
  "dialogList": [
    {
      "id": 725010601,
      "talkRole": {
        "type": "TALK_ROLE_NPC",
        "_id": "30160"
      },
      "talkContentTextMapHash": 739906170,
      "talkAssetPath": "",
      "talkAssetPathAlter": "",
      "talkAudioName": "",
      "actionBefore": "",
      "actionWhile": "",
      "actionAfter": "",
      "optionIcon": "",
      "iconPath": ""
    }
  ]
}