{
  "talkId": 7265504,
  "KPGKDHAFHFE": "ACTIVITY",
  "dialogList": [
    {
      "id": 726550401,
      "nextDialogs": [
        726550402
      ],
      "talkRole": {
        "type": "TALK_ROLE_NPC",
        "_id": "30055"
      },
      "talkContentTextMapHash": 2806047010,
      "talkAssetPath": "",
      "talkAssetPathAlter": "",
      "talkAudioName": "",
      "actionBefore": "",
      "actionWhile": "",
      "actionAfter": "",
      "optionIcon": "",
      "iconPath": ""
    },
    {
      "id": 726550402,
      "nextDialogs": [
        726550403
      ],
      "talkRole": {
        "type": "TALK_ROLE_NPC",
        "_id": "30055"
      },
      "talkContentTextMapHash": 4187317378,
      "talkAssetPath": "",
      "talkAssetPathAlter": "",
      "talkAudioName": "",
      "actionBefore": "",
      "actionWhile": "",
      "actionAfter": "",
      "optionIcon": "",
      "iconPath": ""
    },
    {
      "id": 726550403,
      "nextDialogs": [
        726550404,
        726550405
      ],
      "talkRole": {
        "type": "TALK_ROLE_NPC",
        "_id": "30055"
      },
      "talkContentTextMapHash": 1446863730,
      "talkAssetPath": "",
      "talkAssetPathAlter": "",
      "talkAudioName": "",
      "actionBefore": "",
      "actionWhile": "",
      "actionAfter": "",
      "optionIcon": "",
      "iconPath": ""
    },
    {
      "id": 726550404,
      "nextDialogs": [
        726550406
      ],
      "talkShowType": "TALK_SHOW_FORCE_SELECT",
      "talkRole": {
        "type": "TALK_ROLE_PLAYER",
        "_id": ""
      },
      "talkContentTextMapHash": 3660161082,
      "talkAssetPath": "",
      "talkAssetPathAlter": "",
      "talkAudioName": "",
      "actionBefore": "",
      "actionWhile": "",
      "actionAfter": "",
      "optionIcon": "",
      "iconPath": ""
    },
    {
      "id": 726550406,
      "nextDialogs": [
        726550407
      ],
      "talkRole": {
        "type": "TALK_ROLE_NPC",
        "_id": "30055"
      },
      "talkContentTextMapHash": 3315229050,
      "talkAssetPath": "",
      "talkAssetPathAlter": "",
      "talkAudioName": "",
      "actionBefore": "",
      "actionWhile": "",
      "actionAfter": "",
      "optionIcon": "",
      "iconPath": ""
    },
    {
      "id": 726550407,
      "nextDialogs": [
        726550408
      ],
      "talkRole": {
        "type": "TALK_ROLE_NPC",
        "_id": "30055"
      },
      "talkContentTextMapHash": 1946194810,
      "talkAssetPath": "",
      "talkAssetPathAlter": "",
      "talkAudioName": "",
      "actionBefore": "",
      "actionWhile": "",
      "actionAfter": "",
      "optionIcon": "",
      "iconPath": ""
    },
    {
      "id": 726550408,
      "nextDialogs": [
        726550409
      ],
      "talkRole": {
        "type": "TALK_ROLE_NPC",
        "_id": "30055"
      },
      "talkContentTextMapHash": 494040922,
      "talkAssetPath": "",
      "talkAssetPathAlter": "",
      "talkAudioName": "",
      "actionBefore": "",
      "actionWhile": "",
      "actionAfter": "",
      "optionIcon": "",
      "iconPath": ""
    },
    {
      "id": 726550409,
      "nextDialogs": [
        726550410
      ],
      "talkRole": {
        "type": "TALK_ROLE_NPC",
        "_id": "30055"
      },
      "talkContentTextMapHash": 3321864706,
      "talkAssetPath": "",
      "talkAssetPathAlter": "",
      "talkAudioName": "",
      "actionBefore": "",
      "actionWhile": "",
      "actionAfter": "",
      "optionIcon": "",
      "iconPath": ""
    },
    {
      "id": 726550410,
      "nextDialogs": [
        726550411
      ],
      "talkRole": {
        "type": "TALK_ROLE_NPC",
        "_id": "30055"
      },
      "talkContentTextMapHash": 2745162586,
      "talkAssetPath": "",
      "talkAssetPathAlter": "",
      "talkAudioName": "",
      "actionBefore": "",
      "actionWhile": "",
      "actionAfter": "",
      "optionIcon": "",
      "iconPath": ""
    },
    {
      "id": 726550411,
      "nextDialogs": [
        726550412,
        726550413
      ],
      "talkRole": {
        "type": "TALK_ROLE_NPC",
        "_id": "30055"
      },
      "talkContentTextMapHash": 3894433394,
      "talkAssetPath": "",
      "talkAssetPathAlter": "",
      "talkAudioName": "",
      "actionBefore": "",
      "actionWhile": "",
      "actionAfter": "",
      "optionIcon": "",
      "iconPath": ""
    },
    {
      "id": 726550412,
      "nextDialogs": [
        726550414
      ],
      "talkShowType": "TALK_SHOW_FORCE_SELECT",
      "talkRole": {
        "type": "TALK_ROLE_PLAYER",
        "_id": ""
      },
      "talkContentTextMapHash": 3742587522,
      "talkAssetPath": "",
      "talkAssetPathAlter": "",
      "talkAudioName": "",
      "actionBefore": "",
      "actionWhile": "",
      "actionAfter": "",
      "optionIcon": "",
      "iconPath": ""
    },
    {
      "id": 726550414,
      "nextDialogs": [
        726550415
      ],
      "talkRole": {
        "type": "TALK_ROLE_NPC",
        "_id": "30055"
      },
      "talkContentTextMapHash": 540308002,
      "talkAssetPath": "",
      "talkAssetPathAlter": "",
      "talkAudioName": "",
      "actionBefore": "",
      "actionWhile": "",
      "actionAfter": "",
      "optionIcon": "",
      "iconPath": ""
    },
    {
      "id": 726550415,
      "nextDialogs": [
        726550416
      ],
      "talkRole": {
        "type": "TALK_ROLE_NPC",
        "_id": "30055"
      },
      "talkContentTextMapHash": 1533110290,
      "talkAssetPath": "",
      "talkAssetPathAlter": "",
      "talkAudioName": "",
      "actionBefore": "",
      "actionWhile": "",
      "actionAfter": "",
      "optionIcon": "",
      "iconPath": ""
    },
    {
      "id": 726550416,
      "nextDialogs": [
        726550417
      ],
      "talkRole": {
        "type": "TALK_ROLE_NPC",
        "_id": "30055"
      },
      "talkContentTextMapHash": 1912308018,
      "talkAssetPath": "",
      "talkAssetPathAlter": "",
      "talkAudioName": "",
      "actionBefore": "",
      "actionWhile": "",
      "actionAfter": "",
      "optionIcon": "",
      "iconPath": ""
    },
    {
      "id": 726550417,
      "talkRole": {
        "type": "TALK_ROLE_NPC",
        "_id": "30055"
      },
      "talkContentTextMapHash": 3305790586,
      "talkAssetPath": "",
      "talkAssetPathAlter": "",
      "talkAudioName": "",
      "actionBefore": "",
      "actionWhile": "",
      "actionAfter": "",
      "optionIcon": "",
      "iconPath": ""
    },
    {
      "id": 726550413,
      "nextDialogs": [
        726550414
      ],
      "talkShowType": "TALK_SHOW_FORCE_SELECT",
      "talkRole": {
        "type": "TALK_ROLE_PLAYER",
        "_id": ""
      },
      "talkContentTextMapHash": 3566378538,
      "talkAssetPath": "",
      "talkAssetPathAlter": "",
      "talkAudioName": "",
      "actionBefore": "",
      "actionWhile": "",
      "actionAfter": "",
      "optionIcon": "",
      "iconPath": ""
    },
    {
      "id": 726550405,
      "nextDialogs": [
        726550406
      ],
      "talkShowType": "TALK_SHOW_FORCE_SELECT",
      "talkRole": {
        "type": "TALK_ROLE_PLAYER",
        "_id": ""
      },
      "talkContentTextMapHash": 3534442906,
      "talkAssetPath": "",
      "talkAssetPathAlter": "",
      "talkAudioName": "",
      "actionBefore": "",
      "actionWhile": "",
      "actionAfter": "",
      "optionIcon": "",
      "iconPath": ""
    }
  ]
}