{
  "talkId": 7265302,
  "KPGKDHAFHFE": "ACTIVITY",
  "dialogList": [
    {
      "id": 726530201,
      "nextDialogs": [
        726530202,
        726530206
      ],
      "talkRole": {
        "type": "TALK_ROLE_NPC",
        "_id": "30055"
      },
      "talkContentTextMapHash": 1857635178,
      "talkAssetPath": "",
      "talkAssetPathAlter": "",
      "talkAudioName": "",
      "actionBefore": "",
      "actionWhile": "",
      "actionAfter": "",
      "optionIcon": "",
      "iconPath": ""
    },
    {
      "id": 726530202,
      "nextDialogs": [
        726530203
      ],
      "talkShowType": "TALK_SHOW_FORCE_SELECT",
      "talkRole": {
        "type": "TALK_ROLE_PLAYER",
        "_id": ""
      },
      "talkContentTextMapHash": 216965090,
      "talkAssetPath": "",
      "talkAssetPathAlter": "",
      "talkAudioName": "",
      "actionBefore": "",
      "actionWhile": "",
      "actionAfter": "",
      "optionIcon": "",
      "iconPath": ""
    },
    {
      "id": 726530203,
      "nextDialogs": [
        726530204
      ],
      "talkRole": {
        "type": "TALK_ROLE_NPC",
        "_id": "30055"
      },
      "talkContentTextMapHash": 1128490274,
      "talkAssetPath": "",
      "talkAssetPathAlter": "",
      "talkAudioName": "",
      "actionBefore": "",
      "actionWhile": "",
      "actionAfter": "",
      "optionIcon": "",
      "iconPath": ""
    },
    {
      "id": 726530204,
      "nextDialogs": [
        726530205
      ],
      "talkRole": {
        "type": "TALK_ROLE_NPC",
        "_id": "30055"
      },
      "talkContentTextMapHash": 3355952026,
      "talkAssetPath": "",
      "talkAssetPathAlter": "",
      "talkAudioName": "",
      "actionBefore": "",
      "actionWhile": "",
      "actionAfter": "",
      "optionIcon": "",
      "iconPath": ""
    },
    {
      "id": 726530205,
      "nextDialogs": [
        726530208
      ],
      "talkRole": {
        "type": "TALK_ROLE_NPC",
        "_id": "30055"
      },
      "talkContentTextMapHash": 2581147938,
      "talkAssetPath": "",
      "talkAssetPathAlter": "",
      "talkAudioName": "",
      "actionBefore": "",
      "actionWhile": "",
      "actionAfter": "",
      "optionIcon": "",
      "iconPath": ""
    },
    {
      "id": 726530208,
      "nextDialogs": [
        726530209
      ],
      "talkRole": {
        "type": "TALK_ROLE_NPC",
        "_id": "30055"
      },
      "talkContentTextMapHash": 1546535042,
      "talkAssetPath": "",
      "talkAssetPathAlter": "",
      "talkAudioName": "",
      "actionBefore": "",
      "actionWhile": "",
      "actionAfter": "",
      "optionIcon": "",
      "iconPath": ""
    },
    {
      "id": 726530209,
      "nextDialogs": [
        726530210
      ],
      "talkRole": {
        "type": "TALK_ROLE_NPC",
        "_id": "1005"
      },
      "talkContentTextMapHash": 3251704594,
      "talkAssetPath": "",
      "talkAssetPathAlter": "",
      "talkAudioName": "",
      "actionBefore": "",
      "actionWhile": "",
      "actionAfter": "",
      "optionIcon": "",
      "iconPath": ""
    },
    {
      "id": 726530210,
      "talkRole": {
        "type": "TALK_ROLE_NPC",
        "_id": "30055"
      },
      "talkContentTextMapHash": 1978139578,
      "talkAssetPath": "",
      "talkAssetPathAlter": "",
      "talkAudioName": "",
      "actionBefore": "",
      "actionWhile": "",
      "actionAfter": "",
      "optionIcon": "",
      "iconPath": ""
    },
    {
      "id": 726530206,
      "nextDialogs": [
        726530207
      ],
      "talkShowType": "TALK_SHOW_FORCE_SELECT",
      "talkRole": {
        "type": "TALK_ROLE_PLAYER",
        "_id": ""
      },
      "talkContentTextMapHash": 2359966978,
      "talkAssetPath": "",
      "talkAssetPathAlter": "",
      "talkAudioName": "",
      "actionBefore": "",
      "actionWhile": "",
      "actionAfter": "",
      "optionIcon": "",
      "iconPath": ""
    },
    {
      "id": 726530207,
      "nextDialogs": [
        726530208
      ],
      "talkRole": {
        "type": "TALK_ROLE_NPC",
        "_id": "30055"
      },
      "talkContentTextMapHash": 1129169066,
      "talkAssetPath": "",
      "talkAssetPathAlter": "",
      "talkAudioName": "",
      "actionBefore": "",
      "actionWhile": "",
      "actionAfter": "",
      "optionIcon": "",
      "iconPath": ""
    }
  ]
}