{
  "talkId": 7350634,
  "KPGKDHAFHFE": "ACTIVITY",
  "dialogList": [
    {
      "id": 735063401,
      "nextDialogs": [
        735063402
      ],
      "talkRole": {
        "type": "TALK_ROLE_NPC",
        "_id": "30281"
      },
      "talkContentTextMapHash": 1416452746,
      "talkAssetPath": "",
      "talkAssetPathAlter": "",
      "talkAudioName": "",
      "actionBefore": "",
      "actionWhile": "",
      "actionAfter": "",
      "optionIcon": "",
      "iconPath": ""
    },
    {
      "id": 735063402,
      "nextDialogs": [
        735063403
      ],
      "talkShowType": "TALK_SHOW_FORCE_SELECT",
      "talkRole": {
        "type": "TALK_ROLE_PLAYER",
        "_id": ""
      },
      "talkContentTextMapHash": 2889521514,
      "talkAssetPath": "",
      "talkAssetPathAlter": "",
      "talkAudioName": "",
      "actionBefore": "",
      "actionWhile": "",
      "actionAfter": "",
      "optionIcon": "",
      "iconPath": ""
    },
    {
      "id": 735063403,
      "nextDialogs": [
        735063404
      ],
      "talkRole": {
        "type": "TALK_ROLE_NPC",
        "_id": "30281"
      },
      "talkContentTextMapHash": 416836306,
      "talkAssetPath": "",
      "talkAssetPathAlter": "",
      "talkAudioName": "",
      "actionBefore": "",
      "actionWhile": "",
      "actionAfter": "",
      "optionIcon": "",
      "iconPath": ""
    },
    {
      "id": 735063404,
      "nextDialogs": [
        735063405
      ],
      "talkRole": {
        "type": "TALK_ROLE_NPC",
        "_id": "30281"
      },
      "talkContentTextMapHash": 1309234042,
      "talkAssetPath": "",
      "talkAssetPathAlter": "",
      "talkAudioName": "",
      "actionBefore": "",
      "actionWhile": "",
      "actionAfter": "",
      "optionIcon": "",
      "iconPath": ""
    },
    {
      "id": 735063405,
      "nextDialogs": [
        735063406
      ],
      "talkRole": {
        "type": "TALK_ROLE_NPC",
        "_id": "30281"
      },
      "talkContentTextMapHash": 251820394,
      "talkAssetPath": "",
      "talkAssetPathAlter": "",
      "talkAudioName": "",
      "actionBefore": "",
      "actionWhile": "",
      "actionAfter": "",
      "optionIcon": "",
      "iconPath": ""
    },
    {
      "id": 735063406,
      "talkRole": {
        "type": "TALK_ROLE_NPC",
        "_id": "30281"
      },
      "talkContentTextMapHash": 4103561690,
      "talkAssetPath": "",
      "talkAssetPathAlter": "",
      "talkAudioName": "",
      "actionBefore": "",
      "actionWhile": "",
      "actionAfter": "",
      "optionIcon": "",
      "iconPath": ""
    }
  ]
}