{
  "talkId": 7350637,
  "KPGKDHAFHFE": "ACTIVITY",
  "dialogList": [
    {
      "id": 735063701,
      "nextDialogs": [
        735063702,
        735063703
      ],
      "talkRole": {
        "type": "TALK_ROLE_NPC",
        "_id": "30283"
      },
      "talkContentTextMapHash": 1440226554,
      "talkAssetPath": "",
      "talkAssetPathAlter": "",
      "talkAudioName": "",
      "actionBefore": "",
      "actionWhile": "",
      "actionAfter": "",
      "optionIcon": "",
      "iconPath": ""
    },
    {
      "id": 735063702,
      "nextDialogs": [
        735063704
      ],
      "talkShowType": "TALK_SHOW_FORCE_SELECT",
      "talkRole": {
        "type": "TALK_ROLE_PLAYER",
        "_id": ""
      },
      "talkContentTextMapHash": 2396414498,
      "talkAssetPath": "",
      "talkAssetPathAlter": "",
      "talkAudioName": "",
      "actionBefore": "",
      "actionWhile": "",
      "actionAfter": "",
      "optionIcon": "",
      "iconPath": ""
    },
    {
      "id": 735063704,
      "nextDialogs": [
        735063705
      ],
      "talkRole": {
        "type": "TALK_ROLE_NPC",
        "_id": "30281"
      },
      "talkContentTextMapHash": 884134602,
      "talkAssetPath": "",
      "talkAssetPathAlter": "",
      "talkAudioName": "",
      "actionBefore": "",
      "actionWhile": "",
      "actionAfter": "",
      "optionIcon": "",
      "iconPath": ""
    },
    {
      "id": 735063705,
      "nextDialogs": [
        735063706
      ],
      "talkRole": {
        "type": "TALK_ROLE_NPC",
        "_id": "30283"
      },
      "talkContentTextMapHash": 1674760394,
      "talkAssetPath": "",
      "talkAssetPathAlter": "",
      "talkAudioName": "",
      "actionBefore": "",
      "actionWhile": "",
      "actionAfter": "",
      "optionIcon": "",
      "iconPath": ""
    },
    {
      "id": 735063706,
      "nextDialogs": [
        735063707
      ],
      "talkRole": {
        "type": "TALK_ROLE_NPC",
        "_id": "30281"
      },
      "talkContentTextMapHash": 3629902986,
      "talkAssetPath": "",
      "talkAssetPathAlter": "",
      "talkAudioName": "",
      "actionBefore": "",
      "actionWhile": "",
      "actionAfter": "",
      "optionIcon": "",
      "iconPath": ""
    },
    {
      "id": 735063707,
      "nextDialogs": [
        735063708
      ],
      "talkRole": {
        "type": "TALK_ROLE_NPC",
        "_id": "30283"
      },
      "talkContentTextMapHash": 1567493850,
      "talkAssetPath": "",
      "talkAssetPathAlter": "",
      "talkAudioName": "",
      "actionBefore": "",
      "actionWhile": "",
      "actionAfter": "",
      "optionIcon": "",
      "iconPath": ""
    },
    {
      "id": 735063708,
      "nextDialogs": [
        735063709
      ],
      "talkRole": {
        "type": "TALK_ROLE_NPC",
        "_id": "30283"
      },
      "talkContentTextMapHash": 120380642,
      "talkAssetPath": "",
      "talkAssetPathAlter": "",
      "talkAudioName": "",
      "actionBefore": "",
      "actionWhile": "",
      "actionAfter": "",
      "optionIcon": "",
      "iconPath": ""
    },
    {
      "id": 735063709,
      "nextDialogs": [
        735063710
      ],
      "talkRole": {
        "type": "TALK_ROLE_NPC",
        "_id": "30283"
      },
      "talkContentTextMapHash": 900717282,
      "talkAssetPath": "",
      "talkAssetPathAlter": "",
      "talkAudioName": "",
      "actionBefore": "",
      "actionWhile": "",
      "actionAfter": "",
      "optionIcon": "",
      "iconPath": ""
    },
    {
      "id": 735063710,
      "nextDialogs": [
        735063711
      ],
      "talkRole": {
        "type": "TALK_ROLE_NPC",
        "_id": "30281"
      },
      "talkContentTextMapHash": 1476053802,
      "talkAssetPath": "",
      "talkAssetPathAlter": "",
      "talkAudioName": "",
      "actionBefore": "",
      "actionWhile": "",
      "actionAfter": "",
      "optionIcon": "",
      "iconPath": ""
    },
    {
      "id": 735063711,
      "talkRole": {
        "type": "TALK_ROLE_NPC",
        "_id": "30281"
      },
      "talkContentTextMapHash": 435653034,
      "talkAssetPath": "",
      "talkAssetPathAlter": "",
      "talkAudioName": "",
      "actionBefore": "",
      "actionWhile": "",
      "actionAfter": "",
      "optionIcon": "",
      "iconPath": ""
    },
    {
      "id": 735063703,
      "nextDialogs": [
        735063704
      ],
      "talkShowType": "TALK_SHOW_FORCE_SELECT",
      "talkRole": {
        "type": "TALK_ROLE_PLAYER",
        "_id": ""
      },
      "talkContentTextMapHash": 3101067546,
      "talkAssetPath": "",
      "talkAssetPathAlter": "",
      "talkAudioName": "",
      "actionBefore": "",
      "actionWhile": "",
      "actionAfter": "",
      "optionIcon": "",
      "iconPath": ""
    }
  ]
}