{
  "talkId": 7350902,
  "KPGKDHAFHFE": "ACTIVITY",
  "dialogList": [
    {
      "id": 735090201,
      "nextDialogs": [
        735090202
      ],
      "talkRole": {
        "type": "TALK_ROLE_NPC",
        "_id": "30226"
      },
      "talkContentTextMapHash": 1959072050,
      "talkAssetPath": "",
      "talkAssetPathAlter": "",
      "talkAudioName": "",
      "actionBefore": "",
      "actionWhile": "",
      "actionAfter": "",
      "optionIcon": "",
      "iconPath": ""
    },
    {
      "id": 735090202,
      "nextDialogs": [
        735090203,
        735090205
      ],
      "talkRole": {
        "type": "TALK_ROLE_NPC",
        "_id": "30226"
      },
      "talkContentTextMapHash": 2142205578,
      "talkAssetPath": "",
      "talkAssetPathAlter": "",
      "talkAudioName": "",
      "actionBefore": "",
      "actionWhile": "",
      "actionAfter": "",
      "optionIcon": "",
      "iconPath": ""
    },
    {
      "id": 735090203,
      "nextDialogs": [
        735090204
      ],
      "talkRole": {
        "type": "TALK_ROLE_PLAYER",
        "_id": ""
      },
      "talkContentTextMapHash": 2024484794,
      "talkAssetPath": "",
      "talkAssetPathAlter": "",
      "talkAudioName": "",
      "actionBefore": "",
      "actionWhile": "",
      "actionAfter": "",
      "optionIcon": "",
      "iconPath": ""
    },
    {
      "id": 735090204,
      "talkRole": {
        "type": "TALK_ROLE_NPC",
        "_id": "30226"
      },
      "talkContentTextMapHash": 3939782730,
      "talkAssetPath": "",
      "talkAssetPathAlter": "",
      "talkAudioName": "",
      "actionBefore": "",
      "actionWhile": "",
      "actionAfter": "",
      "optionIcon": "",
      "iconPath": ""
    },
    {
      "id": 735090205,
      "nextDialogs": [
        735090206
      ],
      "talkRole": {
        "type": "TALK_ROLE_PLAYER",
        "_id": ""
      },
      "talkContentTextMapHash": 4139781410,
      "talkAssetPath": "",
      "talkAssetPathAlter": "",
      "talkAudioName": "",
      "actionBefore": "",
      "actionWhile": "",
      "actionAfter": "",
      "optionIcon": "",
      "iconPath": ""
    },
    {
      "id": 735090206,
      "talkRole": {
        "type": "TALK_ROLE_NPC",
        "_id": "30226"
      },
      "talkContentTextMapHash": 400283634,
      "talkAssetPath": "",
      "talkAssetPathAlter": "",
      "talkAudioName": "",
      "actionBefore": "",
      "actionWhile": "",
      "actionAfter": "",
      "optionIcon": "",
      "iconPath": ""
    }
  ]
}