{
  "talkId": 7350631,
  "KPGKDHAFHFE": "ACTIVITY",
  "dialogList": [
    {
      "id": 735063101,
      "nextDialogs": [
        735063102
      ],
      "talkRole": {
        "type": "TALK_ROLE_NPC",
        "_id": "30281"
      },
      "talkContentTextMapHash": 994055658,
      "talkAssetPath": "",
      "talkAssetPathAlter": "",
      "talkAudioName": "",
      "actionBefore": "",
      "actionWhile": "",
      "actionAfter": "",
      "optionIcon": "",
      "iconPath": ""
    },
    {
      "id": 735063102,
      "nextDialogs": [
        735063103
      ],
      "talkShowType": "TALK_SHOW_FORCE_SELECT",
      "talkRole": {
        "type": "TALK_ROLE_PLAYER",
        "_id": ""
      },
      "talkContentTextMapHash": 399378514,
      "talkAssetPath": "",
      "talkAssetPathAlter": "",
      "talkAudioName": "",
      "actionBefore": "",
      "actionWhile": "",
      "actionAfter": "",
      "optionIcon": "",
      "iconPath": ""
    },
    {
      "id": 735063103,
      "nextDialogs": [
        735063104
      ],
      "talkRole": {
        "type": "TALK_ROLE_NPC",
        "_id": "30281"
      },
      "talkContentTextMapHash": 3114344834,
      "talkAssetPath": "",
      "talkAssetPathAlter": "",
      "talkAudioName": "",
      "actionBefore": "",
      "actionWhile": "",
      "actionAfter": "",
      "optionIcon": "",
      "iconPath": ""
    },
    {
      "id": 735063104,
      "nextDialogs": [
        735063105,
        735063106
      ],
      "talkRole": {
        "type": "TALK_ROLE_NPC",
        "_id": "30281"
      },
      "talkContentTextMapHash": 2638185266,
      "talkAssetPath": "",
      "talkAssetPathAlter": "",
      "talkAudioName": "",
      "actionBefore": "",
      "actionWhile": "",
      "actionAfter": "",
      "optionIcon": "",
      "iconPath": ""
    },
    {
      "id": 735063105,
      "nextDialogs": [
        735063107
      ],
      "talkShowType": "TALK_SHOW_FORCE_SELECT",
      "talkRole": {
        "type": "TALK_ROLE_PLAYER",
        "_id": ""
      },
      "talkContentTextMapHash": 2475849890,
      "talkAssetPath": "",
      "talkAssetPathAlter": "",
      "talkAudioName": "",
      "actionBefore": "",
      "actionWhile": "",
      "actionAfter": "",
      "optionIcon": "",
      "iconPath": ""
    },
    {
      "id": 735063107,
      "nextDialogs": [
        735063108
      ],
      "talkRole": {
        "type": "TALK_ROLE_NPC",
        "_id": "30281"
      },
      "talkContentTextMapHash": 2572995290,
      "talkAssetPath": "",
      "talkAssetPathAlter": "",
      "talkAudioName": "",
      "actionBefore": "",
      "actionWhile": "",
      "actionAfter": "",
      "optionIcon": "",
      "iconPath": ""
    },
    {
      "id": 735063108,
      "talkRole": {
        "type": "TALK_ROLE_NPC",
        "_id": "30281"
      },
      "talkContentTextMapHash": 1258363618,
      "talkAssetPath": "",
      "talkAssetPathAlter": "",
      "talkAudioName": "",
      "actionBefore": "",
      "actionWhile": "",
      "actionAfter": "",
      "optionIcon": "",
      "iconPath": ""
    },
    {
      "id": 735063106,
      "nextDialogs": [
        735063107
      ],
      "talkShowType": "TALK_SHOW_FORCE_SELECT",
      "talkRole": {
        "type": "TALK_ROLE_PLAYER",
        "_id": ""
      },
      "talkContentTextMapHash": 1243161578,
      "talkAssetPath": "",
      "talkAssetPathAlter": "",
      "talkAudioName": "",
      "actionBefore": "",
      "actionWhile": "",
      "actionAfter": "",
      "optionIcon": "",
      "iconPath": ""
    }
  ]
}