{
  "talkId": 7351702,
  "KPGKDHAFHFE": "ACTIVITY",
  "dialogList": [
    {
      "id": 735170201,
      "nextDialogs": [
        735170202,
        735170204
      ],
      "talkRole": {
        "type": "TALK_ROLE_NPC",
        "_id": "30342"
      },
      "talkContentTextMapHash": 2075023834,
      "talkAssetPath": "",
      "talkAssetPathAlter": "",
      "talkAudioName": "",
      "actionBefore": "",
      "actionWhile": "",
      "actionAfter": "",
      "optionIcon": "",
      "iconPath": ""
    },
    {
      "id": 735170202,
      "nextDialogs": [
        735170203
      ],
      "talkRole": {
        "type": "TALK_ROLE_PLAYER",
        "_id": ""
      },
      "talkContentTextMapHash": 3800231546,
      "talkAssetPath": "",
      "talkAssetPathAlter": "",
      "talkAudioName": "",
      "actionBefore": "",
      "actionWhile": "",
      "actionAfter": "",
      "optionIcon": "UI_Icon_Intee_SandwormCannon",
      "iconPath": ""
    },
    {
      "id": 735170203,
      "talkRole": {
        "type": "TALK_ROLE_NPC",
        "_id": "30342"
      },
      "talkContentTextMapHash": 2566306346,
      "talkAssetPath": "",
      "talkAssetPathAlter": "",
      "talkAudioName": "",
      "actionBefore": "",
      "actionWhile": "",
      "actionAfter": "",
      "optionIcon": "",
      "iconPath": ""
    },
    {
      "id": 735170204,
      "nextDialogs": [
        735170205
      ],
      "talkRole": {
        "type": "TALK_ROLE_PLAYER",
        "_id": ""
      },
      "talkContentTextMapHash": 3448744314,
      "talkAssetPath": "",
      "talkAssetPathAlter": "",
      "talkAudioName": "",
      "actionBefore": "",
      "actionWhile": "",
      "actionAfter": "",
      "optionIcon": "",
      "iconPath": ""
    },
    {
      "id": 735170205,
      "nextDialogs": [
        735170206
      ],
      "talkRole": {
        "type": "TALK_ROLE_NPC",
        "_id": "30342"
      },
      "talkContentTextMapHash": 1443966978,
      "talkAssetPath": "",
      "talkAssetPathAlter": "",
      "talkAudioName": "",
      "actionBefore": "",
      "actionWhile": "",
      "actionAfter": "",
      "optionIcon": "",
      "iconPath": ""
    },
    {
      "id": 735170206,
      "talkRole": {
        "type": "TALK_ROLE_NPC",
        "_id": "30343"
      },
      "talkContentTextMapHash": 16855810,
      "talkAssetPath": "",
      "talkAssetPathAlter": "",
      "talkAudioName": "",
      "actionBefore": "",
      "actionWhile": "",
      "actionAfter": "",
      "optionIcon": "",
      "iconPath": ""
    }
  ]
}