{
  "talkId": 7352905,
  "KPGKDHAFHFE": "ACTIVITY",
  "dialogList": [
    {
      "id": 735290501,
      "nextDialogs": [
        735290502
      ],
      "talkRole": {
        "type": "TALK_ROLE_NPC",
        "_id": "30407"
      },
      "talkContentTextMapHash": 2501520450,
      "talkAssetPath": "",
      "talkAssetPathAlter": "",
      "talkAudioName": "",
      "actionBefore": "",
      "actionWhile": "",
      "actionAfter": "",
      "optionIcon": "",
      "iconPath": ""
    },
    {
      "id": 735290502,
      "talkRole": {
        "type": "TALK_ROLE_NPC",
        "_id": "30407"
      },
      "talkContentTextMapHash": 3200441234,
      "talkAssetPath": "",
      "talkAssetPathAlter": "",
      "talkAudioName": "",
      "actionBefore": "",
      "actionWhile": "",
      "actionAfter": "",
      "optionIcon": "",
      "iconPath": ""
    }
  ]
}