{
  "talkId": 7352605,
  "KPGKDHAFHFE": "ACTIVITY",
  "dialogList": [
    {
      "id": 735260501,
      "nextDialogs": [
        735260502
      ],
      "talkRole": {
        "type": "TALK_ROLE_NPC",
        "_id": "30405"
      },
      "talkContentTextMapHash": 137347874,
      "talkAssetPath": "",
      "talkAssetPathAlter": "",
      "talkAudioName": "",
      "actionBefore": "",
      "actionWhile": "",
      "actionAfter": "",
      "optionIcon": "",
      "iconPath": ""
    },
    {
      "id": 735260502,
      "talkRole": {
        "type": "TALK_ROLE_NPC",
        "_id": "30405"
      },
      "talkContentTextMapHash": 4025845874,
      "talkAssetPath": "",
      "talkAssetPathAlter": "",
      "talkAudioName": "",
      "actionBefore": "",
      "actionWhile": "",
      "actionAfter": "",
      "optionIcon": "",
      "iconPath": ""
    }
  ]
}