{
  "talkId": 7369618,
  "KPGKDHAFHFE": "ACTIVITY",
  "dialogList": [
    {
      "id": 736961801,
      "talkRole": {
        "type": "TALK_ROLE_NPC",
        "_id": "30341"
      },
      "talkContentTextMapHash": 2935138738,
      "talkAssetPath": "",
      "talkAssetPathAlter": "",
      "talkAudioName": "",
      "actionBefore": "",
      "actionWhile": "",
      "actionAfter": "",
      "optionIcon": "",
      "iconPath": ""
    }
  ]
}