{
  "talkId": 7369403,
  "KPGKDHAFHFE": "ACTIVITY",
  "dialogList": [
    {
      "id": 736940301,
      "talkRole": {
        "type": "TALK_ROLE_NPC",
        "_id": "30351"
      },
      "talkContentTextMapHash": 2816560898,
      "talkAssetPath": "",
      "talkAssetPathAlter": "",
      "talkAudioName": "",
      "actionBefore": "",
      "actionWhile": "SimpleTalk/RandomTalk_Start",
      "actionAfter": "",
      "optionIcon": "",
      "iconPath": ""
    }
  ]
}