{
  "talkId": 7369652,
  "KPGKDHAFHFE": "ACTIVITY",
  "dialogList": [
    {
      "id": 736965201,
      "talkRole": {
        "type": "TALK_ROLE_NPC",
        "_id": "30341"
      },
      "talkContentTextMapHash": 1350104938,
      "talkAssetPath": "",
      "talkAssetPathAlter": "",
      "talkAudioName": "",
      "actionBefore": "",
      "actionWhile": "",
      "actionAfter": "",
      "optionIcon": "",
      "iconPath": ""
    }
  ]
}