{
  "talkId": 7369647,
  "KPGKDHAFHFE": "ACTIVITY",
  "dialogList": [
    {
      "id": 736964701,
      "talkRole": {
        "type": "TALK_ROLE_NPC",
        "_id": "30341"
      },
      "talkContentTextMapHash": 216886314,
      "talkAssetPath": "",
      "talkAssetPathAlter": "",
      "talkAudioName": "",
      "actionBefore": "",
      "actionWhile": "",
      "actionAfter": "",
      "optionIcon": "",
      "iconPath": ""
    }
  ]
}