{
  "talkId": 7369604,
  "KPGKDHAFHFE": "ACTIVITY",
  "dialogList": [
    {
      "id": 736960401,
      "talkRole": {
        "type": "TALK_ROLE_NPC",
        "_id": "30341"
      },
      "talkContentTextMapHash": 1689007250,
      "talkAssetPath": "",
      "talkAssetPathAlter": "",
      "talkAudioName": "",
      "actionBefore": "",
      "actionWhile": "",
      "actionAfter": "",
      "optionIcon": "",
      "iconPath": ""
    }
  ]
}