{
  "talkId": 7114404,
  "KPGKDHAFHFE": "ACTIVITY",
  "dialogList": [
    {
      "id": 711440401,
      "nextDialogs": [
        711440402,
        711440404,
        711440411,
        711440423,
        711440436
      ],
      "talkRole": {
        "type": "TALK_ROLE_NPC",
        "_id": "30601"
      },
      "talkContentTextMapHash": 1439424410,
      "talkAssetPath": "",
      "talkAssetPathAlter": "",
      "talkAudioName": "",
      "actionBefore": "",
      "actionWhile": "",
      "actionAfter": "",
      "optionIcon": "",
      "iconPath": ""
    },
    {
      "id": 711440402,
      "nextDialogs": [
        711440403
      ],
      "talkRole": {
        "type": "TALK_ROLE_PLAYER",
        "_id": ""
      },
      "talkContentTextMapHash": 4214663690,
      "talkAssetPath": "",
      "talkAssetPathAlter": "",
      "talkAudioName": "",
      "actionBefore": "",
      "actionWhile": "",
      "actionAfter": "",
      "optionIcon": "",
      "iconPath": ""
    },
    {
      "id": 711440403,
      "talkRole": {
        "type": "TALK_ROLE_NPC",
        "_id": "30601"
      },
      "talkContentTextMapHash": 1665723610,
      "talkAssetPath": "",
      "talkAssetPathAlter": "",
      "talkAudioName": "",
      "actionBefore": "",
      "actionWhile": "",
      "actionAfter": "",
      "optionIcon": "",
      "iconPath": ""
    },
    {
      "id": 711440404,
      "nextDialogs": [
        711440405
      ],
      "talkRole": {
        "type": "TALK_ROLE_PLAYER",
        "_id": ""
      },
      "talkContentTextMapHash": 3370749690,
      "talkAssetPath": "",
      "talkAssetPathAlter": "",
      "talkAudioName": "",
      "actionBefore": "",
      "actionWhile": "",
      "actionAfter": "",
      "optionIcon": "",
      "iconPath": ""
    },
    {
      "id": 711440405,
      "nextDialogs": [
        711440406
      ],
      "talkRole": {
        "type": "TALK_ROLE_NPC",
        "_id": "30601"
      },
      "talkContentTextMapHash": 2475685778,
      "talkAssetPath": "",
      "talkAssetPathAlter": "",
      "talkAudioName": "",
      "actionBefore": "",
      "actionWhile": "",
      "actionAfter": "",
      "optionIcon": "",
      "iconPath": ""
    },
    {
      "id": 711440406,
      "nextDialogs": [
        711440407
      ],
      "talkRole": {
        "type": "TALK_ROLE_NPC",
        "_id": "30601"
      },
      "talkContentTextMapHash": 3205645202,
      "talkAssetPath": "",
      "talkAssetPathAlter": "",
      "talkAudioName": "",
      "actionBefore": "",
      "actionWhile": "",
      "actionAfter": "",
      "optionIcon": "",
      "iconPath": ""
    },
    {
      "id": 711440407,
      "nextDialogs": [
        711440408
      ],
      "talkRole": {
        "type": "TALK_ROLE_NPC",
        "_id": "30601"
      },
      "talkContentTextMapHash": 2131031602,
      "talkAssetPath": "",
      "talkAssetPathAlter": "",
      "talkAudioName": "",
      "actionBefore": "",
      "actionWhile": "",
      "actionAfter": "",
      "optionIcon": "",
      "iconPath": ""
    },
    {
      "id": 711440408,
      "nextDialogs": [
        711440409
      ],
      "talkRole": {
        "type": "TALK_ROLE_NPC",
        "_id": "30601"
      },
      "talkContentTextMapHash": 2014009434,
      "talkAssetPath": "",
      "talkAssetPathAlter": "",
      "talkAudioName": "",
      "actionBefore": "",
      "actionWhile": "",
      "actionAfter": "",
      "optionIcon": "",
      "iconPath": ""
    },
    {
      "id": 711440409,
      "nextDialogs": [
        711440410
      ],
      "talkRole": {
        "type": "TALK_ROLE_NPC",
        "_id": "30601"
      },
      "talkContentTextMapHash": 3817211562,
      "talkAssetPath": "",
      "talkAssetPathAlter": "",
      "talkAudioName": "",
      "actionBefore": "",
      "actionWhile": "",
      "actionAfter": "",
      "optionIcon": "",
      "iconPath": ""
    },
    {
      "id": 711440410,
      "talkRole": {
        "type": "TALK_ROLE_NPC",
        "_id": "30601"
      },
      "talkContentTextMapHash": 3833099394,
      "talkAssetPath": "",
      "talkAssetPathAlter": "",
      "talkAudioName": "",
      "actionBefore": "",
      "actionWhile": "",
      "actionAfter": "",
      "optionIcon": "",
      "iconPath": ""
    },
    {
      "id": 711440411,
      "nextDialogs": [
        711440412
      ],
      "talkRole": {
        "type": "TALK_ROLE_PLAYER",
        "_id": ""
      },
      "talkContentTextMapHash": 2982007234,
      "talkAssetPath": "",
      "talkAssetPathAlter": "",
      "talkAudioName": "",
      "actionBefore": "",
      "actionWhile": "",
      "actionAfter": "",
      "optionIcon": "",
      "iconPath": ""
    },
    {
      "id": 711440412,
      "nextDialogs": [
        711440413
      ],
      "talkRole": {
        "type": "TALK_ROLE_NPC",
        "_id": "30601"
      },
      "talkContentTextMapHash": 2271341914,
      "talkAssetPath": "",
      "talkAssetPathAlter": "",
      "talkAudioName": "",
      "actionBefore": "",
      "actionWhile": "",
      "actionAfter": "",
      "optionIcon": "",
      "iconPath": ""
    },
    {
      "id": 711440413,
      "nextDialogs": [
        711440414
      ],
      "talkRole": {
        "type": "TALK_ROLE_NPC",
        "_id": "30601"
      },
      "talkContentTextMapHash": 2329793666,
      "talkAssetPath": "",
      "talkAssetPathAlter": "",
      "talkAudioName": "",
      "actionBefore": "",
      "actionWhile": "",
      "actionAfter": "",
      "optionIcon": "",
      "iconPath": ""
    },
    {
      "id": 711440414,
      "nextDialogs": [
        711440415,
        711440417,
        711440438
      ],
      "talkRole": {
        "type": "TALK_ROLE_NPC",
        "_id": "30601"
      },
      "talkContentTextMapHash": 198636986,
      "talkAssetPath": "",
      "talkAssetPathAlter": "",
      "talkAudioName": "",
      "actionBefore": "",
      "actionWhile": "",
      "actionAfter": "",
      "optionIcon": "",
      "iconPath": ""
    },
    {
      "id": 711440415,
      "nextDialogs": [
        711440416
      ],
      "talkRole": {
        "type": "TALK_ROLE_PLAYER",
        "_id": ""
      },
      "talkContentTextMapHash": 1604731586,
      "talkAssetPath": "",
      "talkAssetPathAlter": "",
      "talkAudioName": "",
      "actionBefore": "",
      "actionWhile": "",
      "actionAfter": "",
      "optionIcon": "",
      "iconPath": ""
    },
    {
      "id": 711440416,
      "nextDialogs": [
        711440419
      ],
      "talkRole": {
        "type": "TALK_ROLE_NPC",
        "_id": "30601"
      },
      "talkContentTextMapHash": 2822918210,
      "talkAssetPath": "",
      "talkAssetPathAlter": "",
      "talkAudioName": "",
      "actionBefore": "",
      "actionWhile": "",
      "actionAfter": "",
      "optionIcon": "",
      "iconPath": ""
    },
    {
      "id": 711440419,
      "nextDialogs": [
        711440420
      ],
      "talkRole": {
        "type": "TALK_ROLE_NPC",
        "_id": "30601"
      },
      "talkContentTextMapHash": 2106600298,
      "talkAssetPath": "",
      "talkAssetPathAlter": "",
      "talkAudioName": "",
      "actionBefore": "",
      "actionWhile": "",
      "actionAfter": "",
      "optionIcon": "",
      "iconPath": ""
    },
    {
      "id": 711440420,
      "nextDialogs": [
        711440421
      ],
      "talkRole": {
        "type": "TALK_ROLE_NPC",
        "_id": "30601"
      },
      "talkContentTextMapHash": 2593453722,
      "talkAssetPath": "",
      "talkAssetPathAlter": "",
      "talkAudioName": "",
      "actionBefore": "",
      "actionWhile": "",
      "actionAfter": "",
      "optionIcon": "",
      "iconPath": ""
    },
    {
      "id": 711440421,
      "nextDialogs": [
        711440422
      ],
      "talkRole": {
        "type": "TALK_ROLE_NPC",
        "_id": "30601"
      },
      "talkContentTextMapHash": 1340394866,
      "talkAssetPath": "",
      "talkAssetPathAlter": "",
      "talkAudioName": "",
      "actionBefore": "",
      "actionWhile": "",
      "actionAfter": "",
      "optionIcon": "",
      "iconPath": ""
    },
    {
      "id": 711440422,
      "talkRole": {
        "type": "TALK_ROLE_NPC",
        "_id": "30601"
      },
      "talkContentTextMapHash": 2835162106,
      "talkAssetPath": "",
      "talkAssetPathAlter": "",
      "talkAudioName": "",
      "actionBefore": "",
      "actionWhile": "",
      "actionAfter": "",
      "optionIcon": "",
      "iconPath": ""
    },
    {
      "id": 711440417,
      "nextDialogs": [
        711440418
      ],
      "talkRole": {
        "type": "TALK_ROLE_PLAYER",
        "_id": ""
      },
      "talkContentTextMapHash": 4178075874,
      "talkAssetPath": "",
      "talkAssetPathAlter": "",
      "talkAudioName": "",
      "actionBefore": "",
      "actionWhile": "",
      "actionAfter": "",
      "optionIcon": "",
      "iconPath": ""
    },
    {
      "id": 711440418,
      "nextDialogs": [
        711440419
      ],
      "talkRole": {
        "type": "TALK_ROLE_NPC",
        "_id": "30601"
      },
      "talkContentTextMapHash": 1870198538,
      "talkAssetPath": "",
      "talkAssetPathAlter": "",
      "talkAudioName": "",
      "actionBefore": "",
      "actionWhile": "",
      "actionAfter": "",
      "optionIcon": "",
      "iconPath": ""
    },
    {
      "id": 711440438,
      "nextDialogs": [
        711440439
      ],
      "talkShowType": "TALK_SHOW_FORCE_SELECT",
      "talkRole": {
        "type": "TALK_ROLE_PLAYER",
        "_id": ""
      },
      "talkContentTextMapHash": 3274322642,
      "talkAssetPath": "",
      "talkAssetPathAlter": "",
      "talkAudioName": "",
      "actionBefore": "",
      "actionWhile": "",
      "actionAfter": "",
      "optionIcon": "",
      "iconPath": ""
    },
    {
      "id": 711440439,
      "nextDialogs": [
        711440419
      ],
      "talkRole": {
        "type": "TALK_ROLE_NPC",
        "_id": "30601"
      },
      "talkContentTextMapHash": 3989753338,
      "talkAssetPath": "",
      "talkAssetPathAlter": "",
      "talkAudioName": "",
      "actionBefore": "",
      "actionWhile": "",
      "actionAfter": "",
      "optionIcon": "",
      "iconPath": ""
    },
    {
      "id": 711440423,
      "nextDialogs": [
        711440424
      ],
      "talkRole": {
        "type": "TALK_ROLE_PLAYER",
        "_id": ""
      },
      "talkContentTextMapHash": 2987495634,
      "talkAssetPath": "",
      "talkAssetPathAlter": "",
      "talkAudioName": "",
      "actionBefore": "",
      "actionWhile": "",
      "actionAfter": "",
      "optionIcon": "",
      "iconPath": ""
    },
    {
      "id": 711440424,
      "nextDialogs": [
        711440425
      ],
      "talkRole": {
        "type": "TALK_ROLE_NPC",
        "_id": "30601"
      },
      "talkContentTextMapHash": 2769291242,
      "talkAssetPath": "",
      "talkAssetPathAlter": "",
      "talkAudioName": "",
      "actionBefore": "",
      "actionWhile": "",
      "actionAfter": "",
      "optionIcon": "",
      "iconPath": ""
    },
    {
      "id": 711440425,
      "nextDialogs": [
        711440426
      ],
      "talkRole": {
        "type": "TALK_ROLE_NPC",
        "_id": "30601"
      },
      "talkContentTextMapHash": 560829034,
      "talkAssetPath": "",
      "talkAssetPathAlter": "",
      "talkAudioName": "",
      "actionBefore": "",
      "actionWhile": "",
      "actionAfter": "",
      "optionIcon": "",
      "iconPath": ""
    },
    {
      "id": 711440426,
      "nextDialogs": [
        711440427
      ],
      "talkRole": {
        "type": "TALK_ROLE_NPC",
        "_id": "30601"
      },
      "talkContentTextMapHash": 3658267146,
      "talkAssetPath": "",
      "talkAssetPathAlter": "",
      "talkAudioName": "",
      "actionBefore": "",
      "actionWhile": "",
      "actionAfter": "",
      "optionIcon": "",
      "iconPath": ""
    },
    {
      "id": 711440427,
      "nextDialogs": [
        711440428
      ],
      "talkRole": {
        "type": "TALK_ROLE_NPC",
        "_id": "30601"
      },
      "talkContentTextMapHash": 3974711962,
      "talkAssetPath": "",
      "talkAssetPathAlter": "",
      "talkAudioName": "",
      "actionBefore": "",
      "actionWhile": "",
      "actionAfter": "",
      "optionIcon": "",
      "iconPath": ""
    },
    {
      "id": 711440428,
      "nextDialogs": [
        711440429
      ],
      "talkRole": {
        "type": "TALK_ROLE_NPC",
        "_id": "30601"
      },
      "talkContentTextMapHash": 2582323410,
      "talkAssetPath": "",
      "talkAssetPathAlter": "",
      "talkAudioName": "",
      "actionBefore": "",
      "actionWhile": "",
      "actionAfter": "",
      "optionIcon": "",
      "iconPath": ""
    },
    {
      "id": 711440429,
      "nextDialogs": [
        711440430
      ],
      "talkRole": {
        "type": "TALK_ROLE_NPC",
        "_id": "30601"
      },
      "talkContentTextMapHash": 2151208250,
      "talkAssetPath": "",
      "talkAssetPathAlter": "",
      "talkAudioName": "",
      "actionBefore": "",
      "actionWhile": "",
      "actionAfter": "",
      "optionIcon": "",
      "iconPath": ""
    },
    {
      "id": 711440430,
      "nextDialogs": [
        711440431
      ],
      "talkRole": {
        "type": "TALK_ROLE_NPC",
        "_id": "30601"
      },
      "talkContentTextMapHash": 401803378,
      "talkAssetPath": "",
      "talkAssetPathAlter": "",
      "talkAudioName": "",
      "actionBefore": "",
      "actionWhile": "",
      "actionAfter": "",
      "optionIcon": "",
      "iconPath": ""
    },
    {
      "id": 711440431,
      "nextDialogs": [
        711440432
      ],
      "talkRole": {
        "type": "TALK_ROLE_NPC",
        "_id": "30601"
      },
      "talkContentTextMapHash": 451489538,
      "talkAssetPath": "",
      "talkAssetPathAlter": "",
      "talkAudioName": "",
      "actionBefore": "",
      "actionWhile": "",
      "actionAfter": "",
      "optionIcon": "",
      "iconPath": ""
    },
    {
      "id": 711440432,
      "nextDialogs": [
        711440433
      ],
      "talkRole": {
        "type": "TALK_ROLE_NPC",
        "_id": "30601"
      },
      "talkContentTextMapHash": 3510418498,
      "talkAssetPath": "",
      "talkAssetPathAlter": "",
      "talkAudioName": "",
      "actionBefore": "",
      "actionWhile": "",
      "actionAfter": "",
      "optionIcon": "",
      "iconPath": ""
    },
    {
      "id": 711440433,
      "nextDialogs": [
        711440434
      ],
      "talkRole": {
        "type": "TALK_ROLE_NPC",
        "_id": "30601"
      },
      "talkContentTextMapHash": 4124132730,
      "talkAssetPath": "",
      "talkAssetPathAlter": "",
      "talkAudioName": "",
      "actionBefore": "",
      "actionWhile": "",
      "actionAfter": "",
      "optionIcon": "",
      "iconPath": ""
    },
    {
      "id": 711440434,
      "nextDialogs": [
        711440435
      ],
      "talkRole": {
        "type": "TALK_ROLE_NPC",
        "_id": "30601"
      },
      "talkContentTextMapHash": 3231042010,
      "talkAssetPath": "",
      "talkAssetPathAlter": "",
      "talkAudioName": "",
      "actionBefore": "",
      "actionWhile": "",
      "actionAfter": "",
      "optionIcon": "",
      "iconPath": ""
    },
    {
      "id": 711440435,
      "talkRole": {
        "type": "TALK_ROLE_NPC",
        "_id": "30601"
      },
      "talkContentTextMapHash": 1784607730,
      "talkAssetPath": "",
      "talkAssetPathAlter": "",
      "talkAudioName": "",
      "actionBefore": "",
      "actionWhile": "",
      "actionAfter": "",
      "optionIcon": "",
      "iconPath": ""
    },
    {
      "id": 711440436,
      "nextDialogs": [
        711440437
      ],
      "talkRole": {
        "type": "TALK_ROLE_PLAYER",
        "_id": ""
      },
      "talkContentTextMapHash": 1773647522,
      "talkAssetPath": "",
      "talkAssetPathAlter": "",
      "talkAudioName": "",
      "actionBefore": "",
      "actionWhile": "",
      "actionAfter": "",
      "optionIcon": "",
      "iconPath": ""
    },
    {
      "id": 711440437,
      "talkRole": {
        "type": "TALK_ROLE_NPC",
        "_id": "30601"
      },
      "talkContentTextMapHash": 183171282,
      "talkAssetPath": "",
      "talkAssetPathAlter": "",
      "talkAudioName": "",
      "actionBefore": "",
      "actionWhile": "",
      "actionAfter": "",
      "optionIcon": "",
      "iconPath": ""
    }
  ]
}