{
  "luaDataPath": "",
  "isSimpleTalk": true,
  "entityBan": "",
  "disableNpcLod": true,
  "startFade": {
    "startFadeOutDuration": 0.0
  },
  "endFade": {
    "startFadeOutDuration": 0.0
  },
  "actors": [
    {
      "alias": "Avatar",
      "visible": true,
      "bornPointName": "",
      "relativePosNpcAlias": "",
      "_bindMovingTargetKey": ""
    },
    {
      "configID": 3044,
      "alias": "3044",
      "visible": true,
      "bornPointName": "",
      "relativePosNpcAlias": "",
      "_bindMovingTargetKey": ""
    },
    {
      "configID": 1005,
      "alias": "1005",
      "visible": true,
      "bornPointName": "",
      "useRelativePos": true,
      "relativePos": {
        "x": 0.5,
        "z": 0.5
      },
      "removeActorType": "REMOVE_WITH_DISAPPEAR",
      "relativePosNpcAlias": "",
      "_bindMovingTargetKey": ""
    }
  ],
  "group": [
    [
      {
        "$type": "EFHODGEJOHJ",
        "type": "CAMERA_FOCUS",
        "duration": 0.10000000149011612,
        "targetNpcAlias": "",
        "PHGBNNGCJKJ": "",
        "NFILMKCFHEB": "",
        "BGPNGHDAECF": ""
      },
      {
        "$type": "MoleMole.Config.ConfigTimeProtectAction",
        "type": "TIME_PROTECT",
        "duration": 0.10000000149011612
      }
    ],
    [
      {
        "$type": "OBCDECFOOBC",
        "type": "DIALOG_SELECT",
        "delayTime": 0.4000000059604645,
        "aliasList": [
          "Avatar"
        ],
        "dialogIDList": [
          722110203
        ],
        "grpIDList": [
          3681580885
        ],
        "useGrpId": true
      },
      {
        "$type": "MJFAIFFAGOF",
        "type": "DIALOG",
        "aliasList": [
          "3044"
        ],
        "dialogID": 722110201,
        "protectTime": 0.5
      }
    ],
    [
      {
        "$type": "MJFAIFFAGOF",
        "type": "DIALOG",
        "aliasList": [
          "3044"
        ],
        "dialogID": 722110204,
        "protectTime": 0.5
      }
    ],
    [
      {
        "$type": "MJFAIFFAGOF",
        "type": "DIALOG",
        "aliasList": [
          "1005"
        ],
        "dialogID": 722110205,
        "protectTime": 0.5
      }
    ],
    [
      {
        "$type": "OBCDECFOOBC",
        "type": "DIALOG_SELECT",
        "delayTime": 0.4000000059604645,
        "aliasList": [
          "Avatar"
        ],
        "dialogIDList": [
          722110207
        ],
        "grpIDList": [
          3681580888
        ],
        "useGrpId": true
      },
      {
        "$type": "MJFAIFFAGOF",
        "type": "DIALOG",
        "aliasList": [
          "3044"
        ],
        "dialogID": 722110206,
        "protectTime": 0.5
      }
    ],
    [
      {
        "$type": "MJFAIFFAGOF",
        "type": "DIALOG",
        "aliasList": [
          "1005"
        ],
        "dialogID": 722110208,
        "protectTime": 0.5
      }
    ],
    [
      {
        "$type": "MoleMole.Config.ConfigBlackScreenAction",
        "type": "BLACK_SCREEN",
        "duration": 3.0,
        "durationToBlack": 0.5,
        "durationKeepBlack": 2.0,
        "durationFromBlack": 0.5,
        "inteePos": "",
        "textMapID": "QUEST_Message_Q7221102",
        "useTextFade": true
      },
      {
        "$type": "MJFAIFFAGOF",
        "type": "DIALOG_CLEAR",
        "duration": 3.0
      }
    ],
    [
      {
        "$type": "MJFAIFFAGOF",
        "type": "DIALOG",
        "aliasList": [
          "3044"
        ],
        "dialogID": 722110209,
        "protectTime": 0.5
      }
    ],
    [
      {
        "$type": "OBCDECFOOBC",
        "type": "DIALOG_SELECT",
        "delayTime": 0.4000000059604645,
        "aliasList": [
          "Avatar"
        ],
        "dialogIDList": [
          722110211,
          722110212
        ],
        "grpIDList": [
          2459857725,
          2459857725
        ],
        "useGrpId": true
      },
      {
        "$type": "MJFAIFFAGOF",
        "type": "DIALOG",
        "aliasList": [
          "3044"
        ],
        "dialogID": 722110210,
        "protectTime": 0.5
      }
    ],
    [
      {
        "$type": "OBCDECFOOBC",
        "type": "DIALOG_SELECT",
        "delayTime": 0.4000000059604645,
        "aliasList": [
          "Avatar"
        ],
        "dialogIDList": [
          722110214
        ],
        "grpIDList": [
          2459857726
        ],
        "useGrpId": true
      },
      {
        "$type": "MJFAIFFAGOF",
        "type": "DIALOG",
        "aliasList": [
          "3044"
        ],
        "dialogID": 722110213,
        "protectTime": 0.5
      }
    ],
    [
      {
        "$type": "MJFAIFFAGOF",
        "type": "DIALOG",
        "aliasList": [
          "3044"
        ],
        "dialogID": 722110215,
        "protectTime": 0.5
      }
    ],
    [
      {
        "$type": "MJFAIFFAGOF",
        "type": "DIALOG",
        "aliasList": [
          "3044"
        ],
        "dialogID": 722110216,
        "protectTime": 0.5
      }
    ],
    [
      {
        "$type": "MJFAIFFAGOF",
        "type": "DIALOG",
        "aliasList": [
          "1005"
        ],
        "dialogID": 722110217,
        "protectTime": 0.5
      }
    ],
    [
      {
        "$type": "OBCDECFOOBC",
        "type": "DIALOG_SELECT",
        "delayTime": 0.4000000059604645,
        "aliasList": [
          "Avatar"
        ],
        "dialogIDList": [
          722110219
        ],
        "grpIDList": [
          2459857730
        ],
        "useGrpId": true
      },
      {
        "$type": "MJFAIFFAGOF",
        "type": "DIALOG",
        "aliasList": [
          "3044"
        ],
        "dialogID": 722110218,
        "protectTime": 0.5
      }
    ],
    [
      {
        "$type": "MJFAIFFAGOF",
        "type": "DIALOG",
        "aliasList": [
          "3044"
        ],
        "dialogID": 722110220,
        "protectTime": 0.5
      }
    ],
    [
      {
        "$type": "MJFAIFFAGOF",
        "type": "DIALOG",
        "aliasList": [
          "3044"
        ],
        "dialogID": 722110221,
        "protectTime": 0.5
      }
    ],
    [
      {
        "$type": "OBCDECFOOBC",
        "type": "DIALOG_SELECT",
        "delayTime": 0.4000000059604645,
        "aliasList": [
          "Avatar"
        ],
        "dialogIDList": [
          722110223,
          722110224
        ],
        "grpIDList": [
          2459857733,
          2459857733
        ],
        "useGrpId": true
      },
      {
        "$type": "MJFAIFFAGOF",
        "type": "DIALOG",
        "aliasList": [
          "1005"
        ],
        "dialogID": 722110222,
        "protectTime": 0.5
      }
    ],
    [
      {
        "$type": "MJFAIFFAGOF",
        "type": "DIALOG",
        "aliasList": [
          "3044"
        ],
        "dialogID": 722110225,
        "protectTime": 0.5
      }
    ],
    [
      {
        "$type": "OBCDECFOOBC",
        "type": "DIALOG_SELECT",
        "delayTime": 0.4000000059604645,
        "aliasList": [
          "Avatar"
        ],
        "dialogIDList": [
          722110227,
          722110229
        ],
        "grpIDList": [
          2459857756,
          2459857757
        ],
        "useGrpId": true
      },
      {
        "$type": "MJFAIFFAGOF",
        "type": "DIALOG",
        "aliasList": [
          "3044"
        ],
        "dialogID": 722110226,
        "protectTime": 0.5
      }
    ],
    [
      {
        "$type": "MJFAIFFAGOF",
        "type": "DIALOG",
        "aliasList": [
          "3044"
        ],
        "dialogID": 722110228,
        "protectTime": 0.5
      }
    ],
    [
      {
        "$type": "MJFAIFFAGOF",
        "type": "DIALOG",
        "aliasList": [
          "3044"
        ],
        "dialogID": 722110230,
        "protectTime": 0.5
      }
    ],
    [
      {
        "$type": "MJFAIFFAGOF",
        "type": "DIALOG",
        "aliasList": [
          "3044"
        ],
        "dialogID": 722110231,
        "protectTime": 0.5
      }
    ],
    [
      {
        "$type": "MoleMole.Config.ConfigTimeProtectAction",
        "type": "TIME_PROTECT",
        "duration": 0.10000000149011612
      }
    ],
    [
      {
        "$type": "MoleMole.Config.ConfigTimeProtectAction",
        "type": "TIME_PROTECT",
        "duration": 0.10000000149011612
      }
    ]
  ],
  "groupId": [
    {
      "grpId": 3681580883,
      "nextGrpId": 3681580884
    },
    {
      "index": 1,
      "grpId": 3681580884,
      "nextGrpId": 3681580885
    },
    {
      "index": 2,
      "grpId": 3681580885,
      "nextGrpId": 3681580886
    },
    {
      "index": 3,
      "grpId": 3681580886,
      "nextGrpId": 3681580887
    },
    {
      "index": 4,
      "grpId": 3681580887,
      "nextGrpId": 3681580888
    },
    {
      "index": 5,
      "grpId": 3681580888,
      "nextGrpId": 3681580889
    },
    {
      "index": 6,
      "grpId": 3681580889,
      "nextGrpId": 3681580890
    },
    {
      "index": 7,
      "grpId": 3681580890,
      "nextGrpId": 3681580891
    },
    {
      "index": 8,
      "grpId": 3681580891,
      "nextGrpId": 2459857725
    },
    {
      "index": 9,
      "grpId": 2459857725,
      "nextGrpId": 2459857726
    },
    {
      "index": 10,
      "grpId": 2459857726,
      "nextGrpId": 2459857727
    },
    {
      "index": 11,
      "grpId": 2459857727,
      "nextGrpId": 2459857728
    },
    {
      "index": 12,
      "grpId": 2459857728,
      "nextGrpId": 2459857729
    },
    {
      "index": 13,
      "grpId": 2459857729,
      "nextGrpId": 2459857730
    },
    {
      "index": 14,
      "grpId": 2459857730,
      "nextGrpId": 2459857731
    },
    {
      "index": 15,
      "grpId": 2459857731,
      "nextGrpId": 2459857732
    },
    {
      "index": 16,
      "grpId": 2459857732,
      "nextGrpId": 2459857733
    },
    {
      "index": 17,
      "grpId": 2459857733,
      "nextGrpId": 2459857734
    },
    {
      "index": 18,
      "grpId": 2459857734,
      "nextGrpId": 2459857756
    },
    {
      "index": 19,
      "grpId": 2459857756,
      "nextGrpId": 2459857759
    },
    {
      "index": 20,
      "grpId": 2459857757,
      "nextGrpId": 2459857758
    },
    {
      "index": 21,
      "grpId": 2459857758,
      "nextGrpId": 2459857759
    },
    {
      "index": 22,
      "grpId": 2459857759,
      "nextGrpId": 2459857760
    },
    {
      "index": 23,
      "grpId": 2459857760,
      "nextGrpId": 2459857761
    }
  ],
  "freeStyleDic": {
    "3044": []
  }
}