{
  "luaDataPath": "",
  "isSimpleTalk": true,
  "entityBan": "",
  "disableNpcLod": true,
  "startFade": {
    "startFadeOutDuration": 0.0
  },
  "endFade": {
    "startFadeOutDuration": 0.0
  },
  "actors": [
    {
      "alias": "Avatar",
      "visible": true,
      "bornPointName": "",
      "relativePosNpcAlias": "",
      "_bindMovingTargetKey": ""
    },
    {
      "configID": 3044,
      "alias": "3044",
      "visible": true,
      "bornPointName": "",
      "relativePosNpcAlias": "",
      "_bindMovingTargetKey": ""
    },
    {
      "configID": 1005,
      "alias": "1005",
      "visible": true,
      "bornPointName": "",
      "useRelativePos": true,
      "relativePos": {
        "x": 0.5,
        "z": 0.5
      },
      "removeActorType": "REMOVE_WITH_DISAPPEAR",
      "relativePosNpcAlias": "",
      "_bindMovingTargetKey": ""
    }
  ],
  "group": [
    [
      {
        "$type": "EFHODGEJOHJ",
        "type": "CAMERA_FOCUS",
        "duration": 0.10000000149011612,
        "targetNpcAlias": "",
        "PHGBNNGCJKJ": "",
        "NFILMKCFHEB": "",
        "BGPNGHDAECF": ""
      },
      {
        "$type": "MoleMole.Config.ConfigTimeProtectAction",
        "type": "TIME_PROTECT",
        "duration": 0.10000000149011612
      }
    ],
    [
      {
        "$type": "MJFAIFFAGOF",
        "type": "DIALOG",
        "aliasList": [
          "3044"
        ],
        "dialogID": 722111101,
        "protectTime": 0.5
      }
    ],
    [
      {
        "$type": "OBCDECFOOBC",
        "type": "DIALOG_SELECT",
        "delayTime": 0.4000000059604645,
        "aliasList": [
          "Avatar"
        ],
        "dialogIDList": [
          722111103
        ],
        "grpIDList": [
          3681609716
        ],
        "useGrpId": true
      },
      {
        "$type": "MJFAIFFAGOF",
        "type": "DIALOG",
        "aliasList": [
          "3044"
        ],
        "dialogID": 722111102,
        "protectTime": 0.5
      }
    ],
    [
      {
        "$type": "MJFAIFFAGOF",
        "type": "DIALOG",
        "aliasList": [
          "3044"
        ],
        "dialogID": 722111104,
        "protectTime": 0.5
      }
    ],
    [
      {
        "$type": "MJFAIFFAGOF",
        "type": "DIALOG",
        "aliasList": [
          "1005"
        ],
        "dialogID": 722111105,
        "protectTime": 0.5
      }
    ],
    [
      {
        "$type": "OBCDECFOOBC",
        "type": "DIALOG_SELECT",
        "delayTime": 0.4000000059604645,
        "aliasList": [
          "Avatar"
        ],
        "dialogIDList": [
          722111107
        ],
        "grpIDList": [
          3681609719
        ],
        "useGrpId": true
      },
      {
        "$type": "MJFAIFFAGOF",
        "type": "DIALOG",
        "aliasList": [
          "3044"
        ],
        "dialogID": 722111106,
        "protectTime": 0.5
      }
    ],
    [
      {
        "$type": "MJFAIFFAGOF",
        "type": "DIALOG",
        "aliasList": [
          "1005"
        ],
        "dialogID": 722111108,
        "protectTime": 0.5
      }
    ],
    [
      {
        "$type": "MoleMole.Config.ConfigBlackScreenAction",
        "type": "BLACK_SCREEN",
        "duration": 3.0,
        "durationToBlack": 0.5,
        "durationKeepBlack": 2.0,
        "durationFromBlack": 0.5,
        "inteePos": "",
        "textMapID": "QUEST_Message_Q7221102",
        "useTextFade": true
      },
      {
        "$type": "MJFAIFFAGOF",
        "type": "DIALOG_CLEAR",
        "duration": 3.0
      }
    ],
    [
      {
        "$type": "MJFAIFFAGOF",
        "type": "DIALOG",
        "aliasList": [
          "3044"
        ],
        "dialogID": 722111109,
        "protectTime": 0.5
      }
    ],
    [
      {
        "$type": "OBCDECFOOBC",
        "type": "DIALOG_SELECT",
        "delayTime": 0.4000000059604645,
        "aliasList": [
          "Avatar"
        ],
        "dialogIDList": [
          722111111,
          722111112
        ],
        "grpIDList": [
          2460751456,
          2460751456
        ],
        "useGrpId": true
      },
      {
        "$type": "MJFAIFFAGOF",
        "type": "DIALOG",
        "aliasList": [
          "3044"
        ],
        "dialogID": 722111110,
        "protectTime": 0.5
      }
    ],
    [
      {
        "$type": "OBCDECFOOBC",
        "type": "DIALOG_SELECT",
        "delayTime": 0.4000000059604645,
        "aliasList": [
          "Avatar"
        ],
        "dialogIDList": [
          722111114
        ],
        "grpIDList": [
          2460751457
        ],
        "useGrpId": true
      },
      {
        "$type": "MJFAIFFAGOF",
        "type": "DIALOG",
        "aliasList": [
          "3044"
        ],
        "dialogID": 722111113,
        "protectTime": 0.5
      }
    ],
    [
      {
        "$type": "MJFAIFFAGOF",
        "type": "DIALOG",
        "aliasList": [
          "3044"
        ],
        "dialogID": 722111115,
        "protectTime": 0.5
      }
    ],
    [
      {
        "$type": "MJFAIFFAGOF",
        "type": "DIALOG",
        "aliasList": [
          "3044"
        ],
        "dialogID": 722111116,
        "protectTime": 0.5
      }
    ],
    [
      {
        "$type": "MJFAIFFAGOF",
        "type": "DIALOG",
        "aliasList": [
          "1005"
        ],
        "dialogID": 722111117,
        "protectTime": 0.5
      }
    ],
    [
      {
        "$type": "OBCDECFOOBC",
        "type": "DIALOG_SELECT",
        "delayTime": 0.4000000059604645,
        "aliasList": [
          "Avatar"
        ],
        "dialogIDList": [
          722111119
        ],
        "grpIDList": [
          2460751461
        ],
        "useGrpId": true
      },
      {
        "$type": "MJFAIFFAGOF",
        "type": "DIALOG",
        "aliasList": [
          "3044"
        ],
        "dialogID": 722111118,
        "protectTime": 0.5
      }
    ],
    [
      {
        "$type": "MJFAIFFAGOF",
        "type": "DIALOG",
        "aliasList": [
          "3044"
        ],
        "dialogID": 722111120,
        "protectTime": 0.5
      }
    ],
    [
      {
        "$type": "MJFAIFFAGOF",
        "type": "DIALOG",
        "aliasList": [
          "3044"
        ],
        "dialogID": 722111121,
        "protectTime": 0.5
      }
    ],
    [
      {
        "$type": "OBCDECFOOBC",
        "type": "DIALOG_SELECT",
        "delayTime": 0.4000000059604645,
        "aliasList": [
          "Avatar"
        ],
        "dialogIDList": [
          722111123,
          722111124
        ],
        "grpIDList": [
          2460751464,
          2460751464
        ],
        "useGrpId": true
      },
      {
        "$type": "MJFAIFFAGOF",
        "type": "DIALOG",
        "aliasList": [
          "1005"
        ],
        "dialogID": 722111122,
        "protectTime": 0.5
      }
    ],
    [
      {
        "$type": "MJFAIFFAGOF",
        "type": "DIALOG",
        "aliasList": [
          "3044"
        ],
        "dialogID": 722111125,
        "protectTime": 0.5
      }
    ],
    [
      {
        "$type": "OBCDECFOOBC",
        "type": "DIALOG_SELECT",
        "delayTime": 0.4000000059604645,
        "aliasList": [
          "Avatar"
        ],
        "dialogIDList": [
          722111127,
          722111129
        ],
        "grpIDList": [
          2460751487,
          2460751488
        ],
        "useGrpId": true
      },
      {
        "$type": "MJFAIFFAGOF",
        "type": "DIALOG",
        "aliasList": [
          "3044"
        ],
        "dialogID": 722111126,
        "protectTime": 0.5
      }
    ],
    [
      {
        "$type": "MJFAIFFAGOF",
        "type": "DIALOG",
        "aliasList": [
          "3044"
        ],
        "dialogID": 722111128,
        "protectTime": 0.5
      }
    ],
    [
      {
        "$type": "MJFAIFFAGOF",
        "type": "DIALOG",
        "aliasList": [
          "3044"
        ],
        "dialogID": 722111130,
        "protectTime": 0.5
      }
    ],
    [
      {
        "$type": "MJFAIFFAGOF",
        "type": "DIALOG",
        "aliasList": [
          "3044"
        ],
        "dialogID": 722111131,
        "protectTime": 0.5
      }
    ],
    [
      {
        "$type": "MoleMole.Config.ConfigTimeProtectAction",
        "type": "TIME_PROTECT",
        "duration": 0.10000000149011612
      }
    ],
    [
      {
        "$type": "MoleMole.Config.ConfigTimeProtectAction",
        "type": "TIME_PROTECT",
        "duration": 0.10000000149011612
      }
    ]
  ],
  "groupId": [
    {
      "grpId": 3681609713,
      "nextGrpId": 3681609714
    },
    {
      "index": 1,
      "grpId": 3681609714,
      "nextGrpId": 3681609715
    },
    {
      "index": 2,
      "grpId": 3681609715,
      "nextGrpId": 3681609716
    },
    {
      "index": 3,
      "grpId": 3681609716,
      "nextGrpId": 3681609717
    },
    {
      "index": 4,
      "grpId": 3681609717,
      "nextGrpId": 3681609718
    },
    {
      "index": 5,
      "grpId": 3681609718,
      "nextGrpId": 3681609719
    },
    {
      "index": 6,
      "grpId": 3681609719,
      "nextGrpId": 3681609720
    },
    {
      "index": 7,
      "grpId": 3681609720,
      "nextGrpId": 3681609721
    },
    {
      "index": 8,
      "grpId": 3681609721,
      "nextGrpId": 2460751455
    },
    {
      "index": 9,
      "grpId": 2460751455,
      "nextGrpId": 2460751456
    },
    {
      "index": 10,
      "grpId": 2460751456,
      "nextGrpId": 2460751457
    },
    {
      "index": 11,
      "grpId": 2460751457,
      "nextGrpId": 2460751458
    },
    {
      "index": 12,
      "grpId": 2460751458,
      "nextGrpId": 2460751459
    },
    {
      "index": 13,
      "grpId": 2460751459,
      "nextGrpId": 2460751460
    },
    {
      "index": 14,
      "grpId": 2460751460,
      "nextGrpId": 2460751461
    },
    {
      "index": 15,
      "grpId": 2460751461,
      "nextGrpId": 2460751462
    },
    {
      "index": 16,
      "grpId": 2460751462,
      "nextGrpId": 2460751463
    },
    {
      "index": 17,
      "grpId": 2460751463,
      "nextGrpId": 2460751464
    },
    {
      "index": 18,
      "grpId": 2460751464,
      "nextGrpId": 2460751486
    },
    {
      "index": 19,
      "grpId": 2460751486,
      "nextGrpId": 2460751487
    },
    {
      "index": 20,
      "grpId": 2460751487,
      "nextGrpId": 2460751490
    },
    {
      "index": 21,
      "grpId": 2460751488,
      "nextGrpId": 2460751489
    },
    {
      "index": 22,
      "grpId": 2460751489,
      "nextGrpId": 2460751490
    },
    {
      "index": 23,
      "grpId": 2460751490,
      "nextGrpId": 2460751491
    },
    {
      "index": 24,
      "grpId": 2460751491,
      "nextGrpId": 2460751492
    }
  ],
  "freeStyleDic": {
    "3044": []
  }
}